votes,id,rating,dob,name,age,heightcm,Action,Adult,Adventure,Animation,Biography,Comedy,Commercial,Crime,Documentary,Drama,Erotica,Experimental,Family,Fantasy,Film-Noir,Game-Show,Hardcore,History,Horror,Lifestyle,Music,Musical,Mystery,News,Reality-TV,Romance,Sci-Fi,Sex,Short,Sport,Talk-Show,Thriller,War,Western,gross,budget,salary,academy awards won,academy awards nominated,golden globes won,golden globes nominated,totalawards
10907.849059999999,2342794,6.524528302,16-Aug-75,Waititi Taika,41,185.0,3,0,2,0,1,8,0,0,3,4,0,0,1,2,0,0,0,1,2,0,0,1,0,0,0,3,1,0,5,0,0,2,0,0,0.0,213391186.1,0.0,0,0,0,0,0
54730.666670000006,1694484,7.15,17-Oct-73,Paris D.J.,43,175.0,1,0,1,0,0,1,0,0,0,2,0,0,0,0,0,0,0,0,0,0,0,0,0,0,0,1,1,0,1,0,0,0,0,0,0.0,202757502.0,0.0,0,0,0,0,0
71767.0,1666029,5.766666667000001,20-Mar-85,Orton Justin,31,180.0,1,0,1,0,0,1,0,0,0,3,0,0,1,0,0,0,0,0,0,0,0,0,1,0,0,2,0,0,2,0,0,1,0,0,0.0,167803222.8,0.0,0,0,0,0,0
15994.36735,944330,7.459183672999999,28-Nov-79,Henney Daniel,37,182.5,4,0,3,1,0,7,0,1,2,7,0,0,1,1,0,0,0,0,0,0,0,1,1,0,0,6,2,0,4,0,0,3,0,0,0.0,167539081.0,0.0,0,0,0,0,0
18382.836730000003,84839,8.096598639,22-Aug-71,Armitage Richard,45,185.0,3,0,6,0,2,1,0,3,6,14,0,0,1,5,0,0,0,1,1,0,0,1,2,0,0,1,2,0,6,1,0,3,0,0,48258509.73,165613824.5,0.0,0,0,0,0,0
15777.729169999999,2236632,8.121875,17-Jun-80,Tomovic Branko,36,182.5,2,0,2,0,0,4,0,4,4,26,0,0,0,2,0,0,0,3,6,0,2,0,3,0,0,2,2,0,28,0,0,14,3,0,0.0,165095204.9,0.0,0,0,0,0,0
10517.73387,417003,7.776612902999999,10-Jan-74,Clement Jemaine,42,182.5,4,0,6,4,0,22,0,1,4,2,0,0,5,5,0,0,0,0,3,0,2,3,1,0,0,4,3,0,8,0,1,0,0,0,3374947.789,159872632.5,0.0,0,0,0,0,0
47419.4,1594022,6.26,7-Nov-60,Neeley Michael,56,185.0,2,0,0,0,0,0,0,0,0,2,0,0,0,0,0,0,0,1,0,0,0,0,0,0,0,0,0,0,0,0,0,1,1,0,0.0,153310104.5,0.0,0,0,0,0,0
18006.69231,290483,5.934615385,21-Dec-38,Bryggman Larry,78,180.0,2,0,1,0,0,4,0,2,1,3,0,0,3,0,0,0,0,0,0,0,0,0,0,0,1,0,0,0,4,1,0,3,0,0,0.0,148788219.7,0.0,0,0,0,0,0
70005.93878,572123,7.93877551,5-Sep-84,DiSparrow Lukas,32,155.0,4,0,2,0,1,18,0,2,1,9,0,0,0,0,0,0,0,0,5,0,0,0,3,0,0,0,1,0,19,1,0,7,0,0,0.0,141888248.6,0.0,0,0,0,0,0
29914.0,254654,7.666666667,17-Jun-79,Braddock John David,37,187.5,1,0,0,0,1,0,0,0,0,1,0,0,0,0,0,0,0,1,1,0,0,1,0,0,0,1,2,0,2,0,0,1,0,0,0.0,139756484.9,0.0,0,0,0,0,0
10534.59167,1483134,8.084166667,5-Feb-73,Meunier David,43,184.0,3,0,2,0,0,1,0,2,1,4,0,0,1,2,0,0,0,0,1,0,0,0,0,0,0,0,0,0,3,0,0,2,0,0,0.0,137660344.6,0.0,0,0,0,0,0
30977.93056,474395,7.163888889,13-Jul-57,Crowe Cameron,59,180.0,1,0,0,0,1,2,0,0,13,2,0,0,1,0,0,0,0,2,0,0,3,0,1,0,2,0,1,0,4,0,0,1,0,0,485234.4858,136075597.6,0.0,0,0,0,0,0
25456.44444,2331594,6.822222222000001,12-Oct-55,Volpe Lou,61,175.0,3,0,1,0,1,2,0,2,0,6,0,0,0,0,0,0,0,0,1,0,1,1,0,0,0,0,0,0,1,0,0,1,0,0,0.0,136049990.4,0.0,0,0,0,0,0
12062.30275,434480,7.908256881000001,26-Aug-76,Colter Mike,40,187.5,3,0,2,0,0,1,0,1,0,4,0,0,1,1,0,0,0,1,0,0,0,0,1,0,0,0,3,0,0,1,0,1,1,0,0.0,136032071.7,0.0,0,0,0,0,0
59650.71585,2017445,7.244808742999999,20-Apr-64,Serkis Andy,52,170.0,26,0,29,7,2,17,0,6,50,30,0,0,7,18,0,0,0,1,3,0,4,0,6,0,3,6,10,0,53,0,0,14,0,0,199997699.0,132432929.2,0.0,0,0,0,1,20
15306.37778,252057,7.697777778,17-Mar-92,Boyega John,24,175.0,5,0,3,2,0,1,0,2,6,7,0,0,1,2,0,0,0,2,0,0,0,0,0,1,0,1,5,0,2,0,0,2,0,0,0.0,130976949.0,455663.5178,0,0,0,0,0
38519.43056,365478,7.515277778,5-May-83,Cavill Henry,33,182.5,14,0,10,0,0,1,0,0,13,4,0,0,1,7,0,0,0,1,2,0,0,1,0,1,1,2,9,0,12,0,0,2,1,0,147729442.1,127614012.3,1481840.052,0,0,0,0,0
47929.589739999996,409921,7.184615385,27-Jun-86,Claflin Sam,30,177.5,3,0,5,0,0,2,0,0,5,8,0,0,0,2,0,0,0,1,1,0,0,0,0,0,0,4,3,0,4,1,1,3,1,0,56154094.0,125563977.7,0.0,0,0,0,0,0
10708.70543,52510,6.620930232999999,25-Oct-65,Amalric Mathieu,51,165.0,5,0,4,1,4,30,0,7,19,54,0,0,1,4,0,0,0,2,1,0,2,1,5,2,0,14,2,0,19,0,1,7,3,0,1049697.6570000001,124143154.8,0.0,0,0,0,0,0
31467.529410000003,465172,6.864052288,2-Mar-68,Craig Daniel,48,175.0,18,0,16,4,6,9,0,7,48,28,0,0,4,5,0,0,0,4,0,0,4,0,7,0,0,8,5,0,36,2,2,21,6,1,107478081.8,121766139.1,7957362.04,0,0,0,0,0
12108.68085,1549182,7.614893617000001,27-Apr-87,Moseley William,29,175.0,8,0,9,0,1,4,0,0,6,9,0,0,5,4,0,0,0,2,1,0,0,0,0,0,0,4,2,0,11,0,0,3,1,0,0.0,118626870.3,0.0,0,0,0,0,0
76134.55462000001,658845,6.744537815,13-Jun-81,Evans Chris,35,180.0,29,0,20,1,1,10,0,4,14,13,0,0,4,3,0,0,0,1,0,0,3,0,2,1,1,5,25,0,22,1,0,10,0,0,150033464.2,116236357.7,3160423.597,0,0,0,0,0
33874.0625,2063288,7.5375,28-Mar-79,Singh Gugun Deep,37,180.0,3,0,2,0,0,3,0,2,0,4,0,0,0,2,0,0,0,0,0,0,0,0,0,0,0,0,1,0,5,0,0,0,0,0,0.0,115889570.2,0.0,0,0,0,0,0
132339.5,459901,5.983333332999999,24-Aug-86,Coupe David,30,167.5,3,0,1,0,1,2,0,1,0,2,0,0,0,1,0,0,0,1,5,0,0,0,0,0,0,2,1,0,4,0,0,1,0,0,0.0,114557267.0,0.0,0,0,0,0,0
19512.07692,917691,6.938461537999999,8-May-96,Hartigan Dylan,20,182.5,0,0,0,0,0,2,0,0,0,2,0,0,0,0,0,0,0,0,0,0,0,0,0,0,0,0,1,0,1,0,0,1,0,0,0.0,114346214.9,0.0,0,0,0,0,0
35177.11765,344781,6.3588235289999995,27-Sep-61,Carnevale Michael J.,55,167.5,4,0,1,0,0,5,0,2,0,2,0,0,0,0,0,0,0,0,1,0,0,0,2,0,0,0,2,0,2,0,0,3,0,3,0.0,113882216.9,0.0,0,0,0,0,0
30476.94382,959105,7.516853932999999,9-Feb-81,Hiddleston Tom,35,188.0,7,0,7,2,4,4,0,4,10,17,0,0,2,7,0,0,0,3,2,0,2,0,2,1,0,4,7,0,11,0,0,5,2,0,985183.0,112670248.2,0.0,0,0,0,0,0
51292.272110000005,221417,6.904081633,13-Jan-77,Bloom Orlando,39,177.5,14,0,17,0,3,10,0,3,49,13,0,0,5,12,0,1,0,5,0,0,4,0,0,1,1,5,0,0,33,0,2,3,2,1,16492707.65,111594821.3,8522048.624,0,0,0,0,0
6038.5,761580,7.9,19-Feb-80,Gandy David,36,187.5,1,0,1,0,0,2,0,1,0,1,0,0,0,0,0,0,0,0,0,0,0,0,1,0,0,2,0,0,3,0,0,1,0,0,0.0,111470810.9,0.0,0,0,0,0,0
6148.336449,371088,6.440186916,24-Nov-58,Chabat Alain,58,175.0,1,0,10,4,0,49,0,2,11,7,0,0,10,6,0,2,0,1,2,0,4,2,1,1,0,8,2,0,10,0,2,2,0,0,0.0,111062952.7,0.0,0,0,0,0,0
223514.3333,2150589,6.766666667000001,13-May-69,Stubbins John Michael,47,182.5,2,0,0,0,0,3,0,1,0,4,0,0,0,2,0,0,0,0,2,0,0,0,0,0,0,0,0,0,4,0,0,4,0,0,0.0,108793138.9,0.0,0,0,0,0,0
46906.72889,1040268,7.060888889,12-Oct-68,Jackman Hugh,48,190.0,28,0,23,6,4,14,0,4,64,15,0,0,16,13,0,0,0,2,2,0,13,7,4,3,3,7,28,0,33,2,2,17,0,1,141214431.3,107145611.3,8927678.041000001,0,1,1,1,125
23633.67105,2113136,7.3894736839999995,1-Jan-77,Spruell Sam,39,185.0,7,0,4,0,0,2,0,3,0,16,0,0,1,1,0,0,0,2,1,0,0,1,0,0,0,1,3,0,11,0,0,7,3,0,46917634.69,106563835.6,0.0,0,0,0,0,0
28517.35065,2432206,7.174025974,2-Aug-76,Worthington Sam,40,175.0,15,0,8,0,0,6,0,7,12,19,0,0,1,6,0,0,0,3,1,0,1,1,1,1,0,4,7,0,14,1,1,10,4,1,224727127.2,105219695.5,0.0,0,0,0,0,0
17425.097009999998,955071,7.041791045,15-May-63,Heslov Grant,53,172.5,5,0,3,0,0,10,0,0,4,3,0,0,0,1,0,0,0,0,0,0,0,0,1,0,0,0,2,0,9,0,0,4,0,0,0.0,104005155.1,0.0,0,0,0,0,0
427871.75,2462665,6.15,27-Dec-86,Zaideman Kevin,30,175.0,1,0,0,0,0,2,0,1,1,1,0,0,0,0,0,0,0,0,2,0,0,1,0,0,0,0,0,0,3,0,0,2,0,0,0.0,103484654.0,0.0,0,0,0,0,0
65665.37838,941451,7.0256756760000005,11-Aug-83,Hemsworth Chris,33,190.0,17,0,14,0,2,5,0,2,15,9,0,0,0,9,0,0,0,1,1,0,2,0,3,1,2,1,9,0,26,1,0,8,0,0,76022263.81,103380878.9,5144772.698,0,0,0,0,0
72523.25,1210970,8.475,11-Aug-84,Kucsulain Justin,32,190.0,3,0,3,0,0,1,0,0,1,1,0,0,2,0,0,0,0,0,1,0,0,0,0,0,0,0,2,0,5,0,0,1,0,0,0.0,103023459.3,0.0,0,0,0,0,0
57308.46154,2362114,7.049230768999999,21-Oct-59,Watanabe Ken,57,184.0,9,0,5,0,1,5,0,6,8,38,0,0,0,1,0,0,0,5,0,0,2,0,6,0,5,3,3,0,3,0,2,7,3,0,53670887.19,102859304.0,0.0,0,1,0,1,50
59517.259739999994,2118514,7.627272727,13-Aug-82,Stan Sebastian,34,183.0,10,0,10,0,0,7,0,0,4,14,0,0,0,1,0,0,0,0,2,0,1,0,1,1,0,3,13,0,9,0,0,3,1,0,14315043.47,102083837.1,0.0,0,0,0,0,0
13337.363640000001,1016239,6.809090909,1-Feb-95,Hyland Ian,21,182.5,0,0,0,0,0,3,0,1,0,7,0,0,0,0,0,0,0,0,1,0,0,0,0,0,0,2,0,0,2,0,0,0,0,0,0.0,101641079.9,0.0,0,0,0,0,0
92913.27777999999,1439036,7.283333333,4-Aug-82,McCluskey Taylor,34,185.0,3,0,2,0,0,4,0,0,0,3,0,0,0,0,0,0,0,0,0,0,0,0,1,0,0,2,2,0,1,0,0,3,0,0,0.0,100978141.4,0.0,0,0,0,0,0
30756.76,311239,7.228,1-Apr-97,Butterfield Asa,19,182.88,1,0,3,0,0,2,0,0,1,10,0,0,3,4,0,0,0,1,1,0,1,0,1,0,1,2,2,0,7,0,0,1,2,0,24603807.7,100153382.6,0.0,0,0,0,0,0
130367.5,1108425,7.55,25-Sep-86,Kalbfleisch Dan,30,180.0,0,0,0,0,0,1,0,1,1,1,0,0,0,0,0,0,0,0,0,0,0,0,0,0,0,0,0,0,0,1,0,1,0,0,0.0,98408104.2,0.0,0,0,0,0,0
369.9038462,744641,6.103846154,19-Feb-46,Fujioka Hiroshi,70,180.0,22,0,19,4,0,11,0,1,0,22,0,0,4,7,0,0,0,1,1,0,1,2,5,0,0,0,19,0,4,1,0,5,1,0,0.0,97560975.61,0.0,0,0,0,0,0
14466.48,1170428,7.593,8-Apr-81,Kitsch Taylor,35,181.0,7,0,3,1,5,1,0,3,5,9,0,0,1,1,0,0,0,3,1,0,1,0,0,0,0,1,3,0,17,1,1,9,1,0,72290129.53,96763567.69,0.0,0,0,0,0,0
23515.42424,2001326,7.566666667000001,21-Oct-76,Scott Andrew,40,170.0,1,0,1,0,4,5,0,1,7,22,0,0,1,1,0,0,0,3,1,0,1,0,1,0,0,2,1,0,7,0,1,4,1,0,0.0,96458098.73,0.0,0,0,0,0,0
16894.811319999997,241806,7.058490566000001,29-Nov-76,Boseman Chadwick,40,180.0,7,0,2,0,3,0,0,0,2,7,0,0,0,0,0,0,0,0,1,0,2,0,1,0,1,1,6,0,4,1,0,3,1,0,60558314.67,95787725.25,0.0,0,0,0,0,0
19138.5,1718435,7.071014493,14-Feb-70,Pegg Simon,46,175.0,16,0,12,5,3,51,0,1,48,7,0,0,4,5,0,5,0,2,5,0,5,0,2,2,0,6,10,0,31,2,2,12,1,0,10283574.57,94762954.49,0.0,0,0,0,0,0
5352.388693,1332962,7.109540636,5-Mar-74,Lucas Matt,42,165.0,1,0,5,4,2,49,0,3,32,5,0,0,7,7,0,1,0,0,2,0,16,3,0,0,0,3,5,0,9,0,3,2,0,0,0.0,94559571.64,0.0,0,0,0,0,0
8612.023809999999,434220,7.217857143,6-Nov-66,Colosimo Vince,50,182.5,2,0,0,0,1,6,0,9,0,22,0,0,1,0,0,0,0,0,1,0,1,0,4,1,0,2,2,0,2,0,1,6,1,0,0.0,93102018.8,0.0,0,0,0,0,0
50998.63291,993343,7.493670886,7-Dec-89,Hoult Nicholas,27,189.6,7,0,8,1,3,8,0,2,11,14,0,0,3,2,0,1,0,1,1,0,1,0,1,0,0,5,7,0,12,1,0,6,1,1,45172544.24,92230195.08,0.0,0,0,0,0,0
35589.118519999996,1363315,6.811851852,27-Jun-75,Maguire Tobey,41,170.0,13,0,14,2,5,17,0,3,31,18,0,0,10,4,0,0,0,3,1,0,5,0,2,0,0,10,6,0,28,4,1,8,5,1,229506092.3,92123473.09,15310192.01,0,0,0,1,20
61342.819670000004,1847950,6.996721311,7-Jan-71,Renner Jeremy,45,175.0,22,0,15,1,5,9,0,7,12,23,0,0,0,3,0,1,0,3,3,0,5,0,3,1,0,7,14,0,20,1,1,17,1,2,39425285.33,91549097.85,3454000.474,0,2,0,1,80
22446.693430000003,2353035,6.560583942,4-Oct-56,Waltz Christoph,60,167.5,10,0,7,0,8,13,0,19,8,34,0,0,2,3,0,0,0,1,1,0,0,1,2,3,0,11,4,0,1,1,3,15,2,1,173038.3212,91508709.18,0.0,2,0,2,1,370
19825.13966,141822,6.936871507999999,13-Oct-71,Baron Cohen Sacha,45,187.5,6,0,7,3,1,41,0,1,14,5,0,0,5,3,0,3,0,0,1,0,9,2,1,1,0,7,0,0,9,2,2,1,0,0,70319746.32,91404177.91,0.0,0,0,1,0,75
33370.83333,896143,7.218518519,28-Aug-86,Hammer Armie,30,192.5,7,0,5,2,4,5,0,2,9,8,0,0,2,2,0,0,0,1,1,0,0,0,1,0,0,1,2,0,11,0,1,3,0,2,0.0,91264127.47,0.0,0,0,0,0,0
67555.42857,579119,7.014285714,1-Jul-64,Dolan Buddy,52,175.0,1,0,0,0,0,0,0,1,0,3,0,0,0,0,0,0,0,0,1,0,0,0,1,0,0,0,0,0,0,1,0,3,0,0,0.0,90788884.29,0.0,0,0,0,0,0
12045.75789,81600,7.435263158,18-Jul-62,Arenberg Lee,54,160.0,10,0,11,0,0,13,0,2,9,9,0,0,2,3,0,0,0,1,3,0,0,0,2,0,1,2,7,0,7,1,0,2,1,0,0.0,90656809.83,0.0,0,0,0,0,0
32612.37374,1452819,7.2794612789999995,25-May-39,McKellen Ian,77,177.5,19,0,28,7,9,29,0,2,90,44,0,0,16,28,0,2,0,11,5,0,13,3,6,1,2,13,9,0,58,2,0,11,3,1,103654776.9,90351340.58,0.0,0,2,1,2,175
15770.9717,385892,7.187028302000001,29-Nov-64,Cheadle Don,52,170.0,18,0,10,1,9,16,0,10,38,25,0,0,10,2,0,0,0,7,0,0,11,0,1,4,2,4,11,0,29,7,3,14,4,0,8613794.711000001,90074617.18,628716.611,0,1,1,1,125
45283.777780000004,1816392,6.3555555560000005,26-May-73,Rakes Kwame,43,182.5,2,0,2,0,0,0,0,0,0,3,0,0,0,1,0,0,0,0,0,0,0,0,0,0,0,2,0,0,1,0,0,1,0,1,0.0,89375000.0,0.0,0,0,0,0,0
3421.785714,171196,8.422619048,13-Jan-85,Bell Brandon P,31,172.5,1,0,1,0,0,4,0,1,0,3,0,0,0,0,0,0,0,0,0,0,0,0,0,0,0,1,0,0,3,0,0,1,0,0,0.0,89286714.29,0.0,0,0,0,0,0
3645.1101320000002,14538,7.4154185020000005,14-Jan-64,Addy Mark,52,175.0,4,0,4,0,0,17,0,1,6,8,0,0,4,2,0,0,0,2,2,0,1,0,1,0,0,6,2,0,8,0,0,2,0,0,49102947.74,87515902.92,0.0,0,0,0,0,0
6219.4337350000005,1918244,7.720481928,23-Jan-62,Roxburgh Richard,54,175.0,9,0,10,2,4,7,0,6,13,28,0,0,2,2,0,0,0,2,4,0,1,2,7,0,0,9,2,0,6,1,0,6,0,0,12307855.31,86972426.44,0.0,0,0,0,0,0
41249.543860000005,1696087,7.468421052999999,2-Jan-68,Parke Evan,48,187.5,3,0,5,0,0,6,0,2,2,9,0,0,1,2,0,0,0,0,2,0,0,0,1,0,0,3,0,0,4,1,0,2,0,0,0.0,86907334.84,0.0,0,0,0,0,0
41911.842110000005,2386481,7.343421052999999,14-Oct-80,Whishaw Ben,36,175.0,5,0,4,1,6,7,0,2,9,26,0,0,3,6,0,0,0,5,0,0,3,1,1,0,0,5,6,0,15,0,2,4,0,0,1279485.475,86883140.91,0.0,0,0,0,0,0
46476.82787,1927558,7.054098361,6-Jul-51,Rush Geoffrey,65,177.5,10,0,10,6,11,29,0,3,23,27,0,0,6,10,0,0,0,6,1,0,3,3,4,3,1,12,1,0,26,1,3,4,2,2,38119993.13,86554339.99,0.0,1,3,2,3,400
27192.23158,2134464,7.681052632,25-May-64,Stevenson Ray,52,190.0,13,0,10,0,1,2,0,6,5,14,0,0,0,3,0,0,0,2,2,0,0,0,2,0,0,3,6,0,5,0,0,8,1,0,5751980.265,86156348.55,0.0,0,0,0,0,0
17295.23844,348210,6.564963504,17-Jan-62,Carrey Jim,54,185.0,3,0,7,10,8,69,0,4,74,19,0,0,33,20,0,1,0,2,2,0,22,2,3,2,5,9,3,0,31,2,1,5,0,0,148529548.1,85934242.91,18764681.5,0,0,2,4,230
22923.3625,1792879,6.950625,1-Jun-47,Pryce Jonathan,69,180.0,12,0,13,4,12,28,0,9,35,45,0,0,13,7,0,0,0,4,3,0,4,9,9,0,0,15,7,0,9,1,0,14,3,1,3930594.731,85449037.48,0.0,0,0,0,1,20
6503.8260869999995,146671,7.2826086960000005,20-Jun-81,Barsky Brett,35,160.0,2,0,2,1,0,5,0,3,0,6,0,0,0,0,0,0,0,0,0,0,0,0,0,0,0,0,0,0,1,0,0,2,0,0,0.0,84871486.76,0.0,0,0,0,0,0
12095.2975,1565774,6.629,3-Apr-61,Murphy Eddie,55,172.5,12,0,10,11,4,116,0,12,64,13,0,0,28,18,0,0,0,1,5,0,31,5,4,2,3,30,21,0,25,1,1,6,2,0,140156051.7,84863148.58,16985271.61,0,1,1,4,185
12014.99149,683057,7.12,22-Aug-58,Feore Colm,58,177.5,18,0,6,5,12,16,0,14,25,54,0,0,2,4,0,0,0,9,5,0,2,3,5,0,0,9,13,0,14,2,0,32,5,4,2603531.626,84201728.9,0.0,0,0,0,0,0
961.8346457,1306079,7.689370079,19-Sep-26,Lipton James,90,167.5,0,0,1,1,0,3,0,1,5,2,0,0,2,0,0,0,0,1,1,0,1,0,0,1,1,0,0,0,3,1,0,0,0,0,0.0,83660995.3,0.0,0,0,0,0,0
7886.75,433354,7.5,22-Jan-71,Collymore Stan,45,187.5,0,0,0,0,1,1,0,1,4,0,0,0,0,0,0,0,0,0,0,0,0,0,1,0,0,0,0,0,2,3,0,1,0,0,6965700.0,83333333.33,0.0,0,0,0,0,0
58153.8125,460454,7.421875,15-Mar-86,Courtney Jai,30,182.5,4,0,3,0,2,1,0,1,11,7,0,0,1,1,0,0,0,1,0,0,0,0,2,0,0,0,4,0,11,1,0,6,2,0,0.0,83322940.33,0.0,0,0,0,0,0
33892.32432,1838705,6.559459459,10-Feb-74,Reed Tanoai,42,187.5,6,0,1,0,0,0,0,1,1,1,0,0,0,0,0,0,0,0,1,0,0,0,0,0,0,0,3,0,3,1,0,2,0,0,0.0,82985054.01,0.0,0,0,0,0,0
6871.23913,1708507,7.0847826089999995,1-Mar-78,Patton Donovan,38,180.0,2,0,1,7,0,7,0,1,0,7,0,0,9,1,0,0,0,0,0,0,0,3,0,0,0,0,0,0,3,1,0,2,0,0,0.0,82469544.81,0.0,0,0,0,0,0
9818.796295999999,898811,7.159259259,1973,Hancock Martin,43,177.5,3,0,2,0,0,9,0,3,4,13,0,0,1,0,0,0,0,3,3,0,0,0,0,0,0,1,1,0,12,0,1,2,2,0,58244790.17,82408576.12,0.0,0,0,0,0,0
102780.0,510910,6.7,17-Jul-92,Davies Jonno,24,180.0,3,0,1,0,0,1,0,2,0,2,0,0,0,0,0,0,0,0,0,0,0,0,0,0,0,0,0,0,1,0,0,2,0,0,0.0,82019433.21,0.0,0,0,0,0,0
23744.524390000002,171672,7.629268292999999,14-Mar-86,Bell Jamie,30,167.5,12,0,10,2,3,5,0,3,15,14,0,0,4,1,0,0,0,2,1,0,3,0,3,0,1,6,5,0,10,0,0,7,3,0,18932576.58,81930545.92,0.0,0,0,0,0,0
157424.0,2409808,6.1,3-Jan-80,Willshire Kyle,36,182.5,0,0,1,0,0,2,0,1,0,0,0,0,1,0,0,0,0,0,0,0,0,0,1,0,0,1,0,0,1,0,0,0,0,0,0.0,81701228.88,0.0,0,0,0,0,0
44200.30357,674758,7.3419642860000005,2-Apr-77,Fassbender Michael,39,183.0,13,0,13,0,3,1,0,8,10,27,0,0,0,5,0,0,0,5,4,0,2,0,4,1,0,3,10,0,6,1,3,11,5,2,10459660.45,81396616.11,0.0,0,2,0,3,120
40757.19355,770250,7.203225806,20-Aug-83,Garfield Andrew,33,175.0,4,0,5,0,2,2,0,2,8,11,0,0,0,1,0,0,0,2,0,0,6,1,2,0,3,3,4,0,4,0,1,3,2,0,161207811.0,81016756.36,522661.742,0,0,0,1,20
179573.0,780682,6.6,23-Apr-85,Geckles Joshua,31,180.0,1,0,1,0,0,1,0,1,0,3,0,0,0,0,0,0,0,0,1,0,0,0,2,0,0,0,2,0,3,0,0,3,0,0,0.0,81009347.61,0.0,0,0,0,0,0
26011.82143,139974,7.117857142999999,20-Aug-81,Barnes Ben,35,182.5,5,0,5,1,0,3,0,1,2,8,0,0,5,6,0,0,0,0,0,0,3,0,0,0,0,3,0,0,10,0,1,3,0,0,157866623.3,80162394.2,0.0,0,0,0,0,0
102574.1818,499344,7.4590909089999995,2-Nov-65,Dane Michael,51,180.0,7,0,7,0,0,1,0,2,0,3,0,0,1,1,0,0,0,0,0,0,0,0,0,0,0,1,1,0,2,0,0,4,0,0,0.0,80152330.42,0.0,0,0,0,0,0
47902.28,1854920,6.261333333,28-Oct-57,Rhee Simon,59,172.5,26,0,3,0,0,7,0,6,3,8,0,0,0,1,0,0,0,1,3,0,0,0,0,0,0,0,0,0,5,0,0,14,2,0,0.0,80106117.55,0.0,0,0,0,0,0
88618.22627999999,2368023,7.016058394,4-Apr-60,Weaving Hugo,56,185.0,10,0,11,1,1,14,0,7,33,37,0,0,5,8,0,0,0,3,0,0,2,0,4,0,0,11,12,0,28,0,0,11,1,0,5155039.848,80056045.53,0.0,0,0,0,0,0
34429.46667,2245488,7.14,27-Jul-61,Townsend Paul,55,180.0,3,0,1,0,0,1,0,0,0,1,0,0,0,1,0,0,0,0,1,0,0,0,0,0,0,0,1,0,4,0,0,0,0,2,0.0,80027197.94,0.0,0,0,0,0,0
118569.3929,221184,7.3107142860000005,4-Oct-59,Blood Todd,57,187.5,5,0,2,0,2,2,0,2,0,7,0,0,2,0,0,0,0,0,0,0,2,0,0,0,0,1,2,0,7,0,0,5,1,0,0.0,79872678.5,0.0,0,0,0,0,0
19783.681819999998,1306904,6.65,6-Apr-98,List Spencer,18,180.0,1,0,1,0,0,3,0,1,1,5,0,0,1,0,0,0,0,0,3,0,3,0,1,0,2,0,0,0,2,0,0,4,0,0,0.0,79475759.53,0.0,0,0,0,0,0
21408.0,1501066,6.77,7-Oct-57,Mills Bob Jay,59,170.0,1,0,1,0,0,4,0,0,0,4,0,0,2,1,0,0,0,0,0,0,0,0,0,0,0,0,1,0,6,0,0,2,0,0,0.0,79419096.53,0.0,0,0,0,0,0
16594.5,281618,6.583333333,25-Jan-77,Brown Joshua David,39,182.5,1,0,0,0,0,2,0,0,0,1,0,0,0,0,0,0,0,0,0,0,0,0,0,0,0,1,0,0,2,3,0,0,0,0,0.0,79231692.68,0.0,0,0,0,0,0
6486.784314,1140228,6.888235293999999,29-Jun-77,Kemp Will,39,177.5,5,0,4,0,0,2,0,3,5,11,0,0,1,3,0,0,0,0,2,0,2,2,2,0,0,2,2,0,3,0,0,5,0,0,0.0,79153961.13,0.0,0,0,0,0,0
19948.84694,446094,7.197959184,2-Jun-78,Cooper Dominic,38,172.5,10,0,5,2,4,4,0,5,8,19,0,0,2,4,0,0,0,2,2,0,0,2,0,2,1,4,2,0,20,0,1,7,3,0,1447904.01,78613484.36,0.0,0,0,0,0,0
45213.0,1750427,6.916666667,28-Dec-88,Pierre Perri,28,185.0,1,0,1,0,0,2,0,0,0,3,0,0,1,1,0,0,0,0,0,0,0,0,0,0,0,2,1,0,2,0,0,0,0,0,0.0,78434206.96,0.0,0,0,0,0,0
1324.888342,929919,7.58817734,26-Jun-70,Hayes Sean,46,177.5,2,0,6,6,3,24,0,0,17,5,0,0,17,7,0,0,0,1,0,0,5,2,0,1,2,5,0,0,9,0,0,0,0,0,24656306.0,78408505.67,588957.0552,0,0,0,1,20
