votes,id,rating,dob,name,age,heightcm,Action,Adult,Adventure,Animation,Biography,Comedy,Commercial,Crime,Documentary,Drama,Erotica,Experimental,Family,Fantasy,Film-Noir,Game-Show,Hardcore,History,Horror,Lifestyle,Music,Musical,Mystery,News,Reality-TV,Romance,Sci-Fi,Sex,Short,Sport,Talk-Show,Thriller,War,Western,gross,budget,salary,academy awards won,academy awards nominated,golden globes won,golden globes nominated,totalawards
10907.849059999999,2342794,6.524528302,16-Aug-75,Waititi Taika,41,185.0,3,0,2,0,1,8,0,0,3,4,0,0,1,2,0,0,0,1,2,0,0,1,0,0,0,3,1,0,5,0,0,2,0,0,0.0,213391186.1,0.0,0,0,0,0,0
54730.666670000006,1694484,7.15,17-Oct-73,Paris D.J.,43,175.0,1,0,1,0,0,1,0,0,0,2,0,0,0,0,0,0,0,0,0,0,0,0,0,0,0,1,1,0,1,0,0,0,0,0,0.0,202757502.0,0.0,0,0,0,0,0
71767.0,1666029,5.766666667000001,20-Mar-85,Orton Justin,31,180.0,1,0,1,0,0,1,0,0,0,3,0,0,1,0,0,0,0,0,0,0,0,0,1,0,0,2,0,0,2,0,0,1,0,0,0.0,167803222.8,0.0,0,0,0,0,0
15994.36735,944330,7.459183672999999,28-Nov-79,Henney Daniel,37,182.5,4,0,3,1,0,7,0,1,2,7,0,0,1,1,0,0,0,0,0,0,0,1,1,0,0,6,2,0,4,0,0,3,0,0,0.0,167539081.0,0.0,0,0,0,0,0
18382.836730000003,84839,8.096598639,22-Aug-71,Armitage Richard,45,185.0,3,0,6,0,2,1,0,3,6,14,0,0,1,5,0,0,0,1,1,0,0,1,2,0,0,1,2,0,6,1,0,3,0,0,48258509.73,165613824.5,0.0,0,0,0,0,0
15777.729169999999,2236632,8.121875,17-Jun-80,Tomovic Branko,36,182.5,2,0,2,0,0,4,0,4,4,26,0,0,0,2,0,0,0,3,6,0,2,0,3,0,0,2,2,0,28,0,0,14,3,0,0.0,165095204.9,0.0,0,0,0,0,0
10517.73387,417003,7.776612902999999,10-Jan-74,Clement Jemaine,42,182.5,4,0,6,4,0,22,0,1,4,2,0,0,5,5,0,0,0,0,3,0,2,3,1,0,0,4,3,0,8,0,1,0,0,0,3374947.789,159872632.5,0.0,0,0,0,0,0
47419.4,1594022,6.26,7-Nov-60,Neeley Michael,56,185.0,2,0,0,0,0,0,0,0,0,2,0,0,0,0,0,0,0,1,0,0,0,0,0,0,0,0,0,0,0,0,0,1,1,0,0.0,153310104.5,0.0,0,0,0,0,0
18006.69231,290483,5.934615385,21-Dec-38,Bryggman Larry,78,180.0,2,0,1,0,0,4,0,2,1,3,0,0,3,0,0,0,0,0,0,0,0,0,0,0,1,0,0,0,4,1,0,3,0,0,0.0,148788219.7,0.0,0,0,0,0,0
70005.93878,572123,7.93877551,5-Sep-84,DiSparrow Lukas,32,155.0,4,0,2,0,1,18,0,2,1,9,0,0,0,0,0,0,0,0,5,0,0,0,3,0,0,0,1,0,19,1,0,7,0,0,0.0,141888248.6,0.0,0,0,0,0,0
29914.0,254654,7.666666667,17-Jun-79,Braddock John David,37,187.5,1,0,0,0,1,0,0,0,0,1,0,0,0,0,0,0,0,1,1,0,0,1,0,0,0,1,2,0,2,0,0,1,0,0,0.0,139756484.9,0.0,0,0,0,0,0
10534.59167,1483134,8.084166667,5-Feb-73,Meunier David,43,184.0,3,0,2,0,0,1,0,2,1,4,0,0,1,2,0,0,0,0,1,0,0,0,0,0,0,0,0,0,3,0,0,2,0,0,0.0,137660344.6,0.0,0,0,0,0,0
30977.93056,474395,7.163888889,13-Jul-57,Crowe Cameron,59,180.0,1,0,0,0,1,2,0,0,13,2,0,0,1,0,0,0,0,2,0,0,3,0,1,0,2,0,1,0,4,0,0,1,0,0,485234.4858,136075597.6,0.0,0,0,0,0,0
25456.44444,2331594,6.822222222000001,12-Oct-55,Volpe Lou,61,175.0,3,0,1,0,1,2,0,2,0,6,0,0,0,0,0,0,0,0,1,0,1,1,0,0,0,0,0,0,1,0,0,1,0,0,0.0,136049990.4,0.0,0,0,0,0,0
12062.30275,434480,7.908256881000001,26-Aug-76,Colter Mike,40,187.5,3,0,2,0,0,1,0,1,0,4,0,0,1,1,0,0,0,1,0,0,0,0,1,0,0,0,3,0,0,1,0,1,1,0,0.0,136032071.7,0.0,0,0,0,0,0
59650.71585,2017445,7.244808742999999,20-Apr-64,Serkis Andy,52,170.0,26,0,29,7,2,17,0,6,50,30,0,0,7,18,0,0,0,1,3,0,4,0,6,0,3,6,10,0,53,0,0,14,0,0,199997699.0,132432929.2,0.0,0,0,0,1,20
15306.37778,252057,7.697777778,17-Mar-92,Boyega John,24,175.0,5,0,3,2,0,1,0,2,6,7,0,0,1,2,0,0,0,2,0,0,0,0,0,1,0,1,5,0,2,0,0,2,0,0,0.0,130976949.0,455663.5178,0,0,0,0,0
38519.43056,365478,7.515277778,5-May-83,Cavill Henry,33,182.5,14,0,10,0,0,1,0,0,13,4,0,0,1,7,0,0,0,1,2,0,0,1,0,1,1,2,9,0,12,0,0,2,1,0,147729442.1,127614012.3,1481840.052,0,0,0,0,0
47929.589739999996,409921,7.184615385,27-Jun-86,Claflin Sam,30,177.5,3,0,5,0,0,2,0,0,5,8,0,0,0,2,0,0,0,1,1,0,0,0,0,0,0,4,3,0,4,1,1,3,1,0,56154094.0,125563977.7,0.0,0,0,0,0,0
10708.70543,52510,6.620930232999999,25-Oct-65,Amalric Mathieu,51,165.0,5,0,4,1,4,30,0,7,19,54,0,0,1,4,0,0,0,2,1,0,2,1,5,2,0,14,2,0,19,0,1,7,3,0,1049697.6570000001,124143154.8,0.0,0,0,0,0,0
31467.529410000003,465172,6.864052288,2-Mar-68,Craig Daniel,48,175.0,18,0,16,4,6,9,0,7,48,28,0,0,4,5,0,0,0,4,0,0,4,0,7,0,0,8,5,0,36,2,2,21,6,1,107478081.8,121766139.1,7957362.04,0,0,0,0,0
12108.68085,1549182,7.614893617000001,27-Apr-87,Moseley William,29,175.0,8,0,9,0,1,4,0,0,6,9,0,0,5,4,0,0,0,2,1,0,0,0,0,0,0,4,2,0,11,0,0,3,1,0,0.0,118626870.3,0.0,0,0,0,0,0
76134.55462000001,658845,6.744537815,13-Jun-81,Evans Chris,35,180.0,29,0,20,1,1,10,0,4,14,13,0,0,4,3,0,0,0,1,0,0,3,0,2,1,1,5,25,0,22,1,0,10,0,0,150033464.2,116236357.7,3160423.597,0,0,0,0,0
33874.0625,2063288,7.5375,28-Mar-79,Singh Gugun Deep,37,180.0,3,0,2,0,0,3,0,2,0,4,0,0,0,2,0,0,0,0,0,0,0,0,0,0,0,0,1,0,5,0,0,0,0,0,0.0,115889570.2,0.0,0,0,0,0,0
132339.5,459901,5.983333332999999,24-Aug-86,Coupe David,30,167.5,3,0,1,0,1,2,0,1,0,2,0,0,0,1,0,0,0,1,5,0,0,0,0,0,0,2,1,0,4,0,0,1,0,0,0.0,114557267.0,0.0,0,0,0,0,0
19512.07692,917691,6.938461537999999,8-May-96,Hartigan Dylan,20,182.5,0,0,0,0,0,2,0,0,0,2,0,0,0,0,0,0,0,0,0,0,0,0,0,0,0,0,1,0,1,0,0,1,0,0,0.0,114346214.9,0.0,0,0,0,0,0
35177.11765,344781,6.3588235289999995,27-Sep-61,Carnevale Michael J.,55,167.5,4,0,1,0,0,5,0,2,0,2,0,0,0,0,0,0,0,0,1,0,0,0,2,0,0,0,2,0,2,0,0,3,0,3,0.0,113882216.9,0.0,0,0,0,0,0
30476.94382,959105,7.516853932999999,9-Feb-81,Hiddleston Tom,35,188.0,7,0,7,2,4,4,0,4,10,17,0,0,2,7,0,0,0,3,2,0,2,0,2,1,0,4,7,0,11,0,0,5,2,0,985183.0,112670248.2,0.0,0,0,0,0,0
51292.272110000005,221417,6.904081633,13-Jan-77,Bloom Orlando,39,177.5,14,0,17,0,3,10,0,3,49,13,0,0,5,12,0,1,0,5,0,0,4,0,0,1,1,5,0,0,33,0,2,3,2,1,16492707.65,111594821.3,8522048.624,0,0,0,0,0
6038.5,761580,7.9,19-Feb-80,Gandy David,36,187.5,1,0,1,0,0,2,0,1,0,1,0,0,0,0,0,0,0,0,0,0,0,0,1,0,0,2,0,0,3,0,0,1,0,0,0.0,111470810.9,0.0,0,0,0,0,0
6148.336449,371088,6.440186916,24-Nov-58,Chabat Alain,58,175.0,1,0,10,4,0,49,0,2,11,7,0,0,10,6,0,2,0,1,2,0,4,2,1,1,0,8,2,0,10,0,2,2,0,0,0.0,111062952.7,0.0,0,0,0,0,0
223514.3333,2150589,6.766666667000001,13-May-69,Stubbins John Michael,47,182.5,2,0,0,0,0,3,0,1,0,4,0,0,0,2,0,0,0,0,2,0,0,0,0,0,0,0,0,0,4,0,0,4,0,0,0.0,108793138.9,0.0,0,0,0,0,0
46906.72889,1040268,7.060888889,12-Oct-68,Jackman Hugh,48,190.0,28,0,23,6,4,14,0,4,64,15,0,0,16,13,0,0,0,2,2,0,13,7,4,3,3,7,28,0,33,2,2,17,0,1,141214431.3,107145611.3,8927678.041000001,0,1,1,1,125
23633.67105,2113136,7.3894736839999995,1-Jan-77,Spruell Sam,39,185.0,7,0,4,0,0,2,0,3,0,16,0,0,1,1,0,0,0,2,1,0,0,1,0,0,0,1,3,0,11,0,0,7,3,0,46917634.69,106563835.6,0.0,0,0,0,0,0
28517.35065,2432206,7.174025974,2-Aug-76,Worthington Sam,40,175.0,15,0,8,0,0,6,0,7,12,19,0,0,1,6,0,0,0,3,1,0,1,1,1,1,0,4,7,0,14,1,1,10,4,1,224727127.2,105219695.5,0.0,0,0,0,0,0
17425.097009999998,955071,7.041791045,15-May-63,Heslov Grant,53,172.5,5,0,3,0,0,10,0,0,4,3,0,0,0,1,0,0,0,0,0,0,0,0,1,0,0,0,2,0,9,0,0,4,0,0,0.0,104005155.1,0.0,0,0,0,0,0
427871.75,2462665,6.15,27-Dec-86,Zaideman Kevin,30,175.0,1,0,0,0,0,2,0,1,1,1,0,0,0,0,0,0,0,0,2,0,0,1,0,0,0,0,0,0,3,0,0,2,0,0,0.0,103484654.0,0.0,0,0,0,0,0
65665.37838,941451,7.0256756760000005,11-Aug-83,Hemsworth Chris,33,190.0,17,0,14,0,2,5,0,2,15,9,0,0,0,9,0,0,0,1,1,0,2,0,3,1,2,1,9,0,26,1,0,8,0,0,76022263.81,103380878.9,5144772.698,0,0,0,0,0
72523.25,1210970,8.475,11-Aug-84,Kucsulain Justin,32,190.0,3,0,3,0,0,1,0,0,1,1,0,0,2,0,0,0,0,0,1,0,0,0,0,0,0,0,2,0,5,0,0,1,0,0,0.0,103023459.3,0.0,0,0,0,0,0
57308.46154,2362114,7.049230768999999,21-Oct-59,Watanabe Ken,57,184.0,9,0,5,0,1,5,0,6,8,38,0,0,0,1,0,0,0,5,0,0,2,0,6,0,5,3,3,0,3,0,2,7,3,0,53670887.19,102859304.0,0.0,0,1,0,1,50
59517.259739999994,2118514,7.627272727,13-Aug-82,Stan Sebastian,34,183.0,10,0,10,0,0,7,0,0,4,14,0,0,0,1,0,0,0,0,2,0,1,0,1,1,0,3,13,0,9,0,0,3,1,0,14315043.47,102083837.1,0.0,0,0,0,0,0
13337.363640000001,1016239,6.809090909,1-Feb-95,Hyland Ian,21,182.5,0,0,0,0,0,3,0,1,0,7,0,0,0,0,0,0,0,0,1,0,0,0,0,0,0,2,0,0,2,0,0,0,0,0,0.0,101641079.9,0.0,0,0,0,0,0
92913.27777999999,1439036,7.283333333,4-Aug-82,McCluskey Taylor,34,185.0,3,0,2,0,0,4,0,0,0,3,0,0,0,0,0,0,0,0,0,0,0,0,1,0,0,2,2,0,1,0,0,3,0,0,0.0,100978141.4,0.0,0,0,0,0,0
30756.76,311239,7.228,1-Apr-97,Butterfield Asa,19,182.88,1,0,3,0,0,2,0,0,1,10,0,0,3,4,0,0,0,1,1,0,1,0,1,0,1,2,2,0,7,0,0,1,2,0,24603807.7,100153382.6,0.0,0,0,0,0,0
130367.5,1108425,7.55,25-Sep-86,Kalbfleisch Dan,30,180.0,0,0,0,0,0,1,0,1,1,1,0,0,0,0,0,0,0,0,0,0,0,0,0,0,0,0,0,0,0,1,0,1,0,0,0.0,98408104.2,0.0,0,0,0,0,0
369.9038462,744641,6.103846154,19-Feb-46,Fujioka Hiroshi,70,180.0,22,0,19,4,0,11,0,1,0,22,0,0,4,7,0,0,0,1,1,0,1,2,5,0,0,0,19,0,4,1,0,5,1,0,0.0,97560975.61,0.0,0,0,0,0,0
14466.48,1170428,7.593,8-Apr-81,Kitsch Taylor,35,181.0,7,0,3,1,5,1,0,3,5,9,0,0,1,1,0,0,0,3,1,0,1,0,0,0,0,1,3,0,17,1,1,9,1,0,72290129.53,96763567.69,0.0,0,0,0,0,0
23515.42424,2001326,7.566666667000001,21-Oct-76,Scott Andrew,40,170.0,1,0,1,0,4,5,0,1,7,22,0,0,1,1,0,0,0,3,1,0,1,0,1,0,0,2,1,0,7,0,1,4,1,0,0.0,96458098.73,0.0,0,0,0,0,0
16894.811319999997,241806,7.058490566000001,29-Nov-76,Boseman Chadwick,40,180.0,7,0,2,0,3,0,0,0,2,7,0,0,0,0,0,0,0,0,1,0,2,0,1,0,1,1,6,0,4,1,0,3,1,0,60558314.67,95787725.25,0.0,0,0,0,0,0
19138.5,1718435,7.071014493,14-Feb-70,Pegg Simon,46,175.0,16,0,12,5,3,51,0,1,48,7,0,0,4,5,0,5,0,2,5,0,5,0,2,2,0,6,10,0,31,2,2,12,1,0,10283574.57,94762954.49,0.0,0,0,0,0,0
5352.388693,1332962,7.109540636,5-Mar-74,Lucas Matt,42,165.0,1,0,5,4,2,49,0,3,32,5,0,0,7,7,0,1,0,0,2,0,16,3,0,0,0,3,5,0,9,0,3,2,0,0,0.0,94559571.64,0.0,0,0,0,0,0
8612.023809999999,434220,7.217857143,6-Nov-66,Colosimo Vince,50,182.5,2,0,0,0,1,6,0,9,0,22,0,0,1,0,0,0,0,0,1,0,1,0,4,1,0,2,2,0,2,0,1,6,1,0,0.0,93102018.8,0.0,0,0,0,0,0
50998.63291,993343,7.493670886,7-Dec-89,Hoult Nicholas,27,189.6,7,0,8,1,3,8,0,2,11,14,0,0,3,2,0,1,0,1,1,0,1,0,1,0,0,5,7,0,12,1,0,6,1,1,45172544.24,92230195.08,0.0,0,0,0,0,0
35589.118519999996,1363315,6.811851852,27-Jun-75,Maguire Tobey,41,170.0,13,0,14,2,5,17,0,3,31,18,0,0,10,4,0,0,0,3,1,0,5,0,2,0,0,10,6,0,28,4,1,8,5,1,229506092.3,92123473.09,15310192.01,0,0,0,1,20
61342.819670000004,1847950,6.996721311,7-Jan-71,Renner Jeremy,45,175.0,22,0,15,1,5,9,0,7,12,23,0,0,0,3,0,1,0,3,3,0,5,0,3,1,0,7,14,0,20,1,1,17,1,2,39425285.33,91549097.85,3454000.474,0,2,0,1,80
22446.693430000003,2353035,6.560583942,4-Oct-56,Waltz Christoph,60,167.5,10,0,7,0,8,13,0,19,8,34,0,0,2,3,0,0,0,1,1,0,0,1,2,3,0,11,4,0,1,1,3,15,2,1,173038.3212,91508709.18,0.0,2,0,2,1,370
19825.13966,141822,6.936871507999999,13-Oct-71,Baron Cohen Sacha,45,187.5,6,0,7,3,1,41,0,1,14,5,0,0,5,3,0,3,0,0,1,0,9,2,1,1,0,7,0,0,9,2,2,1,0,0,70319746.32,91404177.91,0.0,0,0,1,0,75
33370.83333,896143,7.218518519,28-Aug-86,Hammer Armie,30,192.5,7,0,5,2,4,5,0,2,9,8,0,0,2,2,0,0,0,1,1,0,0,0,1,0,0,1,2,0,11,0,1,3,0,2,0.0,91264127.47,0.0,0,0,0,0,0
67555.42857,579119,7.014285714,1-Jul-64,Dolan Buddy,52,175.0,1,0,0,0,0,0,0,1,0,3,0,0,0,0,0,0,0,0,1,0,0,0,1,0,0,0,0,0,0,1,0,3,0,0,0.0,90788884.29,0.0,0,0,0,0,0
12045.75789,81600,7.435263158,18-Jul-62,Arenberg Lee,54,160.0,10,0,11,0,0,13,0,2,9,9,0,0,2,3,0,0,0,1,3,0,0,0,2,0,1,2,7,0,7,1,0,2,1,0,0.0,90656809.83,0.0,0,0,0,0,0
32612.37374,1452819,7.2794612789999995,25-May-39,McKellen Ian,77,177.5,19,0,28,7,9,29,0,2,90,44,0,0,16,28,0,2,0,11,5,0,13,3,6,1,2,13,9,0,58,2,0,11,3,1,103654776.9,90351340.58,0.0,0,2,1,2,175
15770.9717,385892,7.187028302000001,29-Nov-64,Cheadle Don,52,170.0,18,0,10,1,9,16,0,10,38,25,0,0,10,2,0,0,0,7,0,0,11,0,1,4,2,4,11,0,29,7,3,14,4,0,8613794.711000001,90074617.18,628716.611,0,1,1,1,125
45283.777780000004,1816392,6.3555555560000005,26-May-73,Rakes Kwame,43,182.5,2,0,2,0,0,0,0,0,0,3,0,0,0,1,0,0,0,0,0,0,0,0,0,0,0,2,0,0,1,0,0,1,0,1,0.0,89375000.0,0.0,0,0,0,0,0
3421.785714,171196,8.422619048,13-Jan-85,Bell Brandon P,31,172.5,1,0,1,0,0,4,0,1,0,3,0,0,0,0,0,0,0,0,0,0,0,0,0,0,0,1,0,0,3,0,0,1,0,0,0.0,89286714.29,0.0,0,0,0,0,0
3645.1101320000002,14538,7.4154185020000005,14-Jan-64,Addy Mark,52,175.0,4,0,4,0,0,17,0,1,6,8,0,0,4,2,0,0,0,2,2,0,1,0,1,0,0,6,2,0,8,0,0,2,0,0,49102947.74,87515902.92,0.0,0,0,0,0,0
6219.4337350000005,1918244,7.720481928,23-Jan-62,Roxburgh Richard,54,175.0,9,0,10,2,4,7,0,6,13,28,0,0,2,2,0,0,0,2,4,0,1,2,7,0,0,9,2,0,6,1,0,6,0,0,12307855.31,86972426.44,0.0,0,0,0,0,0
41249.543860000005,1696087,7.468421052999999,2-Jan-68,Parke Evan,48,187.5,3,0,5,0,0,6,0,2,2,9,0,0,1,2,0,0,0,0,2,0,0,0,1,0,0,3,0,0,4,1,0,2,0,0,0.0,86907334.84,0.0,0,0,0,0,0
41911.842110000005,2386481,7.343421052999999,14-Oct-80,Whishaw Ben,36,175.0,5,0,4,1,6,7,0,2,9,26,0,0,3,6,0,0,0,5,0,0,3,1,1,0,0,5,6,0,15,0,2,4,0,0,1279485.475,86883140.91,0.0,0,0,0,0,0
46476.82787,1927558,7.054098361,6-Jul-51,Rush Geoffrey,65,177.5,10,0,10,6,11,29,0,3,23,27,0,0,6,10,0,0,0,6,1,0,3,3,4,3,1,12,1,0,26,1,3,4,2,2,38119993.13,86554339.99,0.0,1,3,2,3,400
27192.23158,2134464,7.681052632,25-May-64,Stevenson Ray,52,190.0,13,0,10,0,1,2,0,6,5,14,0,0,0,3,0,0,0,2,2,0,0,0,2,0,0,3,6,0,5,0,0,8,1,0,5751980.265,86156348.55,0.0,0,0,0,0,0
17295.23844,348210,6.564963504,17-Jan-62,Carrey Jim,54,185.0,3,0,7,10,8,69,0,4,74,19,0,0,33,20,0,1,0,2,2,0,22,2,3,2,5,9,3,0,31,2,1,5,0,0,148529548.1,85934242.91,18764681.5,0,0,2,4,230
22923.3625,1792879,6.950625,1-Jun-47,Pryce Jonathan,69,180.0,12,0,13,4,12,28,0,9,35,45,0,0,13,7,0,0,0,4,3,0,4,9,9,0,0,15,7,0,9,1,0,14,3,1,3930594.731,85449037.48,0.0,0,0,0,1,20
6503.8260869999995,146671,7.2826086960000005,20-Jun-81,Barsky Brett,35,160.0,2,0,2,1,0,5,0,3,0,6,0,0,0,0,0,0,0,0,0,0,0,0,0,0,0,0,0,0,1,0,0,2,0,0,0.0,84871486.76,0.0,0,0,0,0,0
12095.2975,1565774,6.629,3-Apr-61,Murphy Eddie,55,172.5,12,0,10,11,4,116,0,12,64,13,0,0,28,18,0,0,0,1,5,0,31,5,4,2,3,30,21,0,25,1,1,6,2,0,140156051.7,84863148.58,16985271.61,0,1,1,4,185
12014.99149,683057,7.12,22-Aug-58,Feore Colm,58,177.5,18,0,6,5,12,16,0,14,25,54,0,0,2,4,0,0,0,9,5,0,2,3,5,0,0,9,13,0,14,2,0,32,5,4,2603531.626,84201728.9,0.0,0,0,0,0,0
961.8346457,1306079,7.689370079,19-Sep-26,Lipton James,90,167.5,0,0,1,1,0,3,0,1,5,2,0,0,2,0,0,0,0,1,1,0,1,0,0,1,1,0,0,0,3,1,0,0,0,0,0.0,83660995.3,0.0,0,0,0,0,0
7886.75,433354,7.5,22-Jan-71,Collymore Stan,45,187.5,0,0,0,0,1,1,0,1,4,0,0,0,0,0,0,0,0,0,0,0,0,0,1,0,0,0,0,0,2,3,0,1,0,0,6965700.0,83333333.33,0.0,0,0,0,0,0
58153.8125,460454,7.421875,15-Mar-86,Courtney Jai,30,182.5,4,0,3,0,2,1,0,1,11,7,0,0,1,1,0,0,0,1,0,0,0,0,2,0,0,0,4,0,11,1,0,6,2,0,0.0,83322940.33,0.0,0,0,0,0,0
33892.32432,1838705,6.559459459,10-Feb-74,Reed Tanoai,42,187.5,6,0,1,0,0,0,0,1,1,1,0,0,0,0,0,0,0,0,1,0,0,0,0,0,0,0,3,0,3,1,0,2,0,0,0.0,82985054.01,0.0,0,0,0,0,0
6871.23913,1708507,7.0847826089999995,1-Mar-78,Patton Donovan,38,180.0,2,0,1,7,0,7,0,1,0,7,0,0,9,1,0,0,0,0,0,0,0,3,0,0,0,0,0,0,3,1,0,2,0,0,0.0,82469544.81,0.0,0,0,0,0,0
9818.796295999999,898811,7.159259259,1973,Hancock Martin,43,177.5,3,0,2,0,0,9,0,3,4,13,0,0,1,0,0,0,0,3,3,0,0,0,0,0,0,1,1,0,12,0,1,2,2,0,58244790.17,82408576.12,0.0,0,0,0,0,0
102780.0,510910,6.7,17-Jul-92,Davies Jonno,24,180.0,3,0,1,0,0,1,0,2,0,2,0,0,0,0,0,0,0,0,0,0,0,0,0,0,0,0,0,0,1,0,0,2,0,0,0.0,82019433.21,0.0,0,0,0,0,0
23744.524390000002,171672,7.629268292999999,14-Mar-86,Bell Jamie,30,167.5,12,0,10,2,3,5,0,3,15,14,0,0,4,1,0,0,0,2,1,0,3,0,3,0,1,6,5,0,10,0,0,7,3,0,18932576.58,81930545.92,0.0,0,0,0,0,0
157424.0,2409808,6.1,3-Jan-80,Willshire Kyle,36,182.5,0,0,1,0,0,2,0,1,0,0,0,0,1,0,0,0,0,0,0,0,0,0,1,0,0,1,0,0,1,0,0,0,0,0,0.0,81701228.88,0.0,0,0,0,0,0
44200.30357,674758,7.3419642860000005,2-Apr-77,Fassbender Michael,39,183.0,13,0,13,0,3,1,0,8,10,27,0,0,0,5,0,0,0,5,4,0,2,0,4,1,0,3,10,0,6,1,3,11,5,2,10459660.45,81396616.11,0.0,0,2,0,3,120
40757.19355,770250,7.203225806,20-Aug-83,Garfield Andrew,33,175.0,4,0,5,0,2,2,0,2,8,11,0,0,0,1,0,0,0,2,0,0,6,1,2,0,3,3,4,0,4,0,1,3,2,0,161207811.0,81016756.36,522661.742,0,0,0,1,20
179573.0,780682,6.6,23-Apr-85,Geckles Joshua,31,180.0,1,0,1,0,0,1,0,1,0,3,0,0,0,0,0,0,0,0,1,0,0,0,2,0,0,0,2,0,3,0,0,3,0,0,0.0,81009347.61,0.0,0,0,0,0,0
26011.82143,139974,7.117857142999999,20-Aug-81,Barnes Ben,35,182.5,5,0,5,1,0,3,0,1,2,8,0,0,5,6,0,0,0,0,0,0,3,0,0,0,0,3,0,0,10,0,1,3,0,0,157866623.3,80162394.2,0.0,0,0,0,0,0
102574.1818,499344,7.4590909089999995,2-Nov-65,Dane Michael,51,180.0,7,0,7,0,0,1,0,2,0,3,0,0,1,1,0,0,0,0,0,0,0,0,0,0,0,1,1,0,2,0,0,4,0,0,0.0,80152330.42,0.0,0,0,0,0,0
47902.28,1854920,6.261333333,28-Oct-57,Rhee Simon,59,172.5,26,0,3,0,0,7,0,6,3,8,0,0,0,1,0,0,0,1,3,0,0,0,0,0,0,0,0,0,5,0,0,14,2,0,0.0,80106117.55,0.0,0,0,0,0,0
88618.22627999999,2368023,7.016058394,4-Apr-60,Weaving Hugo,56,185.0,10,0,11,1,1,14,0,7,33,37,0,0,5,8,0,0,0,3,0,0,2,0,4,0,0,11,12,0,28,0,0,11,1,0,5155039.848,80056045.53,0.0,0,0,0,0,0
34429.46667,2245488,7.14,27-Jul-61,Townsend Paul,55,180.0,3,0,1,0,0,1,0,0,0,1,0,0,0,1,0,0,0,0,1,0,0,0,0,0,0,0,1,0,4,0,0,0,0,2,0.0,80027197.94,0.0,0,0,0,0,0
118569.3929,221184,7.3107142860000005,4-Oct-59,Blood Todd,57,187.5,5,0,2,0,2,2,0,2,0,7,0,0,2,0,0,0,0,0,0,0,2,0,0,0,0,1,2,0,7,0,0,5,1,0,0.0,79872678.5,0.0,0,0,0,0,0
19783.681819999998,1306904,6.65,6-Apr-98,List Spencer,18,180.0,1,0,1,0,0,3,0,1,1,5,0,0,1,0,0,0,0,0,3,0,3,0,1,0,2,0,0,0,2,0,0,4,0,0,0.0,79475759.53,0.0,0,0,0,0,0
21408.0,1501066,6.77,7-Oct-57,Mills Bob Jay,59,170.0,1,0,1,0,0,4,0,0,0,4,0,0,2,1,0,0,0,0,0,0,0,0,0,0,0,0,1,0,6,0,0,2,0,0,0.0,79419096.53,0.0,0,0,0,0,0
16594.5,281618,6.583333333,25-Jan-77,Brown Joshua David,39,182.5,1,0,0,0,0,2,0,0,0,1,0,0,0,0,0,0,0,0,0,0,0,0,0,0,0,1,0,0,2,3,0,0,0,0,0.0,79231692.68,0.0,0,0,0,0,0
6486.784314,1140228,6.888235293999999,29-Jun-77,Kemp Will,39,177.5,5,0,4,0,0,2,0,3,5,11,0,0,1,3,0,0,0,0,2,0,2,2,2,0,0,2,2,0,3,0,0,5,0,0,0.0,79153961.13,0.0,0,0,0,0,0
19948.84694,446094,7.197959184,2-Jun-78,Cooper Dominic,38,172.5,10,0,5,2,4,4,0,5,8,19,0,0,2,4,0,0,0,2,2,0,0,2,0,2,1,4,2,0,20,0,1,7,3,0,1447904.01,78613484.36,0.0,0,0,0,0,0
45213.0,1750427,6.916666667,28-Dec-88,Pierre Perri,28,185.0,1,0,1,0,0,2,0,0,0,3,0,0,1,1,0,0,0,0,0,0,0,0,0,0,0,2,1,0,2,0,0,0,0,0,0.0,78434206.96,0.0,0,0,0,0,0
1324.888342,929919,7.58817734,26-Jun-70,Hayes Sean,46,177.5,2,0,6,6,3,24,0,0,17,5,0,0,17,7,0,0,0,1,0,0,5,2,0,1,2,5,0,0,9,0,0,0,0,0,24656306.0,78408505.67,588957.0552,0,0,0,1,20
16485.525859999998,734957,7.449137931,8-Sep-71,Freeman Martin,45,165.0,4,0,5,3,4,31,0,2,26,21,0,0,5,7,0,1,0,2,0,0,5,0,3,0,1,6,2,0,22,0,0,2,1,0,270226.1905,78403106.78,0.0,0,0,0,0,0
100967.9474,1042750,7.190526316000001,31-Oct-61,Jackson Peter,55,165.0,1,0,6,0,5,9,0,1,90,6,0,0,2,8,0,0,0,0,4,0,2,0,1,2,0,0,2,0,65,0,1,2,0,0,0.0,78202658.33,19064619.35,0,0,0,0,0
29234.8324,1612837,7.183798883,12-Dec-49,Nighy Bill,67,185.0,19,0,20,12,3,35,0,8,31,38,0,0,18,17,0,0,0,3,3,0,4,1,12,0,0,20,13,0,29,0,0,16,3,1,97900387.31,78099022.85,0.0,0,0,1,1,95
25349.11404,1848166,6.212280702,30-Jul-48,Reno Jean,68,185.0,17,0,13,2,0,29,0,16,12,24,0,0,7,6,0,0,0,4,1,0,3,0,7,0,0,9,7,0,17,2,0,16,3,0,6378590.476,77472310.61,0.0,0,0,0,0,0
9666.52,1461399,7.414333332999999,29-Sep-42,McShane Ian,74,167.5,18,0,16,4,2,14,0,22,17,43,0,0,8,9,0,0,0,2,4,0,5,1,11,0,1,9,3,0,13,2,1,20,2,0,39237057.22,77417801.79,0.0,0,0,1,1,95
14740.367230000002,2088005,6.807532957,25-Sep-68,Smith Will,48,185.0,15,0,7,3,12,29,0,6,74,16,0,0,27,6,0,0,0,1,1,0,53,0,5,7,11,4,11,0,32,6,4,6,0,1,168142383.1,77337355.74,14693957.66,0,2,0,5,160
85584.64286,1465551,7.6857142860000005,24-Dec-74,Meehan Sean,42,177.5,1,0,0,0,1,1,0,0,0,4,0,0,0,0,0,0,0,1,0,0,0,0,0,0,0,1,1,0,4,0,0,2,0,0,0.0,77179719.69,0.0,0,0,0,0,0
14256.76829,811082,7.075609756,14-Oct-62,Goddard Trevor,54,182.5,8,0,2,0,0,5,0,2,1,9,0,0,0,1,0,0,0,0,3,0,0,0,1,0,0,2,4,0,1,1,0,9,0,0,0.0,76890998.38,0.0,0,0,0,0,0
684.0,1876495,6.2741935479999995,14-May-10,Rober Richard,106,182.5,4,0,1,0,0,5,0,12,0,14,0,0,0,0,9,0,0,0,0,0,1,3,3,0,0,9,0,0,3,2,0,8,1,5,0.0,76868327.4,0.0,0,0,0,0,0
6104.782609000001,1051110,8.133043478,7-Aug-96,James Liam,20,167.5,2,0,2,0,0,2,0,0,2,4,0,0,1,0,0,0,0,0,0,0,0,0,0,0,0,0,1,0,1,0,0,0,0,0,0.0,76777040.61,0.0,0,0,0,0,0
40125.09639,129254,6.878313253,9-Aug-68,Bana Eric,48,189.0,11,0,3,2,5,9,0,2,31,19,0,0,0,3,0,0,0,6,1,0,1,0,2,1,0,3,3,0,31,2,2,6,2,0,43344889.26,76597492.37,0.0,0,0,0,0,0
12472.842859999999,856984,7.99,26-Mar-85,Groff Jonathan,31,177.5,0,0,2,4,1,5,0,0,10,7,0,0,3,2,0,0,0,2,0,0,2,5,1,1,0,1,0,0,4,0,0,1,0,0,56972.91775,76167432.75,0.0,0,0,0,0,0
27636.56075,264649,6.959813083999999,23-Jan-72,Bremner Ewen,44,173.0,7,0,6,0,1,18,0,3,5,32,0,0,2,5,0,0,0,2,2,0,2,1,2,0,0,6,5,0,15,0,0,10,2,0,115571.6687,75919089.94,0.0,0,0,0,0,0
55412.9,2347807,7.64,16-Nov-70,Wall Todd,46,175.0,0,0,0,0,1,4,0,0,0,3,0,0,0,1,0,0,0,0,0,0,0,0,1,0,0,1,0,0,1,0,0,1,0,0,0.0,75645564.2,0.0,0,0,0,0,0
23289.26042,1753921,7.084375,26-Aug-80,Pine Chris,36,180.0,10,0,9,2,2,13,0,3,35,12,0,0,5,4,0,0,0,1,1,0,4,0,0,0,0,4,10,0,39,0,3,8,2,0,97104058.82,75121943.08,4095274.3230000003,0,0,0,0,0
25670.67333,1809693,7.262666667,23-Jul-89,Radcliffe Daniel,27,162.5,3,0,14,0,5,10,0,2,45,17,0,0,11,14,0,0,0,3,3,0,3,1,8,2,2,3,1,0,25,0,1,9,1,0,158893704.0,74989294.43,15384281.41,0,0,0,0,0
29368.630839999998,691876,7.791588785,27-Nov-56,Fichtner William,60,184.0,19,0,6,0,0,12,0,11,10,19,0,0,0,1,0,0,0,4,1,0,0,0,6,0,0,7,9,0,9,3,0,25,3,2,0.0,74478100.53,0.0,0,0,0,0,0
24312.126519999998,550145,7.081751825,9-Jun-63,Depp Johnny,53,175.0,15,0,22,5,16,37,0,8,122,35,0,0,17,18,0,0,0,8,12,0,31,3,9,5,5,13,4,0,67,0,4,14,1,4,94994341.53,74335882.04,20877617.82,0,3,1,9,345
54559.46667,2277915,7.464444444,7-Jun-72,Urban Karl,44,182.5,17,0,14,2,2,4,0,5,16,6,0,0,3,9,0,0,0,1,5,0,0,0,3,0,0,2,11,0,16,0,2,12,0,0,13274741.99,74300517.32,0.0,0,0,0,0,0
5281.812785,1448446,7.503196347,19-Mar-28,McGoohan Patrick,88,182.5,5,0,12,1,3,6,0,8,11,31,0,0,6,0,1,0,0,6,2,0,0,1,5,0,0,4,5,0,6,0,1,9,3,1,0.0,73951410.75,0.0,0,0,0,0,0
1003.666667,991521,7.1733333329999995,4-Oct-70,Hosford Steve,46,172.5,0,0,0,0,0,1,0,0,0,2,0,0,0,0,0,0,0,0,0,0,0,0,0,0,0,0,0,0,4,0,0,0,1,0,0.0,73469387.76,0.0,0,0,0,0,0
13027.14286,1499872,7.4813852810000006,4-Jun-81,Miller T.J.,35,185.0,10,0,15,11,1,33,0,0,3,3,0,0,11,7,0,0,0,0,1,0,0,0,0,0,1,2,4,0,15,1,0,3,0,0,0.0,73457098.37,0.0,0,0,0,0,0
6027.51145,1806565,7.546564885,2-Jun-77,Quinto Zachary,39,185.0,8,0,8,0,6,10,0,1,23,10,0,0,1,0,0,0,0,2,3,0,3,1,0,0,0,1,7,0,25,0,3,6,0,0,0.0,73130686.09,0.0,0,0,0,0,0
27691.83744,272314,7.056157635,24-May-49,Broadbent Jim,67,185.0,7,0,16,17,11,47,0,4,36,53,0,0,23,12,0,0,0,8,1,0,2,3,4,1,0,18,10,0,37,0,0,6,5,1,4156590.205,73092201.98,0.0,1,0,2,1,270
18765.78958,1829055,7.3416988420000004,6-Apr-47,Ratzenberger John,69,172.5,9,0,15,12,3,37,0,5,15,19,0,0,31,12,0,0,0,3,1,0,3,1,2,0,0,10,7,0,24,4,0,5,0,1,2638.98535,73069790.94,0.0,0,0,0,0,0
71671.29231,1059101,7.316923077,3-Dec-76,Jay Baron,40,177.5,6,0,3,0,0,9,0,2,1,8,0,0,1,1,0,0,0,0,2,0,0,0,1,0,0,3,4,0,3,0,0,6,0,1,0.0,72776847.27,0.0,0,0,0,0,0
170595.6667,105368,6.033333333,12-Dec-77,AvMen Michael,39,177.5,3,0,1,0,0,0,0,0,0,0,0,0,0,0,0,0,0,0,0,0,0,0,0,0,0,0,2,0,0,0,0,4,0,0,0.0,72682203.15,0.0,0,0,0,0,0
34221.50847,591752,6.687118644,4-Apr-65,Downey Jr. Robert,51,170.0,24,0,15,1,11,39,0,15,48,31,0,0,6,8,0,0,0,5,2,0,14,1,8,2,8,15,20,0,39,3,1,12,2,1,242561776.5,72646630.99,17273914.98,0,2,2,2,250
47688.232,2413209,6.3072,18-Nov-68,Wilson Owen,48,175.0,11,0,16,10,3,51,0,7,24,15,0,0,16,5,0,0,0,2,2,0,6,0,2,1,1,10,4,0,26,4,2,7,1,1,86969718.17,72448265.56,7590780.429,0,0,0,1,20
1422.561702,446339,6.94212766,15-Sep-22,Cooper Jackie,94,172.5,11,0,10,0,2,53,0,8,37,38,0,0,22,1,0,0,0,5,1,0,4,9,3,0,2,8,8,0,42,4,1,1,4,4,0.0,72031153.74,0.0,0,1,0,0,30
20173.20856,1225670,7.01657754,11-Jun-86,LaBeouf Shia,30,176.0,7,0,8,3,0,11,0,3,13,17,0,0,12,3,0,0,0,0,2,0,8,0,3,1,3,2,5,0,27,2,0,7,1,0,188576662.8,71995560.41,4667649.787,0,0,0,0,0
25843.02128,2197225,7.391489362000001,4-Sep-69,Taylor Noah,47,170.0,3,0,5,1,2,14,0,4,8,23,0,0,3,6,0,0,0,0,3,0,3,0,3,0,0,8,2,0,8,0,0,7,1,1,1283366.317,71934646.76,0.0,0,0,0,0,0
23674.48705,2148853,7.238860104,5-Aug-63,Strong Mark,53,185.0,21,0,13,1,5,14,0,9,29,39,0,0,1,0,0,0,0,10,0,0,2,0,6,1,0,13,8,0,14,1,1,21,8,0,12624137.37,71700349.46,0.0,0,0,0,0,0
9311.584314,2428764,7.783921568999999,27-Apr-77,Woodlee Zachary,39,177.5,1,0,1,0,0,4,0,1,7,0,0,0,1,0,0,0,0,1,0,0,1,1,0,0,0,1,0,0,7,0,0,0,0,0,0.0,71644088.5,0.0,0,0,0,0,0
34316.17647,2223489,6.647058824,10-Aug-89,Thwaites Brenton,27,181.0,5,0,4,0,0,5,0,2,2,8,0,0,1,4,0,0,0,0,1,0,0,0,3,0,0,4,2,0,1,2,0,4,0,0,31153464.0,71390105.43,0.0,0,0,0,0,0
20780.70213,434593,7.035744681000001,30-Mar-50,Coltrane Robbie,66,182.5,7,0,17,6,2,44,0,12,43,17,0,0,13,8,0,1,0,4,2,0,1,1,3,1,0,5,1,0,23,0,0,12,0,0,515033.5883,71326627.93,0.0,0,0,0,0,0
33333.342860000004,2077778,6.668571429,13-Jun-96,Smit-McPhee Kodi,20,185.0,4,0,5,4,2,4,0,1,1,13,0,0,3,1,0,0,0,0,1,0,0,0,1,0,0,1,3,0,3,0,2,1,0,2,24029667.28,71260795.89,0.0,0,0,0,0,0
51363.13816,1923711,6.731578947,22-Nov-67,Ruffalo Mark,49,170.0,12,0,8,1,5,22,0,10,39,35,0,0,2,7,0,0,0,6,2,0,3,0,4,1,2,15,10,0,22,1,1,10,2,0,10163297.93,71037828.59,0.0,0,3,0,2,130
21746.97734,2062431,7.911898017,17-Sep-65,Singer Bryan,51,175.0,3,0,3,2,1,2,0,1,47,1,0,0,1,1,0,0,0,1,0,0,0,0,0,0,0,0,6,0,25,0,0,3,0,0,0.0,71028961.44,0.0,0,0,0,0,0
9556.7251,405296,7.132270916,17-Jun-60,Church Thomas Haden,56,181.0,10,0,10,2,2,25,0,6,13,12,0,0,11,8,0,0,0,0,2,0,1,0,3,2,0,7,5,0,13,0,0,11,0,0,43188803.84,70929180.33,0.0,0,0,0,2,40
107601.6154,2448304,5.538461538,4-Nov-70,Yee Jason,46,175.0,7,0,0,0,0,1,0,3,0,2,0,0,1,0,0,0,0,0,2,0,0,0,2,0,0,3,1,0,2,2,0,6,0,0,18189.67395,70808181.62,0.0,0,0,0,0,0
9077.790815999999,2136188,7.35170068,13-Jul-40,Stewart Patrick,76,175.0,43,0,40,13,10,22,0,4,82,30,0,0,19,19,0,0,0,5,2,0,7,1,4,4,1,7,48,0,29,1,1,19,4,2,101036997.9,70650733.21,10131056.01,0,0,0,2,40
137261.0,1380838,7.275,22-Jun-81,Mann Nav,35,182.5,2,0,2,1,0,1,0,2,0,5,0,0,1,0,0,0,0,2,0,0,1,0,0,0,0,0,1,0,5,0,0,0,1,0,0.0,70520083.92,0.0,0,0,0,0,0
55389.833329999994,1709647,7.15,12-Aug-82,Paul Michael,34,175.0,3,0,1,0,0,1,0,1,0,1,0,0,1,0,0,0,0,0,0,0,0,0,0,0,0,0,1,0,2,1,0,1,1,0,0.0,70427713.44,0.0,0,0,0,0,0
32128.642860000004,1199519,7.321428571,22-Jul-76,Kozlov Vladislav,40,182.5,0,0,1,0,0,0,0,0,0,7,0,0,0,0,0,0,0,1,0,0,0,0,0,0,0,1,1,0,2,1,0,2,0,0,0.0,70264746.54,0.0,0,0,0,0,0
11502.411759999999,832184,6.916470587999999,23-Nov-16,Gough Michael,100,177.5,5,0,9,1,8,16,0,8,14,65,0,0,5,6,1,0,0,10,20,0,3,1,10,0,0,12,6,0,12,2,0,13,5,0,0.0,70156052.47,0.0,0,0,0,0,0
10475.78261,1031692,7.547204969,11-Apr-50,Irwin Bill,66,177.5,1,0,1,0,6,11,0,1,11,11,0,0,13,2,0,0,0,3,1,0,5,3,1,0,0,2,2,0,8,0,3,1,0,1,0.0,70066745.26,0.0,0,0,0,0,0
7779.381395,86480,7.436744186,4-May-70,Arnett Will,46,185.0,17,0,17,16,0,46,0,1,16,8,0,0,18,14,0,0,0,1,1,0,8,0,0,1,3,3,9,0,18,4,3,3,0,1,117746813.3,69850666.35,0.0,0,0,0,0,0
43676.986110000005,1758718,6.311944444,18-Dec-63,Pitt Brad,53,177.5,11,0,8,5,11,24,0,23,68,36,0,0,10,9,0,1,0,8,5,0,13,0,3,7,2,15,3,0,32,3,4,18,6,2,85481463.85,69734306.35,13594260.62,0,2,1,4,215
35228.342860000004,941454,7.35,13-Jan-90,Hemsworth Liam,26,187.5,3,0,5,0,0,1,0,1,6,6,0,0,1,1,0,0,0,0,0,0,2,0,2,0,1,2,5,0,5,0,2,8,1,1,55368160.89,69716056.4,0.0,0,0,0,0,0
86242.57895,196089,6.855263158,27-May-71,Bettany Paul,45,187.5,11,0,7,0,6,5,0,6,20,23,0,0,2,3,0,0,0,7,2,0,1,0,5,0,1,11,6,0,12,1,1,12,6,0,18999701.5,69449529.54,0.0,0,0,0,0,0
23635.1371,1434207,7.312096774,21-Apr-79,McAvoy James,37,167.5,5,0,8,3,4,11,0,5,32,19,0,0,6,5,0,0,0,4,3,0,2,1,4,3,0,9,5,0,22,1,0,11,2,0,48296245.51,69428061.8,0.0,0,0,0,1,20
19902.90385,1419130,7.325,7-Aug-75,Matheson Hans,41,170.0,1,0,0,0,2,1,0,1,1,18,0,0,1,3,0,0,0,5,2,0,1,0,1,0,0,3,0,0,2,0,0,2,3,0,1967376.2969999998,69309978.78,0.0,0,0,0,0,0
12877.241829999999,1937865,7.306535948,14-Jun-92,Sabara Daryl,24,172.5,6,0,8,9,0,20,0,1,4,13,0,0,19,7,0,2,0,1,1,0,2,0,1,0,0,2,5,0,8,1,0,4,0,0,5152730.952,69070189.84,0.0,0,0,0,0,0
42406.05263,940223,7.694736842,22-Feb-86,Helman Josh,30,185.0,2,0,2,0,0,1,0,0,2,6,0,0,0,0,0,0,0,0,1,0,0,0,0,0,0,3,2,0,4,2,0,3,0,0,0.0,68981618.2,0.0,0,0,0,0,0
24218.94624,413839,7.31827957,17-Jul-69,Clarke Jason,47,182.5,5,0,4,0,6,2,0,9,10,25,0,0,1,0,0,0,0,6,1,0,0,0,2,0,1,2,3,0,16,1,1,13,1,0,71322082.59,68903253.42,0.0,0,0,0,0,0
29768.42408,474500,6.429842932000001,7-Apr-64,Crowe Russell,52,177.5,16,0,8,0,8,9,0,12,62,37,0,0,7,4,0,0,0,6,1,0,5,1,4,4,3,14,3,0,26,5,6,13,6,2,64830506.25,68846562.25,17380321.93,1,2,1,4,315
2617.7080530000003,108243,7.412392667000001,25-Apr-64,Azaria Hank,52,177.5,30,0,86,50,2,127,0,9,25,18,0,0,27,24,0,0,0,6,0,0,5,1,8,1,0,8,22,0,30,6,0,6,3,0,38284992.99,68761130.43,293548.3871,0,0,0,0,0
89410.97872,1565531,7.623404255,25-May-76,Murphy Cillian,40,172.5,9,0,8,1,6,7,0,6,13,25,0,0,0,3,0,0,0,6,2,0,1,0,3,0,0,6,6,0,21,1,1,16,3,0,1053076.928,68715447.99,0.0,0,0,0,1,20
30003.104580000003,1090175,6.636601307,15-Sep-46,Jones Tommy Lee,70,180.0,25,0,17,0,8,11,0,20,44,45,0,0,11,4,0,0,0,5,0,0,4,2,11,2,2,10,6,0,25,2,0,26,3,7,72264064.99,68707446.97,14735638.29,0,0,1,2,115
11846.1,2417689,6.23,7-Nov-70,Winters Chris,46,182.5,1,0,0,0,0,4,0,0,0,0,0,0,1,1,0,0,0,0,2,0,0,0,0,0,0,0,1,0,1,0,0,3,0,0,0.0,68636351.31,0.0,0,0,0,0,0
52058.23288,1226667,6.850684932,26-May-69,Lacey Aaron Michael,47,177.5,10,0,4,0,2,8,0,3,4,23,0,0,2,2,0,0,0,3,1,0,0,0,3,0,0,6,6,0,6,1,0,15,2,0,0.0,68519915.65,163273.343,0,0,0,0,0
66253.32609,907395,7.319565217,15-Sep-77,Hardy Tom,39,172.5,14,0,7,0,8,3,0,14,12,36,0,0,0,2,0,0,0,4,4,0,1,0,2,0,1,3,5,0,10,1,0,18,3,1,33611372.67,68340538.09,0.0,0,1,0,0,30
29250.880889999997,475352,6.073407202,3-Jul-62,Cruise Tom,54,167.5,22,0,16,0,10,17,0,6,116,26,0,0,14,4,0,0,0,6,3,0,15,0,7,4,6,9,8,0,99,6,4,19,5,1,150325470.3,68280976.74,22818323.78,0,3,3,4,395
68960.42657000001,125330,6.812587412999999,30-Jan-74,Bale Christian,42,183.0,13,0,17,1,10,8,0,11,42,38,0,0,5,6,0,1,0,13,1,0,7,2,2,1,0,10,4,0,31,1,1,13,6,2,121073404.0,68258050.06,7480124.381,1,2,1,2,275
940.6212121,624907,6.665151515,14-Sep-18,Edwards Bill,98,192.5,4,0,4,0,3,7,0,3,0,19,0,0,0,1,0,0,0,3,0,0,3,7,2,0,0,12,0,0,2,1,0,0,5,5,0.0,68251754.49,0.0,0,0,0,0,0
15110.340430000002,2225041,7.138297872000001,30-Nov-65,Tiernan Andrew,51,177.5,9,0,4,0,1,6,0,12,2,31,0,0,0,4,0,0,0,3,10,0,0,1,4,0,0,5,2,0,16,0,0,13,6,0,0.0,68237935.83,0.0,0,0,0,0,0
12512.5,960519,7.7,14-Feb-92,Highmore Freddie,24,175.0,4,0,15,9,1,9,0,0,8,13,0,0,16,11,0,0,0,0,0,0,1,0,0,1,0,3,3,0,9,0,1,0,0,0,37198422.66,68079618.55,0.0,0,0,0,0,0
13590.9878,607978,7.327642276000001,24-Aug-56,Dunn Kevin,60,175.0,12,0,4,1,5,20,0,11,4,37,0,0,4,4,0,0,0,5,1,0,1,0,3,0,0,12,7,0,4,4,0,10,1,0,0.0,67939807.36,0.0,0,0,0,0,0
269029.0,496026,7.16875,1972,Dallace Tommy,44,185.0,4,0,1,0,2,0,0,6,1,11,0,0,0,0,0,0,0,5,1,0,0,0,0,0,0,1,1,0,2,3,0,7,2,0,0.0,67849737.46,0.0,0,0,0,0,0
2450.669643,995610,7.903571428999999,13-Jul-97,Howard Leo,19,175.0,3,0,2,0,0,4,0,0,0,1,0,0,4,2,0,0,0,0,1,0,0,0,0,0,1,0,2,0,0,0,0,1,0,0,11528.047840000001,67547579.1,0.0,0,0,0,0,0
29426.942860000003,480515,7.702285713999999,19-Jul-76,Cumberbatch Benedict,40,180.0,5,0,6,3,13,9,0,2,32,23,0,0,4,6,0,2,0,6,3,0,1,1,1,0,1,4,5,0,19,2,1,5,5,0,50306276.98,67418883.26,0.0,0,1,0,1,50
52135.34454,565794,6.6378151260000005,18-Jul-67,Diesel Vin,49,182.0,33,0,12,3,3,6,0,14,57,14,0,0,6,3,0,1,0,1,1,0,6,0,0,0,6,1,12,0,65,1,2,20,2,0,122222812.3,67362144.42,8345738.505,0,0,0,0,0
4212.290123,972671,7.286419753,Jun-71,Hodgman John,45,170.0,0,0,0,3,0,13,0,0,2,2,0,0,2,2,0,0,0,0,0,0,2,1,0,0,1,2,1,0,7,0,0,0,0,0,0.0,67121289.1,0.0,0,0,0,0,0
39150.48,440772,7.046,5-Sep-74,Considine Paddy,42,177.5,3,0,1,0,3,9,0,7,4,24,0,0,0,1,0,0,0,0,3,0,2,0,7,0,0,8,0,0,2,1,0,10,1,0,9875002.777,66596340.72,0.0,0,0,0,0,0
11443.926370000001,1573233,6.503087886,25-May-63,Myers Mike,53,170.0,7,0,11,14,5,87,0,10,61,4,0,0,30,10,0,0,0,3,4,0,44,0,0,3,2,11,3,0,22,6,1,1,0,0,233026594.9,66303617.94,9442259.997000001,0,0,0,0,0
2535.666832,2032214,7.474708075,23-Dec-43,Shearer Harry,73,165.0,28,0,55,45,2,153,0,10,43,7,0,0,17,10,0,0,0,2,2,0,21,1,8,1,2,2,21,0,17,9,2,4,0,0,0.0,66181511.54,293548.3871,0,0,0,0,0
48124.04762,1032084,7.06984127,9-Mar-79,Isaac Oscar,37,170.0,8,0,6,0,1,5,0,5,11,24,0,0,1,6,0,0,0,7,0,0,3,1,3,0,0,7,7,0,8,0,0,10,3,0,6420549.137,65824071.52,0.0,0,0,0,1,20
13975.95,24002,6.8525,7-Jan-90,Aiken Liam,26,177.5,2,0,3,0,0,9,0,2,5,18,0,0,3,3,0,0,0,1,2,0,1,0,0,0,0,4,2,0,8,0,0,8,0,0,0.0,65799470.95,0.0,0,0,0,0,0
15959.54651,1371125,7.912790697999999,12-May-81,Malek Rami,35,172.5,3,0,2,0,2,2,0,2,3,7,0,0,1,1,0,0,0,0,1,0,1,0,3,0,0,1,1,0,5,0,0,3,0,0,0.0,65699620.33,0.0,0,0,0,0,0
779071.3333,1763071,8.5,17-Mar-79,Plowman David Michael,37,172.5,1,0,0,0,0,1,0,0,0,1,0,0,1,0,0,0,0,0,1,0,0,0,0,0,0,0,0,0,1,0,0,2,0,0,0.0,65635401.52,0.0,0,0,0,0,0
13952.59494,829455,7.767721519,1-Sep-74,Gorman Burn,42,172.5,2,0,1,0,1,1,0,4,1,10,0,0,0,2,0,0,0,2,1,0,1,0,3,0,0,3,1,0,1,0,0,3,2,0,0.0,65614314.24,0.0,0,0,0,0,0
14315.191490000001,974144,6.965045592999999,8-Aug-37,Hoffman Dustin,79,167.0,10,0,12,14,19,46,0,10,109,39,0,0,31,10,0,0,0,8,0,0,19,5,2,0,5,13,2,0,46,2,2,10,3,1,135573724.0,65462254.21,6587366.397000001,2,5,5,8,885
6753.2840909999995,1917396,7.525,22-Nov-66,Rowe Nicholas,50,190.0,2,0,2,0,1,5,0,1,5,11,0,0,0,1,0,0,0,6,1,0,0,0,1,0,0,2,1,0,4,0,0,1,1,0,44027509.29,65416232.96,0.0,0,0,0,0,0
36039.7973,1397967,7.012837837999999,18-Sep-73,Marsden James,43,175.0,12,0,11,5,1,20,0,6,23,20,0,0,7,11,0,0,0,0,2,0,3,3,4,0,0,8,11,0,16,0,0,13,0,0,29579872.45,65300783.52,0.0,0,0,0,0,0
2158.218182,350887,7.56,12-Nov-64,Carter Alex,52,180.0,4,0,3,0,1,1,0,5,0,17,0,0,1,2,0,0,0,0,1,0,0,0,4,0,0,6,2,0,0,1,0,9,0,0,0.0,65217391.3,0.0,0,0,0,0,0
13608.769230000002,1973302,6.769230769,11-Jul-70,Saucedo Michael,46,172.5,1,0,1,1,0,0,0,1,0,4,0,0,0,1,0,0,0,0,0,0,0,0,0,0,0,1,0,0,1,0,0,1,0,0,279140.1869,65047995.48,0.0,0,0,0,0,0
10520.53571,621059,7.657142857,16-Feb-64,Eccleston Christopher,52,180.0,4,0,5,1,7,4,0,6,31,30,0,0,8,3,0,2,0,7,2,0,3,0,1,0,0,5,8,0,25,2,0,10,2,0,619723.1358,65044414.41,0.0,0,0,0,0,0
18981.035180000003,2417165,6.933165829,19-Feb-57,Winstone Ray,59,175.0,12,0,11,1,3,11,0,23,30,59,0,0,5,6,0,0,0,3,2,0,6,0,8,0,0,5,2,0,18,4,0,19,2,2,3268915.35,65040673.43,0.0,0,0,0,0,0
9213.82,1934524,7.274,18-Jan-60,Rylance Mark,56,170.0,4,0,2,2,5,2,0,3,12,21,0,0,2,3,0,0,0,5,0,0,1,0,5,0,0,5,1,0,5,0,0,5,2,0,34238305.35,65005407.86,0.0,1,0,0,1,120
51718.34615,935123,6.403846154,3-Sep-84,Hedlund Garrett,32,185.0,6,0,6,0,2,1,0,2,7,12,0,0,2,3,0,0,0,1,0,0,2,0,1,0,0,2,2,0,8,3,1,4,2,0,0.0,64994558.23,0.0,0,0,0,0,0
12028.25,964038,7.475,20-May-82,Hilliard Justin D.,34,190.0,1,0,1,0,0,1,0,0,1,2,0,0,1,0,0,0,0,0,0,0,0,0,0,0,0,1,1,0,0,1,0,0,0,0,0.0,64963261.57,0.0,0,0,0,0,0
18368.425880000003,900439,7.075471697999999,9-Jul-56,Hanks Tom,60,180.0,3,0,18,17,22,56,0,8,144,46,0,0,37,18,0,0,0,9,5,0,22,8,6,5,8,15,7,0,69,5,2,12,5,0,86323156.26,64852884.27,18301838.8,2,3,4,4,670
11773.03659,1939563,7.680487805,5-Feb-51,Sachs Robin,65,180.0,9,0,5,2,0,2,0,2,2,2,0,0,0,6,0,0,0,0,4,0,0,0,1,1,0,0,5,0,3,0,0,5,3,0,0.0,64825930.37,0.0,0,0,0,0,0
63445.66013,1651428,7.073856209,21-Mar-58,Oldman Gary,58,170.0,28,0,20,3,8,15,0,14,44,40,0,0,6,5,0,0,0,2,5,0,6,2,7,0,1,9,11,0,32,1,2,33,6,0,23605403.39,64811864.28,4048887.916,0,1,0,0,30
20038.28472,26751,7.788194444,22-Aug-67,Akinnuoye-Agbaje Adewale,49,185.0,9,0,8,1,2,5,0,3,4,21,0,0,1,0,0,0,0,2,1,0,1,2,3,1,0,3,3,0,3,0,0,10,1,0,167814643.4,64602752.05,0.0,0,0,0,0,0
1985.295176,837556,7.603959682999999,21-Feb-55,Grammer Kelsey,61,182.5,8,0,12,13,7,49,0,4,50,17,0,0,25,13,0,0,0,6,0,0,22,4,1,2,6,7,6,0,26,3,3,7,3,0,39442604.97,64480442.06,0.0,0,0,2,6,270
31505.614910000004,1255048,6.81552795,29-Dec-72,Law Jude,44,175.0,11,0,11,1,3,14,0,13,34,33,0,0,6,4,0,0,0,4,2,0,9,3,7,2,0,13,5,0,33,0,1,17,3,0,34259248.6,64304654.73,9237738.822,0,2,0,3,120
16512.93897,2032803,7.542723005,5-Feb-69,Sheen Michael,47,175.0,5,0,10,2,6,19,0,3,31,24,0,0,6,7,0,1,0,8,2,0,0,0,0,0,1,7,6,0,14,3,1,6,3,0,51238507.11,64159820.46,8166423.507,0,0,0,0,0
4006.7804880000003,1457228,7.7271777,27-Jul-68,McMahon Julian,48,185.0,8,0,5,0,0,3,0,2,8,16,0,0,0,2,0,0,0,0,3,0,3,0,3,0,0,3,7,0,3,0,0,11,0,1,0.0,63939779.14,0.0,0,0,0,1,20
70562.47727,1355249,6.822727273,23-Sep-78,Mackie Anthony,38,175.0,13,0,6,0,4,8,0,11,11,29,0,0,2,1,0,0,0,6,2,0,0,0,3,0,0,3,9,0,11,7,0,10,1,0,2963346.703,63907244.57,0.0,0,0,0,0,0
13385.71825,834850,7.421428571,12-Jul-78,Grace Topher,38,179.7,7,0,5,0,1,19,0,4,7,11,0,0,2,4,0,0,0,1,1,0,0,1,1,2,0,8,4,0,12,0,0,11,0,0,7387486.562999999,63781833.6,0.0,0,0,0,0,0
7193.294118000001,1654014,7.076470587999999,8-Dec-74,Oliveto Nils,42,180.0,3,0,3,0,0,4,0,1,0,9,0,0,0,0,0,0,0,4,3,0,0,0,6,0,0,0,0,0,1,0,0,4,5,0,0.0,63455405.17,0.0,0,0,0,0,0
42398.19658,927643,6.62991453,20-Apr-57,Hawn Phil,59,170.0,14,0,5,0,5,43,0,13,0,48,0,0,6,3,0,0,0,2,0,0,1,0,4,0,0,16,12,0,20,4,0,14,1,2,0.0,63401710.33,0.0,0,0,0,0,0
6658.881356,442927,7.381144067999999,14-Oct-65,Coogan Steve,51,175.0,5,0,8,10,4,118,0,5,47,26,0,0,11,6,0,3,0,1,0,0,14,2,2,2,0,5,1,0,28,1,2,2,0,0,1611815.5890000002,63344686.64,0.0,0,0,0,0,0
23429.5,888100,7.108333332999999,14-Jul-61,Haley Jackie Earle,55,162.5,6,0,3,1,3,9,0,5,4,14,0,0,3,2,0,0,0,2,5,0,0,0,5,1,0,2,9,0,1,4,0,8,1,1,69405644.42,63258574.06,0.0,0,0,0,0,0
26058.81905,1854100,7.345714286000001,23-Oct-76,Reynolds Ryan,40,185.0,16,0,14,4,3,27,0,7,24,23,0,0,6,9,0,0,0,4,5,0,3,0,9,0,0,10,16,0,15,2,1,16,0,1,71716827.69,63257173.87,2000000.0,0,0,0,0,0
25941.5125,1437060,7.13875,7-Jun-66,McCarthy Tom,50,177.5,1,0,1,0,0,6,0,0,7,11,0,0,1,0,0,0,0,1,0,0,0,0,0,1,0,6,1,0,4,0,0,1,0,0,0.0,63245380.12,0.0,0,0,0,0,0
4651.777778,85481,7.826262626,1-Jan-81,Armstrong Jonas,35,180.0,2,0,2,0,0,1,0,1,2,6,0,0,1,0,0,0,0,1,2,0,1,0,2,0,1,1,1,0,1,0,0,2,1,0,1015189.965,63028942.13,0.0,0,0,0,0,0
7879.279438,725481,6.927943761,13-Dec-67,Foxx Jamie,49,172.5,11,0,4,2,8,34,0,10,73,17,0,0,23,1,0,0,0,2,0,0,59,5,1,4,11,6,3,0,32,10,5,9,1,2,65583154.48,62818368.99,8486849.728,1,1,1,2,245
1576.142857,501333,7.533082707,25-Oct-58,Daniels Phil,58,167.5,0,0,3,4,2,17,0,4,11,20,0,0,5,2,0,0,0,1,2,0,9,3,0,0,0,2,2,0,7,4,0,0,1,1,148841693.4,62717770.03,0.0,0,0,0,0,0
35117.727269999996,495316,7.869318182000001,1-May-78,Dale James Badge,38,175.0,7,0,6,0,1,5,0,4,5,15,0,0,1,0,0,0,0,3,1,0,1,0,1,0,0,1,3,0,4,0,1,9,1,2,0.0,62707871.8,0.0,0,0,0,0,0
112848.7273,1780578,7.213636364,16-Jul-75,Powers Frank,41,172.5,12,0,5,0,2,4,0,3,0,6,0,0,0,0,0,0,0,1,2,0,0,0,1,0,0,4,7,0,3,0,0,7,2,2,0.0,62701064.35,0.0,0,0,0,0,0
8493.526316,499123,7.826315789,19-Jun-75,Dancy Hugh,41,175.0,1,0,1,0,0,4,0,2,10,10,0,0,2,2,0,0,0,2,2,0,0,0,2,0,0,10,0,0,3,1,0,3,3,0,2214214.173,62656247.13,0.0,0,0,0,0,0
3166.385542,382812,8.053614458,1-May-72,Chase Bailey,44,180.0,1,0,1,0,0,1,0,0,0,3,0,0,0,1,0,0,0,0,3,0,0,0,1,0,0,0,4,0,4,0,0,6,0,0,0.0,62639239.92,0.0,0,0,0,0,0
11036.27419,1304936,6.930645161,3-Jan-89,Linz Alex D.,27,170.0,3,0,4,6,0,8,0,2,2,10,0,0,16,4,0,0,0,0,1,0,1,1,1,0,0,4,2,0,5,2,0,2,0,0,34649631.71,62577047.49,0.0,0,0,0,0,0
44739.298610000005,693358,6.977777777999999,22-Dec-62,Fiennes Ralph,54,180.5,12,0,16,5,8,11,0,7,32,42,0,0,7,9,0,0,0,10,3,0,2,1,6,2,0,15,3,0,12,0,2,12,8,0,50005607.72,62504704.09,0.0,0,2,0,5,160
31326.04301,1013811,6.889247312,12-Oct-92,Hutcherson Josh,24,167.5,11,0,11,1,1,18,0,2,24,14,0,0,12,7,0,0,0,0,3,0,6,0,1,0,3,4,9,0,26,1,2,7,0,0,37280477.08,62378238.62,0.0,0,0,0,0,0
7850.670520000001,2156875,7.804624277,12-Jul-91,Sullivan Erik Per,25,172.5,1,0,2,0,0,4,0,0,3,4,0,0,3,1,0,0,0,0,1,0,0,0,1,0,1,0,1,0,2,0,0,3,0,0,0.0,62369316.35,0.0,0,0,0,0,0
3740.7457630000004,251887,6.042372881,4-Jul-31,Boyd Stephen,85,180.0,6,0,5,0,2,9,0,10,4,40,0,0,1,1,0,0,0,6,1,0,0,2,4,0,0,9,2,0,4,0,1,11,6,6,88888888.89,62354248.25,0.0,0,0,1,1,95
2351.15083,789102,7.736048265,25-Jun-61,Gervais Ricky,55,170.0,2,0,10,5,0,63,0,1,44,6,0,0,10,7,0,3,0,0,0,0,9,1,0,2,1,2,1,0,16,0,5,0,1,0,36256052.53,62263023.16,0.0,0,0,1,1,95
4232.682382,1999118,7.92133995,2-Nov-66,Schwimmer David,50,182.5,2,0,5,5,2,27,0,3,9,6,0,0,12,1,0,1,0,0,0,0,0,0,1,0,2,6,0,0,10,1,0,2,1,0,7239337.63,62115562.45,13900134.95,0,0,0,0,0
40524.35714,1255117,7.214285714,3-May-81,Law Maximilian,35,170.0,3,0,6,0,0,9,0,2,1,4,0,0,0,2,0,0,0,0,0,0,0,0,0,0,0,1,5,0,7,0,0,5,0,0,0.0,61756070.9,0.0,0,0,0,0,0
41242.78261,563215,6.785507246,11-Nov-74,DiCaprio Leonardo,42,180.0,5,0,7,0,18,8,0,6,72,25,0,0,5,0,0,0,0,9,1,0,9,0,1,10,1,8,2,0,28,2,1,11,1,3,128505945.8,61657739.62,18773564.51,1,4,3,8,605
17447.5,2459460,7.106521739,22-Aug-71,Yune Rick,45,180.0,5,0,1,0,0,1,0,2,8,3,0,0,0,1,0,0,0,0,2,0,2,0,1,0,0,1,0,0,4,0,0,6,0,0,0.0,61513025.0,0.0,0,0,0,0,0
41024.42,993421,6.647,24-Apr-64,Hounsou Djimon,52,182.5,14,0,10,2,0,4,0,3,11,15,0,0,4,6,0,0,0,4,2,0,3,0,1,2,2,1,4,0,11,1,0,9,1,1,0.0,61505691.79,0.0,0,2,0,1,80
16720.64848,860425,7.4781818179999995,6-Oct-73,Gruffudd Ioan,43,182.0,6,0,21,2,2,5,0,3,16,32,0,0,8,5,0,0,0,4,2,0,3,2,1,0,0,6,4,0,13,1,0,8,10,0,104107197.3,61381210.97,0.0,0,0,0,0,0
4624.430813,724948,7.2258202570000005,9-Jun-61,Fox Michael J.,55,160.0,7,0,17,6,4,50,0,3,45,11,0,0,21,7,0,0,0,4,2,0,6,0,0,0,3,7,14,0,13,4,1,1,1,4,104573522.0,61292602.74,8097165.992000001,0,0,4,4,380
21494.06091,2333617,6.811675127000001,10-Apr-29,von Sydow Max,87,190.0,16,0,20,4,13,14,0,11,32,86,0,0,5,13,0,0,0,19,11,0,2,0,12,0,0,10,8,0,12,0,0,26,10,2,47729568.23,61278453.63,0.0,0,0,0,0,0
8068.8,1146168,7.733333332999999,27-Sep-65,Kerr Steve,51,187.5,0,0,1,1,0,2,0,0,3,0,0,0,2,2,0,0,0,0,0,0,0,0,0,0,0,0,1,0,0,16,0,0,0,0,0.0,61210468.45,0.0,0,0,0,0,0
14190.168419999998,1521075,6.109473684,1-Jul-68,Moll__ Jordi,48,175.0,9,0,7,1,12,21,0,6,14,41,0,0,5,3,0,0,0,7,2,0,2,0,2,0,0,11,4,0,7,0,0,16,7,2,18830072.36,60937279.54,0.0,0,0,0,0,0
19622.753569999997,987074,6.785714286,31-Dec-37,Hopkins Anthony,79,170.0,24,0,16,1,29,17,0,13,64,79,0,0,12,11,0,0,0,14,10,0,3,1,8,0,4,21,5,0,28,2,1,31,7,3,32817616.71,60866970.33,17621787.48,1,3,0,6,310
1014.1800949999999,1132171,7.716587678,8-Feb-79,Keaton Josh,37,172.5,66,0,46,29,1,14,0,6,5,18,0,0,14,20,0,0,0,1,5,0,1,3,15,0,0,7,36,0,10,0,0,13,2,0,0.0,60823319.88,0.0,0,0,0,0,0
8469.763393000001,816539,7.558035714,20-May-60,Goldwyn Tony,56,185.0,9,0,4,1,5,8,0,7,10,30,0,0,4,2,0,0,0,4,3,0,2,1,5,1,2,6,2,0,6,0,0,14,1,0,867159.462,60761078.03,0.0,0,0,0,0,0
14081.5,2020462,7.316666667000001,18-Dec-89,Severino Leonel,27,167.5,1,0,0,0,2,2,0,1,0,4,0,0,0,0,0,0,0,0,0,0,0,0,0,0,0,0,0,0,0,1,0,1,0,0,0.0,60755135.71,0.0,0,0,0,0,0
38784.7751,1894039,7.0538152610000004,15-Apr-82,Rogen Seth,34,177.5,11,0,8,13,3,69,0,5,11,9,0,0,14,6,0,1,0,2,2,0,8,0,0,2,4,6,9,0,19,0,3,2,0,0,101859130.6,60626756.29,5126868.928,0,0,0,0,0
11025.65,2206093,6.64,1-Aug-68,Tesen Todd,48,185.0,1,0,0,0,0,3,0,0,0,2,0,0,0,0,0,0,0,0,1,0,0,0,1,0,0,2,1,0,2,0,0,1,0,1,0.0,60625945.28,0.0,0,0,0,0,0
48856.714289999996,634632,6.761904762,14-Mar-94,Elgort Ansel,22,187.5,3,0,6,0,2,1,0,2,3,9,0,0,0,1,0,0,0,0,1,0,2,0,3,0,0,3,6,0,2,0,1,4,0,0,0.0,60463303.75,0.0,0,0,0,0,0
24442.76344,1293140,6.587096774,26-Apr-63,Li Jet,53,168.0,59,0,16,0,4,13,0,15,20,15,0,0,1,7,0,0,0,12,1,0,0,0,1,0,1,3,5,0,9,2,0,21,3,1,36893243.26,60319776.49,7067384.411,0,0,0,0,0
30423.122219999997,795244,6.2755555560000005,30-Dec-78,Gibson Tyrese,38,181.0,19,0,6,0,0,4,0,11,32,9,0,0,18,1,0,1,0,0,1,0,29,2,1,1,4,3,5,0,26,2,4,12,0,0,32159453.36,60297358.25,0.0,0,0,0,0,0
1272.833333,345849,7.316666667000001,24-May-57,Carpenter Cole,59,177.5,0,5,0,0,0,0,0,0,0,1,0,0,0,0,0,0,0,0,0,0,1,1,0,0,0,0,0,0,0,0,0,0,0,0,0.0,60223048.33,0.0,0,0,0,0,0
14418.711009999999,809342,7.65733945,27-Mar-35,Glover Julian,81,185.0,7,0,15,2,5,11,0,7,14,51,0,0,5,6,0,0,0,7,6,0,1,1,4,0,0,8,4,0,21,0,0,14,5,0,169458874.7,60204367.89,0.0,0,0,0,0,0
79568.0,834078,7.70625,15-Mar-84,Goyos Rey,32,180.0,4,0,0,0,1,5,0,3,0,7,0,0,0,2,0,0,0,1,0,0,1,0,2,0,0,3,1,0,10,0,0,2,0,0,0.0,60152402.04,0.0,0,0,0,0,0
36940.5,459486,7.403333333,3-Oct-78,Coulson Christian,38,172.5,0,0,2,0,0,8,0,1,1,13,0,0,0,1,0,0,0,1,0,0,0,0,2,0,0,4,0,0,7,0,0,0,1,0,0.0,60107809.72,0.0,0,0,0,0,0
4129.785992,1051002,7.66770428,26-Apr-65,James Kevin,51,175.0,8,0,2,4,2,30,0,3,12,2,0,0,9,3,0,0,0,0,0,0,6,0,0,0,4,4,1,0,8,5,0,0,1,0,91030388.53,60035644.56,736196.319,0,0,0,0,0
26958.8172,1021764,6.724731182999999,22-Jul-67,Ifans Rhys,49,185.0,2,0,4,3,3,19,0,7,17,35,0,0,5,7,0,0,0,2,0,0,7,0,3,0,0,11,2,0,22,0,0,10,0,0,2482250.994,60002391.57,0.0,0,0,0,0,0
55016.26316,1941855,7.178947367999999,5-Dec-65,Sagastizado I Tony,51,170.0,8,0,3,0,0,10,0,10,0,17,0,0,1,1,0,0,0,1,0,0,1,0,2,0,0,6,0,0,4,1,0,10,1,0,0.0,59798343.62,0.0,0,0,0,0,0
1976.796902,1639662,7.707228916,12-Apr-46,O'Neill Ed,70,182.5,3,0,2,2,4,21,0,6,17,13,0,0,6,0,0,0,0,2,0,0,0,0,2,1,1,3,1,0,4,5,1,2,0,0,8112650.22,59752450.76,0.0,0,0,0,2,40
21857.070180000002,2331969,7.055263158,5-Jun-50,von Bargen Daniel,66,180.0,6,0,2,0,2,6,0,7,6,20,0,0,2,2,0,0,0,2,0,0,0,1,3,0,0,3,2,0,5,0,0,6,1,0,0.0,59718292.21,0.0,0,0,0,0,0
4308.555,1839689,6.944,25-Sep-52,Reeve Christopher,64,190.0,12,0,16,2,2,14,0,5,60,20,0,0,15,4,0,1,0,0,2,0,11,1,3,1,3,12,13,0,17,1,1,10,2,4,38003881.65,59434116.29,1595398.211,0,0,0,1,20
1356.638889,722177,7.432407407,19-Feb-30,Foster Ron,86,180.0,1,0,4,0,0,2,0,5,0,12,0,0,0,3,0,0,0,0,0,0,0,0,4,0,0,2,3,0,0,0,0,3,3,2,0.0,59431775.09,0.0,0,0,0,0,0
53695.928570000004,962670,6.605844156,20-Dec-83,Hill Jonah,33,167.5,8,1,10,7,2,48,0,6,7,10,0,0,9,10,0,0,0,0,1,0,6,0,2,6,1,6,3,0,14,2,1,1,1,0,102748812.7,59418589.13,0.0,0,1,0,1,50
25864.19048,794988,6.458730159,3-Jan-56,Gibson Mel,60,177.0,25,0,11,3,4,18,0,16,81,28,0,0,18,3,0,0,0,9,0,0,8,2,6,3,3,10,7,0,32,2,2,21,5,2,109152998.5,59365173.83,18379080.29,0,0,0,2,40
27681.13675,1013579,6.8230769229999995,14-May-62,Huston Danny,54,185.0,7,0,5,2,5,9,0,5,9,34,0,0,0,4,0,0,0,6,2,0,2,0,7,2,0,9,5,0,5,1,1,14,1,1,27884.347830000002,59225062.24,0.0,0,0,0,0,0
34684.56522,232143,7.030434783,29-May-78,Bonaventura Anthony,38,177.5,5,0,2,0,0,4,0,5,1,18,0,0,0,0,0,0,0,1,0,0,1,0,2,0,0,1,3,0,16,0,0,7,0,0,0.0,59220856.46,0.0,0,0,0,0,0
49708.283460000006,1863180,7.3377952760000005,21-Feb-46,Rickman Alan,70,185.0,6,0,9,3,5,10,0,4,23,27,0,0,3,6,0,1,0,2,1,0,3,2,2,0,2,10,2,0,20,0,0,8,0,1,362810.8731,59134745.35,0.0,0,0,1,0,75
116898.0,2221056,6.1333333329999995,20-Nov-73,Thornberry Michael,43,185.0,1,0,0,0,1,0,0,1,0,4,0,0,0,1,0,0,0,0,0,0,0,0,0,0,0,0,0,0,2,0,0,0,0,0,0.0,59081443.92,0.0,0,0,0,0,0
3472.4021740000003,529117,4.841304348,5-Jan-51,De Sica Christian,65,180.0,1,0,2,1,2,70,0,0,2,6,0,0,0,2,0,0,0,1,0,0,1,3,0,0,0,8,4,0,1,0,1,2,0,0,0.0,59031734.97,0.0,0,0,0,0,0
18149.02128,2082375,6.540425532,8-Jul-98,Smith Jaden,18,170.0,2,0,1,0,1,2,0,0,6,4,0,0,3,0,0,0,0,0,0,0,12,0,0,0,5,0,2,0,5,1,0,1,0,0,128357363.4,58996491.74,3301904.098,0,0,0,0,0
836.2663934,2213424,7.799795082,20-May-49,Thomas Dave,67,175.0,3,0,6,6,2,42,0,2,7,3,0,0,8,4,0,0,0,1,1,0,2,2,1,0,1,3,1,0,6,1,0,2,0,0,20653913.25,58912719.49,0.0,0,0,0,0,0
31220.22222,1821958,6.891111111,25-Mar-77,Ram__rez Edgar,39,175.0,11,0,2,0,4,0,0,7,4,15,0,0,0,1,0,0,0,1,1,0,0,0,6,1,0,4,0,0,5,2,1,9,1,0,16923036.77,58881851.4,0.0,0,0,0,0,0
37478.92419,1594257,6.958122744,7-Jun-52,Neeson Liam,64,190.0,39,0,30,4,12,19,0,16,88,49,0,0,14,15,0,3,0,20,3,0,7,3,11,0,5,14,9,0,47,4,2,33,7,2,59608720.75,58790546.65,9604454.351,0,1,0,3,90
23215.981480000002,905401,7.628703703999999,10-Apr-75,Harbour David,41,190.0,5,0,2,0,1,5,0,7,3,16,0,0,1,1,0,0,0,2,0,0,2,0,3,0,0,2,2,0,6,0,0,10,0,0,23383.938430000002,58785756.45,0.0,0,0,0,0,0
27912.921260000003,160751,7.359448819,17-Apr-59,Bean Sean,57,175.0,40,0,40,3,3,6,0,15,47,49,0,0,8,8,0,0,0,23,7,0,2,0,10,0,0,10,9,0,23,3,0,30,19,0,4768588.952,58754630.82,0.0,0,0,0,0,0
18284.43636,1673233,7.117575757999999,3-Oct-64,Owen Clive,52,185.0,19,0,11,0,1,10,0,20,20,35,0,0,3,1,0,0,0,4,1,0,2,0,14,0,0,13,4,0,22,2,0,18,3,0,16006697.63,58732469.19,0.0,0,1,1,0,105
13405.72222,1690369,7.688888888999999,6-Jul-93,Papac Benjamin,23,170.0,0,0,1,0,0,3,0,0,0,5,0,0,1,2,0,0,0,0,2,0,0,0,0,0,0,1,0,0,3,0,0,1,0,0,0.0,58729964.52,0.0,0,0,0,0,0
19337.9,1274852,7.42,5-Mar-96,Leinbach Jacob,20,185.0,2,0,0,0,0,0,0,1,0,5,0,0,0,0,0,0,0,0,0,0,0,0,0,0,0,0,2,0,3,0,0,2,0,0,0.0,58698991.8,0.0,0,0,0,0,0
56053.5,391477,7.34,16-Dec-65,Chevalier Peter J.,51,165.0,1,0,1,0,0,2,0,0,1,0,0,0,0,1,0,0,0,0,1,0,2,0,0,0,0,0,1,0,3,0,0,0,0,0,0.0,58593421.71,0.0,0,0,0,0,0
5440.712159000001,895837,7.7362282879999995,10-Mar-71,Hamm Jon,45,185.0,7,0,3,4,2,22,0,4,13,10,0,0,3,3,0,0,0,0,0,0,7,0,2,0,0,5,3,0,9,4,1,6,0,0,18410721.25,58425901.57,0.0,0,0,1,3,135
54173.854170000006,2151741,7.4375,16-May-78,Sturgess Jim,38,180.0,3,0,1,0,3,2,0,7,6,27,0,0,0,3,0,0,0,2,2,0,0,1,5,0,0,5,8,0,8,0,0,9,0,0,30192148.41,58416328.51,0.0,0,0,0,0,0
23257.3125,2199761,6.84375,19-Aug-88,Tedford Travis,28,167.5,0,0,0,1,0,2,0,0,0,3,0,0,2,1,0,0,0,0,2,0,0,0,1,0,0,1,0,0,1,0,0,2,0,0,83829878.54,58173366.57,0.0,0,0,0,0,0
46973.363639999996,1282199,7.378181818,19-Jan-92,Lerman Logan,24,172.5,3,0,6,0,1,5,0,1,3,14,0,0,5,2,0,0,0,0,0,0,2,0,1,0,1,3,1,0,5,0,0,3,1,1,62289390.69,58106688.06,0.0,0,0,0,0,0
19959.18519,727015,6.648148148,17-Jul-64,Francis Alan,52,175.0,1,0,1,0,1,6,0,2,2,12,0,0,0,1,0,0,0,2,0,0,1,0,1,0,0,4,0,0,6,0,0,6,0,0,0.0,58095515.0,0.0,0,0,0,0,0
29033.43478,1449552,6.946859902999999,31-Mar-71,McGregor Ewan,45,177.0,14,0,15,3,6,19,0,10,62,39,0,0,4,9,0,0,0,5,1,0,8,2,7,2,0,19,13,0,34,3,2,17,5,1,65688660.18,58090733.0,0.0,0,0,0,2,40
22056.14286,1843540,7.272321429,24-May-65,Reilly John C.,51,185.0,9,0,7,5,3,46,0,10,20,35,0,0,5,4,0,0,0,6,4,0,11,5,5,1,0,8,4,0,15,3,0,9,2,1,60047217.77,58017912.96,0.0,0,0,0,2,40
20925.0,1859547,6.24,5-Nov-55,Richards Craig,61,185.0,5,0,4,0,0,12,0,3,0,7,0,0,4,2,0,0,0,0,0,0,1,0,0,0,0,4,3,0,3,0,0,2,0,0,0.0,57995696.55,0.0,0,0,0,0,0
42928.64634,630924,7.002439024,10-Jul-77,Ejiofor Chiwetel,39,175.0,5,0,3,0,5,3,0,10,11,25,0,0,3,2,0,0,0,7,0,0,3,0,6,1,0,3,5,0,11,1,1,11,1,0,20373543.64,57915708.4,0.0,0,1,0,4,110
7214.272727,1572817,7.072727273,7-Jul-78,Myers Christopher H.,38,177.5,1,0,0,0,0,1,0,1,0,3,0,0,0,0,0,0,0,0,0,0,0,0,0,0,0,0,1,0,2,0,0,1,0,0,0.0,57895642.97,0.0,0,0,0,0,0
23470.80531,1032202,7.465486726,6-Jun-63,Isaacs Jason,53,177.5,18,0,7,4,1,9,0,6,23,30,0,0,6,11,0,0,0,4,6,0,0,0,5,1,0,10,10,0,25,1,0,13,3,1,42335915.65,57857348.26,0.0,0,0,0,1,20
82368.52239,2122965,6.714925373,26-Jul-67,Statham Jason,49,175.0,37,0,6,1,0,5,0,26,18,9,0,0,2,1,0,0,0,0,2,0,2,0,3,1,0,4,5,0,34,2,0,30,1,0,23928773.38,57800602.87,793756.1931,0,0,0,0,0
65818.37037,2047331,6.691358025,6-Aug-70,Shyamalan M. Night,46,175.0,1,0,1,0,1,1,0,0,20,3,0,0,4,2,0,0,0,0,0,0,0,0,2,0,0,0,1,0,24,0,0,2,0,0,0.0,57744502.55,12132359.11,0,0,0,0,0
24883.34667,1280691,6.445333333,30-Sep-52,Leong Al,64,165.0,21,0,5,0,0,7,0,8,1,5,0,0,0,1,0,0,0,0,2,0,0,0,0,0,0,0,5,0,1,0,0,11,0,0,0.0,57523982.7,0.0,0,0,0,0,0
16755.23529,449868,7.0,24-Dec-65,Cordero Ricardo,51,177.5,2,0,0,0,0,1,0,4,0,3,0,0,0,0,0,0,0,0,0,0,0,0,0,0,0,1,0,0,3,0,0,4,0,0,0.0,57507788.16,0.0,0,0,0,0,0
10254.22713,1783142,7.766876972,21-Jun-79,Pratt Chris,37,185.0,14,0,8,1,1,18,0,0,8,7,0,0,1,0,0,0,0,1,2,0,6,0,0,0,6,6,12,0,18,2,0,0,0,1,499125057.4,57482662.81,12000000.0,0,0,0,0,0
17501.546580000002,1875388,7.5888198760000005,1-Feb-64,Roache Linus,52,175.0,4,0,3,1,4,1,0,0,4,24,0,0,1,2,0,0,0,2,3,0,1,0,2,0,0,6,3,0,8,0,0,9,3,0,2582190.148,57326453.46,0.0,0,0,0,1,20
32971.98214,447991,7.305357142999999,27-Nov-73,Copley Sharlto,43,183.0,13,0,4,1,0,4,0,3,9,7,0,0,2,1,0,0,0,0,2,0,1,0,4,0,0,2,8,0,23,0,0,10,0,0,56807406.69,57293873.84,0.0,0,0,0,0,0
5312.376,2424801,8.050133333,24-Oct-60,Wong BD,56,160.0,4,0,8,4,3,10,0,3,9,10,0,0,10,2,0,0,0,3,0,0,4,3,2,0,1,7,4,0,4,0,0,5,2,0,50779.8773,57217166.61,0.0,0,0,0,0,0
12746.698409999999,2021031,7.216666667,29-Oct-67,Sewell Rufus,49,180.0,7,0,7,1,4,6,0,4,12,27,0,0,2,5,0,0,0,6,5,0,0,0,3,0,0,15,3,0,14,0,0,11,0,0,21110545.77,57169982.97,0.0,0,0,0,0,0
92041.59459,807724,7.2,12-May-83,Gleeson Domhnall,33,182.5,2,0,5,1,3,8,0,2,9,15,0,0,2,3,0,0,0,2,0,0,2,0,2,1,0,4,3,0,12,2,0,4,1,2,13792986.58,57047850.01,0.0,0,0,0,0,0
15509.21739,1165058,7.642391303999999,25-Nov-79,Kinnaman Joel,37,185.0,15,0,2,0,0,4,0,15,2,14,0,0,0,2,0,0,0,1,1,0,1,0,2,0,0,3,4,0,10,0,0,19,1,0,39675844.55,57004123.24,0.0,0,0,0,0,0
7118.917159999999,1916334,7.6994082839999995,9-Oct-79,Routh Brandon,37,185.0,12,0,3,0,0,13,0,2,9,7,0,0,1,1,0,0,0,0,1,0,0,0,2,0,1,5,7,0,11,1,1,8,1,0,119882939.6,56969001.19,1190476.19,0,0,0,0,0
58298.53846,1882493,7.1,6-Sep-83,Robinson James,33,182.5,0,0,0,0,1,4,0,1,0,4,0,0,0,0,0,0,0,1,3,0,0,0,3,0,0,0,3,0,7,0,0,5,1,1,119070779.5,56946059.78,0.0,0,0,0,0,0
5126.34767,1636357,7.533333333,26-Jun-70,O'Donnell Chris,46,175.0,8,0,4,0,3,9,0,4,26,18,0,0,5,2,0,0,0,2,0,0,1,1,2,1,3,9,0,0,30,1,1,3,2,0,38597256.91,56929374.98,2873529.1960000005,0,0,0,1,20
12922.14407,1253496,6.886440678,11-Feb-92,Lautner Taylor,24,170.0,7,0,5,1,0,8,0,1,2,6,0,0,4,5,0,0,0,0,0,0,10,0,0,2,2,4,0,0,8,2,0,1,0,1,174132709.1,56926226.11,7938834.255,0,0,0,0,0
6636.32287,1261790,7.574215247000001,18-Aug-57,Leary Denis,59,185.0,10,0,12,10,2,54,0,12,26,21,0,0,12,3,0,1,0,3,1,0,9,0,2,1,2,4,7,0,14,5,2,12,1,0,5456235.052999999,56875825.09,1529636.711,0,0,0,2,40
15276.219509999999,2327512,6.1829268289999995,10-Mar-37,Viterelli Joe,79,165.0,8,0,1,0,0,14,0,9,2,8,0,0,2,1,0,0,0,0,0,0,0,0,2,1,0,5,0,0,1,0,0,4,0,0,0.0,56755233.98,0.0,0,0,0,0,0
37682.621210000005,1043091,6.5876623379999995,21-Dec-48,Jackson Samuel L.,68,185.0,56,0,37,13,15,36,0,39,119,62,0,0,25,8,0,0,0,10,4,0,21,1,14,3,7,7,28,0,57,16,2,47,4,2,27455804.3,56631689.65,7956530.802999999,0,0,0,4,80
19719.15909,532033,7.329545455,31-Jul-69,Dean Loren,47,177.5,4,0,2,0,2,3,0,3,0,15,0,0,1,0,0,0,0,2,0,0,0,0,2,0,0,4,0,0,1,0,0,4,0,0,6561203.842,56588934.27,0.0,0,0,0,0,0
3689.893401,2170213,5.639086294,4-May-23,Sykes Eric,93,175.0,1,0,2,0,2,43,0,2,20,4,0,0,4,2,0,1,0,0,1,0,2,1,2,0,0,1,0,0,8,0,2,2,0,1,290013036.0,56434745.29,0.0,0,0,0,0,0
37272.0,1381032,6.677777777999999,27-Sep-91,Mann Thomas,25,181.0,2,0,2,0,3,8,0,2,0,14,0,0,0,3,0,0,0,1,2,0,0,0,0,0,0,2,1,0,1,0,0,3,0,0,32020577.12,56434121.76,0.0,0,0,0,0,0
24597.769659999998,2267556,6.778651685,28-Feb-57,Turturro John,59,180.0,14,0,7,5,6,30,0,16,30,44,0,0,5,4,0,0,0,4,0,0,5,0,3,0,0,10,4,0,14,5,1,14,2,0,7410329.8610000005,56333849.42,0.0,0,0,0,1,20
4570.488372,996111,6.857364341,29-Sep-13,Howard Trevor,103,181.5,17,0,23,0,8,18,0,13,10,72,0,0,2,2,5,0,0,14,3,0,4,1,9,0,0,14,3,0,8,1,0,19,20,1,49205233.0,56323399.59,0.0,0,1,0,3,90
11971.67742,1239833,7.051612903,3-Feb-56,Lane Nathan,60,167.5,3,0,10,11,5,36,0,1,24,16,0,0,34,11,0,1,0,1,0,0,15,10,1,1,0,7,1,0,8,0,0,0,0,0,28203458.89,56274267.95,0.0,0,0,0,2,40
81199.21738999999,2198423,6.793478261000001,13-Jun-90,Taylor-Johnson Aaron,26,177.5,8,0,5,0,1,8,0,5,4,15,0,0,4,2,0,0,0,0,0,0,1,0,2,0,0,5,2,0,7,0,0,7,0,0,61662032.77,56244489.66,0.0,0,0,0,0,0
14410.36545,1519809,7.628571429,24-May-53,Molina Alfred,63,185.0,16,0,21,17,11,35,0,14,21,60,0,0,12,7,0,0,0,5,3,0,2,1,9,1,2,24,8,0,17,1,0,22,3,2,35619344.97,56015317.49,3811540.498,0,0,0,0,0
34643.14286,2339214,5.3142857139999995,20-Jan-73,Wada Tet,43,177.0,2,0,0,0,0,3,0,1,0,6,0,0,0,1,0,0,0,0,0,0,0,0,1,0,0,1,0,0,2,0,0,3,0,0,0.0,55948555.21,0.0,0,0,0,0,0
37321.02564,2210819,6.897435897,20-Mar-63,Thewlis David,53,189.0,4,0,8,4,8,15,0,9,16,42,0,0,3,7,0,0,0,7,4,0,0,1,8,0,0,9,5,0,19,0,0,13,4,0,2104670.65,55943435.02,0.0,0,0,0,0,0
34449.953989999995,2408692,6.6812883439999995,19-Mar-55,Willis Bruce,61,180.0,51,0,17,5,9,45,0,35,65,33,0,0,13,2,0,0,0,0,4,0,21,0,15,2,4,11,11,0,53,2,2,46,5,1,86986622.1,55923029.98,19124938.06,0,0,1,3,135
78756.7,1876180,7.22,17-Jun-80,Robbins Jarrod,36,180.0,1,0,0,0,1,3,0,1,0,1,0,0,0,0,0,0,0,0,2,0,1,0,3,0,0,0,1,0,3,0,0,5,0,0,0.0,55824263.51,0.0,0,0,0,0,0
7271.184783,1076538,6.799347826,2-May-72,Johnson Dwayne,44,196.0,142,0,16,2,22,25,0,11,83,8,0,0,18,10,0,3,0,0,0,0,13,1,0,2,2,2,7,0,58,84,1,15,0,0,87451580.19,55815904.96,13674865.0,0,0,0,0,0
45163.60938,475215,6.8140625,8-Jul-68,Crudup Billy,48,170.0,6,0,6,1,3,10,0,2,5,27,0,0,2,3,0,0,0,2,1,0,4,1,3,0,1,6,7,0,3,2,0,8,0,1,6644256.867000001,55793117.78,1393728.2230000002,0,0,0,0,0
9914.941606,882277,7.184379562,7-Jun-78,Hader Bill,38,182.5,5,0,9,15,2,92,0,2,15,11,0,0,13,4,0,0,0,1,0,0,3,0,1,2,2,12,10,0,24,1,0,0,0,0,88487355.22,55557039.49,0.0,0,0,0,0,0
23657.45545,274269,7.291584157999999,12-Feb-68,Brolin Josh,48,175.0,20,0,6,0,7,16,0,15,28,31,0,0,3,2,0,0,0,6,4,0,2,0,7,3,0,7,7,0,16,1,1,17,1,2,14650218.41,55539646.69,0.0,0,0,0,0,0
21594.285,633435,7.5685,6-Sep-72,Elba Idris,44,190.0,13,0,11,1,1,5,0,7,24,25,0,0,4,7,0,0,0,2,5,0,8,0,6,0,2,5,8,0,13,3,0,12,2,2,44037902.44,55527586.92,0.0,0,0,0,3,60
76505.41026,659825,6.969230769,15-Apr-79,Evans Luke,37,180.0,7,0,2,0,1,2,0,2,4,10,0,0,0,5,0,0,0,1,2,0,3,2,3,0,0,4,0,0,9,0,0,7,1,0,28565320.99,55469259.87,0.0,0,0,0,0,0
13429.17314,848804,7.374558304,12-Aug-56,Greenwood Bruce,60,182.0,18,0,12,3,6,16,0,14,25,54,0,0,6,3,0,0,0,0,5,0,3,1,11,0,0,17,12,0,20,1,0,33,2,2,30981513.29,55301257.12,0.0,0,0,0,0,0
28351.20588,1505668,7.159558823999999,20-Jun-89,Mintz-Plasse Christopher,27,167.5,5,0,10,10,0,28,0,1,1,2,0,0,10,9,0,0,0,1,1,0,4,1,0,0,1,2,0,0,12,0,0,0,0,0,0.0,55297743.52,0.0,0,0,0,0,0
56386.12195,621908,6.758536585,12-Mar-68,Eckhart Aaron,48,183.0,11,0,2,0,4,13,0,7,14,23,0,0,0,2,0,0,0,1,1,0,1,0,7,1,0,7,4,0,9,2,2,15,0,1,18996410.99,55101088.01,0.0,0,0,0,1,20
1401.7697369999999,2177557,7.255921053,4-Aug-52,Tabori Kristoffer,64,175.0,11,0,7,2,1,5,0,3,0,22,0,0,1,12,0,0,0,0,1,0,1,1,2,0,0,6,9,0,1,1,0,5,0,0,0.0,54946240.68,0.0,0,0,0,0,0
4187.802326,2027682,6.619767442000001,10-Apr-32,Sharif Omar,84,177.5,11,0,20,1,11,17,0,10,40,71,0,0,6,4,0,0,0,20,0,0,4,4,9,0,1,30,1,0,15,1,1,15,11,2,47390998.57,54814480.47,1474548.44,0,1,3,0,255
14828.10189,1287238,7.709811321,29-May-57,Levine Ted,59,177.5,10,0,2,0,2,13,0,8,5,26,0,0,2,3,0,0,0,1,4,0,2,0,11,1,0,5,3,0,5,1,0,16,1,2,0.0,54801267.43,0.0,0,0,0,0,0
8850.123711,466672,7.621821306,7-Mar-56,Cranston Bryan,60,175.0,16,0,8,21,6,27,0,7,15,28,0,0,6,3,0,0,0,2,1,0,2,0,3,1,2,9,19,0,26,1,1,13,0,0,11691252.67,54740106.73,0.0,0,1,0,3,90
5981.488,2429998,7.852,25-Sep-84,Woods Zach,32,190.0,3,0,1,1,0,15,0,0,2,2,0,0,1,1,0,0,0,0,0,0,0,0,0,0,0,2,1,0,5,0,0,0,0,0,128150608.0,54700547.03,0.0,0,0,0,0,0
11039.20455,1406929,6.436363636,12-Jan-66,Martinez Olivier,50,175.0,3,0,5,0,2,4,0,2,7,16,0,0,0,2,0,0,0,2,1,0,1,0,1,0,1,6,1,0,6,0,0,5,1,1,359948.4663,54696670.3,0.0,0,0,0,0,0
6799.632184,1550922,7.329885057,17-Aug-78,Moss-Bachrach Ebon,38,182.5,1,0,1,0,0,10,0,1,0,12,0,0,0,1,0,0,0,0,2,0,1,1,2,0,0,8,1,0,3,0,0,4,0,0,50853.45622,54612422.31,0.0,0,0,0,0,0
5698.134003,1886319,7.031155779,7-Feb-65,Rock Chris,51,178.0,14,0,13,10,6,92,0,7,70,10,0,0,19,2,0,0,0,1,0,0,35,4,0,2,10,7,0,0,17,3,4,6,0,0,31891942.23,54603701.91,988478.7139,0,0,0,0,0
19816.587209999998,483406,7.3848837210000005,13-Dec-69,Curran Tony,47,177.5,13,0,8,1,1,11,0,5,3,24,0,0,2,7,0,0,0,3,6,0,0,1,7,0,0,2,4,0,10,0,0,11,2,0,11886.061609999999,54529039.36,0.0,0,0,0,0,0
3400.4,2414965,7.76,24-Mar-81,Winchester Philip,35,182.5,3,0,2,0,0,3,0,1,0,10,0,0,1,0,0,0,0,2,1,0,0,0,1,0,0,2,1,0,0,1,0,1,2,0,62945.298460000005,54491094.42,0.0,0,0,0,0,0
14330.5154,2342010,7.467556468,5-Jun-71,Wahlberg Mark,45,170.0,19,0,5,1,5,15,0,17,45,26,0,0,4,2,0,1,0,5,0,0,14,0,5,1,3,3,6,0,32,9,1,25,2,0,85868936.47,54451400.67,11494802.64,0,1,0,2,70
37409.4078,498354,6.736170212999999,8-Oct-70,Damon Matt,46,175.0,17,0,12,3,7,19,0,9,86,31,0,0,9,6,0,1,0,10,1,0,6,0,8,4,4,6,7,0,67,5,1,18,4,5,94909053.35,54395111.88,9628841.176,0,3,1,4,245
23963.25,1929147,7.034659091,17-Mar-51,Russell Kurt,65,177.5,21,0,13,1,7,24,0,13,35,33,0,0,21,5,0,0,0,4,4,0,6,2,6,0,2,8,11,0,18,10,0,21,1,10,54752507.68,54279301.84,12480084.62,0,0,0,1,20
2176.391941,449706,7.234065934,22-Aug-78,Corden James,38,170.0,1,0,4,6,4,33,0,3,21,9,0,0,11,4,0,2,0,1,1,0,16,5,0,0,1,4,1,0,18,2,1,1,0,0,16358141.73,54261793.65,0.0,0,0,0,0,0
28546.378839999998,716611,6.739249147000001,13-Jul-42,Ford Harrison,74,182.5,31,0,21,0,11,16,0,11,116,31,0,0,10,9,0,0,0,1,2,0,7,1,7,1,5,9,17,0,51,1,1,19,5,3,168295256.9,54105500.49,21631576.66,0,1,0,4,110
34762.07895,2116525,7.526315789,6-Jan-72,Stadulis Christopher,44,180.0,5,0,3,0,0,5,0,2,0,14,0,0,0,3,0,0,0,2,0,0,0,0,1,0,0,3,1,0,11,2,0,4,1,0,0.0,54096494.4,0.0,0,0,0,0,0
3412.413655,393504,7.085341365,30-Aug-63,Chiklis Michael,53,170.0,10,0,4,5,3,13,0,7,15,4,0,0,5,5,0,0,0,0,1,0,3,2,3,0,2,1,6,0,13,8,0,10,0,0,2107741.935,54095807.56,0.0,0,0,1,2,115
71820.42105,2132655,6.973684211,5-Sep-56,Steven Joseph,60,185.0,4,0,5,0,0,4,0,2,1,14,0,0,4,3,0,0,0,0,1,0,0,0,2,1,0,1,5,0,18,0,0,6,0,1,0.0,54086038.89,0.0,0,0,0,0,0
16325.27565,2137515,6.919315895,30-Nov-65,Stiller Ben,51,167.5,10,0,10,8,5,100,0,4,61,22,0,0,22,6,0,0,0,0,0,0,30,1,2,1,3,14,6,0,74,5,2,4,0,0,101863186.0,53952705.94,9456860.915,0,0,0,0,0
29864.100960000003,792390,7.052403846,6-Jun-67,Giamatti Paul,49,172.5,11,0,11,10,10,30,0,9,28,36,0,0,11,5,0,0,0,4,2,0,5,0,10,4,0,10,10,0,18,5,0,14,0,0,23803040.02,53847725.83,0.0,0,1,2,2,220
4367.467742,2159063,7.606451613,5-Feb-89,Sumpter Jeremy,27,180.0,3,0,2,0,2,3,0,1,5,11,0,0,5,2,0,0,0,0,3,0,1,0,1,0,0,2,0,0,1,2,1,6,0,1,0.0,53751046.05,0.0,0,0,0,0,0
18777.97569,849418,7.574652778,2-Apr-62,Gregg Clark,54,172.5,8,0,7,1,2,17,0,2,4,23,0,0,4,3,0,0,0,2,1,0,0,0,0,0,2,7,7,0,6,1,0,5,2,0,0.0,53737054.6,0.0,0,0,0,0,0
17470.849580000002,1998523,6.5523676879999995,30-Jul-47,Schwarzenegger Arnold,69,185.0,54,0,15,0,23,30,0,15,170,18,0,0,22,10,0,0,0,10,4,0,11,0,6,7,6,3,22,0,67,15,5,25,3,1,96876169.31,53645104.22,19240963.21,0,0,1,1,95
7404.132212,689214,6.574399037999999,16-Jul-67,Ferrell Will,49,187.5,6,0,3,3,2,155,0,4,53,6,0,0,11,4,0,3,0,0,0,0,19,1,0,0,0,10,3,0,59,11,1,2,0,1,98494045.11,53623859.16,21087698.24,0,0,0,2,40
11374.10526,99456,6.995906432999999,29-Aug-23,Attenborough Richard,93,167.5,5,0,13,1,12,16,0,17,54,46,0,0,4,4,3,0,0,9,0,0,4,2,5,3,1,6,4,0,12,1,0,13,16,0,14955499.51,53608364.53,0.0,0,0,2,0,150
31378.09701,310229,7.252985075,13-Nov-69,Butler Gerard,47,185.0,23,0,14,7,4,13,0,6,25,21,0,0,9,13,0,1,0,5,2,0,4,1,0,1,1,8,4,0,24,3,1,16,4,0,48472857.93,53554321.76,0.0,0,0,0,0,0
77685.85,1802634,6.9,20-Aug-71,Quan Jonathan Ke,45,160.0,3,0,3,0,0,1,0,0,4,3,0,0,1,1,0,0,0,0,0,0,1,0,0,0,0,1,1,0,3,0,0,0,0,0,0.0,53528378.37,0.0,0,0,0,0,0
55628.37755,2192740,6.602040816000001,26-Apr-80,Tatum Channing,36,182.5,14,0,9,2,1,20,0,6,7,18,0,0,1,3,0,0,0,2,0,0,5,1,1,3,2,8,7,0,16,5,0,6,2,0,50681632.83,53490894.48,0.0,0,0,0,0,0
18825.73057,149102,7.333678756,9-Apr-82,Baruchel Jay,34,182.7,7,0,10,9,0,31,0,3,9,12,0,0,10,11,0,0,0,0,1,0,2,0,1,2,0,6,1,0,14,5,0,4,0,0,90507180.79,53443633.33,0.0,0,0,0,0,0
40203.76923,835303,7.373076922999999,21-Apr-65,Grady John,51,177.5,2,0,1,0,0,8,0,0,0,7,0,0,0,0,0,0,0,0,4,0,0,0,1,0,0,1,1,0,12,0,0,4,0,0,0.0,53401469.27,0.0,0,0,0,0,0
16836.15504,731668,6.480620155,3-Dec-68,Fraser Brendan,48,187.5,14,0,17,7,2,33,0,4,12,21,0,0,17,14,0,0,0,1,3,0,8,0,2,0,2,13,8,0,9,1,2,11,2,0,67844077.85,53382734.09,8966124.806,0,0,0,0,0
513042.0,2287342,8.0,8-Sep-79,Valleti Ravi,37,190.0,1,0,1,0,0,0,0,0,0,5,0,0,0,0,0,0,0,0,0,0,0,0,0,0,0,0,1,0,3,0,0,1,0,0,0.0,53361501.55,0.0,0,0,0,0,0
21334.154980000003,2260805,6.974907749,11-Nov-60,Tucci Stanley,56,170.0,8,0,11,4,8,38,0,10,21,43,0,0,11,10,0,0,0,5,3,0,5,3,4,0,0,16,6,0,17,1,0,15,1,0,214810127.8,53355403.83,0.0,0,1,2,1,200
5440.5,1930731,7.3078125,6 February 1895,Ruth Babe,121,182.5,2,0,0,0,9,6,0,0,49,4,0,0,1,0,0,0,0,12,0,0,2,0,0,1,0,2,0,0,22,45,0,0,0,0,0.0,53347796.51,0.0,0,0,0,0,0
1748.3333329999998,663151,6.54,7-Apr-18,Eythe William,98,175.0,1,0,2,0,1,3,0,3,0,8,0,0,0,0,1,0,0,4,0,0,1,1,1,0,0,2,0,0,0,0,0,1,2,1,0.0,53333333.33,0.0,0,0,0,0,0
64.21212121,1161530,7.087878787999999,3 June 1865,King George Vnan,151,165.0,0,0,0,0,3,0,0,0,104,2,0,0,1,0,0,0,0,5,0,0,1,0,0,12,0,1,0,0,95,1,0,0,6,0,0.0,53333333.33,0.0,0,0,0,0,0
15572.80169,1960051,6.4649789029999996,9-Sep-66,Sandler Adam,50,172.5,4,0,1,9,4,108,0,3,42,11,0,0,19,8,0,3,0,3,0,0,24,4,1,3,7,11,1,0,15,5,3,1,0,1,103194472.3,53316270.0,16670085.9,0,0,0,1,20
16147.287069999998,2360944,7.035015773,28-Dec-54,Washington Denzel,62,182.5,17,0,2,0,13,7,0,22,64,47,0,0,23,3,0,0,0,12,0,0,13,0,10,0,6,8,3,0,39,8,2,25,5,1,73890134.83,53255579.35,20543720.22,2,4,2,5,570
3942.784722,256787,7.8125,6-Apr-75,Braff Zach,41,182.25,0,0,4,2,2,13,0,0,10,10,0,0,7,2,0,0,0,2,0,0,5,0,0,1,0,6,1,0,7,1,3,0,0,0,39899176.93,53249931.79,523364.48600000003,0,0,0,3,60
38427.25,537115,7.1175,6-Feb-86,DeHaan Dane,30,175.0,4,0,4,1,2,4,0,2,2,7,0,0,1,0,0,0,0,1,2,0,5,1,2,0,0,6,5,0,6,0,1,3,1,0,35511254.76,53242099.05,0.0,0,0,0,0,0
14705.06417,881636,6.729411765,30-Jan-30,Hackman Gene,86,185.0,30,0,14,1,11,16,0,29,65,63,0,0,9,1,0,0,0,6,0,0,2,0,10,1,1,13,7,0,28,5,0,33,8,7,44741786.37,53161099.31,4006026.1769999997,2,3,3,5,615
14010.835619999998,1249206,7.343835616000001,12-Apr-81,Lasky Matt,35,192.5,40,0,5,0,0,5,0,2,2,7,0,0,0,6,0,0,0,7,4,0,0,0,2,0,0,0,4,0,14,25,0,6,4,0,0.0,53137902.75,0.0,0,0,0,0,0
33031.1448,319490,6.4461538460000005,7-Jan-64,Cage Nicolas,52,180.0,27,0,11,5,8,29,0,23,65,41,0,0,17,14,0,0,0,3,5,0,7,0,9,1,2,12,5,0,39,1,1,43,4,0,51169353.29,53132192.13,10357770.38,1,1,1,3,265
8238.753247,1008513,8.357792208,10-Apr-80,Hunnam Charlie,36,182.5,3,0,3,0,2,5,0,4,4,15,0,0,0,2,0,0,0,1,1,0,1,0,2,0,0,5,3,0,11,1,0,5,0,0,52434144.93,53122835.58,0.0,0,0,0,0,0
20660.62238,1285128,8.039160839,21-Jan-70,Leung Ken,46,167.5,1,0,2,1,1,6,0,4,0,14,0,0,0,1,0,0,0,1,1,0,0,0,2,0,0,4,1,0,2,0,0,3,1,0,207833648.1,53111504.46,0.0,0,0,0,0,0
17195.95769,1763318,6.889230769,13-Dec-29,Plummer Christopher,87,175.0,20,0,21,28,13,31,0,17,42,95,0,0,27,9,0,0,0,14,11,0,9,9,18,0,5,24,11,0,18,3,0,44,8,0,6170254.622,52975064.95,110429.4479,0,1,1,2,145
6180.5,974534,7.787619048,12-Jun-70,Hoffman Rick,46,172.0,3,0,2,0,0,9,0,2,0,2,0,0,1,0,0,0,0,0,1,0,0,0,0,0,0,0,1,0,4,0,0,2,0,0,0.0,52947064.04,0.0,0,0,0,0,0
9559.359649,1536330,7.585087719,18-Apr-53,Moranis Rick,63,160.0,4,0,10,6,0,30,0,3,6,5,0,0,12,9,0,0,0,0,1,0,4,3,0,0,0,3,8,0,7,2,0,2,0,0,97712304.75,52911070.8,0.0,0,0,0,0,0
1785.816327,992948,6.7231292520000006,17-May-85,Hough Derek,31,175.0,0,0,1,0,1,1,0,0,2,2,0,0,3,1,0,0,0,0,0,0,3,4,0,0,3,2,0,0,1,1,1,0,0,0,123979.116,52898844.36,0.0,0,0,0,0,0
45230.14286,999155,6.657142857,19-Jan-75,Hsu Art,41,178.0,9,0,2,0,0,7,0,3,0,8,0,0,1,1,0,0,0,0,0,0,1,0,0,0,0,1,1,0,9,1,0,2,0,0,0.0,52843101.43,0.0,0,0,0,0,0
18681.1371,1302318,7.159677418999999,18-Nov-52,Lindo Delroy,64,190.0,15,0,4,2,3,11,0,16,11,28,0,0,3,3,0,0,0,5,1,0,2,1,5,0,0,7,5,0,7,3,0,17,0,0,56870545.88,52811447.99,0.0,0,0,0,0,0
6063.81761,487208,7.597484277,8-Feb-59,Czerny Henry,57,172.5,4,0,5,0,7,7,0,8,6,43,0,0,3,1,0,0,0,2,3,0,0,0,5,0,0,7,1,0,7,1,0,12,1,1,417343.838,52804764.72,0.0,0,0,0,0,0
13234.99051,471923,7.246518987000001,27-Jan-40,Cromwell James,76,195.0,16,0,9,3,13,20,0,6,46,47,0,0,12,5,0,0,0,10,3,0,2,1,9,6,3,6,11,0,28,3,0,18,4,1,683846.3818,52747914.37,0.0,0,1,0,0,30
21803.33333,1979727,6.7,25-Dec-84,Scardino Hal,32,180.0,0,0,0,0,1,1,0,0,0,4,0,0,1,1,0,0,0,0,0,0,0,0,0,0,0,0,0,0,0,0,0,0,0,0,56090707.09,52629332.55,0.0,0,0,0,0,0
14074.39286,273403,6.775,21-Mar-62,Broderick Matthew,54,170.0,5,0,10,6,8,47,0,3,26,27,0,0,24,4,0,0,0,3,0,0,14,8,1,0,2,12,6,0,14,1,2,5,1,0,62275243.23,52593476.67,0.0,0,0,0,1,20
6277.860465,851284,7.492248062000001,20-Dec-63,Gretsch Joel,53,175.0,3,0,0,0,0,0,0,1,2,7,0,0,0,1,0,0,0,1,1,0,1,0,1,0,0,0,3,0,4,1,0,5,0,0,0.0,52555679.93,0.0,0,0,0,0,0
25410.0614,698020,7.228070175,9-May-36,Finney Albert,80,172.5,2,0,5,1,9,14,0,9,23,47,0,0,11,4,0,0,0,6,1,0,3,5,5,0,1,11,1,0,7,1,0,11,2,0,24294464.44,52533237.27,2487046.6319999998,0,5,3,6,495
34222.2899,320580,6.885016287000001,14-Mar-33,Caine Michael,83,185.0,27,0,20,3,10,60,0,38,97,67,0,0,22,8,0,0,0,6,7,0,14,3,16,2,3,17,5,0,25,4,1,53,14,0,26002932.94,52518281.42,1851851.852,2,4,3,9,725
2241.879652,359000,7.449836779,29-Oct-57,Castellaneta Dan,59,175.0,46,0,87,75,1,159,0,10,11,8,0,0,42,42,0,1,0,0,2,0,6,6,10,0,0,8,27,0,33,11,0,0,0,0,212020110.0,52477105.83,293548.3871,0,0,0,0,0
2920.688797,891011,6.917427386,29-Jul-43,Hallahan Charles,73,177.5,5,0,2,1,1,8,0,9,1,20,0,0,1,6,0,0,0,1,7,0,0,0,4,0,0,2,3,0,0,2,0,9,0,0,0.0,52348115.13,0.0,0,0,0,0,0
59808.0,1415325,6.266666667000001,21-Nov-89,Massa Joseph,27,172.5,3,0,0,0,0,3,0,1,0,1,0,0,0,1,0,0,0,1,0,0,0,0,0,0,0,0,1,0,1,0,0,1,0,0,0.0,52335455.19,0.0,0,0,0,0,0
14316.523809999999,22688,7.385714286,1-Dec-82,Ahmed Riz,34,170.0,2,0,2,0,0,1,0,3,4,16,0,0,0,0,0,0,0,1,0,0,1,0,0,0,0,0,1,0,5,0,0,4,1,0,414709.9573,52277657.96,0.0,0,0,0,0,0
3358.9610390000003,2032658,7.638961039,7-Jan-88,Sheehan Robert,28,180.0,3,0,3,1,0,7,0,0,2,12,0,0,4,4,0,1,0,0,4,0,2,0,2,0,0,2,1,0,10,0,0,6,0,0,0.0,52246110.02,0.0,0,0,0,0,0
9884.866667,2444633,7.186666667000001,13-Oct-68,Yang Joseph Steven,48,172.5,1,0,0,0,0,0,0,0,0,5,0,0,2,0,0,0,0,0,1,0,0,0,0,0,0,2,0,0,5,0,0,0,0,1,0.0,52237653.6,0.0,0,0,0,0,0
14894.23301,1635663,7.2951456310000005,15-Nov-63,O'Connor Kevin J.,53,177.5,11,0,6,0,1,9,0,4,1,17,0,0,1,5,0,0,0,0,4,0,0,0,5,0,0,6,5,0,2,0,0,11,2,2,0.0,52236955.8,0.0,0,0,0,0,0
92844.0,1122693,7.4,21-Dec-81,Kasche Edward,35,175.0,0,0,0,0,0,1,0,0,0,5,0,0,0,1,0,0,0,0,1,0,0,1,0,0,0,2,1,0,4,0,0,0,0,0,0.0,52098408.1,0.0,0,0,0,0,0
10302.01377,825300,7.056798623,20-Jun-52,Goodman John,64,185.0,7,0,19,20,9,76,0,14,43,38,0,0,31,16,0,0,0,7,2,0,11,9,5,1,1,20,7,0,28,4,1,13,2,1,80318935.44,52071151.55,3697909.027,0,0,1,4,155
2611.6,1742445,7.1085714289999995,25-Jan-75,Phan Dat,41,162.5,2,0,1,0,0,14,0,0,6,1,0,0,0,1,0,0,0,0,0,0,0,0,1,0,1,1,1,0,9,2,0,0,0,0,0.0,52013190.21,0.0,0,0,0,0,0
967.9033816,1304312,7.617874396,17-Jun-54,Linn-Baker Mark,62,167.5,0,0,0,0,0,12,0,0,0,4,0,0,2,1,0,0,0,0,0,0,2,0,0,0,0,2,0,0,3,0,0,0,0,0,0.0,52008281.77,0.0,0,0,0,0,0
39741.91358,2069247,6.6098765429999995,13-Jun-51,Skarsg_Îârd Stellan,65,187.5,13,0,11,3,6,12,0,15,19,68,0,0,6,4,0,0,0,7,3,0,2,2,7,0,1,10,5,0,23,2,1,21,6,1,10715708.24,51999249.24,1190476.19,0,0,0,0,0
14747.5098,889935,6.564705882,9-May-55,Hall Kevin Peter,61,215.0,1,0,0,0,0,4,0,1,4,1,0,0,2,2,0,0,0,0,2,0,0,0,0,0,0,0,3,0,3,0,0,1,0,0,51998493.65,51969370.27,0.0,0,0,0,0,0
19849.448,215273,7.132000000000001,20-Aug-62,Blake Geoffrey,54,182.5,3,0,5,1,1,7,0,3,0,19,0,0,3,1,0,0,0,0,1,0,1,0,3,0,0,5,5,0,0,2,0,6,0,1,32214885.95,51828352.8,0.0,0,0,0,0,0
3084.831373,2345505,8.076862745,12-Jun-62,Walker Eamonn,54,182.5,2,0,0,1,0,1,0,4,2,14,0,0,0,1,0,0,0,0,0,0,1,0,1,0,0,2,1,0,5,0,0,2,2,0,74500.34843,51811145.92,0.0,0,0,0,0,0
4247.594937,967925,7.486582277999999,15-Mar-35,Hirsch Judd,81,180.0,6,0,4,1,7,18,0,8,15,31,0,0,10,2,0,0,0,4,1,0,5,0,2,0,0,2,3,0,7,2,0,4,1,0,0.0,51744825.09,0.0,0,1,1,7,245
20207.5625,2104996,7.3,7-Jul-79,Space Gaku,37,175.0,4,0,1,0,0,2,0,0,0,1,0,0,0,0,0,0,0,0,0,0,0,0,0,0,0,0,1,0,2,0,0,2,0,0,0.0,51656743.33,0.0,0,0,0,0,0
23873.02793,606473,6.401675977999999,10-Dec-57,Duncan Michael Clarke,59,196.0,23,0,18,9,5,22,0,8,24,15,0,0,20,13,0,0,0,1,2,0,6,1,8,0,0,6,11,0,14,7,0,13,0,0,0.0,51637114.66,0.0,0,0,0,1,20
14277.0,1917166,7.5,23-Apr-96,Rowe Charlie,20,175.0,0,0,1,1,0,2,0,0,0,3,0,0,2,0,0,0,0,0,0,0,1,0,0,0,0,2,1,0,1,0,0,0,0,0,37163835.73,51620857.29,0.0,0,0,0,0,0
22313.56831,2304430,6.454098361000001,28-Mar-70,Vaughn Vince,46,192.5,7,0,3,0,1,37,0,10,13,21,0,0,5,1,0,0,0,1,1,0,5,0,2,1,2,6,3,0,16,6,0,8,0,1,62302121.84,51599617.29,14949731.76,0,0,0,0,0
42233.35366,1724228,6.596341463,4-Apr-70,Pepper Barry,46,178.0,12,0,7,1,6,4,0,8,22,23,0,0,1,0,0,0,0,4,1,0,0,0,5,0,0,2,4,0,12,5,0,10,5,3,15518514.73,51505441.51,0.0,0,0,0,1,20
30752.086960000004,270020,7.691304347999999,21-Jun-78,Brimmer Nathan,38,177.5,2,0,3,0,2,5,0,2,1,9,0,0,0,0,0,0,0,0,0,0,0,0,2,0,0,4,3,0,5,0,0,3,2,1,0.0,51442823.59,0.0,0,0,0,0,0
1696.659091,915659,6.835227272999999,5-Mar-08,Harrison Rex,108,185.5,2,0,6,0,6,27,0,6,23,25,0,0,6,3,1,0,0,3,0,0,4,4,4,0,1,17,0,0,8,0,0,7,5,0,41703359.08,51350028.9,2064395.6509999998,1,1,1,3,265
8603.095238,2073513,6.285714286,11-Sep-82,Slattery Ryan,34,172.5,1,0,2,0,0,6,0,1,0,3,0,0,0,1,0,0,0,0,1,0,0,0,1,0,0,2,0,0,2,1,0,2,0,0,0.0,51342488.21,0.0,0,0,0,0,0
19980.58009,457725,6.724242424,18-Jan-55,Costner Kevin,61,182.5,12,0,6,1,14,13,0,12,89,40,0,0,9,3,0,0,0,11,2,0,9,0,3,1,3,13,3,0,31,13,1,14,2,6,79565659.43,51335278.53,13975166.0,0,1,0,3,90
22509.75238,760601,7.307619047999999,19-Oct-40,Gambon Michael,76,180.0,3,0,15,8,8,22,0,5,31,54,0,0,11,8,0,0,0,11,5,0,4,0,10,1,0,15,1,0,22,0,0,11,4,1,2584524.923,51231841.31,0.0,0,0,0,1,20
41593.75,2028696,7.833333333,21-Mar-93,Sharma Suraj,23,172.5,0,0,2,0,1,1,0,0,0,3,0,0,0,1,0,0,0,0,0,0,0,0,0,0,0,1,0,0,0,1,0,0,0,0,124987023.0,51114895.92,0.0,0,0,0,0,0
9865.513135,2406454,6.8716287220000005,21-Jul-51,Williams Robin,65,167.5,2,0,17,16,16,138,0,8,134,35,0,0,51,19,0,1,0,5,0,0,32,8,2,1,8,16,4,0,44,6,5,8,2,0,93078532.86,51104904.12,6953453.062000001,1,3,4,6,610
14662.333330000001,2167253,6.785802469,9-Oct-76,Swardson Nick,40,170.0,5,0,4,3,0,43,0,4,7,3,0,0,1,1,0,0,0,0,0,0,1,0,1,0,0,2,1,0,8,2,0,1,0,0,1322772.504,51049689.73,0.0,0,0,0,0,0
3725.075472,1540462,8.493081761000001,16-May-81,Morgan Joseph,35,177.5,2,0,0,0,0,0,0,1,0,5,0,0,0,1,0,0,0,0,2,0,0,0,1,0,0,1,0,0,0,0,0,3,0,0,0.0,51010847.39,0.0,0,0,0,0,0
10691.45699,1540348,7.579569892,22-Apr-66,Morgan Jeffrey Dean,50,185.0,10,0,3,0,1,5,0,7,3,17,0,0,1,2,0,0,0,1,1,0,0,1,6,1,0,3,8,0,6,0,0,15,0,2,38651244.41,50972292.73,0.0,0,0,0,0,0
36633.632110000006,676677,7.019397992999999,19-Oct-66,Favreau Jon,50,182.5,5,0,3,1,6,25,0,7,33,18,0,0,4,1,0,0,0,2,0,0,3,0,1,0,1,8,5,0,22,3,2,6,0,0,14895366.89,50966041.21,10669559.3,0,0,0,0,0
5145.8923079999995,1404550,6.9944615379999995,14-Aug-45,Martin Steve,71,180.0,0,0,7,5,13,118,0,7,58,14,0,0,25,6,0,1,0,3,1,0,24,4,4,0,4,12,5,0,13,1,2,3,1,1,71033743.97,50875695.48,14929978.39,0,0,0,5,100
1815.986014,1356602,7.567599068,10-Apr-54,MacNicol Peter,62,170.0,8,0,9,6,1,19,0,3,5,13,0,0,8,7,0,0,0,2,3,0,1,2,3,0,0,5,6,0,5,0,0,7,0,0,6357594.719,50871872.74,0.0,0,0,0,0,0
21641.0,914045,6.806837607,1-Oct-30,Harris Richard,86,182.5,10,0,23,2,8,11,0,7,20,47,0,0,6,6,0,0,0,12,3,0,4,6,1,0,1,12,2,0,6,1,0,12,8,8,78335643.41,50850500.95,0.0,0,2,1,1,155
3970.92,1349098,7.395,1951,Maar Pons,65,180.0,0,0,0,1,0,4,0,0,0,1,0,0,1,2,0,0,0,0,1,0,0,0,0,0,0,0,0,0,1,0,0,0,0,0,0.0,50821533.24,0.0,0,0,0,0,0
13317.14286,1767636,7.08156682,1-Jul-34,Pollack Sydney,82,180.0,0,0,0,0,10,5,0,2,65,9,0,0,1,1,0,0,0,0,1,0,7,1,3,0,1,5,1,0,17,1,1,4,1,1,0.0,50805590.08,0.0,0,0,0,0,0
2743.421801,1704056,6.833175355,21-Jun-54,Pastorelli Robert,62,178.0,4,0,2,1,0,13,0,5,2,7,0,0,2,3,0,0,0,1,1,0,2,0,2,1,0,1,0,0,0,0,0,7,0,1,12140867.29,50716443.99,0.0,0,0,0,0,0
4199.841176,616274,7.180588235,19-Jul-45,Dzundza George,71,172.5,11,0,3,2,3,5,0,14,3,35,0,0,5,4,0,0,0,1,3,0,0,0,4,0,0,2,5,0,5,0,0,14,6,0,326635.3339,50715517.22,0.0,0,0,0,0,0
35573.842110000005,897635,7.147368421,1-Feb-81,Hampton Sean,35,182.5,6,0,5,0,0,4,0,1,2,6,0,0,1,1,0,0,0,1,1,0,0,0,1,0,0,2,5,0,6,1,0,2,0,0,0.0,50699349.01,0.0,0,0,0,0,0
66947.5,408091,7.15,7-Jun-91,Cioffi Jon,25,177.5,0,0,0,0,0,1,0,1,0,2,0,0,0,1,0,0,0,0,0,0,0,0,0,0,0,3,0,0,5,0,0,1,0,0,0.0,50689375.51,0.0,0,0,0,0,0
2488.688525,1626457,7.478688525,23-Nov-78,Novak Kayvan,38,182.5,1,0,5,5,1,18,0,2,2,6,0,0,5,1,0,0,0,0,1,0,0,0,0,1,0,1,1,0,5,1,1,4,0,0,51525364.96,50689375.51,0.0,0,0,0,0,0
7750.671195999999,277032,6.930163042999999,16-May-53,Brosnan Pierce,63,185.0,24,0,14,2,10,24,0,11,121,31,0,0,11,3,0,0,0,2,2,0,10,4,5,4,2,12,3,0,62,1,1,33,2,2,71075755.04,50653600.88,14609067.28,0,0,0,2,40
21819.67961,2117865,6.4029126210000005,6-Jul-46,Stallone Sylvester,70,172.5,36,1,12,3,15,32,0,22,107,31,0,0,10,2,0,0,0,3,2,0,12,0,5,3,9,8,7,0,41,22,1,28,5,0,82897946.97,50645364.23,19530638.16,0,2,1,1,155
12363.17722,991716,6.742405063,26-Oct-42,Hoskins Bob,74,165.0,6,0,10,6,10,35,0,14,32,61,0,0,12,13,0,0,0,8,0,0,8,3,6,1,0,12,4,0,19,2,0,13,7,0,47511193.22,50523555.76,0.0,0,1,1,2,145
15037.86581,419269,6.734375,6-May-61,Clooney George,55,177.5,8,0,7,1,6,31,0,15,81,27,0,0,4,0,0,0,0,7,4,0,18,1,6,9,5,8,5,0,28,2,9,17,3,1,71410442.29,50473341.01,8815443.672,1,3,3,5,515
5774.105263,2024995,7.644385965,9-Oct-53,Shalhoub Tony,63,175.0,6,0,10,2,3,31,0,3,16,23,0,0,14,2,0,0,0,1,1,0,4,2,6,2,1,9,6,0,12,2,1,4,1,0,28422996.56,50448531.74,0.0,0,0,1,4,155
8134.4230769999995,794046,6.888461538,17-Apr-67,Gibbs Timothy,49,175.0,5,0,3,3,0,3,0,5,0,14,0,0,2,3,0,0,0,0,7,0,1,0,5,0,0,2,5,0,5,0,0,13,1,0,0.0,50434455.37,0.0,0,0,0,0,0
15875.04274,489397,7.321367521,24-Aug-75,D'Arcy James,41,187.5,5,0,4,1,2,8,0,5,4,31,0,0,1,3,0,0,0,7,3,0,0,0,6,0,0,8,7,0,8,0,0,10,6,0,0.0,50350300.31,0.0,0,0,0,0,0
8621.6875,2142034,6.60875,15-Jun-79,Stone Skyler,37,170.0,6,0,2,1,0,16,0,0,1,2,0,0,2,0,0,1,0,0,1,0,0,0,0,0,1,4,3,0,7,0,0,1,0,0,0.0,50333720.98,0.0,0,0,0,0,0
8010.838234999999,333165,6.552941176,10-Apr-73,Canet Guillaume,43,176.0,3,0,4,1,4,13,0,5,3,32,0,0,1,2,0,0,0,2,1,0,2,0,2,0,0,11,4,0,7,3,0,10,3,0,325565.1405,50269221.84,0.0,0,0,0,0,0
7487.80597,2205514,7.0597014929999995,15-Aug-45,Terry Nigel,71,177.5,1,0,1,0,5,3,0,5,3,23,0,0,0,2,0,0,0,4,2,0,0,1,0,0,0,7,0,0,2,1,0,3,1,0,5970058.581,50152235.29,0.0,0,0,0,0,0
12952.37838,2462499,7.278378377999999,13-Nov-67,Zahn Steve,49,171.0,4,0,7,4,3,29,0,7,8,18,0,0,8,1,0,0,0,1,0,0,1,0,3,0,0,7,4,0,8,0,0,6,0,2,16687875.15,50146323.33,2703533.026,0,0,0,0,0
17848.6729,187741,6.663551402,28-Oct-57,Berkel Christian,59,173.0,2,0,2,0,5,10,0,23,7,30,0,0,1,0,0,1,0,4,1,0,0,0,1,0,0,4,0,0,7,1,0,14,4,0,0.0,50128255.04,0.0,0,0,0,0,0
20646.7,1006277,7.072,6-Dec-53,Hulce Tom,63,170.0,0,0,3,3,2,7,0,0,10,16,0,0,5,0,0,0,0,1,2,0,4,4,1,0,0,5,1,0,3,0,0,3,0,0,38924784.71,50066617.93,0.0,0,1,0,4,110
23298.58049,1372571,6.907804877999999,9-Dec-53,Malkovich John,63,180.0,12,0,8,2,7,28,0,12,31,59,0,0,5,5,0,0,0,11,6,0,7,1,5,0,0,13,5,0,18,1,1,16,7,1,4097566.648,50045062.97,1660899.654,0,2,0,3,120
2830.6655170000004,468787,7.300689655,30-Nov-26,Crenna Richard,90,182.5,9,0,11,1,10,22,0,19,25,54,0,0,8,2,0,0,0,5,6,0,2,2,6,0,4,15,5,0,8,3,1,26,4,7,0.0,50028131.87,0.0,0,0,0,3,60
8179.49892,375608,6.835637149,7-Apr-54,Chan Jackie,62,170.0,136,0,42,8,9,83,0,33,60,48,0,0,18,12,0,0,0,6,1,0,10,2,3,0,2,12,3,0,22,3,1,31,4,1,38393643.91,49988082.59,12740372.08,0,0,0,0,0
15235.60699,130045,6.277292576000001,10-Aug-60,Banderas Antonio,56,170.0,20,0,17,12,17,32,0,14,57,31,0,0,25,10,0,0,0,7,1,0,13,2,7,4,5,17,7,0,25,1,1,24,2,3,56049553.32,49960406.9,11190272.86,0,0,0,3,60
17650.41176,908096,8.457647059,26-Dec-86,Harington Kit,30,170.0,2,0,6,0,2,2,0,0,14,8,0,0,0,4,0,0,0,3,1,0,1,0,1,0,0,1,0,0,1,1,0,1,2,0,23511982.35,49887818.77,0.0,0,0,0,0,0
20369.47436,518501,6.833333333,29-Apr-57,Day-Lewis Daniel,59,185.0,2,0,2,0,5,4,0,1,23,19,0,0,6,0,0,0,0,7,0,0,0,1,0,0,0,8,0,0,3,1,2,0,3,0,43133777.0,49878993.46,12237093.69,3,2,2,5,610
126031.5,1885326,6.775,29-Nov-83,Rocco Sam,33,175.0,1,0,2,0,1,3,0,1,0,4,0,0,0,1,0,0,0,0,0,0,1,0,1,0,0,1,2,0,1,0,0,2,0,0,0.0,49852891.77,0.0,0,0,0,0,0
5796.0,283606,6.727272727000001,30 May 1892,Brown Russ,124,177.5,0,0,0,0,1,12,0,1,1,3,0,0,0,0,0,0,0,0,0,0,2,6,1,0,0,4,0,0,11,1,0,1,1,0,0.0,49826989.62,0.0,0,0,0,0,0
232368.75,914248,6.1,24-Jul-82,Harris Sam,34,182.5,5,0,0,0,0,0,0,2,0,3,0,0,0,0,0,0,0,0,4,0,1,0,2,0,0,1,0,0,2,1,0,5,0,0,0.0,49819408.0,0.0,0,0,0,0,0
29734.96703,275449,7.0318681320000005,22-Jul-47,Brooks Albert,69,175.0,3,0,6,8,2,30,0,4,12,15,0,0,7,3,0,0,0,0,1,0,5,0,1,0,1,5,1,0,4,2,2,3,1,0,19280850.92,49815933.47,4858299.595,0,1,0,1,50
11574.9322,737993,7.325423729,7-Jan-63,Friday Bryan,53,182.5,7,0,1,0,0,3,0,4,1,10,0,0,0,0,0,0,0,0,3,0,1,0,2,0,0,1,1,0,1,0,0,6,0,2,0.0,49803715.19,0.0,0,0,0,0,0
13775.739130000002,549629,7.0913043479999995,24-Nov-73,Denzlinger Jeremy,43,167.5,5,0,2,0,3,8,0,1,0,12,0,0,1,1,0,0,0,1,1,0,0,1,0,0,0,5,2,0,4,1,0,1,1,1,0.0,49797023.77,0.0,0,0,0,0,0
32355.925,214192,7.225,6-May-81,Blagrove Will,35,187.5,4,0,4,1,0,9,0,3,0,11,0,0,0,1,0,0,0,1,1,0,2,0,0,0,1,4,1,0,9,4,0,2,1,0,0.0,49668714.82,0.0,0,0,0,0,0
1822.909091,806532,7.450757576,25-Mar-43,Glaser Paul Michael,73,178.0,4,0,1,3,1,11,0,7,10,17,0,0,3,2,0,0,0,1,1,0,1,2,1,0,2,5,2,0,8,0,0,3,0,0,0.0,49651420.38,0.0,0,0,0,0,0
12094.35831,1547208,7.668403908999999,11-Oct-53,Morse David,63,190.0,14,0,3,0,4,8,0,15,14,52,0,0,2,6,0,0,0,2,5,0,2,1,12,0,0,7,3,0,13,3,0,29,3,2,336784.141,49618667.98,0.0,0,0,0,0,0
15030.916669999999,1615496,7.416666667,26-Sep-74,Ninjanan,42,187.0,1,0,0,0,0,1,0,1,2,2,0,0,0,0,0,0,0,0,0,0,5,0,0,0,0,0,1,0,7,0,0,1,0,0,0.0,49616694.16,0.0,0,0,0,0,0
19104.39601,828662,7.5068376070000005,17-Feb-81,Gordon-Levitt Joseph,35,176.0,14,0,10,5,5,23,0,11,15,28,0,0,7,4,0,0,0,2,1,0,4,3,1,2,1,13,8,0,21,1,3,21,4,1,19085200.03,49603627.97,0.0,0,0,0,2,40
3234.013333,1319219,7.827999999999999,18-May-80,Long Matt,36,175.0,1,0,1,0,0,2,0,2,1,6,0,0,0,2,0,0,0,0,2,0,0,0,0,0,0,1,0,0,2,0,0,4,1,0,134069575.7,49368455.31,0.0,0,0,0,0,0
15958.5122,465985,6.887804878,6-Jun-58,Cramer Rick,58,187.5,8,0,2,0,0,4,0,1,1,4,0,0,1,1,0,0,0,0,3,0,0,0,0,0,0,1,7,0,5,0,0,8,2,1,0.0,49367604.65,0.0,0,0,0,0,0
1143.232836,2376929,8.226865672,26-Apr-77,Welling Tom,39,190.0,1,0,2,0,0,3,0,0,10,1,0,0,4,0,0,0,0,1,2,0,2,0,0,0,0,1,3,0,6,0,0,0,0,0,36265575.42,49342149.2,0.0,0,0,0,0,0
23591.82759,1298951,6.582758621,4-Jun-68,Lim Roger,48,175.0,2,0,0,0,0,3,0,1,0,10,0,0,0,1,0,0,0,0,0,0,1,0,1,0,0,4,2,0,1,6,1,3,0,0,0.0,49251424.52,0.0,0,0,0,0,0
35557.0,381633,7.028571428999999,14-May-72,Charles Scott,44,180.0,1,0,0,0,0,0,0,0,0,1,0,0,0,0,0,0,0,0,0,0,0,0,0,0,0,0,1,0,1,0,0,1,0,0,0.0,49225224.35,0.0,0,0,0,0,0
7279.188797,473121,7.525726141,4-Apr-64,Cross David,52,170.0,6,1,8,15,2,67,0,3,16,5,0,0,11,7,0,0,0,3,2,0,9,0,0,1,1,4,5,0,12,2,5,3,0,0,79443848.83,49223680.42,0.0,0,0,0,0,0
11071.9,689968,7.023333332999999,9-Nov-51,Ferrigno Lou,65,190.0,22,0,13,0,4,16,0,3,38,11,0,0,2,11,0,1,0,1,0,0,7,0,0,2,3,0,17,0,9,5,1,2,0,0,12003845.21,49201098.28,0.0,0,0,0,0,0
23636.04969,673438,6.758385092999999,31-May-76,Farrell Colin,40,175.0,8,0,6,1,9,9,0,12,33,29,0,0,5,3,0,0,0,5,1,0,3,0,8,0,0,11,4,0,26,2,2,12,5,2,24056243.88,49070901.72,6507060.384,0,0,1,0,75
16217.87234,1734685,7.922695035,20-Jan-87,Peters Evan,29,177.5,5,0,2,0,1,6,0,2,3,10,0,0,0,0,0,0,0,1,1,0,1,0,1,0,0,1,3,0,12,2,0,3,0,0,0.0,49055425.72,0.0,0,0,0,0,0
23948.35088,1132177,6.779532164,5-Sep-51,Keaton Michael,65,172.5,15,0,7,4,7,42,0,12,34,26,0,0,9,6,0,0,0,2,1,0,11,0,2,0,2,11,4,0,16,4,0,15,2,0,96223970.22,49021617.74,4838771.121,0,1,1,1,125
12079.5,469634,7.514184397,30-Jul-68,Crews Terry,48,191.0,9,0,5,3,1,30,0,8,13,9,0,0,7,2,0,0,0,1,0,0,8,1,2,0,3,5,4,0,8,4,1,7,0,1,0.0,48941298.89,0.0,0,0,0,0,0
7821.057576,1548155,7.430909091,18-Oct-47,Morton Joe,69,172.5,13,0,6,0,2,11,0,13,22,38,0,0,3,2,0,0,0,2,2,0,2,0,9,0,1,9,12,0,5,1,0,19,3,0,1345059.904,48922632.89,0.0,0,0,0,0,0
6789.1762180000005,124873,7.249570201,3-Apr-58,Baldwin Alec,58,180.0,15,0,15,8,16,77,0,16,101,57,0,0,14,11,0,1,0,13,0,0,27,4,8,3,8,25,4,0,23,8,1,15,4,1,41607942.51,48714027.32,4783003.075,0,1,3,6,375
14585.843840000001,212095,6.913213213,28-Aug-69,Black Jack,47,165.0,16,0,21,12,3,85,0,4,32,13,0,0,22,9,0,2,0,3,2,0,34,2,2,2,6,9,4,0,42,3,2,3,0,1,80663632.54,48673698.55,1770520.186,0,0,0,2,40
1851.952575,1256364,7.377642276,16-Apr-65,Lawrence Martin,51,167.5,11,0,6,4,2,48,0,14,13,7,0,0,11,2,0,0,0,1,0,0,6,0,0,0,1,5,0,0,4,2,0,6,0,0,60713713.87,48670788.93,18270548.26,0,0,0,0,0
10043.576659999999,340623,7.201393727999999,16-Aug-62,Carell Steve,54,175.0,5,1,13,13,5,79,0,2,15,15,0,0,20,3,0,1,0,1,0,0,5,0,0,3,2,10,8,0,34,2,1,2,0,0,108689441.2,48663898.02,8267843.811000001,0,1,1,7,245
1503.076923,266994,5.684615385,8-Jan-37,Brewer Jim,79,170.0,0,0,2,0,0,4,0,0,0,5,0,0,0,0,0,0,0,1,1,0,0,0,0,0,0,0,0,0,2,0,0,0,2,3,0.0,48651316.04,0.0,0,0,0,0,0
2417.8513120000002,2105149,6.77244898,22-Jul-64,Spade David,52,167.5,2,0,8,11,5,78,0,2,31,3,0,0,13,4,0,0,0,0,0,0,19,1,1,3,9,7,0,0,18,2,2,1,0,0,64940282.85,48509918.0,0.0,0,0,0,2,40
9537.150376000001,1761596,7.539097743999999,12-Jan-60,Platt Oliver,56,187.5,5,0,8,2,4,35,0,3,19,36,0,0,9,5,0,0,0,7,3,0,3,1,0,1,1,15,4,0,13,2,0,7,0,1,2037210.011,48485573.88,0.0,0,0,0,1,20
296.113879,2137406,7.2597864770000005,22-Apr-59,Stiles Ryan,57,195.0,2,0,1,2,0,15,0,0,4,0,0,0,3,0,0,0,0,0,0,0,1,0,0,0,0,1,3,0,4,0,2,0,0,0,0.0,48481117.54,0.0,0,0,0,0,0
22407.660669999997,1269726,7.349138577000001,28-Dec-22,Lee Stan,94,177.5,17,0,15,12,3,15,0,5,76,5,0,0,4,11,0,0,0,3,3,0,0,1,0,2,3,1,17,0,40,1,4,1,0,0,0.0,48466279.44,0.0,0,0,0,0,0
11994.78481,712514,6.94556962,20-Oct-76,Fogler Dan,40,167.5,2,0,8,6,0,27,0,1,4,12,0,0,6,3,0,0,0,0,3,0,1,2,1,0,0,3,2,0,11,1,0,5,0,0,38025227.21,48435730.89,0.0,0,0,0,0,0
22432.26154,604078,6.367692308,19-Jun-72,Dujardin Jean,44,182.0,5,0,4,0,2,31,0,8,10,11,0,0,1,0,0,0,0,1,0,0,0,0,1,1,1,6,1,0,7,0,1,6,1,1,5240642.592,48425719.06,0.0,1,0,1,0,175
11470.628709999999,1407556,7.5237623760000005,11-Dec-69,Martini Max,47,185.0,11,0,2,0,0,5,0,4,3,25,0,0,1,2,0,0,0,2,2,0,0,0,1,0,0,4,5,0,4,1,0,7,3,1,2613819.965,48412253.84,0.0,0,0,0,0,0
2726.597786,2355811,7.317466175,14-Nov-64,Warburton Patrick,52,185.0,17,0,23,15,1,59,0,4,15,8,0,0,24,9,0,0,0,0,1,0,4,1,5,0,2,1,10,0,29,7,0,7,1,0,154313.5889,48392646.22,0.0,0,0,0,0,0
4124.802469,162071,6.669753086,30-Mar-37,Beatty Warren,79,185.0,3,0,1,0,12,17,0,7,55,16,0,0,9,1,0,0,0,5,0,0,5,2,0,1,8,13,0,0,1,2,0,3,0,1,114074263.2,48365986.43,6950208.91,0,4,2,6,390
11038.6875,996237,6.753125,28-Jul-73,Howarth James,43,185.0,2,0,2,0,2,16,0,3,1,11,0,0,0,2,0,0,0,0,4,0,0,0,3,1,0,2,3,0,16,0,1,5,0,0,0.0,48343523.54,0.0,0,0,0,0,0
8540.497512,603874,7.2482587060000006,14-Nov-72,Duhamel Josh,44,187.5,7,0,7,2,1,9,0,1,13,13,0,0,2,1,0,0,0,0,2,0,8,0,1,0,3,5,5,0,8,0,0,8,1,0,8364051.19,48197291.64,0.0,0,0,0,0,0
22460.3913,1867523,7.243478261,8-Jan-80,Riley Sam,36,180.0,4,0,3,0,1,1,0,3,1,11,0,0,2,2,0,0,0,0,1,0,1,0,1,0,0,5,1,0,1,0,0,3,1,1,836543.2609999999,48162609.17,0.0,0,0,0,0,0
39063.2,1620582,6.792000000000001,30-Mar-75,Nolan Nathan,41,175.0,3,0,2,0,0,2,0,1,0,6,0,0,0,0,0,0,0,1,1,0,1,0,0,0,0,1,3,0,3,0,0,4,0,0,0.0,48154148.34,0.0,0,0,0,0,0
8493.396739,496835,7.464130435,21-Mar-46,Dalton Timothy,70,185.0,9,0,12,4,8,12,0,1,54,22,0,0,8,4,0,0,0,8,3,0,3,1,2,0,0,15,3,0,27,0,0,7,3,1,56806539.24,48078405.06,8037537.839,0,0,0,0,0
12322.78141,2248803,6.638693467,18-Feb-54,Travolta John,62,185.0,16,0,3,1,12,28,0,22,107,35,0,0,14,3,0,1,0,3,2,0,36,6,5,3,8,15,4,0,42,3,3,21,1,2,77036521.54,48039701.62,19700699.36,0,2,1,5,235
2946.118943,907583,7.921145374,8-Dec-65,Harewood David,51,182.5,7,0,4,0,1,7,0,2,9,22,0,0,0,1,0,0,0,1,2,0,0,1,3,0,0,5,2,0,5,1,0,8,1,0,0.0,48019206.35,0.0,0,0,0,0,0
28450.275230000003,623428,7.122018349,23-Jun-74,Edgerton Joel,42,177.5,12,0,6,4,6,12,0,6,9,36,0,0,2,5,0,0,0,4,3,0,4,0,7,0,0,3,4,0,28,1,0,9,1,2,8368778.253,47997378.25,0.0,0,0,0,0,0
13584.465119999999,799309,7.928488372,24-Apr-68,Gillen Aidan,48,175.0,5,0,2,1,1,4,0,6,8,37,0,0,0,2,0,0,0,3,3,0,4,0,6,1,0,6,2,0,14,0,0,11,1,0,29114.77049,47964573.14,0.0,0,0,0,0,0
24337.13303,1164655,6.722477064,31-Dec-43,Kingsley Ben,73,170.0,21,0,18,4,17,20,0,13,60,67,0,0,14,12,0,0,0,24,4,0,6,1,11,3,4,15,8,0,30,0,0,26,10,0,36308955.2,47959790.48,0.0,1,3,1,5,365
21062.48864,1463132,7.098863636,29-Apr-72,Mears Derek,44,192.5,13,0,1,0,1,25,0,6,11,6,0,0,2,5,0,0,0,0,15,0,1,1,2,1,1,0,6,0,31,0,0,11,0,1,0.0,47863193.58,0.0,0,0,0,0,0
3427.175676,945709,6.902702702999999,29-Aug-58,Henry Lenny,58,189.5,0,0,4,4,2,63,0,1,39,7,0,0,7,3,0,0,0,2,0,0,6,1,1,0,1,0,0,0,10,1,0,1,0,0,8270019.382999999,47737282.89,0.0,0,0,0,0,0
52695.17544,771414,6.710526316,4-Dec-76,Garner Jerald,40,172.5,6,0,4,0,2,18,0,4,0,21,0,0,2,1,0,0,0,1,0,0,1,1,1,0,0,12,1,0,3,0,0,12,0,0,0.0,47639607.05,0.0,0,0,0,0,0
21861.14407,1150563,6.674576271,7-Jan-67,Khan Irrfan,49,180.0,22,0,9,0,3,18,0,24,0,86,0,0,2,4,0,0,0,4,2,0,0,2,7,0,0,18,1,0,5,1,0,40,0,0,1053289.812,47635516.1,0.0,0,0,0,0,0
29316.44138,1063169,6.970344827999999,4-May-47,Jenkins Richard,69,182.5,7,0,2,0,5,29,0,16,1,58,0,0,1,3,0,0,0,1,6,0,0,0,6,0,0,21,1,0,4,3,0,17,3,1,10503250.21,47623497.69,0.0,0,0,0,0,0
2629.742857,258628,6.735714286,22-Jun-43,Brandauer Klaus Maria,73,172.5,2,0,3,0,11,10,0,0,11,43,0,0,1,0,0,0,0,11,0,0,5,0,1,0,1,5,0,0,0,1,2,8,4,0,11166581.04,47556191.97,0.0,0,0,1,1,95
25880.933090000002,462800,7.237918216000001,1-Jun-46,Cox Brian,70,167.5,25,0,18,5,10,19,0,27,47,75,0,0,6,4,0,0,0,15,5,0,0,0,17,2,0,5,14,0,23,5,1,38,7,1,173958.6168,47528458.99,0.0,0,0,0,1,20
3795.84,482634,7.806666667000001,16-Aug-53,Curatola Vincent,63,177.5,0,0,0,0,0,4,0,3,1,5,0,0,1,0,0,0,0,1,0,0,1,0,0,0,0,0,0,0,2,0,0,3,0,0,0.0,47522572.36,0.0,0,0,0,0,0
14868.266669999999,1835004,7.149444443999999,1-Sep-48,Rebhorn James,68,187.5,6,0,0,0,3,15,0,8,2,35,0,0,3,1,0,0,0,0,3,0,1,0,6,0,0,14,3,0,2,2,0,11,0,1,31747368.42,47499306.09,0.0,0,0,0,0,0
13328.037040000001,1634909,7.233333332999999,1-Aug-90,O'Connell Jack,26,170.0,5,0,0,0,4,2,0,4,4,14,0,0,0,2,0,0,0,2,1,0,4,0,0,0,0,1,0,0,9,1,0,6,7,0,59258490.87,47489489.52,0.0,0,0,0,0,0
44817.04545,1693872,6.509090909,6-Dec-74,Parent Jean-Pierre,42,182.5,3,0,1,0,2,3,0,1,3,8,0,0,0,1,0,0,0,2,1,0,0,0,1,0,0,1,1,0,4,0,0,2,0,0,0.0,47460503.82,0.0,0,0,0,0,0
17380.40984,925359,7.05,22-Mar-75,Hauser Cole,41,182.5,10,0,2,0,0,1,0,9,7,19,0,0,1,0,0,0,0,0,2,0,0,0,3,0,1,5,3,0,9,2,0,13,3,1,19128989.65,47450952.53,0.0,0,0,0,0,0
16438.347830000002,1318379,6.439130435,13-Oct-52,Lone John,64,172.0,5,0,1,0,1,5,0,4,0,12,0,0,0,1,0,0,0,1,0,0,0,0,1,0,0,4,1,0,0,0,0,5,0,0,45314007.31,47394895.27,0.0,0,0,0,2,40
14298.61702,1584979,7.034042553,25-Jun-58,Naor Igal,58,185.0,4,0,0,0,0,3,0,2,2,13,0,0,1,1,0,0,0,4,0,0,0,0,0,0,0,2,0,0,0,0,0,7,2,0,38549152.51,47358349.12,0.0,0,0,0,0,0
3234.253788,2382223,7.947348485,10-Jun-78,West Shane,38,180.0,4,0,1,0,1,5,0,3,8,11,0,0,0,1,0,0,0,0,5,0,4,0,3,0,0,4,1,0,7,1,0,8,1,0,18541383.81,47337252.13,0.0,0,0,0,0,0
4804.393103,927826,7.608275862,5-Apr-29,Hawthorne Nigel,87,177.5,5,0,8,8,4,18,0,5,12,29,0,0,8,3,0,0,0,5,3,0,2,1,1,0,0,6,3,0,9,0,0,4,6,0,0.0,47333456.74,0.0,0,1,0,0,30
