votes,id,rating,dob,name,age,heightcm,Action,Adult,Adventure,Animation,Biography,Comedy,Commercial,Crime,Documentary,Drama,Erotica,Experimental,Family,Fantasy,Film-Noir,Game-Show,Hardcore,History,Horror,Lifestyle,Music,Musical,Mystery,News,Reality-TV,Romance,Sci-Fi,Sex,Short,Sport,Talk-Show,Thriller,War,Western,gross,budget,salary,academy awards won,academy awards nominated,golden globes won,golden globes nominated,totalawards
10254.22713,1783142,7.766876972,21-Jun-79,Pratt Chris,37,185.0,14,0,8,1,1,18,0,0,8,7,0,0,1,0,0,0,0,1,2,0,6,0,0,0,6,6,12,0,18,2,0,0,0,1,499125057.4,57482662.81,12000000.0,0,0,0,0,0
2544.752918,316176,7.962451362,12-Sep-67,C.K. Louis,49,180.0,0,0,1,1,1,39,0,1,12,3,0,0,1,1,0,0,0,2,0,0,2,0,0,0,0,2,0,0,8,0,3,0,0,0,365802225.0,3718178.457,0.0,0,0,0,0,0
27814.233330000003,1955337,6.49,10-Dec-83,Samuel Xavier,33,175.0,2,0,2,1,0,4,0,0,1,19,0,0,0,2,0,0,0,1,5,0,1,0,2,0,0,7,1,0,6,1,0,6,1,0,330775673.4,40853502.9,0.0,0,0,0,0,0
755.4325581,31603,6.954883721,22-Apr-06,Albert Eddie,110,177.5,11,0,9,4,8,50,0,13,22,54,0,0,14,6,1,1,0,4,3,0,14,14,6,1,5,17,5,0,9,4,0,11,12,3,310728476.8,26953564.24,0.0,0,2,0,2,100
2188.666667,926022,7.053333332999999,21-Jan-41,Havens Richie,75,187.5,2,0,0,0,2,2,0,1,13,5,0,0,1,1,0,0,0,3,0,0,19,2,0,0,0,0,0,0,3,2,0,0,0,0,309278350.5,2046874.6919999998,0.0,0,0,0,0,0
900.8035714,262991,6.151785714,18-Sep-16,Brazzi Rossano,100,180.0,7,0,11,0,5,16,0,11,8,70,0,0,2,0,0,0,0,8,5,0,2,3,7,0,0,19,0,0,3,0,0,11,4,4,305605536.3,32671701.45,0.0,0,0,0,0,0
3689.893401,2170213,5.639086294,4-May-23,Sykes Eric,93,175.0,1,0,2,0,2,43,0,2,20,4,0,0,4,2,0,1,0,0,1,0,2,1,2,0,0,1,0,0,8,0,2,2,0,1,290013036.0,56434745.29,0.0,0,0,0,0,0
312.32967030000003,1565874,6.469230769,4-Jul-02,Murphy George,114,177.5,1,0,0,0,2,20,0,7,16,20,0,0,5,1,4,0,0,0,0,0,6,16,3,0,1,16,0,0,11,3,0,2,5,0,288987440.5,9543697.958999999,0.0,0,0,0,0,0
4596.849632,894327,7.3260778129999995,25-Sep-51,Hamill Mark,65,172.5,79,0,74,66,6,50,0,27,50,22,0,0,40,46,0,1,0,4,12,0,5,4,15,1,4,4,70,0,26,0,0,28,5,0,279397838.9,17419162.54,2574257.426,0,0,0,0,0
327.77906980000006,1839017,6.070348837,27-Aug-47,Reems Harry,69,183.0,0,157,0,0,3,34,0,7,18,19,0,0,0,3,0,0,0,0,7,0,2,0,3,0,0,6,3,0,7,0,1,6,0,0,258373205.7,1361637.89,95560.89942,0,0,0,0,0
3046.625407,1286438,7.61237785,29-Sep-80,Levi Zachary,36,191.0,5,0,7,7,0,22,0,1,8,5,0,0,6,6,0,1,0,1,1,0,5,3,0,1,3,5,5,0,12,2,3,2,0,1,245678898.5,46676851.66,69464.54414,0,0,0,0,0
34221.50847,591752,6.687118644,4-Apr-65,Downey Jr. Robert,51,170.0,24,0,15,1,11,39,0,15,48,31,0,0,6,8,0,0,0,5,2,0,14,1,8,2,8,15,20,0,39,3,1,12,2,1,242561776.5,72646630.99,17273914.98,0,2,2,2,250
4199.655109,1596708,7.755109489,4-Apr-44,Nelson Craig T.,72,187.5,8,0,8,3,9,16,0,7,13,34,0,0,8,3,0,0,0,6,3,0,1,2,1,1,2,6,4,0,5,3,0,7,3,0,239401663.4,43644389.71,0.0,0,0,0,4,80
764.7020408,2391580,6.605714286,1-Feb-28,Whitman Stuart,88,180.0,23,0,18,0,7,9,0,15,11,60,0,0,5,3,1,0,0,2,13,0,3,2,3,0,0,14,7,0,6,2,0,19,10,15,237037036.2,15988929.47,0.0,0,1,0,0,30
2450.722393,1900016,7.559509202,21-Dec-57,Romano Ray,59,187.0,3,0,7,8,8,47,0,2,30,4,0,0,23,3,0,0,0,3,0,0,6,0,0,1,2,4,1,0,10,5,0,0,0,0,233924684.4,21849725.31,2753346.08,0,0,0,2,40
11443.926370000001,1573233,6.503087886,25-May-63,Myers Mike,53,170.0,7,0,11,14,5,87,0,10,61,4,0,0,30,10,0,0,0,3,4,0,44,0,0,3,2,11,3,0,22,6,1,1,0,0,233026594.9,66303617.94,9442259.997000001,0,0,0,0,0
35589.118519999996,1363315,6.811851852,27-Jun-75,Maguire Tobey,41,170.0,13,0,14,2,5,17,0,3,31,18,0,0,10,4,0,0,0,3,1,0,5,0,2,0,0,10,6,0,28,4,1,8,5,1,229506092.3,92123473.09,15310192.01,0,0,0,1,20
28517.35065,2432206,7.174025974,2-Aug-76,Worthington Sam,40,175.0,15,0,8,0,0,6,0,7,12,19,0,0,1,6,0,0,0,3,1,0,1,1,1,1,0,4,7,0,14,1,1,10,4,1,224727127.2,105219695.5,0.0,0,0,0,0,0
1014.293194,1724186,7.00052356,1-Oct-28,Peppard George,88,180.0,11,0,5,1,3,8,0,8,13,30,0,0,2,0,0,0,0,1,0,0,2,0,4,0,1,8,3,0,4,0,1,9,8,5,219944880.0,18159261.54,0.0,0,0,0,0,0
21334.154980000003,2260805,6.974907749,11-Nov-60,Tucci Stanley,56,170.0,8,0,11,4,8,38,0,10,21,43,0,0,11,10,0,0,0,5,3,0,5,3,4,0,0,16,6,0,17,1,0,15,1,0,214810127.8,53355403.83,0.0,0,1,2,1,200
2241.879652,359000,7.449836779,29-Oct-57,Castellaneta Dan,59,175.0,46,0,87,75,1,159,0,10,11,8,0,0,42,42,0,1,0,0,2,0,6,6,10,0,0,8,27,0,33,11,0,0,0,0,212020110.0,52477105.83,293548.3871,0,0,0,0,0
20660.62238,1285128,8.039160839,21-Jan-70,Leung Ken,46,167.5,1,0,2,1,1,6,0,4,0,14,0,0,0,1,0,0,0,1,1,0,0,0,2,0,0,4,1,0,2,0,0,3,1,0,207833648.1,53111504.46,0.0,0,0,0,0,0
1934.2543859999998,1085684,6.744736842000001,25-Jan-31,Jones Dean,85,180.0,2,0,4,1,4,28,0,5,9,26,0,0,22,7,1,0,0,1,1,0,4,7,3,0,0,6,5,0,4,3,0,1,5,0,204584404.8,8499010.161,0.0,0,0,0,1,20
59650.71585,2017445,7.244808742999999,20-Apr-64,Serkis Andy,52,170.0,26,0,29,7,2,17,0,6,50,30,0,0,7,18,0,0,0,1,3,0,4,0,6,0,3,6,10,0,53,0,0,14,0,0,199997699.0,132432929.2,0.0,0,0,0,1,20
2038.142857,888296,5.714285714,18-Oct-40,Halicki H.B.,76,180.0,4,0,0,0,0,2,0,3,0,4,0,0,0,0,0,0,0,0,0,0,0,0,0,0,0,0,0,0,0,0,0,0,0,0,194726166.3,1290028.267,0.0,0,0,0,0,0
20173.20856,1225670,7.01657754,11-Jun-86,LaBeouf Shia,30,176.0,7,0,8,3,0,11,0,3,13,17,0,0,12,3,0,0,0,0,2,0,8,0,3,1,3,2,5,0,27,2,0,7,1,0,188576662.8,71995560.41,4667649.787,0,0,0,0,0
7115.356828,128141,7.042290749,4-Nov-19,Balsam Martin,97,167.5,12,0,5,0,9,17,0,28,13,73,0,0,4,1,0,0,0,4,4,0,2,0,4,0,0,11,5,0,3,2,0,30,9,4,182772934.0,36226301.92,0.0,1,0,0,1,120
639.7915058,472704,6.9667953670000005,2-May-03,Crosby Bing,113,167.5,1,0,8,6,13,116,0,2,98,13,0,0,26,5,0,0,0,7,3,0,69,74,3,1,1,31,1,0,55,10,1,1,5,4,181407800.6,19232792.84,0.0,1,2,0,1,180
1776.7224879999999,1411518,6.967942583999999,19-Feb-24,Marvin Lee,92,182.5,17,0,10,0,8,13,0,18,31,34,0,0,2,0,7,0,0,0,0,0,5,2,5,0,3,15,0,0,8,0,0,22,17,23,180615022.2,26720228.23,6140568.166,1,0,1,1,195
12922.14407,1253496,6.886440678,11-Feb-92,Lautner Taylor,24,170.0,7,0,5,1,0,8,0,1,2,6,0,0,4,5,0,0,0,0,0,0,10,0,0,2,2,4,0,0,8,2,0,1,0,1,174132709.1,56926226.11,7938834.255,0,0,0,0,0
698.26,391463,6.72,12 September 1888,Chevalier Maurice,128,175.0,0,0,1,0,1,48,0,1,30,10,0,0,13,1,0,0,0,1,0,0,11,33,1,1,0,20,0,0,20,1,1,1,1,0,172811920.5,23813916.05,0.0,0,1,0,3,90
11514.02712,508989,7.249005425,4-Jun-56,David Keith,60,185.0,62,0,33,21,11,59,0,35,48,76,0,0,18,16,0,0,0,13,15,0,10,1,12,1,0,19,31,0,24,12,0,42,10,2,169855308.0,24147608.36,0.0,0,0,0,0,0
14418.711009999999,809342,7.65733945,27-Mar-35,Glover Julian,81,185.0,7,0,15,2,5,11,0,7,14,51,0,0,5,6,0,0,0,7,6,0,1,1,4,0,0,8,4,0,21,0,0,14,5,0,169458874.7,60204367.89,0.0,0,0,0,0,0
3099.837838,1460928,7.410810811,24-Mar-30,McQueen Steve,86,172.5,9,0,7,1,10,9,0,9,39,23,0,0,2,1,0,0,0,1,2,0,0,0,2,1,2,7,1,0,8,4,0,7,6,4,169171509.6,27509951.27,3366302.317,0,1,0,4,110
4711.102040999999,70713,7.778231292999999,23-Feb-83,Ansari Aziz,33,165.0,1,0,4,4,0,29,0,1,5,0,0,0,4,3,0,0,0,1,0,0,2,0,0,1,0,1,0,0,17,0,2,0,0,0,168628890.7,42461135.52,0.0,0,0,0,0,0
28546.378839999998,716611,6.739249147000001,13-Jul-42,Ford Harrison,74,182.5,31,0,21,0,11,16,0,11,116,31,0,0,10,9,0,0,0,1,2,0,7,1,7,1,5,9,17,0,51,1,1,19,5,3,168295256.9,54105500.49,21631576.66,0,1,0,4,110
14740.367230000002,2088005,6.807532957,25-Sep-68,Smith Will,48,185.0,15,0,7,3,12,29,0,6,74,16,0,0,27,6,0,0,0,1,1,0,53,0,5,7,11,4,11,0,32,6,4,6,0,1,168142383.1,77337355.74,14693957.66,0,2,0,5,160
20038.28472,26751,7.788194444,22-Aug-67,Akinnuoye-Agbaje Adewale,49,185.0,9,0,8,1,2,5,0,3,4,21,0,0,1,0,0,0,0,2,1,0,1,2,3,1,0,3,3,0,3,0,0,10,1,0,167814643.4,64602752.05,0.0,0,0,0,0,0
1030.693215,2292105,7.566814159,13-Dec-25,Van Dyke Dick,91,182.5,1,0,4,13,14,55,0,8,49,16,0,0,40,7,0,3,0,3,0,0,14,12,8,1,8,2,0,0,17,1,4,1,0,0,167152844.4,38125670.53,0.0,0,0,0,0,0
8608.688679,479701,6.968867925,26-Aug-80,Culkin Macaulay,36,167.5,2,0,5,1,2,25,0,2,19,8,0,0,9,4,0,0,0,0,3,0,10,0,2,0,0,4,0,0,11,2,0,3,0,0,166668508.4,27311481.2,6276625.772999999,0,0,0,1,20
1198.5875369999999,210447,7.328486647,22-Jan-34,Bixby Bill,82,172.5,4,0,4,1,3,17,0,2,6,16,0,0,7,5,0,3,0,0,0,0,3,3,2,0,1,2,7,0,0,1,0,0,0,4,164400000.0,14254200.43,0.0,0,0,0,0,0
18270.85714,1040472,6.171428571,24-Feb-91,Jackson Jr. O'Shea,25,177.5,0,0,0,0,1,2,0,1,0,3,0,0,0,0,0,0,0,1,0,0,3,0,0,0,0,0,0,0,0,0,0,0,0,0,162927133.5,28352396.66,0.0,0,0,0,0,0
8918.0,1511310,6.97816092,11 July 1892,Mitchell Thomas,124,175.0,4,0,7,0,7,20,0,6,10,50,0,0,3,5,5,0,0,5,0,0,2,2,4,0,0,21,0,0,2,1,0,6,7,8,162879570.1,20547438.27,207194.2446,1,1,0,0,130
40757.19355,770250,7.203225806,20-Aug-83,Garfield Andrew,33,175.0,4,0,5,0,2,2,0,2,8,11,0,0,0,1,0,0,0,2,0,0,6,1,2,0,3,3,4,0,4,0,1,3,2,0,161207811.0,81016756.36,522661.742,0,0,0,1,20
2679.7544550000002,1844205,7.425346535,20-Mar-22,Reiner Carl,94,182.5,0,0,3,14,14,66,0,2,61,3,0,0,22,2,0,5,0,4,0,0,13,1,1,0,15,2,1,0,11,0,1,2,1,0,160689733.3,13175070.18,0.0,0,0,0,0,0
25670.67333,1809693,7.262666667,23-Jul-89,Radcliffe Daniel,27,162.5,3,0,14,0,5,10,0,2,45,17,0,0,11,14,0,0,0,3,3,0,3,1,8,2,2,3,1,0,25,0,1,9,1,0,158893704.0,74989294.43,15384281.41,0,0,0,0,0
6593.04878,1281063,7.129268292999999,14-Jun-81,Leopardi Chauncey,35,167.5,0,0,2,1,1,8,0,0,0,8,0,0,8,2,0,0,0,0,1,0,0,0,0,0,0,1,0,0,2,2,0,0,0,0,157997155.9,24075800.22,0.0,0,0,0,0,0
26011.82143,139974,7.117857142999999,20-Aug-81,Barnes Ben,35,182.5,5,0,5,1,0,3,0,1,2,8,0,0,5,6,0,0,0,0,0,0,3,0,0,0,0,3,0,0,10,0,1,3,0,0,157866623.3,80162394.2,0.0,0,0,0,0,0
3987.6438359999997,641880,6.580136986,17-Oct-72,Eminemnan,44,173.0,3,0,1,4,2,20,0,2,32,2,0,0,1,0,0,1,0,2,0,0,75,0,0,0,1,0,0,0,20,0,3,1,0,0,155718610.3,7973394.007,4002223.457,0,0,0,0,0
3064.446855,30710,7.028850325,20-Jul-62,Alazraqui Carlos,54,167.5,49,0,52,92,0,87,0,8,16,7,0,0,62,40,0,1,0,2,4,0,5,7,2,1,0,4,23,0,28,2,1,11,0,1,151995828.5,23132512.61,0.0,0,0,0,0,0
29250.880889999997,475352,6.073407202,3-Jul-62,Cruise Tom,54,167.5,22,0,16,0,10,17,0,6,116,26,0,0,14,4,0,0,0,6,3,0,15,0,7,4,6,9,8,0,99,6,4,19,5,1,150325470.3,68280976.74,22818323.78,0,3,3,4,395
76134.55462000001,658845,6.744537815,13-Jun-81,Evans Chris,35,180.0,29,0,20,1,1,10,0,4,14,13,0,0,4,3,0,0,0,1,0,0,3,0,2,1,1,5,25,0,22,1,0,10,0,0,150033464.2,116236357.7,3160423.597,0,0,0,0,0
2933.680412,179273,6.405154639,22-May-38,Benjamin Richard,78,185.0,2,0,0,1,5,27,0,3,16,8,0,0,3,1,0,0,0,0,2,0,2,0,1,0,2,5,2,0,6,0,0,3,1,1,150015073.6,24164811.58,0.0,0,0,1,1,95
1039.761538,1258699,6.9269230770000005,5-Sep-39,Lazenby George,77,185.0,15,0,7,0,8,7,0,4,60,17,0,0,1,0,0,1,0,0,3,0,4,1,4,0,0,10,1,0,26,0,0,10,2,0,148934014.2,6915884.181,360192.0399,0,0,0,1,20
1576.142857,501333,7.533082707,25-Oct-58,Daniels Phil,58,167.5,0,0,3,4,2,17,0,4,11,20,0,0,5,2,0,0,0,1,2,0,9,3,0,0,0,2,2,0,7,4,0,0,1,1,148841693.4,62717770.03,0.0,0,0,0,0,0
17295.23844,348210,6.564963504,17-Jan-62,Carrey Jim,54,185.0,3,0,7,10,8,69,0,4,74,19,0,0,33,20,0,1,0,2,2,0,22,2,3,2,5,9,3,0,31,2,1,5,0,0,148529548.1,85934242.91,18764681.5,0,0,2,4,230
38519.43056,365478,7.515277778,5-May-83,Cavill Henry,33,182.5,14,0,10,0,0,1,0,0,13,4,0,0,1,7,0,0,0,1,2,0,0,1,0,1,1,2,9,0,12,0,0,2,1,0,147729442.1,127614012.3,1481840.052,0,0,0,0,0
2501.6923079999997,894803,6.46875,12-Aug-39,Hamilton George,77,182.5,11,0,12,1,12,42,0,13,20,41,0,0,15,3,0,2,0,6,3,0,8,3,11,2,5,22,3,0,3,1,1,6,4,9,145074380.2,18249745.89,0.0,0,0,1,2,115
46906.72889,1040268,7.060888889,12-Oct-68,Jackman Hugh,48,190.0,28,0,23,6,4,14,0,4,64,15,0,0,16,13,0,0,0,2,2,0,13,7,4,3,3,7,28,0,33,2,2,17,0,1,141214431.3,107145611.3,8927678.041000001,0,1,1,1,125
12095.2975,1565774,6.629,3-Apr-61,Murphy Eddie,55,172.5,12,0,10,11,4,116,0,12,64,13,0,0,28,18,0,0,0,1,5,0,31,5,4,2,3,30,21,0,25,1,1,6,2,0,140156051.7,84863148.58,16985271.61,0,1,1,4,185
2575.2792210000002,973081,7.221428571000001,11-Sep-87,Hoechlin Tyler,29,180.0,2,0,1,0,0,5,0,1,1,9,0,0,4,1,0,0,0,1,4,0,1,0,1,0,0,1,0,0,4,1,0,5,0,0,138816472.3,30120942.48,91778.20268,0,0,0,0,0
7043.568181999999,975730,6.909090909,8-Oct-39,Hogan Paul,77,172.5,1,0,5,0,1,9,0,1,11,3,0,0,2,0,0,0,0,0,0,0,2,0,0,1,0,0,0,0,0,1,0,0,0,1,135839254.0,26911451.0,0.0,0,0,1,0,75
14315.191490000001,974144,6.965045592999999,8-Aug-37,Hoffman Dustin,79,167.0,10,0,12,14,19,46,0,10,109,39,0,0,31,10,0,0,0,8,0,0,19,5,2,0,5,13,2,0,46,2,2,10,3,1,135573724.0,65462254.21,6587366.397000001,2,5,5,8,885
11131.81481,460464,7.314814815,31-Jan-96,Courtney Joel,20,186.0,4,0,4,0,0,2,0,1,0,4,0,0,2,1,0,0,0,1,2,0,0,0,1,0,0,0,2,0,0,0,0,4,0,0,135507862.0,20449265.5,0.0,0,0,0,0,0
3234.013333,1319219,7.827999999999999,18-May-80,Long Matt,36,175.0,1,0,1,0,0,2,0,2,1,6,0,0,0,2,0,0,0,0,2,0,0,0,0,0,0,1,0,0,2,0,0,4,1,0,134069575.7,49368455.31,0.0,0,0,0,0,0
56934.55556,1594027,6.683333332999999,20-Sep-43,Neeley Ted,73,165.0,1,0,0,0,0,1,0,1,2,2,0,0,0,0,0,0,0,1,2,0,1,3,0,0,0,0,0,0,0,0,0,1,0,1,132311432.4,4946296.296,0.0,0,0,0,0,0
6334.20339,1067153,7.079661017,26-Jun-74,Jeter Derek,42,187.5,2,0,1,0,3,6,0,1,11,0,0,0,1,0,0,0,0,1,0,0,2,0,0,1,2,0,0,0,2,26,3,0,0,0,131217644.6,27651623.2,0.0,0,0,0,0,0
28511.823080000002,445816,7.412692308,5-Jan-75,Cooper Bradley,41,182.5,7,0,3,0,3,23,0,4,14,18,0,0,2,1,0,0,0,2,4,0,1,1,7,1,2,12,5,0,18,2,1,7,1,1,130982123.2,44500167.92,6008767.717999999,0,3,0,2,130
26799.154319999998,1698586,6.932716049,24-Apr-40,Parks Michael,76,180.0,17,0,6,3,3,8,0,21,4,51,0,0,3,3,0,0,0,0,13,0,2,0,6,0,0,5,2,0,8,4,0,28,1,12,129982688.9,15613557.75,0.0,0,0,0,0,0
4975.8125,1522120,5.73125,20-Jul-55,Monahan Dan,61,165.0,0,0,2,0,0,6,0,1,1,3,0,0,1,1,0,0,0,0,1,0,0,0,2,0,0,1,0,0,1,0,0,1,0,0,129507637.8,24846389.62,0.0,0,0,0,0,0
41242.78261,563215,6.785507246,11-Nov-74,DiCaprio Leonardo,42,180.0,5,0,7,0,18,8,0,6,72,25,0,0,5,0,0,0,0,9,1,0,9,0,1,10,1,8,2,0,28,2,1,11,1,3,128505945.8,61657739.62,18773564.51,1,4,3,8,605
18149.02128,2082375,6.540425532,8-Jul-98,Smith Jaden,18,170.0,2,0,1,0,1,2,0,0,6,4,0,0,3,0,0,0,0,0,0,0,12,0,0,0,5,0,2,0,5,1,0,1,0,0,128357363.4,58996491.74,3301904.098,0,0,0,0,0
5981.488,2429998,7.852,25-Sep-84,Woods Zach,32,190.0,3,0,1,1,0,15,0,0,2,2,0,0,1,1,0,0,0,0,0,0,0,0,0,0,0,2,1,0,5,0,0,0,0,0,128150608.0,54700547.03,0.0,0,0,0,0,0
8154.56338,2069243,7.431690141,25-Aug-76,Skarsg_Îârd Alexander,40,194.0,5,0,5,2,0,6,0,4,3,28,0,0,2,1,0,0,0,0,2,0,1,0,4,1,0,6,4,0,13,1,2,13,0,0,126585313.0,44380323.18,306544.73,0,0,0,0,0
41593.75,2028696,7.833333333,21-Mar-93,Sharma Suraj,23,172.5,0,0,2,0,1,1,0,0,0,3,0,0,0,1,0,0,0,0,0,0,0,0,0,0,0,1,0,0,0,1,0,0,0,0,124987023.0,51114895.92,0.0,0,0,0,0,0
14594.2967,121279,6.592307692,12-Feb-36,Baker Joe Don,80,185.0,18,0,9,0,3,10,0,16,6,32,0,0,0,0,0,0,0,0,3,0,0,0,3,0,0,2,2,0,1,2,0,16,0,4,124324324.3,39009739.39,0.0,0,0,0,0,0
5489.4615380000005,955728,6.725558313,4-Oct-23,Heston Charlton,93,185.0,19,0,28,4,26,26,0,8,130,49,0,0,22,3,2,1,0,29,4,0,13,2,7,0,12,16,8,0,34,1,2,19,17,14,123927656.3,35791086.7,1049170.486,1,0,0,3,160
829.702381,1424897,6.26547619,29-Jan-13,Mature Victor,103,185.0,11,0,12,0,8,15,0,10,19,25,0,0,2,3,10,0,0,10,0,0,1,10,4,0,0,16,2,0,5,2,0,7,7,7,123820951.0,23466988.44,771131.9822,0,0,0,0,0
52135.34454,565794,6.6378151260000005,18-Jul-67,Diesel Vin,49,182.0,33,0,12,3,3,6,0,14,57,14,0,0,6,3,0,1,0,1,1,0,6,0,0,0,6,1,12,0,65,1,2,20,2,0,122222812.3,67362144.42,8345738.505,0,0,0,0,0
1797.295529,2029880,7.112758997,22-Mar-31,Shatner William,85,172.5,24,0,24,12,20,59,0,15,101,43,0,0,30,10,0,7,0,10,15,0,24,2,6,6,7,6,43,0,34,10,2,13,4,5,122032752.1,15338975.37,0.0,0,0,1,1,95
215.0,1367520,6.9,21-May-50,Majetich Daniel T.,66,187.5,0,0,0,0,0,0,0,0,1,0,0,0,0,0,0,0,0,0,0,0,0,0,0,0,0,0,0,0,1,0,0,0,0,0,121963426.4,0.0,0.0,0,0,0,0,0
3054.571429,1237145,7.013333332999999,2-Nov-13,Lancaster Burt,103,182.5,14,0,12,1,17,21,0,11,62,55,0,0,9,2,10,0,0,12,1,0,7,2,7,0,5,26,1,0,12,8,1,17,9,14,121572408.8,17575789.55,1184952.665,1,3,1,4,345
68960.42657000001,125330,6.812587412999999,30-Jan-74,Bale Christian,42,183.0,13,0,17,1,10,8,0,11,42,38,0,0,5,6,0,1,0,13,1,0,7,2,2,1,0,10,4,0,31,1,1,13,6,2,121073404.0,68258050.06,7480124.381,1,2,1,2,275
7118.917159999999,1916334,7.6994082839999995,9-Oct-79,Routh Brandon,37,185.0,12,0,3,0,0,13,0,2,9,7,0,0,1,1,0,0,0,0,1,0,0,0,2,0,1,5,7,0,11,1,1,8,1,0,119882939.6,56969001.19,1190476.19,0,0,0,0,0
2642.0655739999997,1307634,7.050819672,1-Jun-39,Little Cleavon,77,180.0,4,0,0,0,3,19,0,6,4,15,0,0,2,2,0,0,0,1,2,0,2,1,1,0,0,1,0,0,2,2,0,3,0,1,119500000.0,6906715.6389999995,0.0,0,0,0,0,0
58298.53846,1882493,7.1,6-Sep-83,Robinson James,33,182.5,0,0,0,0,1,4,0,1,0,4,0,0,0,0,0,0,0,1,3,0,0,0,3,0,0,0,3,0,7,0,0,5,1,1,119070779.5,56946059.78,0.0,0,0,0,0,0
3113.774648,1983351,6.668309859,8-Dec-30,Schell Maximilian,86,177.5,6,0,8,0,9,8,0,10,30,73,0,0,5,1,0,0,0,13,7,0,3,1,6,0,0,12,2,0,5,1,3,17,6,0,118485623.1,28532505.56,0.0,1,2,2,2,350
7779.381395,86480,7.436744186,4-May-70,Arnett Will,46,185.0,17,0,17,16,0,46,0,1,16,8,0,0,18,14,0,0,0,1,1,0,8,0,0,1,3,3,9,0,18,4,3,3,0,1,117746813.3,69850666.35,0.0,0,0,0,0,0
2324.965116,1010179,6.940697674,25-Nov-26,Hunter Jeffrey,90,180.0,5,0,9,0,8,8,0,7,14,25,0,0,1,2,2,0,0,7,0,0,1,2,2,0,0,5,4,0,5,0,0,4,10,17,116254330.4,11553984.79,0.0,0,0,0,0,0
5839.913043,2002242,7.0326086960000005,18-Oct-27,Scott George C.,89,180.0,5,0,6,2,8,20,0,13,24,47,0,0,11,7,0,0,0,5,4,0,1,2,11,1,2,5,2,0,7,6,0,15,3,5,114864772.6,24989106.08,4051932.432,0,0,2,4,230
4449.910112,1279433,6.668539326,8-Mar-62,Leonnan,54,187.5,9,0,4,0,6,11,0,4,10,30,0,0,3,0,0,0,0,0,1,0,12,0,1,0,0,8,2,0,6,5,2,10,1,0,114363343.4,22312456.13,0.0,0,0,0,0,0
4124.802469,162071,6.669753086,30-Mar-37,Beatty Warren,79,185.0,3,0,1,0,12,17,0,7,55,16,0,0,9,1,0,0,0,5,0,0,5,2,0,1,8,13,0,0,1,2,0,3,0,1,114074263.2,48365986.43,6950208.91,0,4,2,6,390
11163.29897,192697,5.568041237,4-Sep-48,Berryman Michael,68,185.0,7,0,5,0,1,14,0,1,7,7,0,0,1,9,0,0,0,1,43,0,4,1,3,0,0,0,9,0,11,0,0,20,1,1,113544201.1,3697861.1380000003,0.0,0,0,0,0,0
1902.6608440000002,100179,7.311499272000001,1-Jun-40,Auberjonois Rene,76,180.0,20,0,20,16,4,26,0,5,17,40,0,0,18,16,0,0,0,7,9,0,1,4,9,0,0,8,13,0,4,1,0,11,7,11,113180829.8,27294476.78,0.0,0,0,0,0,0
23338.01299,2261105,6.367532467999999,31-Aug-72,Tucker Chris,44,182.5,8,0,1,0,4,13,0,8,30,5,0,0,11,1,0,0,0,2,0,0,19,0,0,1,2,2,2,0,9,0,1,7,2,0,111679995.2,45749063.1,10586285.96,0,0,0,0,0
2435.935849,1805193,6.488301887,6-Jun-59,Quinn Colin,57,170.0,1,0,1,0,2,48,0,0,32,6,0,0,1,0,0,0,0,1,0,0,5,2,1,0,3,4,0,0,5,0,2,1,0,0,111392779.4,4205196.851,0.0,0,0,0,0,0
1100.314516,1489845,7.119354839,1-Jul-59,Midkiff Dale,57,188.0,8,0,2,0,3,6,0,5,2,27,0,0,8,6,0,0,0,0,5,0,1,0,2,1,0,7,8,0,6,2,0,12,0,5,111230669.0,5625969.982000001,0.0,0,0,0,0,0
1985.0454550000002,884293,6.45,19-Nov-42,Haggerty Dan,74,182.5,10,1,12,3,0,8,0,4,6,17,0,0,11,4,0,1,0,0,9,0,0,1,1,0,1,2,1,0,2,5,0,4,1,8,110788648.9,6298452.3270000005,0.0,0,0,0,0,0
258.55102039999997,1315740,6.865306122000001,29-May-41,Logan Robert,75,187.5,3,0,6,0,0,2,0,0,0,5,0,0,5,1,0,0,0,0,1,0,0,1,0,0,0,1,1,0,0,0,0,1,0,1,109303539.1,0.0,0.0,0,0,0,0,0
25864.19048,794988,6.458730159,3-Jan-56,Gibson Mel,60,177.0,25,0,11,3,4,18,0,16,81,28,0,0,18,3,0,0,0,9,0,0,8,2,6,3,3,10,7,0,32,2,2,21,5,2,109152998.5,59365173.83,18379080.29,0,0,0,2,40
