votes,id,rating,dob,name,age,heightcm,Action,Adult,Adventure,Animation,Biography,Comedy,Commercial,Crime,Documentary,Drama,Erotica,Experimental,Family,Fantasy,Film-Noir,Game-Show,Hardcore,History,Horror,Lifestyle,Music,Musical,Mystery,News,Reality-TV,Romance,Sci-Fi,Sex,Short,Sport,Talk-Show,Thriller,War,Western,gross,budget,salary,academy awards won,academy awards nominated,golden globes won,golden globes nominated,totalawards
369.5185185,3423423,7.172839506,22-May-42,Parkins Barbara,74,160.0,5,0,4,1,6,0,0,4,14,16,0,0,1,0,0,0,0,0,4,0,1,0,4,0,0,5,0,0,7,0,1,10,2,1,319273688.6,14406321.73,0.0,0,0,0,0,0
2457.0259739999997,3002240,7.009090909,12-May-07,Hepburn Katharine,109,167.5,0,0,3,0,17,29,0,0,58,41,0,0,9,0,1,0,0,9,0,0,8,2,2,0,2,29,0,0,11,2,0,2,3,3,296668431.9,19827377.69,1735689.699,4,8,0,8,800
595.5844156,3158976,6.424675325,9-Nov-14,Lamarr Hedy,102,167.5,0,1,3,0,3,10,0,5,28,23,0,0,3,1,5,0,0,4,0,0,1,4,2,0,0,19,1,0,7,0,0,3,5,2,286804979.3,12806176.95,952334.4608,0,0,0,0,0
300.1343284,2690615,6.146268657,22-Apr-52,Chambers Marilyn,64,167.5,2,33,0,0,2,8,0,0,17,10,0,0,0,3,0,0,0,0,2,0,1,0,2,0,0,5,2,0,2,0,0,0,0,0,270270270.3,778927.5440000001,1435.4066990000001,0,0,0,0,0
1284.135366,2779315,5.91,26-Jan-58,DeGeneres Ellen,58,167.5,1,0,5,4,5,39,0,2,40,4,0,0,12,1,0,0,0,1,0,0,29,1,3,4,4,2,1,0,7,0,5,1,0,0,252033781.1,25353937.3,11312245.41,0,0,0,3,60
5311.267516,3014905,7.298726115,29-Jun-68,Hoag Judith,48,167.5,2,0,3,0,0,6,0,2,2,14,0,0,7,5,0,0,0,0,1,0,1,0,2,0,0,2,1,0,3,0,0,6,0,1,248384235.7,21111273.89,0.0,0,0,0,0,0
34951.9375,3000662,6.99375,9-Jul-95,Henley Georgie,21,160.0,5,0,7,0,0,2,0,1,7,2,0,0,6,5,0,0,0,0,0,0,0,0,1,0,0,0,0,0,11,0,0,2,0,0,236682119.3,160904611.3,0.0,0,0,0,0,0
2792.791667,2574253,7.243055556,19-Dec-63,Beals Jennifer,53,173.0,8,0,3,1,4,17,0,8,16,35,0,0,6,4,0,0,0,2,4,0,4,0,6,0,1,10,3,0,8,2,0,17,1,0,228674698.8,15275811.71,587741.2998,0,0,0,1,20
5148.140845,2577291,7.007042254,22-Jul-67,Bedard Irene,49,150.0,5,0,9,5,2,6,0,3,9,25,0,0,6,2,0,0,0,4,0,0,0,1,1,0,0,4,4,0,4,0,0,2,1,7,222960272.4,10778785.72,0.0,0,0,0,1,20
4287.621399000001,2833066,5.803703704,20-Apr-72,Electra Carmen,44,155.0,11,1,7,2,3,46,0,2,36,6,0,0,12,2,0,3,0,0,5,0,35,3,0,0,5,8,4,0,17,9,1,0,0,0,218842886.4,11490009.19,0.0,0,0,0,0,0
574.9926471,3313587,7.372794118,18-Apr-46,Mills Hayley,70,157.5,1,0,6,5,4,20,0,5,23,18,0,0,21,4,0,0,0,1,2,0,4,2,6,0,0,10,0,0,6,0,0,8,0,1,205853135.2,1285310.313,0.0,0,0,1,2,115
5352.424242,3180328,7.422727273,26-May-20,Lee Peggy,96,165.0,0,0,4,11,7,10,0,1,12,6,0,0,11,1,0,0,0,1,0,0,37,8,0,0,0,7,0,0,6,0,0,0,1,0,204963503.7,7068743.2020000005,0.0,0,1,0,0,30
9148.37037,2805258,6.42962963,22-Dec-74,Donahue Heather,42,170.0,1,0,2,1,0,5,0,1,2,2,0,0,0,2,0,0,0,0,7,0,1,0,2,0,0,1,1,0,7,0,0,4,1,0,202457285.5,10496178.96,5762304.922,0,0,0,0,0
9627.741758,2695483,6.630769231,24-Jul-90,Chase Daveigh,26,167.5,2,0,6,3,0,8,0,0,4,7,0,0,9,1,0,0,0,0,3,0,2,0,4,0,0,1,7,0,7,0,0,8,0,0,194500506.5,28028312.11,0.0,0,0,0,0,0
41770.99248,3172387,7.030075188,15-Aug-90,Lawrence Jennifer,26,167.5,8,0,11,0,6,5,0,1,21,19,0,0,1,0,0,0,0,1,1,0,1,0,2,1,2,5,11,0,19,0,5,9,1,0,193549104.4,89414462.65,6969395.251,1,3,3,1,435
3389.9869280000003,2937568,7.975816993,22-May-78,Goodwin Ginnifer,38,165.0,0,0,3,2,1,10,0,1,10,10,0,0,5,2,0,0,0,0,0,0,1,0,1,1,0,5,0,0,2,0,1,0,0,0,191453734.3,36378111.63,0.0,0,0,0,0,0
893.7042254,2761222,7.0478873239999995,16-Oct-23,Darnell Linda,93,160.0,2,0,6,0,10,11,0,7,10,27,0,0,2,2,6,0,0,3,0,0,3,3,3,0,0,14,0,0,6,4,0,5,3,8,172197309.4,34580817.69,0.0,0,0,0,0,0
561.2962963,3038054,7.005555556,26-Feb-21,Hutton Betty,95,160.0,0,0,0,0,5,21,0,2,10,3,0,0,2,1,0,0,0,0,0,0,13,19,2,0,0,15,0,0,11,0,0,0,3,1,172149353.3,11934967.56,653461.3577,0,0,0,1,20
2338.8538989999997,3458895,7.2850937810000005,16-Sep-71,Poehler Amy,45,155.0,2,0,6,9,4,96,0,1,26,6,0,0,10,6,0,0,0,2,0,0,10,1,1,0,2,5,1,0,20,2,3,2,0,0,172082419.0,33653391.83,0.0,0,0,0,0,0
3465.0217390000003,2488037,5.5525362320000005,19-Jun-62,Abdul Paula,54,150.0,0,0,2,1,5,13,0,0,31,5,0,0,24,2,0,3,0,0,0,0,51,2,0,0,7,4,1,0,12,0,1,1,0,0,157542257.5,8238231.892999999,0.0,0,0,0,0,0
23995.84921,3659661,6.761904762,9-Apr-90,Stewart Kristen,26,162.5,3,0,10,0,5,12,0,2,11,29,0,0,4,8,0,0,0,0,2,0,8,0,2,1,1,13,4,0,14,0,2,9,1,0,153769311.3,37327181.39,9467830.893,0,0,0,0,0
1055.871134,2519475,6.303264605,1-Jul-67,Anderson Pamela,49,169.0,10,2,3,0,4,25,0,1,53,8,0,0,8,1,0,0,0,0,0,0,33,0,4,1,5,1,2,0,5,4,3,6,0,0,140161149.8,12738139.78,0.0,0,0,0,0,0
1895.994975,3729544,7.719095477000001,17-May-65,Turco Paige,51,162.5,3,0,3,0,0,8,0,1,0,11,0,0,5,1,0,0,0,0,1,0,0,1,1,0,0,2,2,0,1,1,0,5,0,0,138602313.7,14481300.0,0.0,0,0,0,0,0
863.8867925000001,3387556,6.160377358,23-May-44,Nyman Lena,72,153.0,0,0,2,1,1,17,0,1,2,22,0,0,5,2,0,0,0,1,0,0,1,1,2,0,0,1,0,0,2,0,0,2,0,0,132347248.0,0.0,0.0,0,0,0,0,0
36445.56757,3491261,6.854054054,28-Dec-79,Rapace Noomi,37,163.0,4,0,3,0,2,0,0,8,4,18,0,0,0,1,0,0,0,0,2,0,3,0,6,0,0,2,4,0,13,0,1,13,0,0,132196734.1,49284306.02,0.0,0,0,0,0,0
2322.618677,3665711,7.237354086,24-Apr-42,Streisand Barbra,74,162.5,0,0,1,0,15,28,0,1,81,15,0,0,9,1,0,0,0,7,0,0,50,13,0,0,7,17,0,0,17,3,1,1,1,0,131346014.7,41239787.57,13364145.63,1,1,2,7,420
1215.2955470000002,3315809,7.348987854,12-Mar-46,Minnelli Liza,70,160.0,1,0,2,2,9,26,0,1,100,15,0,0,28,3,0,0,0,5,0,0,74,31,1,0,8,8,0,0,12,3,6,2,0,0,130543964.1,16068398.48,0.0,1,1,2,4,360
176.965812,3383070,5.820512821,10 November 1892,Normand Mabel,124,152.5,2,0,1,0,2,213,0,1,22,25,0,0,1,0,0,0,0,5,0,0,0,0,0,0,0,6,0,0,214,0,0,0,1,2,127152317.9,1429866.514,0.0,0,0,0,0,0
23799.72174,3230060,7.815652173999999,23-Feb-76,Macdonald Kelly,40,155.0,0,0,2,1,2,11,0,2,5,21,0,0,6,3,0,0,0,3,1,0,0,0,4,0,0,9,0,0,8,0,0,3,0,0,124020499.6,38782780.17,0.0,0,0,0,0,0
1026.597015,3391872,6.259701493,20-Feb-48,O'Neill Jennifer,68,170.0,7,0,5,0,1,10,0,8,3,24,0,0,5,2,0,1,0,2,2,0,1,2,6,0,7,6,2,0,0,2,0,12,1,3,123018053.7,7673746.177999999,0.0,0,0,0,0,0
42597.20792,3662622,7.025742574,6-Nov-88,Stone Emma,28,165.0,2,0,5,2,2,29,0,0,7,9,0,0,3,3,0,0,0,2,1,0,10,2,0,0,5,7,2,0,6,1,1,0,0,0,122674877.1,59478156.27,0.0,0,1,0,2,70
2100.45098,3076385,6.835294117999999,2-Mar-19,Jones Jennifer,97,165.0,3,0,2,0,7,4,0,3,10,24,0,0,4,1,0,0,0,2,0,0,1,1,3,0,0,17,0,0,4,0,0,1,4,2,117744239.5,27932220.78,0.0,1,4,1,1,315
12662.46082,2648742,6.848275862,26-Jul-64,Bullock Sandra,52,167.5,11,0,9,2,8,29,0,14,33,28,0,0,15,4,0,1,0,1,1,0,10,1,6,3,7,16,3,0,21,1,4,12,1,0,117479045.5,47377079.02,11812675.67,1,1,1,4,285
232.61498030000004,2556222,7.439684625,6-Aug-11,Ball Lucille,105,165.0,4,0,6,0,12,142,0,10,78,30,0,0,13,5,3,1,0,6,0,0,31,29,6,0,9,33,1,0,27,4,1,2,2,2,117241379.3,9228933.844,1850566.997,0,0,0,7,140
2318.6,3534226,7.487,6-Sep-72,Rose Anika Noni,44,155.0,0,0,2,4,1,7,0,0,11,14,0,0,8,1,0,0,0,3,0,0,7,8,1,0,1,4,0,0,5,0,0,0,0,0,116792048.7,26235249.55,0.0,0,0,0,0,0
6143.259067,3819037,6.84507772,15-Nov-91,Woodley Shailene,25,170.0,2,0,5,0,0,5,0,0,8,8,0,0,2,0,0,0,0,0,0,0,3,1,3,0,1,5,4,0,13,0,2,3,0,0,115201919.5,44061610.0,0.0,0,0,0,1,20
15762.42925,3519748,6.366509434,28-Oct-67,Roberts Julia,49,170.0,3,0,4,1,11,32,0,8,42,28,0,0,16,4,0,0,0,3,2,0,14,1,4,3,3,20,1,0,11,0,1,12,2,0,112995360.5,50236500.67,11340531.99,1,3,3,5,515
1056.035714,2909701,7.025,29-Sep-04,Garson Greer,112,165.0,0,0,0,2,6,13,0,0,22,23,0,0,11,1,0,0,0,3,0,0,5,6,0,0,1,16,0,0,10,0,0,0,4,1,110132727.1,18743863.93,0.0,1,6,1,0,355
29610.45455,3071026,6.7490909089999995,4-Oct-89,Johnson Dakota,27,167.5,2,0,1,0,1,6,0,3,2,14,0,0,2,1,0,0,0,0,1,0,1,0,0,0,1,6,0,0,5,0,0,4,0,0,107535954.7,32063614.89,253146.3988,0,0,0,0,0
2043.42953,3027496,6.574496644,9-Aug-63,Houston Whitney,53,165.0,1,0,0,0,5,11,0,0,49,6,0,0,21,2,0,0,0,2,0,0,90,1,0,3,2,4,0,0,3,1,0,0,0,0,105593946.5,16577436.24,15296367.11,0,0,0,0,0
64478.92,3197695,7.568,11-Apr-00,Lily Morgan,116,162.5,2,0,2,0,1,5,0,0,1,7,0,0,1,0,0,0,0,0,0,0,0,0,0,0,0,2,2,0,2,0,0,1,0,1,105095771.5,72733876.68,0.0,0,0,0,0,0
2555.251852,3818416,6.96962963,20-Jul-38,Wood Natalie,78,150.0,3,0,2,0,9,24,0,4,38,41,0,0,11,1,1,0,0,2,0,0,5,5,3,1,5,27,2,0,5,3,1,4,4,8,103938032.8,18858300.95,1952193.621,0,3,2,5,340
12023.09836,2624843,5.818032787000001,6-Aug-64,Boyle Lisa,52,167.5,5,0,0,0,0,3,0,2,6,9,0,0,1,0,0,0,0,1,2,0,0,0,1,0,1,0,4,0,0,0,0,5,0,0,103366680.3,29546415.43,0.0,0,0,0,0,0
1090.323077,3230600,6.876923077000001,1-Apr-39,MacGraw Ali,77,170.0,2,0,0,0,5,4,0,1,23,7,0,0,4,0,0,0,0,1,1,0,4,0,1,0,2,4,0,0,1,1,0,2,0,1,101274686.2,13221258.08,100738.7848,0,1,2,0,180
2324.340909,2992432,7.045454545,10-Oct-00,Hayes Helen,116,150.0,2,0,3,0,4,14,0,5,15,25,0,0,13,2,0,0,0,2,0,0,5,2,7,0,6,5,0,0,3,0,0,3,2,0,100934653.5,15176117.81,0.0,2,0,0,2,240
2665.125,3547887,6.684375,4-Jun-07,Russell Rosalind,109,170.0,1,0,5,0,5,36,0,2,23,29,0,0,6,0,0,0,0,2,0,0,0,7,5,0,5,19,0,0,15,0,0,3,2,0,100517086.2,15354216.64,0.0,0,4,4,1,440
700.8888889,2988594,6.259259258999999,17-Dec-47,Hassett Marilyn,69,165.0,1,0,1,0,3,2,0,2,0,9,0,0,1,0,0,0,0,0,4,0,0,0,0,0,0,3,0,0,1,0,0,5,1,0,98624293.44,333706.2294,0.0,0,0,1,1,95
2603.1846149999997,3754012,7.5943589739999995,20-Nov-78,Velazquez Nadine,38,162.5,5,0,1,0,0,7,0,0,1,9,0,0,2,0,0,0,0,0,2,0,1,0,0,0,2,2,1,0,4,1,1,8,0,0,98022465.74,12439929.16,0.0,0,0,0,0,0
748.0595238,3455345,6.433333332999999,10-May-44,Pisier Marie-France,72,155.0,1,0,4,2,4,27,0,12,4,39,0,0,1,4,0,0,0,0,0,0,1,3,2,0,0,17,3,0,4,1,0,9,1,0,97631766.34,6516702.795,0.0,0,0,0,0,0
2457.6923079999997,2536434,7.015384615,17-Oct-00,Arthur Jean,116,157.5,4,0,3,0,9,41,0,8,12,37,0,0,0,1,0,0,0,3,0,0,0,2,5,0,0,32,0,0,14,0,0,2,2,28,96806722.69,14852555.01,372925.7457,0,1,0,0,30
5630.373626,3527989,6.737362637,16-Jul-11,Rogers Ginger,105,160.0,0,0,4,0,7,73,0,6,57,35,0,0,15,5,4,2,0,3,0,0,22,32,10,0,5,46,1,0,19,3,1,4,7,1,93938650.31,14773656.74,0.0,1,0,0,1,120
3674.9477810000003,3035109,6.943603133,15-Jun-63,Hunt Helen,53,167.5,9,0,4,5,7,21,0,7,22,34,0,0,14,3,0,1,0,4,3,0,3,1,0,1,3,13,5,0,11,4,0,7,0,2,93553984.15,27785375.77,1710620.1,1,1,4,4,510
9044.692308,3163466,7.648076923,17-Jul-64,Langenkamp Heather,52,157.5,3,0,0,0,1,5,0,1,19,7,0,0,1,2,0,0,0,0,17,0,1,0,1,0,0,0,2,0,5,1,0,6,0,0,93071313.38,6943029.647000001,0.0,0,0,0,0,0
1936.883041,2877563,7.013450292000001,21-Dec-37,Fonda Jane,79,170.0,2,0,4,0,17,30,0,5,97,37,0,0,16,3,0,1,0,9,1,0,20,1,6,0,21,19,4,0,14,7,3,8,4,3,90190631.16,16658618.44,3330461.758,2,5,4,8,810
17396.53125,3814313,6.498958332999999,22-Mar-76,Witherspoon Reese,40,156.0,6,0,7,6,7,31,0,6,24,29,0,0,19,7,0,0,0,2,0,0,12,2,1,0,4,17,7,0,17,0,4,6,0,0,89807107.46,48934268.86,11487040.11,2,0,1,3,335
31060.357139999996,2858179,6.121428571,20-Oct-82,Featherston Katie,34,165.0,1,0,0,0,0,6,0,0,0,2,0,0,0,0,0,0,0,0,6,0,0,0,0,0,0,1,1,0,3,0,0,0,0,0,88487252.36,2317589.165,0.0,0,0,0,0,0
1190.86,3371098,6.778,24-Apr-98,Newman Ryan,18,157.5,2,0,2,1,0,3,0,1,0,2,0,0,4,1,0,0,0,0,2,0,2,0,1,0,5,1,4,0,3,0,1,2,0,0,87691678.57,34707435.4,0.0,0,0,0,0,0
512.7761194,3150785,6.455223881,19-May-39,Kwan Nancy,77,157.5,10,0,5,1,3,13,0,10,16,29,0,0,1,0,0,0,0,1,2,0,1,1,2,0,0,3,1,0,6,2,1,7,2,1,87491638.8,13046585.85,0.0,0,0,1,1,95
4498.912424,2580551,6.820570265,18-Jul-80,Bell Kristen,36,152.5,7,0,7,9,1,34,0,3,8,18,0,0,17,3,0,0,0,3,3,0,12,6,3,2,2,9,6,0,15,1,1,4,0,0,85388926.34,23470962.4,0.0,0,0,0,0,0
18431.16667,3777745,7.308333332999999,1984,Wallis Annabelle,32,167.5,3,0,4,0,0,3,0,0,3,4,0,0,0,2,0,0,0,0,4,0,1,0,1,0,1,2,2,0,1,0,0,4,0,1,85185894.16,38030930.77,0.0,0,0,0,0,0
5008.590551,3002221,7.037795276000001,4-May-29,Hepburn Audrey,87,167.5,0,0,3,0,16,24,0,6,62,17,0,0,13,1,0,0,0,4,1,0,9,5,2,0,0,23,0,0,8,0,2,3,1,1,85033140.05,23287774.55,2839843.297,1,4,1,8,455
4037.148649,2631313,6.886486486,3-Sep-32,Brennan Eileen,84,165.0,1,0,6,1,0,32,0,9,6,29,0,0,10,6,0,0,0,0,2,0,1,5,8,0,1,11,0,0,4,0,0,7,1,0,84896193.41,12870551.84,0.0,0,1,1,1,125
17861.863999999998,3074527,5.6308,4-Jun-75,Jolie Angelina,41,167.5,18,0,12,8,19,18,0,12,61,25,0,0,15,6,0,0,0,8,0,0,8,0,7,7,4,14,4,0,41,1,3,19,4,1,83377458.15,65112775.77,12396482.07,1,1,3,3,415
5595.6,2571702,5.9639999999999995,13-Jun-50,Bauer Belinda,66,172.5,6,0,5,0,0,2,0,4,2,7,0,0,0,2,0,0,0,0,3,0,1,0,1,0,0,5,4,0,1,0,0,8,0,1,83155688.45,25378505.85,0.0,0,0,0,0,0
33769.17273,3413031,6.773636364,21-Feb-87,Page Ellen,29,152.5,2,0,5,3,4,12,0,4,12,26,0,0,2,2,0,0,0,1,2,0,0,0,0,4,1,5,5,0,9,1,1,8,0,0,83081471.66,31173498.67,0.0,0,1,0,1,50
3954.6390979999996,2771091,7.137593985,1-Jul-16,de Havilland Olivia,100,160.0,5,0,9,0,8,23,0,5,33,32,0,0,3,1,3,0,0,8,4,0,2,2,6,0,2,30,0,0,13,1,0,9,4,5,81583575.9,24151796.18,216214.4349,2,3,0,0,290
19479.24151,2794516,6.185283019,30-Aug-72,Diaz Cameron,44,170.0,6,0,8,11,6,43,0,10,55,15,0,0,26,13,0,1,0,3,3,0,14,3,4,6,4,15,4,0,28,3,1,10,0,0,81379835.09,60946234.53,12383639.1,0,0,0,4,80
5972.987075999999,3147920,7.234894992,14-Aug-83,Kunis Mila,33,160.0,5,0,11,9,1,28,0,4,14,11,0,0,7,3,0,0,0,0,3,0,6,0,1,1,1,8,3,0,12,1,1,7,0,0,80531409.85,41390319.31,0.0,0,0,0,1,20
8280.596413,2521602,7.420179372000001,1-Oct-35,Andrews Julie,81,167.5,1,0,5,11,16,49,0,2,71,17,0,0,43,12,0,0,0,2,0,0,46,17,1,1,8,18,1,0,17,0,1,2,2,0,80419193.12,69792872.09,4910132.606000001,1,2,3,7,525
2602.714286,3749284,6.533673469,24-Sep-62,Vardalos Nia,54,165.0,0,0,0,0,0,14,0,2,10,3,0,0,4,0,0,0,0,0,0,0,1,0,0,0,1,5,0,0,8,1,2,0,0,0,80320879.24,14779200.78,4540744.858,0,0,0,1,20
9697.568528,2499775,7.294416244,12-May-78,Akerman Malin,38,170.0,6,0,0,0,1,17,0,4,4,14,0,0,0,0,0,0,0,1,3,0,2,0,2,2,0,7,5,0,8,0,2,7,0,0,80180630.0,36688442.68,0.0,0,0,0,0,0
18355.64286,3660496,7.050714286,28-Mar-81,Stiles Julia,35,167.5,5,0,0,0,0,14,0,1,11,25,0,0,5,0,0,0,0,0,2,0,5,0,3,0,0,9,0,0,11,0,0,14,0,0,79578580.88,34421071.55,5217391.304,0,0,0,1,20
2263.374718,2750888,6.791422122,23-Nov-92,Cyrus Miley,24,162.5,3,0,2,3,2,15,0,0,33,6,0,0,19,0,0,1,0,0,0,0,76,1,0,5,5,4,0,0,21,0,1,0,0,0,78568694.15,25061444.32,17857.14286,0,0,0,0,0
1277.277778,2583727,7.255555556,24-Apr-64,Bendixsen Mia,52,162.5,0,0,0,0,0,3,0,0,0,2,0,0,1,1,0,0,0,0,0,0,1,1,0,0,0,1,0,0,0,0,0,0,0,0,78513011.15,8029739.777000001,0.0,0,0,0,0,0
32464.95699,3107669,6.67311828,9-Aug-85,Kendrick Anna,31,155.0,4,0,7,2,0,26,0,4,5,19,0,0,4,8,0,0,0,0,2,0,14,5,0,0,0,14,0,0,5,0,0,4,0,0,76725394.71,34843052.48,0.0,0,1,0,1,50
4728.416279,3278897,7.364418605,26-Aug-70,McCarthy Melissa,46,155.0,5,0,1,2,0,32,0,5,1,5,0,0,2,4,0,0,0,0,0,0,2,0,4,1,3,4,4,0,6,0,0,3,0,0,74307739.42,32377126.26,8250000.0,0,1,0,1,50
6525.553191,2951127,6.771276596,26-Mar-60,Grey Jennifer,56,157.5,3,0,1,2,0,8,0,1,6,18,0,0,2,1,0,0,0,1,1,0,1,0,0,0,0,9,2,0,0,1,0,3,1,0,74040909.99,18604466.54,0.0,0,0,0,1,20
4929.014706,3183979,7.0882352939999995,5-Nov-13,Leigh Vivien,103,157.5,0,0,3,0,12,8,0,0,38,13,0,0,1,0,0,0,0,7,0,0,1,3,0,0,1,12,0,0,5,1,0,1,8,0,73846153.85,8839891.044,1023005.771,2,0,0,1,220
34475.238639999996,2695776,7.095454545,24-Mar-77,Chastain Jessica,39,160.0,3,0,6,0,5,4,0,4,9,28,0,0,0,3,0,0,0,5,3,0,2,1,2,2,1,4,5,0,19,0,3,8,2,1,73752550.04,31654487.34,106.69559299999999,0,2,1,2,175
7114.50495,3110261,6.923762376,30-Sep-21,Kerr Deborah,95,165.0,3,0,5,0,8,13,0,2,28,43,0,0,4,0,0,0,0,5,2,0,1,2,4,0,2,25,0,0,9,0,0,3,10,0,72688863.78,25009521.33,1935483.871,0,6,1,3,315
2299.136,2525278,7.456,14-May-45,Annis Francesca,71,160.0,5,0,5,0,2,9,0,9,2,38,0,0,3,3,0,0,0,4,1,0,2,3,8,0,0,8,1,0,4,0,0,11,1,0,71435665.06,61046996.19,0.0,0,0,0,0,0
2378.245981,3211990,6.099678457,24-Jul-69,Lopez Jennifer,47,165.0,4,0,5,3,9,21,0,10,58,18,0,0,17,2,0,1,0,3,2,0,101,8,2,5,5,10,2,0,19,1,4,11,0,0,70726417.31,47540063.26,6756127.892000001,0,0,0,1,20
14056.10606,2883684,6.499242424,16-May-86,Fox Megan,30,160.0,7,0,5,1,1,13,0,1,2,5,0,0,2,2,0,0,0,0,3,0,7,0,0,1,2,4,6,0,4,0,0,2,0,1,70708138.72,71663203.64,0.0,0,0,0,0,0
6211.15,3396152,6.725,5-Aug-93,Ohgo Suzuka,23,157.0,1,0,1,0,0,2,0,0,0,14,0,0,0,0,0,0,0,1,0,0,1,0,2,0,0,2,0,0,0,0,0,0,1,0,70059419.97,104454685.1,0.0,0,0,0,0,0
583.4,3142889,5.334666667,28-Sep-52,Kristel Sylvia,64,176.0,4,0,1,1,0,12,0,7,11,32,0,0,0,1,0,0,0,2,1,0,0,0,3,0,1,17,1,0,2,0,1,9,2,0,69383498.35,24949282.12,0.0,0,0,0,0,0
14825.2437,2881870,6.836554622,19-Nov-62,Foster Jodie,54,157.5,3,0,6,2,9,23,0,8,68,36,0,0,17,2,0,0,0,5,1,0,7,2,7,1,6,9,2,0,16,2,4,12,2,1,69197635.78,45185942.5,13381308.91,2,2,2,5,510
7878.269231,2983095,6.880769231,25-Jul-35,Harris Barbara,81,160.0,1,0,0,1,0,15,0,3,0,6,0,0,3,1,0,0,0,0,0,0,1,1,1,0,1,4,1,0,1,0,0,1,0,0,68493729.37,10526373.18,0.0,0,1,0,4,110
1762.5844829999999,3007335,7.3244827589999995,21-Feb-79,Hewitt Jennifer Love,37,155.0,2,0,3,9,3,26,0,3,14,8,0,0,23,7,0,0,0,0,3,0,22,4,2,3,4,11,1,0,10,0,1,1,0,0,68060089.67,30001428.73,5420666.29,0,0,0,1,20
27816.264710000003,3416474,6.626470587999999,26-Feb-86,Palmer Teresa,30,164.0,5,0,2,0,0,7,0,2,1,13,0,0,2,2,0,0,0,0,3,0,1,0,1,1,0,8,2,0,4,1,2,10,1,0,67235683.0,45410848.76,0.0,0,0,0,0,0
672.1305637999999,3008241,6.140652819,6-Aug-51,Hicks Catherine,65,157.5,2,0,1,1,3,22,0,3,8,22,0,0,5,3,0,0,0,0,6,0,2,0,3,0,0,7,3,0,6,0,0,11,1,0,66629321.39,19811217.8,0.0,0,0,0,0,0
1409.227941,2926317,6.957352941,14 October 1893,Gish Lillian,123,160.0,1,0,3,2,7,19,0,5,39,90,0,0,7,2,1,0,0,10,0,0,7,1,4,0,4,20,0,0,63,0,1,4,9,6,66454150.84,14372100.77,20.0,0,1,0,1,50
11463.82482,3453717,7.08649635,18-Sep-71,Pinkett Smith Jada,45,150.0,6,0,7,6,6,18,0,4,32,12,0,0,17,4,0,0,0,0,3,0,22,1,1,2,6,5,2,0,16,1,1,4,0,0,66053940.55,49557383.42,111868.8152,0,0,0,0,0
2831.884615,2780031,7.05,30-Apr-98,DeJonge Olivia,18,157.5,0,0,0,0,0,1,0,0,1,5,0,0,3,0,0,0,0,0,2,0,0,0,1,0,0,0,0,0,4,0,0,3,0,0,65888073.85,3037756.785,0.0,0,0,0,0,0
10110.78621,2501878,6.154137931,28-Apr-81,Alba Jessica,35,165.0,17,0,11,2,2,21,0,10,23,10,0,0,14,2,0,0,0,1,4,0,13,0,2,3,6,9,12,0,14,2,2,13,0,0,65643860.26,35558454.38,0.0,0,0,0,1,20
3231.176955,3506783,6.9526748970000005,1-Apr-32,Reynolds Debbie,84,155.0,1,0,7,6,17,62,0,4,74,14,0,0,26,5,0,0,0,5,0,0,24,38,2,0,7,25,0,0,15,1,2,3,0,3,65110346.99,12898872.3,1323529.412,0,1,0,5,130
4104.684211,3106442,6.8789473679999995,28-Jun-85,Kelly Rae'Ven,31,160.0,1,0,0,0,1,1,0,0,2,11,0,0,2,1,0,0,0,0,1,0,1,0,0,0,0,0,0,0,7,1,0,2,1,0,64942764.29,6317621.397999999,0.0,0,0,0,0,0
4316.2,2849382,6.195,23-Oct-86,Evigan Briana,30,165.0,2,0,0,0,0,4,0,0,3,12,0,0,0,0,0,0,0,0,7,0,6,3,3,0,0,7,2,0,8,0,0,11,0,0,64672893.18,8331595.116,0.0,0,0,0,0,0
19584.22059,3446886,6.418382352999999,29-Apr-58,Pfeiffer Michelle,58,167.5,2,0,3,2,3,18,0,4,32,39,0,0,8,8,0,0,0,0,4,0,9,4,3,0,2,20,0,0,14,0,0,7,0,0,64562445.71,53726474.7,10250780.52,0,3,1,5,265
5822.49359,3331909,6.63525641,10-Apr-84,Moore Mandy,32,175.0,3,0,4,4,2,22,0,1,18,10,0,0,18,5,0,0,0,1,1,0,22,2,2,1,2,12,1,0,9,0,0,1,0,0,63730604.57,32827389.24,333518.6215,0,0,0,0,0
2219.530516,2991391,7.082159624,21-Nov-45,Hawn Goldie,71,165.0,2,0,0,0,6,44,0,3,41,9,0,0,15,1,0,0,0,2,1,0,12,2,1,0,7,11,0,0,2,5,0,2,2,2,63156675.8,28952405.46,3882319.6489999997,1,1,1,8,365
