votes,id,rating,dob,name,age,heightcm,Action,Adult,Adventure,Animation,Biography,Comedy,Commercial,Crime,Documentary,Drama,Erotica,Experimental,Family,Fantasy,Film-Noir,Game-Show,Hardcore,History,Horror,Lifestyle,Music,Musical,Mystery,News,Reality-TV,Romance,Sci-Fi,Sex,Short,Sport,Talk-Show,Thriller,War,Western,gross,budget,salary,academy awards won,academy awards nominated,golden globes won,golden globes nominated,totalawards
16365.95031,184483,6.7534161489999995,31-May-49,Berenger Tom,67,177.5,25,0,5,0,3,12,0,22,14,47,0,0,2,0,0,0,0,8,2,0,1,0,8,0,0,11,2,0,4,3,0,36,11,10,34104779.61,22949858.59,0.0,0,1,1,0,105
3096.221698,699246,7.4660377360000005,27-Oct-53,Firth Peter,63,172.5,9,0,10,0,3,10,0,2,1,35,0,0,1,4,0,0,0,6,4,0,0,0,4,0,0,14,7,0,5,0,0,11,5,0,0.0,36043794.01,0.0,0,1,1,0,105
12578.262770000001,2184455,6.708759124,30-Dec-34,Tamblyn Russ,82,172.5,10,0,6,0,5,19,0,6,10,25,0,0,9,8,0,0,0,2,10,0,3,10,1,0,2,16,4,0,3,2,1,6,4,10,0.0,22644528.98,0.0,0,1,1,0,105
5103.436508,1728700,6.7880952379999995,4-Apr-32,Perkins Anthony,84,185.0,2,0,4,0,8,13,0,7,22,33,0,0,2,1,0,0,0,2,17,0,2,1,7,0,2,14,3,0,2,2,0,20,2,3,40142827.97,26230917.07,324324.3243,0,1,1,0,105
2018.298507,2393905,6.901492537,26-Dec-14,Widmark Richard,102,175.0,14,0,19,0,11,9,0,17,29,43,0,0,3,0,8,0,0,7,5,0,2,0,10,0,0,10,0,0,7,1,0,25,8,21,19950306.65,24383411.79,0.0,0,1,1,0,105
18284.43636,1673233,7.117575757999999,3-Oct-64,Owen Clive,52,185.0,19,0,11,0,1,10,0,20,20,35,0,0,3,1,0,0,0,4,1,0,2,0,14,0,0,13,4,0,22,2,0,18,3,0,16006697.63,58732469.19,0.0,0,1,1,0,105
19673.92105,590484,6.803508772000001,18-Mar-50,Dourif Brad,66,172.5,23,0,11,0,2,23,0,10,20,48,0,0,3,14,0,0,0,3,42,0,0,0,11,0,0,5,20,0,14,0,0,43,1,4,11929924.35,18825176.07,0.0,0,1,1,0,105
1919.670157,1436747,7.019895288,15-Feb-14,McCarthy Kevin,102,175.0,8,0,7,1,9,34,0,9,16,41,0,0,2,6,2,0,0,0,14,0,3,3,10,0,1,12,16,0,7,1,0,20,2,9,0.0,9695742.66,0.0,0,1,1,0,105
4315.293605,516317,6.896802326,28-Jun-46,Davison Bruce,70,182.5,21,0,15,2,5,34,0,12,12,89,0,0,10,10,0,0,0,3,17,0,2,1,13,0,1,20,17,0,22,2,0,37,3,3,57078302.8,15244755.16,0.0,0,1,1,0,105
3099.837838,1460928,7.410810811,24-Mar-30,McQueen Steve,86,172.5,9,0,7,1,10,9,0,9,39,23,0,0,2,1,0,0,0,1,2,0,0,0,2,1,2,7,1,0,8,4,0,7,6,4,169171509.6,27509951.27,3366302.317,0,1,0,4,110
3892.737864,153007,6.838834951,17-Feb-34,Bates Alan,82,172.5,2,0,5,0,5,13,0,6,23,54,0,0,2,5,0,0,0,6,4,0,4,0,6,0,0,12,2,0,13,0,0,6,1,1,101769.9654,11433402.0,0.0,0,1,0,4,110
23234.894369999998,830504,7.190140845,12-Nov-80,Gosling Ryan,36,180.0,3,0,0,0,3,11,0,7,15,19,0,0,3,2,0,0,0,2,2,0,2,1,6,3,0,6,2,0,13,1,2,6,0,0,17804859.44,20575772.96,1157742.402,0,1,0,4,110
42928.64634,630924,7.002439024,10-Jul-77,Ejiofor Chiwetel,39,175.0,5,0,3,0,5,3,0,10,11,25,0,0,3,2,0,0,0,7,0,0,3,0,6,1,0,3,5,0,11,1,1,11,1,0,20373543.64,57915708.4,0.0,0,1,0,4,110
984.8361345000001,2304375,6.701890756,22-Nov-32,Vaughn Robert,84,170.0,36,0,22,0,8,27,0,19,20,48,0,0,8,6,0,0,0,6,7,0,3,2,11,0,1,4,16,0,11,2,0,26,6,4,0.0,12012246.01,0.0,0,1,0,4,110
244.2333333,716612,7.17,16 March 1884,Ford Harrison,132,177.5,0,0,3,0,0,47,0,1,3,45,0,0,0,0,0,0,0,0,0,0,0,0,1,0,0,25,0,0,5,0,0,2,0,3,0.0,13447057.64,0.0,0,1,0,4,110
28546.378839999998,716611,6.739249147000001,13-Jul-42,Ford Harrison,74,182.5,31,0,21,0,11,16,0,11,116,31,0,0,10,9,0,0,0,1,2,0,7,1,7,1,5,9,17,0,51,1,1,19,5,3,168295256.9,54105500.49,21631576.66,0,1,0,4,110
10023.49603,258054,7.31984127,10-Dec-60,Branagh Kenneth,56,172.5,6,0,3,6,17,18,0,6,54,43,0,0,3,1,0,0,0,10,3,0,5,1,4,1,1,12,5,0,28,2,0,10,9,1,32143111.36,40485235.48,0.0,0,1,0,4,110
20646.7,1006277,7.072,6-Dec-53,Hulce Tom,63,170.0,0,0,3,3,2,7,0,0,10,16,0,0,5,0,0,0,0,1,2,0,4,4,1,0,0,5,1,0,3,0,0,3,0,0,38924784.71,50066617.93,0.0,0,1,0,4,110
11465.70755,316227,7.012578616,26-Mar-40,Caan James,76,176.0,22,0,4,3,10,39,0,32,46,60,0,0,14,6,0,0,0,1,3,0,11,1,7,0,4,22,6,0,13,6,0,24,4,9,47158702.17,32672387.83,149536.604,0,1,0,4,110
3769.8864350000003,1442933,7.44384858,26-Oct-61,McDermott Dylan,55,180.0,12,0,1,1,3,14,0,9,15,23,0,0,4,2,0,0,0,4,3,0,3,0,4,0,1,10,3,0,6,0,0,23,1,3,727780.8251,26885853.31,0.0,0,0,1,2,115
2501.6923079999997,894803,6.46875,12-Aug-39,Hamilton George,77,182.5,11,0,12,1,12,42,0,13,20,41,0,0,15,3,0,2,0,6,3,0,8,3,11,2,5,22,3,0,3,1,1,6,4,9,145074380.2,18249745.89,0.0,0,0,1,2,115
3412.413655,393504,7.085341365,30-Aug-63,Chiklis Michael,53,170.0,10,0,4,5,3,13,0,7,15,4,0,0,5,5,0,0,0,0,1,0,3,2,3,0,2,1,6,0,13,8,0,10,0,0,2107741.935,54095807.56,0.0,0,0,1,2,115
24628.03425,839375,6.656164383999999,9-Sep-60,Grant Hugh,56,177.5,1,0,4,4,5,34,0,3,58,27,0,0,11,1,0,1,0,4,3,0,12,0,3,1,3,22,1,0,28,0,1,3,0,0,44257606.04,34213678.77,12761524.84,0,0,1,2,115
5817.44717,2032780,7.0709433960000005,3-Sep-65,Sheen Charlie,51,175.0,22,0,7,3,6,43,0,19,48,31,0,0,12,2,0,1,0,4,3,0,6,0,2,4,4,8,5,0,15,5,1,20,2,1,48236233.01,26643764.92,9184107.092,0,0,1,2,115
8608.356164,1855938,7.311643836,27-Jul-77,Rhys Meyers Jonathan,39,177.0,5,0,2,0,1,2,0,4,9,23,0,0,1,2,0,0,0,4,4,0,6,0,7,1,0,8,0,0,7,1,0,19,3,0,14316823.64,33124083.68,0.0,0,0,1,2,115
2228.257143,716583,6.726857142999999,1-May-16,Ford Glenn,100,177.5,13,0,12,0,5,27,0,21,39,63,0,0,8,0,12,0,0,2,3,0,9,1,7,0,0,18,4,0,21,5,1,18,13,29,16958873.05,28894584.23,1192052.98,0,0,1,2,115
1671.171806,841444,7.133920705,18-Mar-26,Graves Peter,90,187.5,9,0,17,1,45,21,0,8,67,28,0,0,6,5,3,0,0,1,7,0,2,2,5,0,2,4,12,0,3,2,0,11,8,11,85409252.67,12915961.2,55555.55556,0,0,1,2,115
1198.239669,215538,6.932644627999999,18-Sep-33,Blake Robert,83,160.0,6,0,6,0,6,55,0,21,8,35,0,0,43,0,5,0,0,4,0,0,4,3,6,0,2,9,1,0,43,1,0,7,7,30,487300.516,7444656.943,0.0,0,0,1,2,115
30003.104580000003,1090175,6.636601307,15-Sep-46,Jones Tommy Lee,70,180.0,25,0,17,0,8,11,0,20,44,45,0,0,11,4,0,0,0,5,0,0,4,2,11,2,2,10,6,0,25,2,0,26,3,7,72264064.99,68707446.97,14735638.29,0,0,1,2,115
584.8270269999999,1560381,6.677837837999999,13-Nov-32,Mulligan Richard,84,182.5,1,0,5,1,1,20,0,2,3,13,0,0,8,6,0,0,0,1,0,0,0,3,1,0,0,7,1,0,1,0,0,0,0,2,12498876.61,27460965.53,0.0,0,0,1,2,115
159.3075117,1055106,7.295070422999999,27-Mar-31,Janssen David,85,180.0,5,0,8,0,6,16,0,10,8,39,0,0,5,4,0,0,0,3,3,0,4,3,3,0,2,7,1,0,10,1,0,10,8,5,0.0,40823004.4,0.0,0,0,1,2,115
2401.929204,428555,7.339233038,3-Jan-32,Coleman Dabney,84,182.5,11,0,5,5,7,36,0,13,18,40,0,0,12,4,0,0,0,1,3,0,2,0,5,0,1,12,5,0,3,4,0,13,2,1,4698199.235,33493757.27,0.0,0,0,1,2,115
3321.394336,123110,7.493028322000001,9-Oct-54,Bakula Scott,62,182.0,4,0,3,1,1,17,0,1,18,17,0,0,9,1,0,0,0,0,1,0,1,3,2,0,2,10,9,0,17,5,0,8,0,0,19438899.34,17913148.37,0.0,0,0,1,2,115
9424.714286,1814887,7.205102041,10 November 1889,Rains Claude,127,165.0,3,0,11,0,8,11,0,7,13,46,0,0,4,8,9,0,0,10,9,0,3,5,5,0,0,28,5,0,10,1,0,9,7,1,16779950.77,12399416.3,0.0,0,4,0,0,120
968.8200692,1823048,7.146712803,26-Feb-20,Randall Tony,96,170.0,0,0,3,8,9,53,0,3,32,10,0,0,24,12,0,1,0,0,0,0,22,14,9,1,4,11,1,0,4,3,1,1,1,8,0.0,13008757.75,0.0,0,0,0,6,120
11866.49524,672786,6.96952381,1-Sep-20,Farnsworth Richard,96,180.0,5,0,14,1,8,13,0,6,6,39,0,0,12,5,0,0,0,7,1,0,3,3,1,0,0,16,3,0,1,3,0,3,7,26,860268.4015,29482251.53,0.0,0,2,0,3,120
23298.58049,1372571,6.907804877999999,9-Dec-53,Malkovich John,63,180.0,12,0,8,2,7,28,0,12,31,59,0,0,5,5,0,0,0,11,6,0,7,1,5,0,0,13,5,0,18,1,1,16,7,1,4097566.648,50045062.97,1660899.654,0,2,0,3,120
27372.4,273731,6.596666667,14-Apr-73,Brody Adrien,43,182.5,7,0,11,0,10,15,0,13,26,44,0,0,2,1,0,0,0,8,5,0,7,1,7,1,2,11,4,0,15,2,0,17,3,0,11548760.46,29256981.88,5820243.6110000005,1,0,0,1,120
44200.30357,674758,7.3419642860000005,2-Apr-77,Fassbender Michael,39,183.0,13,0,13,0,3,1,0,8,10,27,0,0,0,5,0,0,0,5,4,0,2,0,4,1,0,3,10,0,6,1,3,11,5,2,10459660.45,81396616.11,0.0,0,2,0,3,120
8785.366667,1879960,6.920555556,9-Sep-23,Robertson Cliff,93,180.0,13,0,3,2,10,17,0,5,27,51,0,0,6,0,0,0,0,4,3,0,3,1,4,0,3,10,4,0,6,1,0,14,12,2,0.0,28055594.33,0.0,1,0,0,1,120
1134.87931,1985272,6.962068966,22 March 1896,Schildkraut Joseph,120,175.0,1,0,8,0,8,11,0,4,5,40,0,0,1,1,0,0,0,12,1,0,1,5,3,0,0,26,0,0,5,0,0,2,3,8,7167990.857000001,22712240.87,0.0,1,0,0,1,120
9213.82,1934524,7.274,18-Jan-60,Rylance Mark,56,170.0,4,0,2,2,5,2,0,3,12,21,0,0,2,3,0,0,0,5,0,0,1,0,5,0,0,5,1,0,5,0,0,5,2,0,34238305.35,65005407.86,0.0,1,0,0,1,120
2985.8,1958877,6.560645161,3-Jul-06,Sanders George,110,187.5,7,0,24,3,2,29,0,33,7,74,0,0,5,5,10,0,0,11,6,0,3,8,31,1,0,34,5,0,3,0,0,26,16,5,11351351.35,21879041.4,0.0,1,0,0,1,120
9346.317597,551069,7.029613734,4-Jun-36,Dern Bruce,80,180.0,14,0,7,0,9,21,0,20,30,66,0,0,2,5,0,0,0,5,9,0,1,0,8,0,0,11,6,0,15,7,0,30,3,17,6492623.376,19986657.11,0.0,0,2,0,3,120
2409.226804,290602,6.748453607999999,11-Jul-20,Brynner Yul,96,170.0,12,0,11,1,10,8,0,5,37,25,0,0,5,4,1,0,0,12,0,0,5,1,3,0,0,10,3,0,10,0,1,12,11,8,52794565.72,30589072.01,2531643.0719999997,1,0,0,1,120
14185.85354,824904,6.517676767999999,2-Jan-68,Gooding Jr. Cuba,48,175.0,21,0,7,2,4,17,0,14,25,32,0,0,9,1,0,0,0,3,2,0,11,3,3,1,2,6,4,0,10,7,1,21,2,1,31373919.34,32563637.33,1206591.467,1,0,0,1,120
1888.7733329999999,2341449,7.224761905,10-Feb-30,Wagner Robert,86,177.5,18,0,18,0,25,43,0,30,66,57,0,0,18,4,2,0,0,4,3,0,12,5,20,0,25,15,3,0,8,6,1,16,9,5,0.0,19182069.33,608108.1081,0,0,0,6,120
31505.614910000004,1255048,6.81552795,29-Dec-72,Law Jude,44,175.0,11,0,11,1,3,14,0,13,34,33,0,0,6,4,0,0,0,4,2,0,9,3,7,2,0,13,5,0,33,0,1,17,3,0,34259248.6,64304654.73,9237738.822,0,2,0,3,120
7115.356828,128141,7.042290749,4-Nov-19,Balsam Martin,97,167.5,12,0,5,0,9,17,0,28,13,73,0,0,4,1,0,0,0,4,4,0,2,0,4,0,0,11,5,0,3,2,0,30,9,4,182772934.0,36226301.92,0.0,1,0,0,1,120
6365.755435,1013605,6.729347826000001,5-Aug-06,Huston John,110,182.5,4,0,12,3,10,5,0,1,51,28,0,0,5,6,0,0,0,1,3,0,0,3,4,0,0,3,3,0,13,2,0,4,7,5,0.0,23067101.38,1653209.4119999998,0,1,1,1,125
1089.04878,2231944,6.812195122,11-Jun-19,Todd Richard,97,172.5,3,0,7,0,7,7,0,9,16,34,0,0,4,0,2,0,0,8,4,0,0,0,6,0,0,5,0,0,3,1,0,10,8,1,41461132.08,13923163.36,0.0,0,1,1,1,125
46906.72889,1040268,7.060888889,12-Oct-68,Jackman Hugh,48,190.0,28,0,23,6,4,14,0,4,64,15,0,0,16,13,0,0,0,2,2,0,13,7,4,3,3,7,28,0,33,2,2,17,0,1,141214431.3,107145611.3,8927678.041000001,0,1,1,1,125
9030.750842,1836580,6.872727273,18-Aug-36,Redford Robert,80,175.0,5,0,8,0,20,18,0,9,105,39,0,0,7,3,0,0,0,7,0,0,8,2,3,4,2,16,2,0,30,8,0,10,3,6,81880661.59,41762634.02,8894160.586000001,0,1,1,1,125
337.6341463,494401,6.718292683,14-Dec-15,Dailey Dan,101,187.5,0,0,3,1,6,29,0,2,3,23,0,0,2,0,0,0,0,1,1,0,3,21,2,1,1,11,0,0,1,2,0,0,5,2,0.0,18399835.6,0.0,0,1,1,1,125
15770.9717,385892,7.187028302000001,29-Nov-64,Cheadle Don,52,170.0,18,0,10,1,9,16,0,10,38,25,0,0,10,2,0,0,0,7,0,0,11,0,1,4,2,4,11,0,29,7,3,14,4,0,8613794.711000001,90074617.18,628716.611,0,1,1,1,125
4058.8536590000003,1415790,6.882926829,10-Oct-33,Massey Daniel,83,187.5,0,0,1,0,5,6,0,3,1,30,0,0,0,1,0,0,0,7,2,0,0,1,3,0,0,4,0,0,1,0,0,2,1,0,0.0,14634528.78,0.0,0,1,1,1,125
16618.509430000002,2118341,6.797484277000001,22-Jul-38,Stamp Terence,78,180.0,11,0,6,1,7,14,0,15,25,36,0,0,8,8,0,0,0,6,9,0,8,0,6,0,0,15,7,0,19,1,2,21,4,4,2527770.387,43579860.4,0.0,0,1,1,1,125
23948.35088,1132177,6.779532164,5-Sep-51,Keaton Michael,65,172.5,15,0,7,4,7,42,0,12,34,26,0,0,9,6,0,0,0,2,1,0,11,0,2,0,2,11,4,0,16,4,0,15,2,0,96223970.22,49021617.74,4838771.121,0,1,1,1,125
492.4318182,167392,6.534848485,1 April 1885,Beery Wallace,131,177.5,6,0,18,0,5,142,0,10,35,88,0,0,5,1,0,0,0,9,2,0,1,4,6,0,0,34,1,0,137,3,0,1,8,20,11237997.64,10135147.01,0.0,1,1,0,0,130
8918.0,1511310,6.97816092,11 July 1892,Mitchell Thomas,124,175.0,4,0,7,0,7,20,0,6,10,50,0,0,3,5,5,0,0,5,0,0,2,2,4,0,0,21,0,0,2,1,0,6,7,8,162879570.1,20547438.27,207194.2446,1,1,0,0,130
51363.13816,1923711,6.731578947,22-Nov-67,Ruffalo Mark,49,170.0,12,0,8,1,5,22,0,10,39,35,0,0,2,7,0,0,0,6,2,0,3,0,4,1,2,15,10,0,22,1,1,10,2,0,10163297.93,71037828.59,0.0,0,3,0,2,130
1079.601852,1455077,6.527777778,10 December 1886,McLaglen Victor,130,185.0,16,0,35,0,4,30,0,18,13,62,0,0,1,1,1,0,0,6,0,0,2,7,4,0,0,35,0,0,9,4,0,2,5,13,11228070.18,14083338.34,537357.0617,1,1,0,0,130
28511.823080000002,445816,7.412692308,5-Jan-75,Cooper Bradley,41,182.5,7,0,3,0,3,23,0,4,14,18,0,0,2,1,0,0,0,2,4,0,1,1,7,1,2,12,5,0,18,2,1,7,1,1,130982123.2,44500167.92,6008767.717999999,0,3,0,2,130
240.60526319999997,84037,6.773684211,10 April 1868,Arliss George,148,167.5,0,0,5,0,8,10,0,0,9,19,0,0,0,0,0,0,0,10,0,0,0,0,0,0,0,6,0,0,3,0,0,0,2,0,0.0,3673846.1539999996,0.0,1,1,0,0,130
42533.060339999996,539554,6.6620689660000005,19-Feb-67,Del Toro Benicio,49,185.0,10,0,6,1,8,13,0,19,40,33,0,0,5,4,0,0,0,6,2,0,9,0,5,1,3,3,2,0,25,1,0,16,3,0,52274807.43,36505377.68,0.0,1,1,0,0,130
1220.102719,1192361,7.8525679760000004,15-Feb-27,Korman Harvey,89,187.5,5,0,5,4,3,55,0,6,11,8,0,0,17,6,0,0,0,1,3,0,6,4,2,0,1,4,5,0,3,2,0,1,0,1,0.0,22176584.53,0.0,0,0,1,3,135
5416.985714,1098195,6.492857142999999,9-Mar-40,Julia Raul,76,185.0,5,0,2,0,3,12,0,11,12,28,0,0,4,3,0,0,0,2,1,0,2,3,4,1,0,13,3,0,3,0,0,10,2,0,996575.1295,39992989.54,0.0,0,0,1,3,135
3241.471338,624824,7.478343949,19-Jul-62,Edwards Anthony,54,185.0,6,0,2,2,3,16,0,6,14,26,0,0,5,2,0,0,0,3,2,0,1,0,5,1,1,9,2,0,8,3,0,5,0,1,6373208.735,22180462.42,56680161.94,0,0,1,3,135
443.79429739999995,2475431,7.684114052999999,30-Nov-18,Zimbalist Jr. Efrem,98,180.0,10,0,6,3,4,9,0,6,10,28,0,0,7,5,1,0,0,1,3,0,3,0,4,1,2,6,5,0,6,1,0,6,3,2,0.0,19240378.76,0.0,0,0,1,3,135
5440.712159000001,895837,7.7362282879999995,10-Mar-71,Hamm Jon,45,185.0,7,0,3,4,2,22,0,4,13,10,0,0,3,3,0,0,0,0,0,0,7,0,2,0,0,5,3,0,9,4,1,6,0,0,18410721.25,58425901.57,0.0,0,0,1,3,135
9693.480952,761501,7.462380952,18-Sep-61,Gandolfini James,55,180.0,8,0,2,0,1,16,0,15,21,28,0,0,4,2,0,0,0,0,2,0,2,1,6,1,3,9,1,0,11,0,0,17,1,0,396759.5118,44846767.76,18727491.0,0,0,1,3,135
3624.2763159999995,1329783,7.551315788999999,17-Mar-64,Lowe Rob,52,177.5,16,0,4,3,5,33,0,11,30,37,0,0,9,3,0,0,0,1,2,0,8,1,5,2,3,13,2,0,11,5,1,21,2,1,28979745.12,24198530.23,0.0,0,0,1,3,135
2894.5298329999996,2088473,7.423150357999999,9-Jul-55,Smits Jimmy,61,187.5,9,0,6,1,1,11,0,6,23,19,0,0,9,5,0,0,0,2,2,0,19,2,2,2,4,3,7,0,3,2,0,12,0,1,4786780.488,33378658.59,0.0,0,0,1,3,135
1461.926667,2184741,6.482666667,29 October 1899,Tamiroff Akim,117,162.5,12,0,24,0,5,46,0,21,4,57,0,0,2,2,4,0,0,13,3,0,1,12,6,0,0,42,3,0,4,2,0,10,12,11,0.0,19575315.42,0.0,0,2,1,0,135
34449.953989999995,2408692,6.6812883439999995,19-Mar-55,Willis Bruce,61,180.0,51,0,17,5,9,45,0,35,65,33,0,0,13,2,0,0,0,0,4,0,21,0,15,2,4,11,11,0,53,2,2,46,5,1,86986622.1,55923029.98,19124938.06,0,0,1,3,135
1024.130159,2010712,7.8031746029999995,29-Apr-54,Seinfeld Jerry,62,177.5,0,0,2,1,4,63,0,1,45,1,0,0,6,0,0,0,0,2,0,0,10,0,0,0,2,1,0,0,16,1,4,0,0,0,75113946.45,21638947.16,435483871.0,0,0,1,3,135
647.1720429999999,725503,7.406989247,9-Dec-22,Foxx Redd,94,170.0,2,0,0,0,4,33,0,1,13,3,0,0,4,1,0,0,0,1,0,0,17,1,0,0,1,1,0,0,3,2,0,0,1,0,0.0,21254925.13,0.0,0,0,1,3,135
11210.77059,787236,6.348235294,31-Aug-49,Gere Richard,67,175.0,5,0,5,1,12,10,0,12,64,45,0,0,8,0,0,0,0,1,1,0,17,1,7,1,1,20,0,0,16,1,1,19,3,0,56796240.61,34425417.56,15678051.25,0,0,1,3,135
36391.769739999996,974512,6.803289474,23-Jul-67,Hoffman Philip Seymour,49,172.5,6,0,7,2,8,24,0,13,43,38,0,0,4,1,0,0,0,2,2,0,9,1,1,3,1,11,2,0,39,2,0,10,1,0,2404862.067,34892755.71,0.0,0,0,1,3,135
2420.227848,1504053,7.012658227999999,10-Jan-39,Mineo Sal,77,165.0,3,0,5,0,5,4,0,6,17,22,0,0,5,0,1,0,0,3,0,0,3,1,2,0,1,2,1,0,2,2,0,3,1,7,0.0,7907650.132,1394788.199,0,2,1,0,135
4311.777778,418445,7.404444444,17-Oct-20,Clift Montgomery,96,175.0,2,0,1,0,11,1,0,1,24,16,0,0,0,0,2,0,0,4,0,0,1,0,1,0,0,9,0,0,4,0,0,3,6,3,33885561.2,27203070.42,1186403.811,0,4,0,1,140
934.1807229,252109,6.980120482,28 August 1899,Boyer Charles,117,172.5,0,0,4,0,3,28,0,3,20,55,0,0,1,4,2,0,0,5,0,0,2,4,4,0,1,33,1,0,10,0,0,2,13,0,0.0,34008643.46,0.0,0,4,0,1,140
2593.678873,1141909,6.861690141,18-Feb-25,Kennedy George,91,190.0,32,0,9,2,7,33,0,15,13,57,0,0,9,5,0,1,0,3,13,0,2,3,9,0,1,8,7,0,9,2,0,29,7,18,3379438.205,26629298.28,0.0,1,0,0,2,140
6968.974359000001,2065282,7.51996337,17-Mar-55,Sinise Gary,61,172.5,1,0,5,1,4,6,0,5,42,27,0,0,7,1,0,0,0,4,1,0,7,2,5,2,3,2,3,0,21,3,0,7,5,0,46499758.29,27887610.08,0.0,0,1,1,2,145
17195.95769,1763318,6.889230769,13-Dec-29,Plummer Christopher,87,175.0,20,0,21,28,13,31,0,17,42,95,0,0,27,9,0,0,0,14,11,0,9,9,18,0,5,24,11,0,18,3,0,44,8,0,6170254.622,52975064.95,110429.4479,0,1,1,2,145
586.671875,504123,7.3453125,14-May-36,Darin Bobby,80,170.0,0,0,0,0,2,12,0,1,5,7,0,0,7,0,0,3,0,2,0,0,26,3,1,0,0,4,0,0,0,2,4,0,1,1,0.0,10441522.76,0.0,0,1,1,2,145
12363.17722,991716,6.742405063,26-Oct-42,Hoskins Bob,74,165.0,6,0,10,6,10,35,0,14,32,61,0,0,12,13,0,0,0,8,0,0,8,3,6,1,0,12,4,0,19,2,0,13,7,0,47511193.22,50523555.76,0.0,0,1,1,2,145
7986.38,1802474,6.3245,1-Oct-50,Quaid Randy,66,192.5,14,0,7,1,9,42,0,6,12,50,0,0,10,4,0,0,0,5,7,0,6,0,1,0,0,7,14,0,5,6,0,13,1,7,664068.0761,34967271.55,2058808.9419999998,0,1,1,2,145
19286.77922,728282,6.77987013,19-Apr-78,Franco James,38,177.5,13,0,14,4,17,35,0,18,36,73,0,0,6,10,0,0,0,10,3,0,6,0,5,4,1,19,8,0,42,1,2,24,5,1,40086436.97,46401593.39,5440108.994,0,1,1,2,145
674.7459016,726972,7.1081967210000006,25-Oct-28,Franciosa Anthony,88,182.5,9,0,5,0,4,11,0,9,12,31,0,0,6,0,0,0,0,2,5,0,3,3,4,0,2,6,3,0,3,0,0,11,2,4,0.0,14124489.87,78431.37255,0,1,1,2,145
2111.78125,582819,7.13125,18-Mar-05,Donat Robert,111,180.0,1,0,2,0,5,6,0,1,11,15,0,0,1,2,0,0,0,4,2,0,0,1,1,0,0,8,0,0,5,0,0,4,3,0,0.0,0.0,0.0,1,1,0,1,150
25174.99115,2344715,6.585840707999999,31-Mar-43,Walken Christopher,73,180.0,20,0,14,0,8,60,0,27,42,53,0,0,10,9,0,0,0,6,11,0,16,8,13,1,2,19,9,0,29,2,1,30,4,2,10046272.03,43582479.39,0.0,1,1,0,1,150
564.9285714,627458,6.535714286,29-Jul-21,Egan Richard,95,180.0,7,0,11,0,2,4,0,10,3,34,0,0,1,0,7,0,0,4,2,0,1,0,2,0,0,8,3,0,0,2,0,7,5,9,35294117.65,14331967.11,0.0,0,0,2,0,150
11374.10526,99456,6.995906432999999,29-Aug-23,Attenborough Richard,93,167.5,5,0,13,1,12,16,0,17,54,46,0,0,4,4,3,0,0,9,0,0,4,2,5,3,1,6,4,0,12,1,0,13,16,0,14955499.51,53608364.53,0.0,0,0,2,0,150
3880.2353799999996,44479,7.282309942,13-Jun-53,Allen Tim,63,175.0,7,0,16,11,4,57,0,3,41,5,0,0,45,17,0,1,0,0,1,0,8,0,0,0,2,1,5,0,20,1,2,1,0,0,101429563.2,44326894.43,6606193.16,0,0,1,4,155
1104.213439,1402050,7.103952569,7-Jun-17,Martin Dean,99,177.5,10,0,4,1,17,117,0,8,73,15,0,0,8,1,0,1,0,5,1,0,45,24,2,0,6,19,4,0,10,5,2,8,2,12,0.0,25679038.92,12001085.56,0,0,1,4,155
2415.235988,890182,8.193510324,1-Feb-71,Hall Michael C.,45,175.0,6,0,6,4,3,7,0,2,10,4,0,0,0,2,0,1,0,3,0,0,0,0,1,1,0,1,4,0,6,0,0,5,0,0,11405.52453,44735243.46,0.0,0,0,1,4,155
169.7466667,2456278,7.144266667,22-Feb-07,Young Robert,109,180.0,0,0,5,0,2,46,0,5,17,63,0,0,10,1,3,0,0,7,0,0,5,12,8,1,1,43,1,0,13,3,0,3,7,4,13991031.39,13029193.99,0.0,0,0,1,4,155
14106.629869999999,2391681,7.1233766229999995,1-Oct-21,Whitmore James,95,170.0,7,0,5,3,6,15,0,9,20,50,0,0,9,3,3,0,0,3,3,0,2,3,5,0,0,17,5,0,9,2,0,10,12,11,5738335.7020000005,30755765.08,0.0,0,2,1,1,155
17047.3871,1086883,7.060117302,17-Jan-31,Jones James Earl,85,182.5,23,0,30,25,20,40,0,8,78,63,0,0,44,20,0,0,0,10,6,0,14,9,4,2,2,17,19,0,31,14,1,12,3,1,1065393.701,27177300.12,930755.0028,0,0,1,4,155
21819.67961,2117865,6.4029126210000005,6-Jul-46,Stallone Sylvester,70,172.5,36,1,12,3,15,32,0,22,107,31,0,0,10,2,0,0,0,3,2,0,12,0,5,3,9,8,7,0,41,22,1,28,5,0,82897946.97,50645364.23,19530638.16,0,2,1,1,155
10302.01377,825300,7.056798623,20-Jun-52,Goodman John,64,185.0,7,0,19,20,9,76,0,14,43,38,0,0,31,16,0,0,0,7,2,0,11,9,5,1,1,20,7,0,28,4,1,13,2,1,80318935.44,52071151.55,3697909.027,0,0,1,4,155
799.9433962,1871534,7.10754717,17-Sep-48,Ritter John,68,177.5,3,0,2,4,8,58,0,3,32,35,0,0,23,7,0,1,0,1,2,0,22,2,5,0,10,13,1,0,5,3,1,11,0,3,38468827.84,8907338.396,155475.9479,0,0,1,4,155
21641.0,914045,6.806837607,1-Oct-30,Harris Richard,86,182.5,10,0,23,2,8,11,0,7,20,47,0,0,6,6,0,0,0,12,3,0,4,6,1,0,1,12,2,0,6,1,0,12,8,8,78335643.41,50850500.95,0.0,0,2,1,1,155
5774.105263,2024995,7.644385965,9-Oct-53,Shalhoub Tony,63,175.0,6,0,10,2,3,31,0,3,16,23,0,0,14,2,0,0,0,1,1,0,4,2,6,2,1,9,6,0,12,2,1,4,1,0,28422996.56,50448531.74,0.0,0,0,1,4,155
16304.566490000001,1012196,7.311968085,22-Jan-40,Hurt John,76,172.5,17,0,19,18,17,31,0,16,61,101,0,0,16,15,0,1,0,14,15,0,7,4,12,0,0,18,12,0,23,2,0,36,6,4,7354503.427,35292720.44,0.0,0,2,1,1,155
44739.298610000005,693358,6.977777777999999,22-Dec-62,Fiennes Ralph,54,180.5,12,0,16,5,8,11,0,7,32,42,0,0,7,9,0,0,0,10,3,0,2,1,6,2,0,15,3,0,12,0,2,12,8,0,50005607.72,62504704.09,0.0,0,2,0,5,160
5489.4615380000005,955728,6.725558313,4-Oct-23,Heston Charlton,93,185.0,19,0,28,4,26,26,0,8,130,49,0,0,22,3,2,1,0,29,4,0,13,2,7,0,12,16,8,0,34,1,2,19,17,14,123927656.3,35791086.7,1049170.486,1,0,0,3,160
5748.8558140000005,226960,7.080465116,25 December 1899,Bogart Humphrey,117,170.0,7,0,11,0,21,36,0,38,86,67,0,0,2,2,28,0,0,14,1,0,8,7,8,0,1,29,1,0,25,5,0,23,19,5,24071585.66,10392101.85,1279914.212,1,2,0,0,160
14740.367230000002,2088005,6.807532957,25-Sep-68,Smith Will,48,185.0,15,0,7,3,12,29,0,6,74,16,0,0,27,6,0,0,0,1,1,0,53,0,5,7,11,4,11,0,32,6,4,6,0,1,168142383.1,77337355.74,14693957.66,0,2,0,5,160
5686.6076920000005,977365,6.884615385,17-Apr-18,Holden William,98,177.5,11,0,11,1,10,24,0,6,39,46,0,0,4,1,5,0,0,8,1,0,5,2,1,1,2,21,0,0,8,2,0,10,18,11,23061260.1,26330936.67,3029157.34,1,2,0,0,160
5161.85782,839094,6.957819905,18-Jan-04,Grant Cary,112,182.5,4,0,9,0,23,64,0,4,93,38,0,0,9,5,1,0,0,13,0,0,9,13,6,1,4,55,0,0,25,0,0,8,11,1,68652246.93,13116254.3,4868070.467,0,2,0,5,160
1482.208589,319640,7.093251534,17 July 1899,Cagney James,117,165.0,7,0,6,0,12,31,0,20,61,49,0,0,4,0,9,0,0,13,2,0,11,10,1,0,1,23,0,0,26,2,0,9,15,5,47728975.82,10384996.5,1492750.602,1,2,0,0,160
1538.4942529999998,421575,6.985057471,19 June 1877,Coburn Charles,139,180.0,2,0,3,0,7,39,0,9,10,33,0,0,2,1,3,0,0,8,0,0,3,6,4,0,0,30,1,0,3,2,0,3,2,3,0.0,24751543.64,0.0,1,2,0,0,160
11039.66667,1259877,6.332098765,22-Sep-45,Le Mat Paul,71,177.5,6,0,1,1,1,8,0,3,3,19,0,0,2,4,0,0,0,0,4,0,2,0,1,0,0,3,3,0,0,0,0,6,2,1,40661950.02,7204148.107999999,0.0,0,0,2,1,170
30486.27083,1733325,6.4770833329999995,9-Feb-43,Pesci Joe,73,160.0,10,0,4,3,10,30,0,16,27,19,0,0,14,3,0,0,0,3,0,0,7,1,0,0,1,4,0,0,8,4,0,8,0,0,26921444.62,46003856.27,5042597.054,1,1,0,2,170
5778.738254999999,1156401,7.2510067110000005,31-Mar-22,Kiley Richard,94,177.5,1,0,2,0,14,3,0,9,49,38,0,0,8,4,4,0,0,3,3,0,4,4,4,0,1,7,5,0,12,4,0,9,1,2,0.0,10288881.24,0.0,0,0,2,1,170
827.5337621,2194081,6.932797428,6-Jan-30,Tayback Vic,86,180.0,3,0,3,1,2,20,0,10,3,19,0,0,6,5,0,0,0,1,4,0,2,0,3,0,0,5,2,0,0,1,0,8,0,1,0.0,14984946.8,0.0,0,0,2,1,170
23397.22527,1284528,7.443406593,26-Dec-71,Leto Jared,45,175.0,1,0,1,0,5,2,0,8,24,17,0,0,0,2,0,0,0,0,1,0,26,1,2,2,0,6,3,0,12,2,1,5,0,0,14206437.2,19118383.6,5070597.867,1,0,1,0,175
112.3849287,304475,7.888187372999999,20 January 1896,Burns George,120,167.5,0,0,0,2,9,105,0,1,54,5,0,0,15,7,0,0,0,3,0,0,40,12,1,1,4,7,0,0,26,2,4,0,0,0,34794127.63,7836961.1729999995,11929.82456,1,0,1,0,175
1013.330097,1336523,6.833009709,26 May 1891,Lukas Paul,125,182.5,6,0,7,0,0,13,0,11,4,66,0,0,3,1,5,0,0,4,3,0,1,1,10,0,0,30,1,0,8,0,0,11,8,1,0.0,22674512.53,0.0,1,0,1,0,175
21476.85268,1439380,6.823660714,4-Nov-69,McConaughey Matthew,47,180.0,8,0,8,2,7,19,0,10,40,27,0,0,6,5,0,0,0,6,4,0,7,0,1,2,1,6,4,0,20,6,1,16,2,2,54327063.43,46477224.98,3684531.7369999997,1,0,1,0,175
3640.7319880000005,2162767,7.885590777999999,21-Dec-66,Sutherland Kiefer,50,174.0,36,0,17,8,8,20,0,27,41,55,0,0,14,5,0,0,0,4,7,0,9,0,14,4,1,11,15,0,17,4,0,39,11,5,34030409.8,43613551.74,14550797.24,0,0,1,5,175
7465.197425,1759498,7.156437767999999,26-Jul-65,Piven Jeremy,51,172.5,11,0,7,3,5,44,0,10,22,17,0,0,9,3,0,0,0,1,0,0,7,0,1,2,2,10,5,0,10,6,0,10,0,0,11970179.2,31708062.7,444.67972469999995,0,0,1,5,175
22432.26154,604078,6.367692308,19-Jun-72,Dujardin Jean,44,182.0,5,0,4,0,2,31,0,8,10,11,0,0,1,0,0,0,0,1,0,0,0,0,1,1,1,6,1,0,7,0,1,6,1,1,5240642.592,48425719.06,0.0,1,0,1,0,175
11615.12048,556074,7.252409639,17-Nov-44,DeVito Danny,72,145.0,11,0,10,12,9,89,0,17,53,27,0,0,33,13,0,0,0,3,0,0,24,4,3,1,8,21,3,0,45,4,0,8,0,2,68519227.17,40409368.66,7648183.556,0,0,1,5,175
32612.37374,1452819,7.2794612789999995,25-May-39,McKellen Ian,77,177.5,19,0,28,7,9,29,0,2,90,44,0,0,16,28,0,2,0,11,5,0,13,3,6,1,2,13,9,0,58,2,0,11,3,1,103654776.9,90351340.58,0.0,0,2,1,2,175
52.66666667,1074884,7.3,1-Aug-79,Johnson Ben,37,182.5,0,0,0,0,0,0,0,0,0,1,0,0,0,0,0,0,0,0,0,0,0,0,0,0,0,0,0,0,0,0,0,0,0,0,0.0,26195.64056,0.0,1,0,1,0,175
1698.975904,1037370,7.125301205,14-Jun-09,Ives Burl,107,180.0,1,0,6,9,2,11,0,2,11,18,0,0,16,6,0,2,0,0,0,0,6,6,1,1,0,6,4,0,4,0,0,3,1,7,0.0,11714068.01,0.0,1,0,1,0,175
1062.224719,344819,7.335955056,4-Nov-18,Carney Art,98,175.0,7,0,6,3,4,68,0,8,17,27,0,0,15,7,0,3,0,1,2,0,12,11,3,1,2,6,5,0,6,2,2,4,0,0,0.0,41230847.9,0.0,1,0,1,0,175
227.11728399999998,440013,7.231481481,15-Aug-25,Connors Mike,91,182.5,7,0,5,0,4,16,0,7,10,20,0,0,2,0,2,0,0,0,3,0,2,3,4,0,6,3,3,0,1,1,0,9,3,6,0.0,10409377.82,3582.0895520000004,0,0,1,5,175
242.59539469999996,467181,7.224671053,9-Dec-11,Crawford Broderick,105,180.0,11,0,13,0,3,26,0,22,6,48,0,0,2,3,11,0,0,3,5,0,3,3,11,0,0,19,2,0,6,2,0,11,7,15,11641791.04,12270324.83,0.0,1,0,1,0,175
2990.1510789999998,1074843,6.728057553999999,13-Jun-18,Johnson Ben,98,185.0,10,0,8,0,7,11,0,8,15,31,0,0,5,2,0,0,0,1,5,0,1,1,4,0,0,16,1,0,2,3,0,9,2,49,0.0,16115157.42,0.0,1,0,1,0,175
41383.17476,445916,7.109708737999999,9-Jul-51,Cooper Chris,65,175.0,6,0,3,0,6,7,0,6,18,40,0,0,3,1,0,0,0,5,0,0,2,1,5,0,0,8,1,0,14,1,0,12,2,4,8907537.901,46886349.3,0.0,1,0,1,0,175
2642.965714,1501398,6.819428571,22-Feb-08,Mills John,108,170.0,9,0,11,2,10,35,0,12,37,71,0,0,4,2,2,0,0,10,2,0,6,3,13,0,1,21,2,0,13,1,0,15,21,4,36377820.11,33569808.38,0.0,1,0,1,0,175
639.7915058,472704,6.9667953670000005,2-May-03,Crosby Bing,113,167.5,1,0,8,6,13,116,0,2,98,13,0,0,26,5,0,0,0,7,3,0,69,74,3,1,1,31,1,0,55,10,1,1,5,4,181407800.6,19232792.84,0.0,1,2,0,1,180
3721.701031,1252040,7.118556701,1 July 1899,Laughton Charles,117,170.0,1,0,5,0,8,23,0,10,22,37,0,0,0,2,3,0,0,8,6,0,1,3,3,0,0,17,1,0,10,1,1,9,7,0,78131386.86,22421029.53,39416.05839,1,2,0,1,180
2806.9912280000003,2139174,7.016666667000001,5-Mar-36,Stockwell Dean,80,167.5,26,0,7,1,7,28,0,19,29,66,0,0,11,3,1,0,0,2,6,0,2,2,13,0,0,13,10,0,9,2,0,33,4,7,0.0,19185288.93,0.0,0,1,1,4,185
2061.2,2368222,6.723333332999999,19 November 1889,Webb Clifton,127,175.0,0,0,1,0,3,17,0,2,3,15,0,0,1,2,3,0,0,2,0,0,1,0,1,0,0,3,0,0,1,0,0,0,2,0,44089887.64,10736078.53,0.0,0,3,1,1,185
12923.6211,1567421,7.007194245,21-Sep-50,Murray Bill,66,185.0,8,0,11,6,7,90,0,8,45,27,0,0,11,12,0,0,0,6,2,0,11,1,3,2,2,12,6,0,17,9,1,4,4,0,79445631.34,37864782.62,15352956.42,0,1,1,4,185
12095.2975,1565774,6.629,3-Apr-61,Murphy Eddie,55,172.5,12,0,10,11,4,116,0,12,64,13,0,0,28,18,0,0,0,1,5,0,31,5,4,2,3,30,21,0,25,1,1,6,2,0,140156051.7,84863148.58,16985271.61,0,1,1,4,185
47062.50993,1624827,6.89205298,18-Aug-69,Norton Edward,47,180.0,7,0,4,1,3,22,0,12,34,21,0,0,4,0,0,0,0,1,1,0,2,1,3,2,0,8,2,0,26,2,0,13,1,0,32553008.65,44775123.24,7557564.083,0,3,1,1,185
1776.299595,1370633,7.189878543,22-Mar-12,Malden Karl,104,182.5,7,0,6,1,12,8,0,17,33,46,0,0,6,0,6,0,0,4,2,0,2,1,4,0,5,7,2,0,8,2,0,13,8,9,12936802.97,20061610.94,218446.6019,1,1,0,3,190
3171.115,1654827,7.441,24-Feb-47,Olmos Edward James,69,170.0,9,0,7,4,7,11,0,10,61,40,0,0,15,3,0,0,0,8,1,0,10,4,2,4,3,6,10,0,18,6,0,17,2,6,6983548.708,12765064.7,0.0,0,0,2,2,190
1942.765318,2416311,7.239884393,30-Oct-45,Winkler Henry,71,165.0,7,0,10,8,5,48,0,4,54,24,0,0,20,3,0,0,0,0,1,0,22,1,2,1,10,10,4,0,12,3,3,5,0,0,84559909.53,13851512.48,243407.7079,0,0,2,2,190
2086.6924940000004,268343,7.061985472000001,9-Dec-41,Bridges Beau,75,175.0,14,0,13,2,11,39,0,11,21,96,0,0,14,5,1,0,0,5,5,0,10,1,8,1,4,25,6,0,12,5,0,17,3,3,1485866.6719999998,17249209.33,0.0,0,0,2,2,190
2247.860236,238923,6.835826772000001,24-Jan-17,Borgnine Ernest,99,172.5,35,0,22,3,9,45,0,17,46,63,0,0,23,5,1,0,0,8,3,0,8,4,4,0,9,11,8,0,8,4,2,21,12,26,574780.7229,19780357.93,25534.127119999997,1,0,1,1,195
1576.0404039999999,1495318,6.673737374,3-Jan-05,Milland Ray,111,185.5,10,0,18,0,4,41,0,25,11,78,0,0,3,2,5,0,0,6,17,0,3,8,21,0,2,43,10,0,4,3,0,29,8,6,23758015.63,10556522.39,1115241.636,1,0,1,1,195
17869.69375,1621053,6.739375,8-Feb-41,Nolte Nick,75,180.0,15,0,8,2,6,24,0,15,26,53,0,0,8,4,0,0,0,4,2,0,2,0,10,0,1,13,1,0,13,5,0,20,7,2,43637715.83,37571187.09,7233401.766,0,2,1,3,195
39421.492860000006,2399554,7.030714286,5-Feb-48,Wilkinson Tom,68,185.5,10,0,7,4,6,30,0,15,9,57,0,0,5,5,0,0,0,9,2,0,0,0,1,0,0,20,5,0,7,0,0,18,5,1,25950674.61,47260717.2,0.0,0,2,1,3,195
10246.987340000001,2386664,6.636392405,15-Jul-61,Whitaker Forest,55,185.0,17,0,3,5,12,10,0,27,39,59,0,0,11,4,0,0,0,6,4,0,11,1,7,5,3,7,8,0,21,5,0,31,3,0,23213910.15,22301099.43,0.0,1,0,1,1,195
5237.589666,611588,6.821276596000001,28-Feb-23,Durning Charles,93,170.0,20,0,8,3,6,57,0,38,23,93,0,0,18,6,0,0,0,6,9,0,7,7,9,1,1,17,3,0,13,3,2,23,2,2,1480655.4740000002,13318259.57,0.0,0,2,1,3,195
1776.7224879999999,1411518,6.967942583999999,19-Feb-24,Marvin Lee,92,182.5,17,0,10,0,8,13,0,18,31,34,0,0,2,0,7,0,0,0,0,0,5,2,5,0,3,15,0,0,8,0,0,22,17,23,180615022.2,26720228.23,6140568.166,1,0,1,1,195
1861.8043480000001,372594,6.9597826089999995,16-Sep-34,Chakiris George,82,177.5,0,0,3,0,3,14,0,5,19,23,0,0,6,2,1,0,0,4,1,0,10,22,1,0,2,15,0,0,2,0,2,5,5,0,0.0,14150688.37,0.0,1,0,1,1,195
14270.524159999999,439257,6.785873606,25-Aug-30,Connery Sean,86,185.0,34,0,34,1,13,19,0,19,141,41,0,0,4,10,0,0,0,9,0,0,10,0,7,0,1,15,8,0,64,1,1,31,5,2,103367519.9,44208113.51,9147010.127,1,0,1,1,195
1631.555315,1602998,7.37505423,5-Sep-29,Newhart Bob,87,170.0,3,0,6,3,4,43,0,2,26,8,0,0,11,7,0,1,0,0,0,0,15,3,1,1,1,6,0,0,3,1,0,1,2,0,46176285.82,45070025.76,0.0,0,0,1,6,195
802.4527972,2012419,7.556468531,29-Jan-45,Selleck Tom,71,187.5,12,0,6,0,8,23,0,18,41,34,0,0,10,0,0,0,0,2,1,0,5,1,10,1,6,12,2,0,6,2,1,9,4,9,77098500.76,37141473.54,165095.2049,0,0,1,6,195
2072.3669059999997,851677,7.296402877999999,11-Apr-32,Grey Joel,84,162.5,3,0,2,2,3,12,0,5,41,15,0,0,18,7,0,0,0,2,0,0,24,20,3,0,0,5,3,0,7,2,0,5,1,1,70483.46457000001,21604215.44,0.0,1,0,1,1,195
2670.864253,750821,6.67239819,1-Feb-01,Gable Clark,115,182.5,6,0,14,0,17,41,0,11,102,63,0,0,6,1,0,0,0,16,0,0,6,12,2,1,0,58,0,0,43,5,0,3,14,10,57079567.67,16775795.11,2855076.208,1,2,0,2,200
21334.154980000003,2260805,6.974907749,11-Nov-60,Tucci Stanley,56,170.0,8,0,11,4,8,38,0,10,21,43,0,0,11,10,0,0,0,5,3,0,5,3,4,0,0,16,6,0,17,1,0,15,1,0,214810127.8,53355403.83,0.0,0,1,2,1,200
10769.16667,1174975,6.981481481,24-Oct-47,Kline Kevin,69,185.0,4,0,6,6,6,38,0,9,37,30,0,0,16,6,0,1,0,6,0,0,7,12,4,2,1,22,2,0,13,0,0,3,0,3,37012412.41,44912298.3,354404.9583,1,0,0,5,200
3078.2070710000003,1414509,6.9030303029999995,15-May-09,Mason James,107,177.5,12,0,20,3,8,20,0,28,34,95,0,0,10,11,9,1,0,15,6,0,7,4,20,1,0,31,3,0,11,1,3,28,15,3,30460928.65,19587756.83,0.0,0,3,1,2,205
4173.879377,589737,6.790661479,9-Dec-16,Douglas Kirk,100,172.5,10,0,13,0,11,23,0,11,68,56,0,0,15,4,6,0,0,12,3,0,8,3,6,1,14,26,5,0,12,2,1,9,10,19,36366910.6,15058636.08,1783168.725,0,3,1,2,205
2905.25,702584,6.858333332999999,10 March 1888,Fitzgerald Barry,128,157.5,2,0,5,0,2,17,0,6,3,26,0,0,3,0,2,0,0,2,0,0,1,4,3,0,0,18,0,0,2,0,0,4,4,2,0.0,19494788.22,0.0,1,1,1,0,205
2692.235294,2366885,6.535549872000001,26-May-07,Wayne John,109,190.0,30,1,37,1,25,49,0,11,113,88,0,0,11,1,1,0,0,15,2,0,18,5,10,0,3,75,0,0,39,15,0,12,25,93,59544825.08,17659981.11,2055923.2759999998,1,1,1,0,205
3595.9747899999998,1130006,7.3142857139999995,18-Jan-11,Kaye Danny,105,177.5,0,0,2,3,12,45,0,1,42,5,0,0,18,11,0,0,0,7,0,0,14,21,0,0,1,6,0,0,17,5,1,1,6,0,33497822.93,12188094.76,1811320.755,0,0,2,3,210
292.7755102,455450,7.04649512,12-Jul-37,Cosby Bill,79,182.5,5,0,4,17,13,80,0,6,82,8,0,0,38,6,0,1,0,4,0,0,43,3,0,0,4,2,1,0,17,4,3,1,1,1,46705357.39,18865518.83,0.0,0,0,2,3,210
43676.986110000005,1758718,6.311944444,18-Dec-63,Pitt Brad,53,177.5,11,0,8,5,11,24,0,23,68,36,0,0,10,9,0,1,0,8,5,0,13,0,3,7,2,15,3,0,32,3,4,18,6,2,85481463.85,69734306.35,13594260.62,0,2,1,4,215
8546.158192,2012566,6.8723163839999994,8-Sep-25,Sellers Peter,91,170.0,1,0,5,3,6,123,0,14,43,15,0,0,6,2,0,1,0,1,0,0,12,8,5,0,0,6,1,0,31,1,2,5,3,0,64867892.56,19722920.52,0.0,0,2,1,4,215
1489.197183,311612,6.9985915489999995,5-Feb-19,Buttons Red,97,165.0,10,0,10,3,10,41,0,5,22,23,0,0,12,7,1,0,0,0,1,0,9,9,1,0,6,10,2,0,4,2,1,5,3,1,9536423.841,25557415.85,0.0,1,0,1,2,215
6249.933948,2032801,7.1400921660000005,3-Aug-40,Sheen Martin,76,167.5,17,0,11,6,19,25,0,21,164,115,0,0,18,3,0,0,0,25,7,0,7,2,13,4,3,12,7,0,36,7,0,37,21,6,5886915.531,18693702.64,400135.5143,0,0,1,7,215
29864.100960000003,792390,7.052403846,6-Jun-67,Giamatti Paul,49,172.5,11,0,11,10,10,30,0,9,28,36,0,0,11,5,0,0,0,4,2,0,5,0,10,4,0,10,10,0,18,5,0,14,0,0,23803040.02,53847725.83,0.0,0,1,2,2,220
5318.257895000001,713923,6.412631579,23-Feb-40,Fonda Peter,76,185.0,18,0,9,0,12,16,0,12,64,56,0,0,10,4,0,0,0,1,7,0,6,0,5,1,6,9,11,0,10,1,0,19,1,10,39431317.73,12366123.85,74074.07407,0,1,2,2,220
1065.1640630000002,1531257,6.553125,19-Apr-35,Moore Dudley,81,155.0,0,0,4,5,7,49,0,0,39,5,0,0,12,9,0,0,0,2,0,0,17,2,1,0,2,9,1,0,7,1,0,2,1,0,45544879.65,20369308.92,0.0,0,1,2,2,220
609.5290102000001,2363095,7.609726962000001,15-Nov-40,Waterston Sam,76,182.5,1,0,4,0,7,14,0,5,29,51,0,0,6,0,0,0,0,8,1,0,3,1,2,1,1,10,1,0,7,0,0,11,3,3,21631459.9,13070468.1,0.0,0,1,1,6,225
2433.3316059999997,1417264,6.741450777000001,28-Sep-24,Mastroianni Marcello,92,176.0,1,0,3,0,9,88,0,10,35,94,0,0,2,9,0,0,0,9,2,0,2,3,5,0,1,30,1,0,6,1,0,7,5,1,5185609.691000001,10157043.95,0.0,0,3,1,3,225
2508.469697,696128,6.848484847999999,28-Sep-16,Finch Peter,100,172.5,6,0,8,0,4,6,0,4,9,43,0,0,2,1,0,0,0,8,0,0,0,2,1,0,0,7,1,0,11,0,0,2,5,1,0.0,36721659.06,0.0,1,1,1,1,225
4463.050561999999,713913,7.128089888,16-May-05,Fonda Henry,111,182.5,6,0,2,0,25,35,0,12,84,66,0,0,10,0,4,0,0,22,1,0,10,3,4,0,5,34,2,0,25,0,0,12,15,20,103466298.4,16806819.17,646456.1191,1,1,1,1,225
22217.03571,1264639,6.877142857000001,4-Apr-79,Ledger Heath,37,182.5,6,0,4,0,4,4,0,3,21,10,0,0,3,1,0,0,0,5,0,0,4,0,1,1,0,8,0,0,11,1,1,4,1,1,42228554.93,29519853.1,1735730.926,1,1,1,1,225
22105.46405,699216,6.839215686,10-Sep-60,Firth Colin,56,182.5,4,0,5,0,11,31,0,6,37,50,0,0,6,4,0,1,0,10,3,0,0,3,8,1,0,24,1,0,29,1,1,11,4,1,17881004.52,29728839.44,0.0,1,1,1,1,225
760.9240069,719776,7.312607945,29-Jan-18,Forsythe John,98,177.5,4,0,4,1,9,28,0,7,28,35,0,0,11,1,2,0,0,1,2,0,12,1,5,0,4,4,5,0,5,3,2,11,1,1,0.0,20219918.36,150365.1244,0,0,2,4,230
2324.8125,274266,6.941796875,18-Jul-40,Brolin James,76,190.0,19,0,8,0,7,20,0,12,27,55,0,0,8,3,0,0,0,3,8,0,6,0,9,0,6,18,6,0,13,2,0,26,2,6,25928816.53,18315972.41,0.0,0,0,2,4,230
17295.23844,348210,6.564963504,17-Jan-62,Carrey Jim,54,185.0,3,0,7,10,8,69,0,4,74,19,0,0,33,20,0,1,0,2,2,0,22,2,3,2,5,9,3,0,31,2,1,5,0,0,148529548.1,85934242.91,18764681.5,0,0,2,4,230
5839.913043,2002242,7.0326086960000005,18-Oct-27,Scott George C.,89,180.0,5,0,6,2,8,20,0,13,24,47,0,0,11,7,0,0,0,5,4,0,1,2,11,1,2,5,2,0,7,6,0,15,3,5,114864772.6,24989106.08,4051932.432,0,0,2,4,230
7008.472222,1875725,7.181666667000001,26-Jul-22,Robards Jason,94,170.0,6,0,6,1,13,20,0,5,34,77,0,0,15,2,0,0,0,12,2,0,11,3,6,0,4,12,2,0,10,3,1,14,5,7,12105948.63,33161003.59,0.0,2,1,0,0,230
919.3098592,433411,6.915492958,9 February 1891,Colman Ronald,125,175.0,4,0,11,0,3,14,0,5,16,40,0,0,0,3,1,0,0,7,0,0,0,1,4,0,0,22,1,0,14,1,0,3,4,1,81813849.6,18479716.59,2708333.333,1,2,1,0,235
3637.069364,1682590,6.385549133,18-Feb-19,Palance Jack,97,190.0,30,0,19,1,8,21,0,25,31,54,0,0,9,10,9,0,0,10,10,0,5,2,3,0,1,10,10,0,9,1,0,24,9,25,16735803.1,29255329.28,0.0,1,2,1,0,235
12322.78141,2248803,6.638693467,18-Feb-54,Travolta John,62,185.0,16,0,3,1,12,28,0,22,107,35,0,0,14,3,0,1,0,3,2,0,36,6,5,3,8,15,4,0,42,3,3,21,1,2,77036521.54,48039701.62,19700699.36,0,2,1,5,235
2885.3325059999997,2008774,7.018858561,13-Feb-34,Segal George,82,179.0,8,0,4,3,8,43,0,14,17,47,0,0,8,1,0,0,0,4,0,0,7,0,10,0,4,10,4,0,5,1,0,21,4,2,58566186.63,28467955.43,0.0,0,1,2,3,240
5677.344828,96332,7.244827586,10 May 1899,Astaire Fred,117,172.5,1,0,1,2,16,37,0,3,70,19,0,0,18,6,0,0,0,5,2,0,25,49,2,0,4,31,2,0,11,1,1,2,2,1,68797479.38,22263518.85,0.0,0,1,2,3,240
2752.141732,1633648,6.935433071,10-Sep-15,O'Brien Edmond,101,172.5,5,0,5,0,2,13,0,24,5,57,0,0,9,0,19,0,0,1,2,0,3,1,7,0,1,15,4,0,3,1,0,19,7,9,0.0,13961063.87,187755.10199999998,1,1,1,2,245
7879.279438,725481,6.927943761,13-Dec-67,Foxx Jamie,49,172.5,11,0,4,2,8,34,0,10,73,17,0,0,23,1,0,0,0,2,0,0,59,5,1,4,11,6,3,0,32,10,5,9,1,2,65583154.48,62818368.99,8486849.728,1,1,1,2,245
10043.576659999999,340623,7.201393727999999,16-Aug-62,Carell Steve,54,175.0,5,1,13,13,5,79,0,2,15,15,0,0,20,3,0,1,0,1,0,0,5,0,0,3,2,10,8,0,34,2,1,2,0,0,108689441.2,48663898.02,8267843.811000001,0,1,1,7,245
3553.83871,1141571,6.695698925,17-Feb-14,Kennedy Arthur,102,175.0,12,0,11,0,9,3,0,18,11,61,0,0,2,1,8,0,0,11,4,0,1,0,5,0,0,11,3,0,6,4,0,15,15,17,0.0,15015780.48,0.0,0,5,1,1,245
4247.594937,967925,7.486582277999999,15-Mar-35,Hirsch Judd,81,180.0,6,0,4,1,7,18,0,8,15,31,0,0,10,2,0,0,0,4,1,0,5,0,2,0,0,2,3,0,7,2,0,4,1,0,0.0,51744825.09,0.0,0,1,1,7,245
37409.4078,498354,6.736170212999999,8-Oct-70,Damon Matt,46,175.0,17,0,12,3,7,19,0,9,86,31,0,0,9,6,0,1,0,10,1,0,6,0,8,4,4,6,7,0,67,5,1,18,4,5,94909053.35,54395111.88,9628841.176,0,3,1,4,245
29856.6422,1746324,7.026605505,28-Oct-74,Phoenix Joaquin,42,173.0,3,0,4,1,2,8,0,7,29,27,0,0,5,1,0,0,0,0,0,0,3,0,5,0,0,9,4,0,17,0,0,11,1,2,32070198.45,43372163.05,2423153.068,0,3,1,4,245
34221.50847,591752,6.687118644,4-Apr-65,Downey Jr. Robert,51,170.0,24,0,15,1,11,39,0,15,48,31,0,0,6,8,0,0,0,5,2,0,14,1,8,2,8,15,20,0,39,3,1,12,2,1,242561776.5,72646630.99,17273914.98,0,2,2,2,250
1122.2352939999998,1562064,7.4117647060000005,22 September 1895,Muni Paul,121,172.5,1,0,1,0,6,5,0,7,16,26,0,0,0,2,2,0,0,9,0,0,2,0,0,0,1,14,0,0,8,0,1,1,2,0,13109243.7,3256319.236,0.0,1,5,0,0,250
7908.919315000001,1307246,7.3691931539999995,19-Oct-45,Lithgow John,71,190.0,4,0,11,12,8,37,0,12,34,50,0,0,19,7,0,0,0,9,1,0,13,6,7,3,3,16,8,0,21,0,0,22,3,0,28314409.22,34502008.52,0.0,0,2,2,2,250
2140.8119269999997,601064,7.5380733939999995,7-Aug-60,Duchovny David,56,180.0,4,0,3,0,2,19,0,4,42,34,0,0,4,0,0,1,0,2,4,0,7,0,9,0,2,7,11,0,13,1,0,9,1,0,28611845.28,27408895.62,0.0,0,0,2,5,250
4187.802326,2027682,6.619767442000001,10-Apr-32,Sharif Omar,84,177.5,11,0,20,1,11,17,0,10,40,71,0,0,6,4,0,0,0,20,0,0,4,4,9,0,1,30,1,0,15,1,1,15,11,2,47390998.57,54814480.47,1474548.44,0,1,3,0,255
4386.717172,2126761,6.64040404,14-Apr-25,Steiger Rod,91,175.0,14,0,3,1,16,17,0,26,47,69,0,0,5,2,4,0,0,8,6,0,2,1,7,1,1,10,3,0,11,3,0,27,10,7,18085925.93,22274970.62,757130.8995,1,2,1,1,255
3829.7542369999996,2455138,6.977966102000001,4-Nov-13,Young Gig,103,182.5,5,0,4,0,6,23,0,10,10,31,0,0,3,0,3,0,0,3,3,0,1,4,7,0,2,21,0,0,5,2,0,9,5,7,0.0,18567278.97,0.0,1,2,1,1,255
1284.847458,1975393,7.085084746000001,21-Jan-22,Savalas Telly,94,177.5,25,0,11,1,9,25,0,26,33,31,0,0,13,0,0,2,0,3,4,0,4,4,3,0,2,5,2,0,10,4,1,20,8,7,0.0,22082510.99,0.0,0,1,2,4,260
8668.707317,596363,6.834146341,29-Oct-47,Dreyfuss Richard,69,162.5,6,0,6,2,17,44,0,13,82,51,0,0,11,4,0,0,0,6,2,0,15,2,4,1,6,10,3,0,15,1,1,14,3,0,48182871.01,21517860.89,8810572.687,1,1,1,3,265
2996.479592,1013664,6.736734694,5 April 1883,Huston Walter,133,180.0,1,0,1,0,5,7,0,8,27,44,0,0,0,2,4,0,0,14,1,0,1,5,5,0,0,17,0,0,21,2,0,4,21,8,7147445.255,16853555.2,0.0,1,3,1,0,265
33031.1448,319490,6.4461538460000005,7-Jan-64,Cage Nicolas,52,180.0,27,0,11,5,8,29,0,23,65,41,0,0,17,14,0,0,0,3,5,0,7,0,9,1,2,12,5,0,39,1,1,43,4,0,51169353.29,53132192.13,10357770.38,1,1,1,3,265
1696.659091,915659,6.835227272999999,5-Mar-08,Harrison Rex,108,185.5,2,0,6,0,6,27,0,6,23,25,0,0,6,3,1,0,0,3,0,0,4,4,4,0,1,17,0,0,8,0,0,7,5,0,41703359.08,51350028.9,2064395.6509999998,1,1,1,3,265
27691.83744,272314,7.056157635,24-May-49,Broadbent Jim,67,185.0,7,0,16,17,11,47,0,4,36,53,0,0,23,12,0,0,0,8,1,0,2,3,4,1,0,18,10,0,37,0,0,6,5,1,4156590.205,73092201.98,0.0,1,0,2,1,270
13193.147140000001,2162666,6.859945504,17-Jul-35,Sutherland Donald,81,190.0,23,0,19,7,17,39,0,25,72,83,0,0,15,7,0,0,0,11,17,0,5,2,16,0,0,17,13,0,26,2,0,55,15,3,27637449.51,46581706.86,343889.9022,0,0,2,6,270
1786.195745,1903722,6.599361702,23-Sep-20,Rooney Mickey,96,155.0,10,0,24,20,17,179,0,20,103,84,0,0,60,22,5,2,0,8,5,0,24,34,4,0,3,32,2,0,118,15,3,10,13,9,44395488.22,12550514.36,296204.6766,0,4,2,0,270
1416.56422,1617226,7.0330275229999994,1-Mar-10,Niven David,106,180.0,5,0,21,1,8,59,0,11,26,38,0,0,7,4,0,0,0,12,2,0,4,4,8,2,0,30,1,0,10,0,0,2,18,1,30802233.79,32269541.5,0.0,1,0,2,1,270
1985.295176,837556,7.603959682999999,21-Feb-55,Grammer Kelsey,61,182.5,8,0,12,13,7,49,0,4,50,17,0,0,25,13,0,0,0,6,0,0,22,4,1,2,6,7,6,0,26,3,3,7,3,0,39442604.97,64480442.06,0.0,0,0,2,6,270
18089.64453,1876378,6.440234375,16-Oct-58,Robbins Tim,58,190.0,6,0,8,0,8,29,0,10,64,24,0,0,8,4,0,0,0,3,1,0,14,0,5,3,2,8,8,0,20,4,1,8,3,0,17148629.5,40892530.2,0.0,1,0,2,1,270
975.4886731,830852,6.700323625,27-May-36,Gossett Jr. Louis,80,185.0,24,0,12,1,11,28,0,16,60,88,0,0,27,3,0,0,0,9,5,0,13,3,6,1,17,11,9,0,13,13,2,22,6,5,26045189.94,13516372.54,0.0,1,0,2,1,270
217.2907801,1635305,7.7012765960000005,2-Aug-24,O'Connor Carroll,92,177.5,1,0,1,1,3,17,0,12,13,25,0,0,6,0,0,0,0,0,1,0,2,2,2,0,1,3,0,0,1,0,0,6,2,5,0.0,33088917.35,1185185.185,0,0,1,10,275
68960.42657000001,125330,6.812587412999999,30-Jan-74,Bale Christian,42,183.0,13,0,17,1,10,8,0,11,42,38,0,0,5,6,0,1,0,13,1,0,7,2,2,1,0,10,4,0,31,1,1,13,6,2,121073404.0,68258050.06,7480124.381,1,2,1,2,275
28162.55249,912575,6.8701657460000005,28-Nov-50,Harris Ed,66,172.5,15,0,8,1,18,12,0,16,49,62,0,0,9,2,0,0,0,11,3,0,3,1,8,0,2,14,4,0,25,2,0,27,8,6,15611206.93,35881377.7,0.0,0,4,1,4,275
2276.961694,1853342,6.785483871,11-Feb-36,Reynolds Burt,80,177.5,42,0,13,3,9,80,0,37,63,52,0,0,20,2,0,0,0,3,2,0,14,5,10,1,8,14,4,0,22,15,6,22,4,9,61149816.68,26618720.89,8574116.97,0,1,2,5,280
1541.117647,875922,6.707058824,26 September 1877,Gwenn Edmund,139,162.5,3,0,7,0,2,38,0,9,7,42,0,0,6,2,3,0,0,1,4,0,2,5,6,0,0,17,2,0,8,1,0,5,4,0,0.0,22793251.44,0.0,1,1,2,0,280
933.1691176,373801,7.815441176,31-Mar-34,Chamberlain Richard,82,182.5,6,0,12,2,7,14,0,3,23,34,0,0,8,2,0,0,0,13,2,0,7,2,4,0,4,10,1,0,11,0,0,7,5,2,20755774.22,18105857.66,0.0,0,0,3,3,285
2831.2084809999997,1014902,7.7561837460000005,16-Aug-60,Hutton Timothy,56,180.0,2,0,0,0,6,15,0,10,14,50,0,0,6,2,0,0,0,1,3,0,1,1,9,1,3,12,6,0,4,2,0,24,2,0,11750512.48,22494972.87,0.0,1,0,2,2,290
17431.08065,1012233,7.080107527000001,20-Mar-50,Hurt William,66,185.0,9,0,9,2,13,14,0,9,31,62,0,0,6,8,0,0,0,7,5,0,3,2,7,1,1,17,9,0,20,1,0,18,4,0,33356025.79,38509963.75,1588141.874,1,3,0,5,290
9953.971354000001,589811,6.83203125,25-Sep-44,Douglas Michael,72,175.0,9,0,7,0,14,21,0,11,91,38,0,0,15,1,0,0,0,4,3,0,16,2,6,2,16,9,2,0,35,4,4,21,4,0,73836110.58,41165284.06,21282123.61,1,0,1,6,295
14943.86486,136863,6.331756757000001,1-Mar-69,Bardem Javier,47,181.0,7,0,4,1,7,12,0,9,53,29,0,0,11,1,0,0,0,2,2,0,2,0,2,5,1,10,1,0,19,0,3,14,1,0,2452821.071,38823768.84,0.0,1,2,1,3,295
7402.332353,2429516,7.033235294,18-Apr-47,Woods James,69,177.5,17,0,12,13,16,16,0,22,56,64,0,0,20,8,0,0,0,8,4,0,6,1,7,1,7,17,6,0,10,6,0,19,2,0,6640922.307,38386327.33,6521.73913,0,2,1,8,295
