votes,id,rating,dob,name,age,heightcm,Action,Adult,Adventure,Animation,Biography,Comedy,Commercial,Crime,Documentary,Drama,Erotica,Experimental,Family,Fantasy,Film-Noir,Game-Show,Hardcore,History,Horror,Lifestyle,Music,Musical,Mystery,News,Reality-TV,Romance,Sci-Fi,Sex,Short,Sport,Talk-Show,Thriller,War,Western,gross,budget,salary,academy awards won,academy awards nominated,golden globes won,golden globes nominated,totalawards
3551.7304689999996,2548772,7.322265625,16-Sep-24,Bacall Lauren,92,170.0,2,0,4,3,29,25,0,13,105,40,0,0,17,1,3,0,0,9,1,0,17,3,9,1,18,15,0,0,16,2,0,13,3,1,0.0,16678379.0,136217.3854,0,1,1,0,105
415.15517239999997,2966959,7.124137931,1-Mar-34,Hackett Joan,82,167.5,2,0,1,0,0,6,0,5,2,22,0,0,2,0,0,0,0,0,4,0,0,0,3,0,0,3,1,0,0,0,0,6,0,5,0.0,9655172.413999999,0.0,0,1,1,0,105
8759.946058,2569544,6.976763485,16-Aug-58,Bassett Angela,58,160.0,7,0,2,4,9,17,0,8,30,39,0,0,29,1,0,0,0,4,3,0,14,3,3,2,4,10,5,0,7,2,1,9,1,0,52302372.59,40632793.85,4060030.293,0,1,1,0,105
10703.918029999999,3031682,6.300819672,19-Apr-79,Hudson Kate,37,165.0,2,0,3,1,2,27,0,3,18,16,0,0,5,1,0,0,0,1,1,0,11,1,2,1,2,17,0,0,8,2,0,6,1,1,53652627.98,39771480.62,5002613.156,0,1,1,0,105
1817.563291,2829977,7.448101266,5-Mar-39,Eggar Samantha,77,162.5,4,0,10,5,4,7,0,10,7,32,0,0,5,5,0,0,0,2,8,0,2,2,9,0,0,11,3,0,0,0,0,14,1,2,0.0,31219192.28,1035712.5240000001,0,1,1,0,105
4610.896739,3183715,6.931521739,6-Jul-27,Leigh Janet,89,162.5,7,0,8,0,16,33,0,9,54,35,0,0,12,2,3,0,0,3,10,0,13,5,5,1,5,18,2,0,4,3,0,16,4,3,55789776.99,20217855.07,202702.7027,0,1,1,0,105
3076.2416670000002,2549736,7.158333333,13-Nov-06,Baddeley Hermione,110,157.5,2,0,4,2,2,22,0,6,0,26,0,0,8,5,2,0,0,2,1,0,5,3,5,1,0,6,2,0,2,0,0,2,1,2,0.0,19850069.38,0.0,0,1,1,0,105
2277.020408,3710024,7.157142857,14-Feb-60,Tilly Meg,56,165.0,0,0,0,0,0,5,0,4,1,14,0,0,1,1,0,0,0,0,6,0,0,0,5,0,0,5,2,0,0,0,0,5,0,0,1432432.7219999998,21640680.59,0.0,0,1,1,0,105
1112.273973,3657486,7.160273973,3-Apr-21,Sterling Jan,95,162.5,1,0,3,0,1,7,0,12,0,30,0,0,3,0,10,3,0,1,0,0,1,1,3,1,0,6,1,0,1,2,0,7,0,5,0.0,24743229.36,0.0,0,1,1,0,105
17035.05882,3167049,6.975630252,1-Oct-89,Larson Brie,27,167.5,7,0,4,1,1,18,0,3,4,14,0,0,4,1,0,0,0,0,0,0,6,1,0,0,1,6,5,0,11,0,0,1,0,0,7858932.427,26183344.01,0.0,0,1,1,0,105
342.2368421,2692913,7.271929825,31-Jan-21,Channing Carol,95,172.5,0,0,0,3,4,17,0,0,24,1,0,0,16,2,0,0,0,2,0,0,23,17,0,0,11,2,0,0,1,2,0,0,0,1,10399.923340000001,9773760.4,0.0,0,1,1,0,105
2266.73913,3422615,6.541304348,26-Jun-22,Parker Eleanor,94,165.0,7,0,8,0,6,16,0,6,2,43,0,0,3,1,2,0,0,2,3,0,3,4,9,0,1,14,0,0,3,0,0,7,6,3,2391459.075,13235369.25,0.0,0,3,0,1,110
4352.759259,2625426,7.733703704,2-Oct-54,Bracco Lorraine,62,170.0,0,0,1,0,4,12,0,10,14,27,0,0,7,2,0,0,0,1,0,0,2,0,3,1,4,9,0,0,5,3,1,6,0,1,6166575.583,39510513.06,0.0,0,1,0,4,110
7878.269231,2983095,6.880769231,25-Jul-35,Harris Barbara,81,160.0,1,0,0,1,0,15,0,3,0,6,0,0,3,1,0,0,0,0,0,0,1,1,1,0,1,4,1,0,1,0,0,1,0,0,68493729.37,10526373.18,0.0,0,1,0,4,110
6857.912317,2524205,7.429645094,11-Feb-69,Aniston Jennifer,47,164.0,3,0,4,2,5,44,0,5,30,21,0,0,14,4,0,1,0,0,1,0,13,0,0,2,2,14,2,0,16,0,1,1,1,0,41417160.83,30892135.86,31833879.15,0,0,1,2,115
222.9950187,2508287,7.1556662520000005,16-Jan-50,Allen Debbie,66,155.0,0,0,0,3,9,16,0,0,49,18,0,0,26,2,0,1,0,1,0,0,26,10,0,0,5,3,0,0,6,4,1,0,0,0,3344947.735,10484069.54,2112676.056,0,0,1,2,115
516.8225806,3778703,7.652995392,31-Jan-41,Walter Jessica,75,170.0,4,0,1,0,0,19,0,5,10,31,0,0,2,2,0,0,0,0,4,0,1,2,4,0,0,7,4,0,5,4,0,7,0,1,0.0,17712060.1,0.0,0,0,1,2,115
574.9926471,3313587,7.372794118,18-Apr-46,Mills Hayley,70,157.5,1,0,6,5,4,20,0,5,23,18,0,0,21,4,0,0,0,1,2,0,4,2,6,0,0,10,0,0,6,0,0,8,0,1,205853135.2,1285310.313,0.0,0,0,1,2,115
5258.936255,2553575,7.533864542000001,8-Jun-50,Baker Kathy,66,165.0,3,0,2,0,1,15,0,16,3,53,0,0,3,6,0,0,0,2,4,0,1,1,7,1,0,14,0,0,4,3,0,13,0,0,0.0,23950681.63,0.0,0,0,1,2,115
1983.6131149999999,2833361,7.31704918,30-Sep-71,Elfman Jenna,45,175.0,0,0,2,5,3,14,0,0,10,6,0,0,8,2,0,0,0,0,0,0,13,0,1,1,1,8,1,0,7,0,1,1,0,0,15670553.31,22732916.69,0.0,0,0,1,2,115
1414.650794,3442812,7.443386243,28-Feb-48,Peters Bernadette,68,157.5,2,0,7,4,6,28,0,2,25,20,0,0,27,9,0,0,0,1,0,0,34,19,1,1,4,9,2,0,4,0,0,1,0,0,898010.3226,40323291.93,0.0,0,0,1,2,115
14541.239480000002,2566965,6.5608414239999995,22-Feb-75,Barrymore Drew,41,160.0,6,0,7,5,7,37,0,8,64,25,0,0,18,4,0,0,0,1,7,0,14,3,3,1,9,25,3,0,15,3,1,13,0,1,41490355.25,37271305.7,7517326.057,0,0,1,2,115
3442.315789,2864654,7.427863777000001,18-Apr-84,Ferrera America,32,152.5,4,0,9,9,0,20,0,2,18,19,0,0,16,8,0,0,0,0,0,0,2,0,0,4,2,4,0,0,10,0,0,2,0,1,7797570.65,21422786.17,0.0,0,0,1,2,115
22435.6092,3785151,6.72183908,14-Jan-67,Watson Emily,49,170.0,1,0,1,3,7,11,0,2,22,33,0,0,5,3,0,0,0,4,1,0,3,1,2,0,0,9,1,0,16,0,0,4,5,0,6101700.437000001,31734222.0,0.0,0,2,0,3,120
34765.022730000004,3387614,7.131818182000001,1-Mar-83,Nyong'o Lupita,33,162.5,4,0,3,0,1,0,0,0,3,4,0,0,2,3,0,0,0,0,0,0,0,0,1,0,1,1,3,0,2,1,1,1,0,0,0.0,122193211.6,0.0,1,0,0,1,120
5630.373626,3527989,6.737362637,16-Jul-11,Rogers Ginger,105,160.0,0,0,4,0,7,73,0,6,57,35,0,0,15,5,4,2,0,3,0,0,22,32,10,0,5,46,1,0,19,3,1,4,7,1,93938650.31,14773656.74,0.0,1,0,0,1,120
870.7658228,2857514,6.713924051,2-Feb-47,Fawcett Farrah,69,165.0,3,0,3,1,7,17,0,4,19,21,0,0,6,0,0,1,0,0,0,0,0,0,2,1,4,6,3,0,3,5,0,5,0,1,21504942.11,24317662.04,1080432.173,0,0,0,6,120
40808.4876,3127726,6.805785124,26-Mar-85,Knightley Keira,31,167.5,7,0,11,2,8,11,0,2,51,24,0,0,3,6,0,0,0,6,1,0,2,0,3,1,0,13,3,0,46,1,1,7,3,0,16258165.8,79133107.74,5788712.012,0,2,0,3,120
543.8325991,3440206,7.445154185,31-Mar-48,Perlman Rhea,68,150.0,0,0,3,6,4,39,0,2,14,20,0,0,18,3,0,0,0,1,1,0,7,2,1,0,3,6,1,0,22,2,0,1,0,0,15296367.11,16679792.31,0.0,0,0,0,6,120
2757.5466239999996,3035237,7.696463023,2-Apr-45,Hunt Linda,71,142.5,8,0,7,3,2,9,0,2,35,20,0,0,5,5,0,0,0,7,4,0,3,1,6,0,0,6,2,0,10,0,1,7,4,1,1587792.254,25233234.41,0.0,1,0,0,1,120
442.0057971,3207347,7.4504347829999995,25-Sep-61,Locklear Heather,55,162.5,4,0,2,1,3,20,0,4,14,19,0,0,13,1,0,5,0,0,3,0,11,0,1,0,11,5,3,0,2,4,0,15,0,0,0.0,24423045.31,0.0,0,0,0,6,120
28119.95455,2991220,7.151515152000001,27-Apr-76,Hawkins Sally,40,157.48,2,0,2,3,3,16,0,3,8,23,0,0,4,5,0,0,0,1,0,0,0,0,0,0,1,12,3,0,15,0,0,5,2,0,2557105.817,51582619.36,0.0,0,1,1,1,125
4392.598039,3612733,6.853921569,8-Aug-10,Sidney Sylvia,106,155.0,1,0,2,0,3,13,0,10,9,46,0,0,4,1,7,0,0,3,4,0,3,0,4,0,0,17,1,0,4,1,0,7,3,0,0.0,8382322.681,1250000.0,0,1,1,1,125
5516.95122,3791186,7.146341463,27-Aug-43,Weld Tuesday,73,157.5,2,0,0,0,3,16,0,6,3,30,0,0,3,0,1,0,0,1,1,0,2,2,1,0,2,10,0,0,0,0,0,6,1,0,0.0,19672808.4,152619.1204,0,1,1,1,125
1212.287356,3075484,7.215517241000001,28-Apr-30,Jones Carolyn,86,162.5,2,0,4,0,1,7,0,6,4,15,0,0,2,2,4,1,0,3,5,0,1,4,2,0,3,7,2,0,4,0,0,6,0,4,0.0,6629307.476,0.0,0,1,1,1,125
4037.148649,2631313,6.886486486,3-Sep-32,Brennan Eileen,84,165.0,1,0,6,1,0,32,0,9,6,29,0,0,10,6,0,0,0,0,2,0,1,5,8,0,1,11,0,0,4,0,0,7,1,0,84896193.41,12870551.84,0.0,0,1,1,1,125
4873.0504200000005,2604203,6.2,22-Jan-59,Blair Linda,57,155.0,13,0,1,1,3,13,0,5,29,21,0,0,9,4,0,1,0,2,14,0,5,0,4,1,3,2,1,0,10,2,0,20,0,0,11648373.73,7890586.623,0.0,0,1,1,1,125
3451.964912,3121362,6.182807017999999,31-Oct-41,Kirkland Sally,75,172.5,14,0,3,0,8,62,0,16,31,83,0,0,22,3,0,0,0,3,17,0,12,3,12,0,3,24,7,0,42,2,2,31,0,4,37573564.95,4290824.77,432432.4324,0,1,1,1,125
24047.602740000002,2984158,7.221917808,19-Sep-27,Harris Rosemary,89,164.0,4,0,5,0,6,9,0,0,13,30,0,0,2,1,0,0,0,7,0,0,3,1,1,0,2,9,2,0,6,0,0,1,1,1,0.0,104957512.6,0.0,0,1,1,1,125
1404.724409,3424883,7.007874016000001,20-Nov-27,Parsons Estelle,89,160.0,2,0,0,0,4,9,0,1,10,21,0,0,3,3,0,0,0,3,0,0,0,1,0,1,1,4,1,0,1,0,1,1,1,1,0.0,15014870.25,35928.143710000004,1,1,0,0,130
3231.176955,3506783,6.9526748970000005,1-Apr-32,Reynolds Debbie,84,155.0,1,0,7,6,17,62,0,4,74,14,0,0,26,5,0,0,0,5,0,0,24,38,2,0,7,25,0,0,15,1,2,3,0,3,65110346.99,12898872.3,1323529.412,0,1,0,5,130
871.9090909,3638688,6.545454545,15 February 1899,Sondergaard Gale,117,165.0,3,0,6,0,4,11,0,4,4,25,0,0,1,2,2,0,0,3,8,0,4,2,6,0,0,13,1,0,3,0,0,8,5,4,0.0,11456136.03,0.0,1,1,0,0,130
847.7391303999999,2912886,6.856521739,6-Oct-06,Gaynor Janet,110,150.0,3,0,4,0,2,33,0,1,14,23,0,0,1,1,0,0,0,3,0,0,0,6,1,0,0,22,0,0,20,1,0,0,0,15,37984285.38,11754866.91,0.0,1,1,0,0,130
973.8387097000001,2812504,6.85,9 November 1868,Dressler Marie,148,167.5,0,0,0,1,6,35,0,0,25,13,0,0,2,0,0,0,0,6,0,0,3,6,0,0,0,11,0,0,25,0,0,0,1,0,35036496.35,9840441.534,840000.0,1,1,0,0,130
925.5348837000001,2831024,6.8738372089999995,21-Jan-47,Eikenberry Jill,69,170.0,1,0,3,1,2,17,0,2,8,31,0,0,5,0,0,0,0,2,0,0,1,0,1,0,0,4,1,0,4,1,0,4,0,1,0.0,27559380.28,0.0,0,0,1,3,135
1641.922018,3782777,7.054587156,16-Aug-46,Warren Lesley Ann,70,170.0,2,0,3,0,5,36,0,11,19,55,0,0,8,3,0,0,0,2,1,0,11,15,8,0,2,18,2,0,7,0,1,16,0,5,0.0,11204239.56,0.0,0,0,1,3,135
503.8951613,3704078,7.003629032,21-Nov-37,Thomas Marlo,79,160.0,0,0,0,5,4,21,0,0,16,12,0,0,13,2,0,0,0,0,0,0,4,1,0,0,11,4,0,0,1,0,1,0,0,0,0.0,4092634.205,0.0,0,0,1,3,135
1159.271429,3202586,7.6319047620000005,30-Aug-46,Lipton Peggy,70,165.0,3,0,1,0,1,9,0,2,6,12,0,0,2,1,0,0,0,0,0,0,2,0,2,0,0,2,1,0,0,0,0,4,0,0,0.0,10036557.82,46206.89655,0,0,1,3,135
3114.003846,2684874,6.753461538,21-Aug-56,Cattrall Kim,60,169.0,8,0,4,0,3,28,0,9,25,32,0,0,8,2,0,0,0,5,3,0,4,0,8,1,0,11,10,0,6,2,0,17,2,1,60691.84825,31566055.36,0.0,0,0,1,3,135
1260.1107539999998,3214971,7.69117175,13-Jan-61,Louis-Dreyfus Julia,55,157.5,0,0,3,2,2,31,0,0,31,7,0,0,11,5,0,0,0,0,1,0,8,1,0,4,3,2,0,0,14,0,0,0,0,0,17815656.28,38171053.89,0.0,0,0,1,3,135
6809.53125,3781476,7.480357142999999,11-Jul-56,Ward Sela,60,167.5,7,0,4,0,3,8,0,7,11,17,0,0,3,1,0,0,0,1,1,0,7,0,2,0,6,6,2,0,4,0,0,9,0,1,0.0,55849819.05,0.0,0,0,1,3,135
3643.188679,3160957,7.183962264,28-Oct-02,Lanchester Elsa,114,160.0,2,0,5,0,3,37,0,10,13,23,0,0,8,6,5,0,0,1,12,0,2,11,9,0,0,14,4,0,9,0,0,7,1,2,0.0,10552224.75,31128.57945,0,2,1,0,135
9371.565217,2908629,6.95819398,17-Apr-72,Garner Jennifer,44,170.0,7,0,3,2,4,27,0,5,27,20,0,0,14,7,0,0,0,0,0,0,8,0,2,2,0,8,2,0,15,1,3,5,0,2,39141500.99,33944725.46,4039670.767,0,0,1,3,135
26581.05405,3761184,6.754054054,3-Oct-88,Vikander Alicia,28,162.5,4,0,3,0,7,1,0,0,12,15,0,0,0,2,0,0,0,3,3,0,0,0,1,0,0,6,1,0,16,0,0,3,2,0,4070868.808,47791041.89,0.0,1,0,0,2,140
5087.255319,3087203,6.973049645,29-Sep-42,Kahn Madeline,74,157.5,1,0,1,2,4,48,0,4,21,7,0,0,16,8,0,0,0,1,0,0,7,6,2,0,1,4,3,0,6,0,0,1,0,2,3100000.0,16580310.96,0.0,0,2,0,4,140
14207.392409999999,3842233,6.399367089,25-Sep-69,Zeta-Jones Catherine,47,167.5,4,0,7,3,8,17,0,6,41,13,0,0,9,6,0,0,0,4,1,0,10,4,1,0,5,13,1,0,14,3,0,6,1,0,49843443.13,58520172.11,9047522.346,1,0,0,2,140
2686.770833,2786817,7.127083333,27-Apr-37,Dennis Sandy,79,155.0,0,0,1,0,2,9,0,2,8,19,0,0,1,0,0,0,0,1,5,0,1,0,2,0,2,2,1,0,3,0,0,2,0,0,55456.1658,12605689.08,0.0,1,0,0,2,140
4142.571429,2713617,6.81875,30-Apr-44,Clayburgh Jill,72,170.0,2,0,0,0,6,24,0,6,7,35,0,0,2,0,0,0,0,0,0,0,2,0,4,0,0,12,1,0,1,1,0,5,0,0,30540862.94,15534994.68,0.0,0,2,0,4,140
232.61498030000004,2556222,7.439684625,6-Aug-11,Ball Lucille,105,165.0,4,0,6,0,12,142,0,10,78,30,0,0,13,5,3,1,0,6,0,0,31,29,6,0,9,33,1,0,27,4,1,2,2,2,117241379.3,9228933.844,1850566.997,0,0,0,7,140
681.7304965,3537250,7.2035460989999995,26-Mar-44,Ross Diana,72,160.0,0,0,2,1,6,9,0,1,52,6,0,0,15,1,0,0,0,3,0,0,87,6,0,0,0,2,0,0,4,4,1,0,0,0,51635208.88,28829949.95,0.0,0,1,1,2,145
10461.664920000001,3005958,7.1083769629999995,5-Feb-48,Hershey Barbara,68,162.5,2,0,6,2,9,18,0,10,14,61,0,0,5,1,0,0,0,6,5,0,3,0,4,0,2,11,0,0,4,4,0,10,1,4,25644597.6,11755040.09,0.0,0,1,1,2,145
3198.955975,3234015,7.225157232999999,11-Sep-50,Madigan Amy,66,162.5,3,0,1,1,5,13,0,4,18,40,0,0,6,1,0,0,0,3,1,0,3,2,3,0,0,10,2,0,11,2,0,8,1,2,921583.7390000001,13364177.67,0.0,0,1,1,2,145
5646.388535,3818695,7.310191082999999,8-Nov-52,Woodard Alfre,64,157.5,1,0,3,4,11,16,0,3,44,56,0,0,13,5,0,0,0,9,2,0,7,2,4,2,3,5,4,0,13,4,1,7,3,0,23669715.31,26815787.57,0.0,0,1,1,2,145
3925.5384619999995,2986444,6.761538462000001,23-Dec-43,Hartman Elizabeth,73,160.0,1,0,1,1,0,2,0,1,1,10,0,0,1,2,0,0,0,0,1,0,0,0,0,0,0,2,1,0,1,0,0,2,0,1,0.0,7988942.554,0.0,0,1,1,2,145
1024.60804,3738665,7.0758793970000005,18-Nov-39,Vaccaro Brenda,77,162.5,5,0,4,2,4,20,0,7,8,30,0,0,5,3,0,1,0,1,3,0,2,0,4,0,2,10,1,0,5,3,0,9,0,1,3718748.81,34472939.66,0.0,0,1,1,2,145
1191.238351,3715065,7.410573477000001,1-Sep-39,Tomlin Lily,77,162.5,0,0,3,4,16,82,0,2,66,7,0,0,25,3,0,0,0,2,0,0,20,3,3,2,4,3,3,0,14,1,4,1,1,0,8008780.444,15900748.43,0.0,0,1,0,6,150
6841.193276999999,2758000,7.5352941179999995,12-Apr-79,Danes Claire,37,162.5,5,0,1,2,4,8,0,4,28,23,0,0,5,2,0,0,0,0,0,0,9,0,2,1,3,11,4,0,20,0,2,7,0,0,24534807.12,38859398.31,266738.9826,0,0,2,0,150
260.3861386,2744536,7.153465347000001,17-Sep-33,Crowley Pat,83,162.5,2,0,3,0,4,7,0,8,3,18,0,0,3,0,0,0,0,1,0,0,1,2,3,0,0,5,0,0,3,0,1,2,1,4,0.0,3135970.452,0.0,0,0,2,0,150
1327.2320000000002,3731873,6.416,19-Sep-49,Twiggy,67,165.0,1,0,0,0,1,15,0,0,23,4,0,0,5,1,0,0,0,0,1,0,14,3,0,0,5,4,0,0,4,1,1,2,0,0,0.0,18645579.89,0.0,0,0,2,0,150
671.2636364,2768071,6.744545455,3-Apr-22,Day Doris,94,167.5,0,0,0,0,11,38,0,2,27,11,0,0,7,0,2,0,0,2,0,0,12,15,2,1,1,26,0,0,9,2,0,4,0,2,47626156.59,10147466.11,0.0,0,1,0,6,150
6165.983871,2943451,6.835483871,28-Nov-23,Grahame Gloria,93,165.0,2,0,4,0,0,10,0,12,2,24,0,0,3,1,11,0,0,0,3,0,2,4,4,0,0,13,1,0,3,0,0,11,1,5,0.0,14222868.04,452830.1887,1,1,0,1,150
900.0617284,2819561,6.987654321,20 December 1898,Dunne Irene,118,162.5,0,0,0,0,1,21,0,0,18,26,0,0,4,2,0,0,0,6,0,0,3,9,1,0,0,28,0,0,5,0,1,0,4,3,0.0,21372313.69,2627737.226,0,5,0,0,150
25045.110090000002,2508535,7.120183486,20-Aug-56,Allen Joan,60,175.0,7,0,2,0,6,8,0,3,18,29,0,0,7,4,0,0,0,4,1,0,1,0,4,0,1,5,2,0,13,0,1,7,4,0,11534564.83,45827756.78,0.0,0,3,0,3,150
187.13002360000002,2756797,7.427423168,21-Feb-46,Daly Tyne,70,166.0,5,0,2,0,8,13,0,11,24,43,0,0,9,2,0,0,0,0,0,0,8,6,2,1,6,7,1,0,5,1,0,6,0,0,16072.473869999998,9602839.656,0.0,0,0,1,4,155
31685.414289999997,3550380,6.8514285710000005,29-Oct-71,Ryder Winona,45,157.5,3,0,0,2,8,20,0,3,37,38,0,0,9,5,0,0,0,3,6,0,7,0,3,0,2,17,6,0,12,0,0,8,1,0,26996059.16,28499812.95,4186915.8880000003,0,2,1,1,155
2598.513587,3735012,7.280163043,30-Dec-59,Ullman Tracey,57,162.5,0,0,2,5,3,34,0,4,14,12,0,0,6,6,0,1,0,2,0,0,6,7,0,0,0,5,0,0,4,0,0,0,0,0,1327837.568,31832538.06,0.0,0,0,1,4,155
14625.71315,3778930,7.5537848610000005,22-Feb-50,Walters Julie,66,157.5,0,0,4,3,12,62,0,2,69,40,0,0,10,4,0,0,0,4,0,0,3,8,4,4,0,16,1,0,53,2,0,2,2,0,766132.4468,56908129.79,0.0,0,2,1,1,155
3172.319048,2518656,7.787142857,9-Aug-68,Anderson Gillian,48,160.0,5,0,4,3,2,9,0,2,29,18,0,0,1,2,0,0,0,3,3,0,3,0,7,2,2,4,11,0,15,0,1,8,0,0,2062052.237,26088303.61,2988957.055,0,0,1,4,155
29966.73034,2609025,6.87752809,23-Feb-83,Blunt Emily,33,167.5,8,0,6,4,1,15,0,6,10,23,0,0,6,7,0,0,0,3,3,0,3,4,5,2,0,8,3,0,19,0,0,8,1,0,26604419.47,54267383.23,0.0,0,0,1,4,155
58.17832957,2848102,7.490970655,18-Nov-42,Evans Linda,74,170.0,3,0,2,0,2,12,0,4,10,15,0,0,11,2,0,1,0,0,0,0,5,2,1,0,8,6,0,0,1,1,0,3,0,3,0.0,24249352.12,121452.1452,0,0,1,4,155
677.9343284,2874363,7.411641791,11-Nov-64,Flockhart Calista,52,162.5,0,0,0,0,2,7,0,0,18,8,0,0,7,1,0,0,0,0,1,0,3,0,0,2,5,5,0,0,4,0,0,1,0,0,0.0,12232154.3,5669.291339,0,0,1,4,155
3302.236715,2908376,7.234782609,10-Jun-22,Garland Judy,94,147.5,0,0,3,1,11,35,0,0,97,12,0,0,16,3,0,0,0,7,0,0,35,46,0,0,1,23,0,0,35,1,1,0,6,1,32599172.25,14840444.64,1012169.844,0,2,1,1,155
17128.65854,3341184,7.041463415,13-May-77,Morton Samantha,39,157.5,3,0,4,3,4,6,0,2,11,27,0,0,4,2,0,0,0,1,2,0,3,0,2,0,0,9,3,0,7,0,0,4,2,0,194456.6727,33818895.45,0.0,0,2,1,1,155
807.8565517000001,3554748,7.811172414,19-Jan-54,Sagal Katey,62,172.5,4,0,3,8,3,40,0,0,18,15,0,0,10,4,0,0,0,0,0,0,8,1,1,1,1,7,11,0,15,1,0,0,1,0,0.0,3137248.3389999997,0.0,0,0,1,4,155
30520.15267,3678762,6.852671756,5-Nov-60,Swinton Tilda,56,179.0,4,0,9,1,9,16,0,10,44,47,0,0,6,10,0,0,0,4,4,0,2,0,8,1,3,14,12,0,21,1,2,13,1,0,2786363.8710000003,40749182.83,0.0,1,0,0,3,160
2948.855072,3822345,6.995652174,27-Oct-18,Wright Teresa,98,157.5,0,0,3,0,4,6,0,4,7,31,0,0,5,2,2,0,0,1,1,0,2,0,0,0,1,12,0,0,3,1,0,6,2,3,0.0,22573172.83,0.0,1,2,0,0,160
1217.071078,3302626,7.3674019610000006,15-Aug-68,Messing Debra,48,170.0,1,0,2,1,1,12,0,0,10,8,0,0,9,1,0,0,0,1,1,0,3,2,1,3,3,7,0,0,4,1,0,1,0,0,38988626.73,42509919.39,0.0,0,0,0,8,160
2938.7553190000003,3722793,6.756382979,8-Mar-10,Trevor Claire,106,157.5,3,0,7,0,2,20,0,18,13,45,0,0,5,1,11,0,0,2,0,0,3,1,6,0,2,12,0,0,9,3,0,7,2,13,12949640.29,13823435.17,258992.8058,1,2,0,0,160
1898.118182,2878029,7.192727272999999,22-Oct-17,Fontaine Joan,99,157.5,4,0,12,0,3,16,0,4,15,36,0,0,1,0,6,0,0,4,1,0,3,4,2,0,2,31,1,0,4,1,0,5,5,1,0.0,20123211.01,0.0,1,2,0,0,160
2150.5378149999997,3242650,6.7218487389999995,30-Jan-25,Malone Dorothy,91,165.0,3,0,0,0,5,13,0,12,6,32,0,0,3,0,7,0,0,1,3,0,0,12,11,0,4,17,2,0,2,0,0,10,2,18,0.0,18391695.0,639216.1532,1,0,0,3,160
34109.08148,3708191,6.265925926,29-Apr-70,Thurman Uma,46,183.0,9,0,3,2,5,22,0,4,29,24,0,0,7,1,0,0,0,2,0,0,5,1,3,2,0,18,8,0,23,2,1,9,0,1,28542251.79,42650664.89,6856085.296,0,1,1,3,165
2698.484962,2952522,7.85,18-Dec-68,Griffiths Rachel,48,172.5,2,0,0,3,4,11,0,5,7,26,0,0,5,1,0,0,0,1,2,0,5,2,2,2,0,12,2,0,2,1,2,4,1,0,787725.4355,29585756.98,0.0,0,1,1,3,165
1566.178756,3032293,7.6212435229999995,9-Dec-62,Huffman Felicity,54,162.5,1,0,3,1,3,13,0,5,15,20,0,0,7,0,0,0,0,1,0,0,1,0,3,3,2,0,0,0,7,0,2,3,1,0,81640.74262,6825623.779,0.0,0,1,1,3,165
5929.253125,3663022,6.418125,10-Mar-58,Stone Sharon,58,170.0,14,0,10,3,16,29,0,15,97,37,0,0,14,6,0,0,0,5,3,0,20,1,8,2,5,11,6,0,32,2,2,23,1,1,14060683.43,36017642.45,7362201.774,0,1,1,3,165
2766.3913039999998,3613831,6.917391304,25-Mar-21,Signoret Simone,95,165.0,3,0,1,0,6,10,0,13,32,48,0,0,1,1,1,0,0,3,2,0,0,0,4,0,1,12,0,0,8,0,0,9,4,0,19793814.43,5068937.551,0.0,1,1,0,2,170
2124.403382,2998784,6.8413043479999995,5-Jul-29,Helmond Katherine,87,155.0,0,0,4,0,4,22,0,0,5,31,0,0,7,3,0,0,0,2,2,0,2,0,4,0,0,3,3,0,2,0,0,6,0,1,0.0,15911355.49,0.0,0,0,2,1,170
1011.59058,3171455,7.046376812,15-Oct-37,Lavin Linda,79,157.5,0,0,0,2,2,17,0,1,10,16,0,0,11,0,0,0,0,1,0,0,11,4,1,0,5,2,0,0,2,1,0,1,0,0,0.0,421971.8704,0.0,0,0,2,1,170
122.5207469,2592809,7.587551867,23-Apr-60,Bertinelli Valerie,56,160.0,2,0,1,0,6,15,0,1,12,21,0,0,10,4,0,0,0,2,1,0,6,1,0,0,2,5,1,0,0,0,1,6,1,0,0.0,2199710.5640000002,0.0,0,0,2,1,170
31133.18584,2725528,5.901769912000001,12-Dec-70,Connelly Jennifer,46,165.0,6,0,6,1,3,9,0,6,27,30,0,0,6,4,0,0,0,1,2,0,7,2,6,1,2,12,5,0,20,1,2,14,0,1,9586688.923,49024204.96,1956521.739,1,0,1,0,175
931.7049892000001,2509392,7.150976139,12-Jan-51,Alley Kirstie,65,170.0,3,0,2,5,3,31,0,3,15,20,0,0,11,1,0,0,0,2,2,0,3,0,0,1,2,11,2,0,5,2,0,6,0,0,31727524.8,21462195.36,0.0,0,0,1,5,175
2085.953488,2674624,6.5984496120000005,1-Jul-31,Caron Leslie,85,152.5,0,0,2,0,6,16,0,3,37,37,0,0,6,1,0,0,0,5,0,0,12,19,1,0,3,21,1,0,2,1,1,2,6,1,0.0,13451436.21,0.0,0,2,1,2,175
3888.2982460000003,3035798,7.177192982,12-Nov-22,Hunter Kim,94,157.5,3,0,2,0,6,8,0,2,20,41,0,0,1,1,2,0,0,3,4,0,2,1,9,0,0,5,5,0,5,0,0,6,3,1,0.0,12510601.43,0.0,1,0,1,0,175
7374.185184999999,3544647,6.928395062000001,28-Feb-48,Ruehl Mercedes,68,175.0,1,0,1,0,4,20,0,5,8,25,0,0,7,3,0,0,0,1,0,0,1,0,1,1,0,7,0,0,7,0,0,3,1,0,1448604.878,28400479.29,2491349.481,1,0,1,0,175
8060.313609000001,2873820,6.665088757,22-Jul-34,Fletcher Louise,82,172.5,7,0,3,0,2,16,0,11,10,54,0,0,5,5,0,0,0,0,13,0,2,0,7,0,0,19,10,0,4,2,0,23,1,1,16217705.99,24728167.38,0.0,1,0,1,0,175
4907.460317,2606841,7.172222222,20-Feb-46,Blethyn Brenda,70,155.0,1,0,1,4,3,22,0,4,18,37,0,0,5,3,0,0,0,1,2,0,2,2,5,0,0,14,0,0,15,2,1,2,2,0,6022945.777000001,15334157.64,0.0,0,2,1,2,175
16690.66667,3033808,7.166666667,3 January 1877,Hull Josephine,139,155.0,0,0,0,0,0,3,0,1,0,3,0,0,0,1,0,0,0,0,0,0,0,0,0,0,0,0,0,0,1,0,0,1,0,1,0.0,15275113.64,0.0,1,0,1,0,175
121.77480919999999,2982425,7.189312977,22-Aug-39,Harper Valerie,77,165.0,3,0,4,7,13,33,0,3,29,17,0,0,14,1,0,0,0,2,2,0,8,3,3,1,8,6,4,0,4,2,1,4,0,0,0.0,2435751.222,4329.896907,0,0,1,5,175
6937.276423,3291297,7.491056911,5-Aug-61,McTeer Janet,55,182.5,2,0,1,0,5,4,0,1,5,26,0,0,3,4,0,0,0,2,2,0,3,0,3,0,0,5,1,0,9,0,0,2,0,0,1996570.756,6586580.278,0.0,0,2,1,2,175
34475.238639999996,2695776,7.095454545,24-Mar-77,Chastain Jessica,39,160.0,3,0,6,0,5,4,0,4,9,28,0,0,0,3,0,0,0,5,3,0,2,1,2,2,1,4,5,0,19,0,3,8,2,1,73752550.04,31654487.34,106.69559299999999,0,2,1,2,175
1031.854167,3548696,6.802083333,11 May 1892,Rutherford Margaret,124,162.5,1,0,3,1,0,39,0,10,5,14,0,0,1,3,0,0,0,1,0,0,0,2,8,0,0,4,1,0,0,0,0,3,4,0,0.0,16086274.51,0.0,1,0,1,0,175
1854.6405690000001,3497776,7.499644128,27-Jan-21,Reed Donna,95,157.5,2,0,4,0,3,12,0,9,13,24,0,0,4,2,4,0,0,1,1,0,2,3,9,0,0,16,0,0,5,3,0,7,5,8,0.0,14503788.41,0.0,1,0,1,0,175
1685.4620690000002,3031660,6.517241379,12-Sep-81,Hudson Jennifer,35,172.5,0,0,0,0,1,6,0,1,11,10,0,0,8,0,0,0,0,1,0,0,47,6,0,5,3,1,0,0,4,2,4,0,0,0,0.0,20604535.67,0.0,1,0,1,0,175
198.33190580000002,2722115,7.148179872,23-May-33,Collins Joan,83,160.0,2,0,7,1,12,45,0,16,45,38,0,0,23,3,2,1,0,5,6,0,12,7,6,4,13,18,7,0,8,2,2,11,1,2,7248069.637,14112314.67,552302.6568,0,0,1,5,175
52.11111111,2792057,6.965873016000001,10-Dec-52,Dey Susan,64,167.5,6,0,2,1,0,7,0,0,4,26,0,0,6,0,0,0,0,1,1,0,2,0,1,0,4,5,3,0,1,1,0,5,1,1,1536989.781,7988696.172,0.0,0,0,1,5,175
21978.41718,3644697,6.991411042999999,25-May-70,Spencer Octavia,46,155.0,4,0,2,1,2,21,0,0,4,27,0,0,2,4,0,0,0,2,1,0,1,0,2,0,1,5,5,0,9,0,0,6,1,0,0.0,20657362.07,0.0,1,0,1,0,175
4224.920635,3634072,6.4841269839999995,27-Oct-45,Snodgress Carrie,71,167.0,2,0,2,0,3,3,0,6,1,31,0,0,0,0,0,0,0,0,4,0,1,0,3,1,0,3,0,0,1,4,0,7,0,4,0.0,13638649.46,0.0,0,1,2,0,180
1090.323077,3230600,6.876923077000001,1-Apr-39,MacGraw Ali,77,170.0,2,0,0,0,5,4,0,1,23,7,0,0,4,0,0,0,0,1,1,0,4,0,1,0,2,4,0,0,1,1,0,2,0,1,101274686.2,13221258.08,100738.7848,0,1,2,0,180
1120.183673,2552478,7.069387755,7 December 1893,Bainter Fay,123,162.5,1,0,2,0,2,19,0,1,5,26,0,0,2,1,1,0,0,1,0,0,0,5,1,0,0,20,0,0,4,1,0,1,4,1,0.0,9643524.568,0.0,1,2,0,1,180
6715.189189,3458015,6.760810811,28-Oct-29,Plowright Joan,87,160.0,0,0,8,1,5,20,0,4,5,42,0,0,10,3,0,0,0,2,0,0,4,1,4,0,0,8,0,0,1,1,1,6,3,0,285968.6186,76080633.33,459066.5647,0,1,2,0,180
706.0451613,2740567,4.143225806,23-Mar-05,Crawford Joan,111,157.5,1,0,4,1,7,31,0,7,63,71,0,0,8,1,9,1,0,8,11,0,7,10,3,0,1,43,2,0,26,3,0,16,4,3,18058718.01,10450201.94,1347388.12,1,2,0,1,180
603.5396825,3077994,7.030555556,31-Mar-34,Jones Shirley,82,162.5,3,0,5,1,6,44,0,2,41,28,0,0,21,2,0,0,0,1,2,0,26,20,4,0,10,7,1,0,7,1,0,1,0,4,659576.087,8806682.506000001,0.0,1,0,0,4,180
8742.144,2504875,6.9216,28-Oct-39,Alexander Jane,77,165.0,4,0,1,0,7,7,0,5,18,48,0,0,14,3,0,0,0,8,2,0,5,0,4,0,0,9,2,0,5,1,0,5,1,3,3703908.434,32151057.99,0.0,0,4,0,3,180
14050.520230000002,2721344,6.972254335,1-Nov-72,Collette Toni,44,170.0,3,0,4,3,2,33,0,9,16,38,0,0,5,1,0,1,0,0,3,0,6,0,5,1,1,15,0,0,10,0,0,9,1,0,312880.7322,22491457.79,771799.7676,0,1,1,4,185
2617.981707,2952307,6.387804878,9-Aug-57,Griffith Melanie,59,176.0,5,0,7,5,10,31,0,12,31,36,0,0,10,2,0,0,0,0,1,0,7,0,6,0,3,16,2,0,6,2,0,15,1,2,21902589.47,28653415.59,1722315.323,0,1,1,4,185
1598.112069,3677325,7.315517241,27 March 1899,Swanson Gloria,117,152.5,0,0,1,0,2,41,0,1,37,40,0,0,1,0,1,0,0,6,1,0,0,4,0,1,1,14,0,0,40,0,0,0,2,0,0.0,4972686.238,2406724.556,0,3,1,1,185
640.5350553999999,3210460,7.230627306000001,23-Aug-49,Long Shelley,67,165.0,2,0,1,2,1,54,0,0,19,21,0,0,18,5,0,0,0,3,0,0,3,2,0,0,3,11,2,0,17,1,0,0,0,1,40024098.73,12252048.23,0.0,0,0,2,2,190
12184.66038,2599629,6.521698112999999,9-Mar-64,Binoche Juliette,52,165.0,2,0,2,0,7,10,0,4,30,52,0,0,6,0,0,0,0,4,0,0,1,0,4,2,0,25,3,0,7,0,1,8,4,0,1201510.121,37136336.89,1664300.725,1,1,0,3,190
1184.848485,2566967,6.842424242000001,15 August 1879,Barrymore Ethel,137,167.5,0,0,0,0,1,5,0,5,9,32,0,0,1,2,2,0,0,1,1,0,3,5,3,0,0,13,0,0,6,0,0,5,1,1,0.0,21398881.99,789705.6529,1,3,0,0,190
4803.768657,3019403,6.878358209,2-Jul-37,Holliday Polly,79,170.0,0,0,1,0,1,12,0,1,1,14,0,0,4,0,0,0,0,0,0,0,0,1,0,0,1,8,0,0,0,1,0,0,0,0,0.0,50520615.1,0.0,0,0,2,2,190
2167.635958,2865706,7.272362556,18-May-70,Fey Tina,46,160.0,2,0,1,3,5,64,0,2,23,5,0,0,4,1,0,0,0,2,0,0,8,1,0,4,1,5,1,0,13,1,1,2,1,0,19410904.23,36139802.12,0.0,0,0,2,2,190
1133.6524060000002,3213067,6.480748663,20-Sep-34,Loren Sophia,82,172.5,5,0,6,0,18,47,0,3,61,60,0,0,7,6,0,1,0,11,0,0,4,8,2,1,4,34,0,0,7,1,1,5,12,2,26670002.56,49573632.87,4235130.203,1,1,0,3,190
9868.652632,3811968,7.135789474,16-May-55,Winger Debra,61,160.0,1,0,1,0,1,12,0,2,15,20,0,0,5,2,0,0,0,1,0,0,2,0,2,0,1,7,1,0,2,1,0,6,2,1,23637695.19,21434846.38,3669526.9080000003,0,3,0,5,190
1711.0222219999998,2538135,7.3377777779999995,22-Dec-07,Ashcroft Peggy,109,160.0,0,0,1,2,3,4,0,0,8,18,0,0,0,0,0,0,0,1,0,0,1,1,2,0,0,1,0,0,4,0,0,2,1,0,7297.379543999999,28874225.75,0.0,1,0,1,1,195
2640.242424,3391573,7.121212121,5-Nov-63,O'Neal Tatum,53,167.5,1,0,0,0,3,8,0,2,9,19,0,0,4,0,0,0,0,0,1,0,1,0,0,0,0,2,0,0,1,3,0,3,0,0,42953580.82,12428330.26,781380.3258,1,0,1,1,195
1305.61194,2667859,6.751492537000001,4-Jan-37,Cannon Dyan,79,162.5,8,0,2,1,5,36,0,12,16,22,0,0,9,2,0,0,0,0,0,0,8,1,7,0,8,12,1,0,3,2,0,5,1,0,212975.6695,36578279.45,0.0,0,2,1,3,195
27436.652169999998,3790719,6.675652174,7-Mar-70,Weisz Rachel,46,165.0,4,0,5,0,4,9,0,5,25,34,0,0,4,7,0,0,0,6,2,0,4,0,5,0,1,14,2,0,17,1,2,14,3,0,1182242.731,70001145.25,0.0,1,0,1,1,195
4322.848921,2817176,6.660431655,20-Jun-31,Dukakis Olympia,85,157.5,8,0,7,0,7,37,0,9,23,60,0,0,6,4,0,0,0,3,2,0,6,1,3,0,2,18,0,0,5,0,0,9,3,0,90325.8856,14110811.82,0.0,1,0,1,1,195
30533.50777,3416958,6.20880829,27-Sep-72,Paltrow Gwyneth,44,175.0,7,0,6,0,7,23,0,7,42,26,0,0,12,2,0,0,0,5,0,0,14,2,6,2,1,12,5,0,12,1,1,9,0,0,37864925.36,37959382.7,6275964.864,1,0,1,1,195
71.67058824,2616537,7.6888235289999995,30 August 1898,Booth Shirley,118,152.5,0,0,0,1,0,4,0,0,0,6,0,0,2,1,0,0,0,0,0,0,0,1,1,0,1,3,0,0,1,0,0,0,0,0,0.0,0.0,0.0,1,0,1,1,195
14235.669569999998,2569133,6.245217391000001,8-Dec-53,Basinger Kim,63,170.0,7,0,5,1,4,10,0,12,35,29,0,0,7,2,0,0,0,1,1,0,5,0,5,0,2,12,1,0,13,4,1,14,0,0,26929709.0,40448234.46,2591726.335,1,0,1,1,195
1748.678112,2602829,5.863090129,1-Jul-39,Black Karen,77,167.5,13,0,3,0,6,51,0,15,30,78,0,0,5,8,0,0,0,3,31,0,4,3,9,0,0,21,12,0,20,1,1,39,0,2,33186484.0,4749383.336,0.0,0,1,2,1,200
5065.9615380000005,3011334,7.340384615,15-Aug-12,Hiller Wendy,104,167.5,1,0,2,0,8,6,0,2,6,29,0,0,4,0,0,0,0,3,2,0,2,0,3,0,0,7,0,0,1,0,0,2,3,0,0.0,7830656.956,0.0,1,2,0,2,200
4677.088235,2553218,6.402941176000001,28-May-31,Baker Carroll,85,162.5,3,0,2,0,8,19,0,6,24,38,0,0,3,0,0,0,0,3,7,0,2,1,11,0,1,15,1,0,4,1,1,18,2,8,100081.3043,31827780.7,315568.8623,0,1,2,1,200
17529.3,3714802,6.56875,4-Dec-64,Tomei Marisa,52,164.0,7,0,2,0,6,36,0,9,25,35,0,0,13,2,0,0,0,1,3,0,7,1,4,3,1,20,2,0,9,1,2,10,1,0,12616982.31,26317232.48,1833260.711,1,2,0,2,200
436.7142857,3485854,7.05,12-Jan-10,Rainer Luise,106,160.0,0,0,0,0,6,3,0,0,18,11,0,0,1,0,0,0,0,3,0,0,1,6,0,0,0,7,0,0,5,0,0,1,1,0,0.0,17100713.1,0.0,2,0,0,0,200
97.58108108,3806656,6.024324324,23-Jul-80,Williams Michelle,36,167.5,0,0,0,0,3,4,0,0,20,1,0,0,14,0,0,0,0,0,0,0,50,3,0,0,6,0,0,0,3,2,0,0,0,0,0.0,1190047.8590000002,0.0,0,3,1,2,205
1462.471503,2572882,7.13626943,7-May-23,Baxter Anne,93,162.0,2,0,3,0,6,14,0,10,8,47,0,0,2,4,5,0,0,4,2,0,2,2,8,0,2,14,0,0,0,3,0,10,9,9,0.0,16589463.78,0.0,1,1,1,0,205
9560.461017,3186862,7.287457627,14-Sep-60,Leo Melissa,56,160.0,6,0,3,3,4,16,0,10,10,65,0,0,2,1,0,0,0,2,2,0,2,0,6,1,1,8,1,0,21,3,1,16,2,2,7900930.88,15107177.49,0.0,1,1,1,0,205
10561.866970000001,3806654,7.1339449539999995,9-Sep-80,Williams Michelle,36,160.0,1,0,4,0,3,9,0,1,13,23,0,0,6,2,0,0,0,0,2,0,4,1,2,1,1,9,2,0,6,0,1,6,2,2,4713329.044,47896091.63,0.0,0,3,1,2,205
5345.3275109999995,3422995,7.346724891,2-Aug-64,Parker Mary-Louise,52,167.5,4,0,1,0,4,22,0,14,15,35,0,0,4,3,0,0,0,1,0,0,4,2,3,0,2,15,0,0,14,0,0,7,1,1,0.0,40573328.3,0.0,0,0,2,3,210
2547.107527,2795559,6.917921147,30-Sep-31,Dickinson Angie,85,162.5,12,0,5,0,15,46,0,17,48,39,0,0,14,1,1,0,0,3,2,0,18,5,8,0,17,12,2,0,9,0,3,16,3,13,0.0,17787015.57,194726.1663,0,0,2,3,210
548.8780488,3269974,7.81010453,24-Aug-65,Matlin Marlee,51,160.0,2,0,0,1,1,9,0,2,13,23,0,0,11,1,0,0,0,2,0,0,7,0,2,1,8,6,2,0,4,3,0,7,0,1,7831713.131,9847805.724,0.0,1,0,1,2,215
8754.494505,3654112,7.234065934,8-Feb-53,Steenburgen Mary,63,170.0,1,0,5,3,7,42,0,7,22,40,0,0,10,6,0,0,0,1,3,0,2,1,3,0,2,10,4,0,14,1,0,10,1,4,15648051.74,27653631.23,0.0,1,0,1,2,215
2249.396396,3735032,6.925225225,16-Dec-38,Ullmann Liv,78,170.18,1,0,1,2,12,5,0,2,37,46,0,0,6,5,0,0,0,4,3,0,6,1,1,1,1,6,0,0,16,1,0,6,3,2,571549.3535,14480798.56,0.0,0,2,1,4,215
5730.589928,2856085,6.8762589929999995,9-Feb-45,Farrow Mia,71,163.0,3,0,8,7,12,25,0,3,37,33,0,0,13,10,0,1,0,2,4,0,3,1,6,0,2,11,2,0,7,0,0,5,3,0,16264900.29,28229398.23,0.0,0,0,1,7,215
973.7061069,3251546,7.785877863,8-Jun-66,Margulies Julianna,50,165.0,2,0,2,1,1,8,0,5,21,15,0,0,1,1,0,0,0,5,1,0,2,0,0,0,1,5,0,0,10,0,0,3,3,1,0.0,26254226.67,0.0,0,0,1,7,215
1130.330484,3335791,7.486039886,11-Dec-31,Moreno Rita,85,155.0,5,0,7,2,6,36,0,7,41,34,0,0,21,1,0,2,0,4,1,0,13,20,2,1,3,15,0,0,1,1,1,5,3,6,0.0,10649103.81,0.0,1,0,1,2,215
2419.12844,3590134,7.66911315,19-Aug-65,Sedgwick Kyra,51,162.5,5,0,2,2,5,15,0,5,17,41,0,0,4,3,0,0,0,1,1,0,4,0,2,4,1,17,5,0,8,1,1,8,2,0,528316.31,16222607.98,0.0,0,0,1,7,215
3210.956835,3640669,6.484172662000001,28-Sep-67,Sorvino Mira,49,175.0,6,0,3,1,2,19,0,10,15,44,0,0,7,3,0,0,0,1,3,0,4,0,4,0,0,10,3,0,11,0,0,16,1,0,20679511.93,17470167.87,4321728.691000001,1,0,1,2,215
7665.507463,3537499,7.405223881,29-Jan-40,Ross Katharine,76,157.5,2,0,1,0,4,5,0,1,15,31,0,0,5,1,0,0,0,2,3,0,0,1,3,0,1,4,2,0,7,2,0,6,3,12,0.0,24306787.95,0.0,0,1,2,2,220
4929.014706,3183979,7.0882352939999995,5-Nov-13,Leigh Vivien,103,157.5,0,0,3,0,12,8,0,0,38,13,0,0,1,0,0,0,0,7,0,0,1,3,0,0,1,12,0,0,5,1,0,1,8,0,73846153.85,8839891.044,1023005.771,2,0,0,1,220
3533.676329,3155340,6.89178744,29-Nov-35,Ladd Diane,81,167.5,4,0,1,0,7,20,0,8,10,52,0,0,14,2,0,0,0,1,8,0,0,0,9,1,2,7,3,0,5,0,0,14,1,4,1913979.239,18782981.53,0.0,0,3,1,3,225
386.4852071,3833878,6.728994083,6-Jan-13,Young Loretta,103,165.0,2,0,9,0,8,39,0,9,27,63,0,0,3,3,3,0,0,10,1,0,3,4,6,0,2,46,0,0,14,3,0,4,9,4,3933609.959,7196367.645,2589928.058,1,1,1,1,225
2596.339623,3364982,7.038679245,20-Jan-26,Neal Patricia,90,170.0,1,0,0,0,6,8,0,2,27,46,0,0,8,0,2,0,0,5,3,0,6,0,3,1,3,8,2,0,8,1,1,6,5,1,0.0,11325926.12,0.0,1,1,1,1,225
3250.943038,3170497,7.190506329,22-Jan-32,Laurie Piper,84,160.0,5,0,6,0,5,15,0,5,14,47,0,0,6,4,1,0,0,1,9,0,4,1,7,0,1,11,2,0,10,1,0,10,2,4,379010.854,13071317.51,42179.261860000006,0,3,1,3,225
7203.784753,2749663,6.615695067000001,22-Nov-58,Curtis Jamie Lee,58,167.5,7,0,4,4,7,23,0,3,45,23,0,0,25,3,0,1,0,1,16,0,12,1,4,3,7,9,8,0,19,1,1,12,0,0,45999232.53,25794440.53,1431899.2380000001,0,0,2,4,230
4470.676871,2535379,7.291496598999999,8-Apr-68,Arquette Patricia,48,155.0,6,0,2,2,8,16,0,7,32,26,0,0,3,4,0,0,0,1,4,0,4,0,6,0,0,3,2,0,28,0,0,13,0,0,17199584.44,18965030.77,0.0,1,0,1,3,235
3463.1962259999996,3175207,7.2590566039999995,30-Apr-26,Leachman Cloris,90,162.5,6,0,14,14,14,66,0,13,28,53,0,0,32,15,0,3,0,4,7,0,11,9,6,1,2,9,3,0,14,2,0,9,1,5,15990671.97,24387393.39,0.0,1,0,1,3,235
3457.5508979999995,3616949,7.141317365,31-Jan-29,Simmons Jean,87,160.0,1,0,5,2,11,16,0,5,14,53,0,0,9,1,4,0,0,8,2,0,0,1,7,0,2,19,2,0,1,0,0,6,3,2,10574753.09,34871616.74,0.0,0,2,1,5,235
1675.155172,2719280,6.872413793,13-Sep-03,Colbert Claudette,113,160.0,0,0,4,1,4,39,0,3,27,41,0,0,3,1,3,0,0,7,0,0,1,7,5,0,0,37,0,0,13,1,0,3,8,3,24001532.63,11792337.34,2244159.918,1,2,1,0,235
1775.0492960000001,3020068,7.322535211,29-Apr-17,Holm Celeste,99,167.0,1,0,1,1,2,19,0,3,17,22,0,0,14,1,1,3,0,3,0,0,8,10,5,0,6,15,0,0,3,0,0,6,0,0,0.0,17887231.17,0.0,1,2,1,0,235
21338.31271,2592092,6.351202749,14-Aug-66,Berry Halle,50,162.5,17,0,13,1,9,13,0,7,77,23,0,0,23,7,0,1,0,2,2,0,18,0,3,2,8,8,15,0,25,1,2,18,0,0,28214740.75,73191324.55,6893950.142999999,1,0,1,3,235
12648.02083,3516386,7.033333333,14-Feb-02,Ritter Thelma,114,152.5,0,0,0,0,3,14,0,3,5,13,0,0,3,0,3,0,0,1,0,0,0,4,1,0,0,12,0,0,1,1,0,2,1,2,0.0,12841166.54,0.0,0,6,0,3,240
6283.743243,3730479,6.787162162,19-Jun-54,Turner Kathleen,62,170.0,5,0,4,7,7,30,0,9,40,23,0,0,17,5,0,0,0,2,0,0,9,2,2,0,5,18,2,0,17,0,0,5,0,0,18098352.64,32803890.8,79207.92079,0,1,2,3,240
2324.340909,2992432,7.045454545,10-Oct-00,Hayes Helen,116,150.0,2,0,3,0,4,14,0,5,15,25,0,0,13,2,0,0,0,2,0,0,5,2,7,0,6,5,0,0,3,0,0,3,2,0,100934653.5,15176117.81,0.0,2,0,0,2,240
36554.184,2735636,6.9392,30-Sep-75,Cotillard Marion,41,169.0,7,0,6,2,2,18,0,6,23,38,0,0,1,5,0,0,0,3,0,0,7,1,8,2,1,18,4,0,27,0,0,13,5,0,3540116.615,67642082.02,0.0,1,1,1,2,245
29703.554219999998,2989201,6.821686747,12-Nov-82,Hathaway Anne,34,170.0,6,0,5,1,4,19,0,3,32,17,0,0,11,3,0,0,0,0,0,0,12,3,2,2,1,12,3,0,27,0,2,3,0,0,41229422.1,51753710.6,5583490.652000001,1,1,1,2,245
2860.3561640000003,3236206,6.94109589,7-Mar-08,Magnani Anna,108,157.5,0,0,0,0,5,19,0,1,20,32,0,0,3,0,0,0,0,4,0,0,3,2,0,0,0,10,0,0,5,0,0,1,4,0,31215.531219999997,5068937.551,0.0,1,1,1,2,245
152.1674208,2928284,7.652941176000001,31-May-43,Gless Sharon,73,162.5,1,0,0,0,4,9,0,15,19,28,0,0,4,0,0,0,0,1,0,0,1,0,3,0,7,5,2,0,2,0,1,3,0,0,308089.3252,237114.8199,0.0,0,0,2,5,250
11496.51795,2788042,6.987179487000001,10-Feb-67,Dern Laura,49,175.0,3,0,4,2,11,12,0,6,33,45,0,0,7,1,0,0,0,5,1,0,5,0,4,0,1,9,3,0,16,1,1,11,1,0,2660729.485,25057918.78,4460.966543,0,2,2,2,250
2435.785276,3497099,6.83006135,8-Mar-43,Redgrave Lynn,73,175.0,1,0,3,4,5,31,0,2,11,42,0,0,26,8,0,4,0,3,3,0,8,3,6,0,3,18,1,0,1,1,1,11,5,1,0.0,20361111.68,0.0,0,2,2,2,250
2340.1555559999997,3603584,6.392222222000001,10-Aug-02,Shearer Norma,114,152.5,0,0,1,0,6,24,0,1,30,49,0,0,3,0,0,0,0,6,0,0,2,7,0,0,0,25,0,0,18,2,0,1,1,0,23076560.51,10416944.68,2571516.039,1,5,0,0,250
733.8184282000001,3651040,7.426558266,16-Jul-07,Stanwyck Barbara,109,162.5,2,0,4,0,6,22,0,14,36,66,0,0,2,1,12,0,0,5,4,0,5,1,10,0,2,50,0,0,12,1,0,13,2,12,24320448.18,7363140.51,873605.8077,0,4,1,3,255
23334.68485,3420208,7.36,24-Jul-82,Paquin Anna,34,160.0,9,0,11,3,1,8,0,2,19,23,0,0,7,6,0,0,0,3,3,0,3,0,2,0,0,7,9,0,13,0,0,9,2,1,12039138.55,65719000.8,306544.73,1,0,1,4,255
2209.380952,3019376,6.971428571000001,21-Jun-21,Holliday Judy,95,170.0,0,0,0,0,0,16,0,0,3,5,0,0,0,0,0,0,0,0,0,0,2,4,0,0,2,7,0,0,1,0,0,0,1,0,12490706.32,10339862.11,1811320.755,1,0,1,4,255
2107.417582,3502602,7.165934066,14-Dec-35,Remick Lee,81,167.5,5,0,1,0,8,12,0,8,13,43,0,0,3,1,0,0,0,1,3,0,2,2,5,0,3,5,1,0,0,1,0,12,0,2,0.0,12296434.07,0.0,0,1,2,4,260
19584.22059,3446886,6.418382352999999,29-Apr-58,Pfeiffer Michelle,58,167.5,2,0,3,2,3,18,0,4,32,39,0,0,8,8,0,0,0,0,4,0,9,4,3,0,2,20,0,0,14,0,0,7,0,0,64562445.71,53726474.7,10250780.52,0,3,1,5,265
5827.894179999999,2765446,6.740740741000001,21-Jan-56,Davis Geena,60,180.0,3,0,4,4,4,21,0,5,29,17,0,0,15,6,0,0,0,1,3,0,6,1,5,2,1,7,3,0,3,2,1,3,0,0,28106960.83,56466326.85,5192972.647,1,1,1,3,265
20100.69231,3701960,6.347692307999999,7-Aug-75,Theron Charlize,41,172.5,13,0,8,2,7,16,0,10,32,27,0,0,14,6,0,0,0,3,1,0,14,0,5,2,5,11,7,0,30,1,2,17,2,1,23661213.23,65288023.89,12288786.48,1,1,1,3,265
5084.8625,3688674,6.97375,7-Jun-09,Tandy Jessica,107,160.0,0,0,2,0,2,8,0,2,17,25,0,0,13,1,0,0,0,2,1,0,1,1,3,0,2,6,2,0,3,0,0,2,2,1,406466.3968,27470177.76,0.0,1,1,1,3,265
27782.2963,3282777,6.887037037000001,23-Jun-57,McDormand Frances,59,162.5,4,0,6,3,3,17,0,11,16,31,0,0,6,3,0,0,0,5,0,0,3,0,5,0,1,5,4,0,6,0,0,8,2,1,16808319.85,52340476.39,0.0,1,3,0,4,270
1490.424731,3332678,7.451612902999999,6-Dec-00,Moorehead Agnes,116,160.0,4,0,7,1,8,14,0,4,10,45,0,0,8,5,5,1,0,3,4,0,5,9,9,0,1,30,2,0,4,1,0,8,6,6,0.0,27947373.89,0.0,0,4,2,0,270
1195.478261,3597922,7.141086957000001,15-Feb-51,Seymour Jane,65,160.0,9,0,6,5,6,34,0,5,61,56,0,0,22,8,0,1,0,6,4,0,12,5,5,1,11,19,2,0,18,3,2,16,4,1,150228.6645,11825493.04,0.0,0,0,2,6,270
7137.354839,3278310,6.956451613,16-Mar-16,McCambridge Mercedes,100,157.5,0,0,0,0,0,1,0,4,9,21,0,0,1,0,4,0,0,0,2,0,1,0,2,1,1,4,1,0,4,0,0,4,1,5,0.0,21088486.68,0.0,1,1,2,0,280
7515.2125,3105845,6.69375,12-Nov-29,Kelly Grace,87,165.0,1,0,2,0,8,5,0,3,42,11,0,0,6,1,0,0,0,2,0,0,10,3,3,0,0,7,0,0,11,0,1,4,1,1,0.0,8734858.837000001,124907.0632,1,1,2,0,280
1582.992908,3605358,7.257919622,18-Feb-50,Shepherd Cybill,66,170.0,4,0,2,0,2,23,0,5,22,28,0,0,7,1,0,0,0,0,0,0,8,1,6,0,1,10,2,0,6,0,3,6,0,0,31506948.39,10384766.49,85107.98688,0,0,3,3,285
12662.46082,2648742,6.848275862,26-Jul-64,Bullock Sandra,52,167.5,11,0,9,2,8,29,0,14,33,28,0,0,15,4,0,1,0,1,1,0,10,1,6,3,7,16,3,0,21,1,4,12,1,0,117479045.5,47377079.02,11812675.67,1,1,1,4,285
2539.240964,2944818,6.779518072,31-Oct-25,Grant Lee,91,162.0,2,0,1,0,6,18,0,8,28,48,0,0,2,0,2,0,0,2,5,0,2,0,4,0,1,10,3,0,3,0,0,9,2,1,0.0,23913612.2,0.0,1,3,0,5,290
6665.405941,2765722,6.76039604,23-Apr-55,Davis Judy,61,162.5,4,0,2,0,10,13,0,6,15,50,0,0,2,0,0,0,0,3,0,0,3,1,5,0,0,13,0,0,18,1,0,7,0,0,17058217.38,32465045.13,0.0,0,2,2,4,290
3954.6390979999996,2771091,7.137593985,1-Jul-16,de Havilland Olivia,100,160.0,5,0,9,0,8,23,0,5,33,32,0,0,3,1,3,0,0,8,4,0,2,2,6,0,2,30,0,0,13,1,0,9,4,5,81583575.9,24151796.18,216214.4349,2,3,0,0,290
786.7588423999999,3651157,7.79807074,19-Jan-23,Stapleton Jean,93,170.0,1,0,2,1,5,21,0,2,16,24,0,0,13,4,0,0,0,2,0,0,7,5,3,0,7,6,0,0,2,1,0,2,0,0,0.0,39770102.58,0.0,0,0,2,7,290
1216.49848,2852557,7.742857142999999,5-Jul-63,Falco Edie,53,162.5,0,0,0,0,2,12,0,5,16,20,0,0,5,0,0,0,0,1,2,0,6,0,2,0,5,2,0,0,2,0,0,7,0,0,0.0,8092066.668,0.0,0,0,2,7,290
383.9948454,2817264,7.48685567,14-Dec-46,Duke Patty,70,150.0,2,0,3,1,11,20,0,4,19,65,0,0,13,3,0,3,0,5,9,0,7,3,1,0,5,9,2,0,8,2,1,11,2,2,0.0,11525802.05,0.0,1,0,2,2,290
