votes,id,rating,dob,name,age,heightcm,Action,Adult,Adventure,Animation,Biography,Comedy,Commercial,Crime,Documentary,Drama,Erotica,Experimental,Family,Fantasy,Film-Noir,Game-Show,Hardcore,History,Horror,Lifestyle,Music,Musical,Mystery,News,Reality-TV,Romance,Sci-Fi,Sex,Short,Sport,Talk-Show,Thriller,War,Western,gross,budget,salary,academy awards won,academy awards nominated,golden globes won,golden globes nominated,totalawards
15831.83673,2705913,6.971428571000001,14-Apr-41,Christie Julie,75,157.5,0,0,1,1,7,8,0,2,28,31,0,0,3,4,0,0,0,2,4,0,2,0,3,0,0,15,4,0,13,2,0,3,1,1,108245.2555,21442065.91,1712593.8769999999,1,3,1,2,305
1830.7802199999999,3266786,6.984615385,3-Apr-42,Mason Marsha,74,162.0,3,0,1,0,1,13,0,3,14,26,0,0,1,3,0,0,0,0,1,0,1,1,0,0,2,7,0,0,4,0,1,4,1,0,55257394.28,21399321.13,0.0,0,4,2,2,310
11960.708990000001,3510784,7.068783069,3-Mar-58,Richardson Miranda,58,162.5,4,0,7,4,7,28,0,9,29,44,0,0,16,11,0,0,0,8,7,0,4,2,7,0,0,13,3,0,19,0,0,12,3,0,7469023.376,42224097.89,0.0,0,2,2,5,310
7114.50495,3110261,6.923762376,30-Sep-21,Kerr Deborah,95,165.0,3,0,5,0,8,13,0,2,28,43,0,0,4,0,0,0,0,5,2,0,1,2,4,0,2,25,0,0,9,0,0,3,10,0,72688863.78,25009521.33,1935483.871,0,6,1,3,315
2100.45098,3076385,6.835294117999999,2-Mar-19,Jones Jennifer,97,165.0,3,0,2,0,7,4,0,3,10,24,0,0,4,1,0,0,0,2,0,0,1,1,3,0,0,17,0,0,4,0,0,1,4,2,117744239.5,27932220.78,0.0,1,4,1,1,315
28100.857760000003,3786956,7.080172414,8-Oct-49,Weaver Sigourney,67,177.5,17,0,12,6,7,27,0,10,84,32,0,0,12,9,0,0,0,5,7,0,12,2,8,3,2,12,19,0,32,0,1,11,1,0,40232498.97,45313712.78,4018374.298,0,3,2,4,320
7730.02521,3541401,7.052941176,19-Jun-30,Rowlands Gena,86,165.0,0,0,2,1,6,15,0,5,17,48,0,0,6,1,0,0,0,3,1,0,2,1,4,0,3,14,1,0,3,0,0,3,2,2,7570241.842,22482326.01,88343.55828,0,2,2,6,330
17396.53125,3814313,6.498958332999999,22-Mar-76,Witherspoon Reese,40,156.0,6,0,7,6,7,31,0,6,24,29,0,0,19,7,0,0,0,2,0,0,12,2,1,0,4,17,7,0,17,0,4,6,0,0,89807107.46,48934268.86,11487040.11,2,0,1,3,335
2555.251852,3818416,6.96962963,20-Jul-38,Wood Natalie,78,150.0,3,0,2,0,9,24,0,4,38,41,0,0,11,1,1,0,0,2,0,0,5,5,3,1,5,27,2,0,5,3,1,4,4,8,103938032.8,18858300.95,1952193.621,0,3,2,5,340
197.69573640000002,3331992,7.565116279,29-Dec-36,Moore Mary Tyler,80,167.5,0,0,1,2,17,36,0,4,39,24,0,0,15,4,0,0,0,5,0,0,8,4,0,0,14,5,0,0,1,0,0,3,0,1,13887442.34,9447061.141,0.0,0,0,3,6,345
2320.553191,3651171,6.909574468,21-Jun-25,Stapleton Maureen,91,157.5,2,0,1,3,4,22,0,1,18,30,0,0,11,3,0,2,0,4,1,0,9,4,1,0,3,12,4,0,6,0,0,4,0,0,0.0,32212066.54,0.0,1,3,1,4,345
1056.035714,2909701,7.025,29-Sep-04,Garson Greer,112,165.0,0,0,0,2,6,13,0,0,22,23,0,0,11,1,0,0,0,3,0,0,5,6,0,0,1,16,0,0,10,0,0,0,4,1,110132727.1,18743863.93,0.0,1,6,1,0,355
1215.2955470000002,3315809,7.348987854,12-Mar-46,Minnelli Liza,70,160.0,1,0,2,2,9,26,0,1,100,15,0,0,28,3,0,0,0,5,0,0,74,31,1,0,8,8,0,0,12,3,6,2,0,0,130543964.1,16068398.48,0.0,1,1,2,4,360
9060.649425,3801444,7.300574713,28-Mar-48,Wiest Dianne,68,162.5,2,0,1,0,4,16,0,4,6,31,0,0,6,2,0,0,0,1,1,0,2,1,1,0,0,9,1,0,1,1,0,2,0,1,319670.275,28958116.36,0.0,2,1,1,3,365
2219.530516,2991391,7.082159624,21-Nov-45,Hawn Goldie,71,165.0,2,0,0,0,6,44,0,3,41,9,0,0,15,1,0,0,0,2,1,0,12,2,1,0,7,11,0,0,2,5,0,2,2,2,63156675.8,28952405.46,3882319.6489999997,1,1,1,8,365
790.5795455,2993327,6.639772727,30-Jun-17,Hayward Susan,99,157.5,7,0,9,0,10,10,0,6,10,46,0,0,4,1,7,0,0,3,0,0,3,3,2,0,0,26,0,0,9,2,1,4,8,7,0.0,29048164.73,0.0,1,4,2,0,370
14179.5,2584478,6.526666667000001,29-May-58,Bening Annette,58,170.0,3,0,0,0,5,19,0,2,20,28,0,0,15,2,0,0,0,0,1,0,6,1,1,2,4,14,2,0,6,0,1,4,2,1,8234255.478999999,38385032.12,4417177.914,0,4,2,5,370
11719.55921,3677186,6.371710526,30-Jul-74,Swank Hilary,42,165.0,2,0,1,1,5,9,0,5,23,26,0,0,6,2,0,0,0,5,4,0,10,0,3,9,4,6,1,0,11,3,0,4,0,1,24811531.06,25454763.7,2034910.7230000002,2,0,2,1,370
10506.25,3037411,7.0229166670000005,8-Jul-51,Huston Anjelica,65,175.0,4,0,6,7,4,27,0,6,39,31,0,0,17,7,0,0,0,3,3,0,6,1,3,2,13,14,2,0,12,1,1,4,2,4,50346519.37,26365709.74,1101916.164,1,2,1,7,375
26959.00671,2491973,6.951006711000001,20-Aug-74,Adams Amy,42,160.0,5,0,9,2,5,21,0,3,13,24,0,0,6,6,0,0,0,3,0,0,2,3,2,2,3,15,6,0,19,4,1,5,0,0,37971926.0,51252427.88,0.0,0,5,2,4,380
3290.977667,3423166,6.993796526000001,25-Mar-65,Parker Sarah Jessica,51,157.5,2,0,2,3,7,34,0,4,51,23,0,0,21,3,0,0,0,2,0,0,17,0,3,3,5,17,3,0,14,4,0,7,0,0,50117391.91,41509227.03,5775320.469,0,0,4,4,380
8694.872062999999,3569394,6.727154047000001,4-Oct-46,Sarandon Susan,70,167.5,4,0,6,9,16,46,0,11,110,70,0,0,22,6,0,0,0,7,4,0,19,5,8,4,4,27,4,0,24,5,2,17,6,0,46763840.05,22573619.36,8029964.995,1,4,0,8,380
1327.381757,2588314,7.065033784,9-May-46,Bergen Candice,70,167.5,6,0,5,1,6,48,0,5,61,27,0,0,12,2,0,0,0,2,0,0,14,2,2,2,29,14,1,0,11,0,1,6,1,3,0.0,29395094.07,0.0,0,1,2,10,380
11059.10811,3035704,7.564864865,20-Mar-58,Hunter Holly,58,155.0,3,0,5,4,4,20,0,7,27,30,0,0,6,2,0,0,0,1,1,0,5,0,2,1,3,15,1,0,4,1,0,4,1,0,23850078.67,38010452.9,0.0,1,3,1,6,385
11902.5256,2570596,7.083617747000001,28-Jun-48,Bates Kathy,68,157.5,2,0,5,7,8,38,0,5,30,59,0,0,15,6,0,0,0,1,1,0,2,4,6,1,1,23,1,0,14,2,1,8,0,1,60726956.59,46822455.4,0.0,1,2,2,4,390
23422.55,3705358,7.0372222220000005,15-Apr-59,Thompson Emma,57,170.0,1,0,3,1,6,30,0,4,32,27,0,0,8,6,0,0,0,2,1,0,5,2,2,0,2,18,5,0,17,0,2,5,0,0,36838982.29,58752376.39,2429149.798,1,3,1,7,405
17861.863999999998,3074527,5.6308,4-Jun-75,Jolie Angelina,41,167.5,18,0,12,8,19,18,0,12,61,25,0,0,15,6,0,0,0,8,0,0,8,0,7,7,4,14,4,0,41,1,3,19,4,1,83377458.15,65112775.77,12396482.07,1,1,3,3,415
2322.618677,3665711,7.237354086,24-Apr-42,Streisand Barbra,74,162.5,0,0,1,0,15,28,0,1,81,15,0,0,9,1,0,0,0,7,0,0,50,13,0,0,7,17,0,0,17,3,1,1,1,0,131346014.7,41239787.57,13364145.63,1,1,2,7,420
1330.3149349999999,3693619,6.80487013,27-Feb-32,Taylor Elizabeth,84,155.0,2,0,7,0,37,35,0,1,141,61,0,0,28,7,1,1,0,15,2,0,24,7,10,2,7,27,0,0,25,2,1,13,4,4,54428135.06,30748287.21,3622112.2830000003,2,3,1,3,425
26009.51515,3331586,6.649494949,3-Dec-60,Moore Julianne,56,157.5,10,0,6,1,6,29,0,7,39,46,0,0,6,3,0,0,0,1,6,0,6,1,12,0,3,16,10,0,24,0,2,17,0,0,15803406.86,38167583.21,2820151.434,1,4,1,7,435
315.47382200000004,3823701,6.513874346000001,5-Jan-17,Wyman Jane,99,162.5,5,0,7,0,7,60,0,7,20,36,0,0,8,2,2,0,0,1,0,0,9,23,5,1,6,37,1,0,16,6,2,4,0,5,0.0,13968303.86,0.0,1,3,3,1,435
1913.21875,3813241,6.5991071429999995,18-Aug-20,Winters Shelley,96,160.0,8,0,7,3,8,47,0,22,26,75,0,0,13,6,13,0,0,3,10,0,6,11,6,0,5,24,3,0,7,1,2,22,4,7,0.0,14075622.44,0.0,2,2,1,5,435
41770.99248,3172387,7.030075188,15-Aug-90,Lawrence Jennifer,26,167.5,8,0,11,0,6,5,0,1,21,19,0,0,1,0,0,0,0,1,1,0,1,0,2,1,2,5,11,0,19,0,5,9,1,0,193549104.4,89414462.65,6969395.251,1,3,3,1,435
3173.648148,3307268,7.201851852000001,1-Dec-45,Midler Bette,71,152.5,1,0,1,3,11,49,0,4,54,13,0,0,15,4,0,0,0,3,0,0,51,7,1,0,6,7,1,0,10,0,2,2,1,0,43021733.75,49851191.02,2229599.615,0,2,4,4,440
2665.125,3547887,6.684375,4-Jun-07,Russell Rosalind,109,170.0,1,0,5,0,5,36,0,2,23,29,0,0,6,0,0,0,0,2,0,0,0,7,5,0,5,19,0,0,15,0,0,3,2,0,100517086.2,15354216.64,0.0,0,4,4,1,440
11745.51037,2653071,7.058921162000001,7-Dec-32,Burstyn Ellen,84,167.5,3,0,2,2,10,20,0,8,36,83,0,0,18,6,0,0,0,5,2,0,6,0,5,0,5,17,2,0,9,5,1,10,3,0,50523524.52,26451085.78,48681.541580000005,1,5,1,6,445
5008.590551,3002221,7.037795276000001,4-May-29,Hepburn Audrey,87,167.5,0,0,3,0,16,24,0,6,62,17,0,0,13,1,0,0,0,4,1,0,9,5,2,0,0,23,0,0,8,0,2,3,1,1,85033140.05,23287774.55,2839843.297,1,4,1,8,455
1978.0958899999998,2698961,6.935616437999999,20-May-46,Cher,70,170.0,0,0,1,2,9,27,0,3,57,10,0,0,12,3,0,0,0,2,2,0,73,9,1,1,6,4,0,0,6,2,3,2,1,4,63034128.05,27647637.94,2526630.1040000003,1,3,3,3,475
546.0129870000001,3052364,7.325974026,9-May-36,Jackson Glenda,80,165.0,1,0,2,1,10,23,0,0,20,36,0,0,3,1,0,0,0,5,0,0,3,1,1,1,0,7,1,0,4,1,2,1,1,0,2022595.852,5843187.686000001,1603049.0480000002,2,2,1,7,475
21458.024540000002,3102605,6.895092025,5-Jan-46,Keaton Diane,70,165.0,0,0,2,1,10,38,0,6,24,34,0,0,10,0,0,0,0,2,0,0,4,0,1,0,2,21,1,0,3,3,1,3,1,0,22932275.48,39271049.13,2525061.027,1,3,2,7,480
8990.967742,2557924,6.740322581,17-Sep-31,Bancroft Anne,85,165.0,4,0,5,2,7,27,0,10,17,43,0,0,9,2,6,1,0,8,0,0,3,3,5,1,8,20,0,0,1,1,1,10,6,5,25322302.87,35945140.08,4494.382022,1,4,2,6,490
11641.85619,3114226,6.385284281000001,20-Jun-67,Kidman Nicole,49,177.5,5,0,5,3,12,17,0,10,81,47,0,0,18,5,0,0,0,3,1,0,25,3,8,3,4,22,3,0,31,1,6,21,3,2,41713047.71,53959999.3,9151655.549,1,2,3,6,505
3674.9477810000003,3035109,6.943603133,15-Jun-63,Hunt Helen,53,167.5,9,0,4,5,7,21,0,7,22,34,0,0,14,3,0,1,0,4,3,0,3,1,0,1,3,13,5,0,11,4,0,7,0,2,93553984.15,27785375.77,1710620.1,1,1,4,4,510
14825.2437,2881870,6.836554622,19-Nov-62,Foster Jodie,54,157.5,3,0,6,2,9,23,0,8,68,36,0,0,17,2,0,0,0,5,1,0,7,2,7,1,6,9,2,0,16,2,4,12,2,1,69197635.78,45185942.5,13381308.91,2,2,2,5,510
7106.657321,2715506,6.975077882000001,19-Mar-47,Close Glenn,69,162.5,6,0,8,5,16,33,0,2,66,42,0,0,29,3,0,0,0,5,2,0,18,4,5,7,2,13,5,0,19,5,1,6,5,1,33937253.53,50867620.46,6480856.132999999,0,6,2,9,510
15762.42925,3519748,6.366509434,28-Oct-67,Roberts Julia,49,170.0,3,0,4,1,11,32,0,8,42,28,0,0,16,4,0,0,0,3,2,0,14,1,4,3,3,20,1,0,11,0,1,12,2,0,112995360.5,50236500.67,11340531.99,1,3,3,5,515
8280.596413,2521602,7.420179372000001,1-Oct-35,Andrews Julie,81,167.5,1,0,5,11,16,49,0,2,71,17,0,0,43,12,0,0,0,2,0,0,46,17,1,1,8,18,1,0,17,0,1,2,2,0,80419193.12,69792872.09,4910132.606000001,1,2,3,7,525
2631.819892,2764915,8.343817204,5-Apr-08,Davis Bette,108,157.5,1,0,2,0,21,35,0,21,83,92,0,0,11,2,8,0,0,17,7,0,8,2,12,1,8,38,1,0,34,1,1,20,4,0,13891365.03,12631738.79,895639.44,2,9,0,3,530
4858.908654,2818124,6.492307692000001,14-Jan-41,Dunaway Faye,75,167.5,8,0,8,0,9,16,0,11,38,64,0,0,12,4,0,0,0,5,2,0,9,1,12,1,7,19,4,0,10,1,1,27,4,3,25460394.07,22254898.05,1389079.253,1,2,3,8,545
2446.1869920000004,3819825,7.154471545,27-Feb-30,Woodward Joanne,86,160.0,2,0,0,1,9,10,0,3,31,36,0,0,8,0,1,1,0,7,0,0,9,0,6,1,2,15,0,0,4,3,1,3,0,2,1892754.93,13482740.38,0.0,1,3,3,7,555
8723.338028,3642643,7.15915493,25-Dec-49,Spacek Sissy,67,157.5,1,0,1,0,5,14,0,6,31,38,0,0,13,5,0,0,0,3,5,0,4,3,5,1,1,8,4,0,3,0,0,6,1,1,14360812.03,22190393.96,0.0,1,5,3,4,555
7647.2668459999995,2866351,7.350404312999999,6-Nov-46,Field Sally,70,155.0,6,0,7,1,11,32,0,2,43,30,0,0,12,4,0,0,0,2,1,0,10,2,1,1,9,11,2,0,8,0,1,4,2,3,31827580.64,48875778.79,1734339.7959999999,2,1,2,9,560
467.8116197,2651772,8.261091549,26-Apr-33,Burnett Carol,83,165.0,1,0,2,8,18,76,0,0,70,21,0,0,30,2,0,1,0,6,0,0,36,15,0,0,34,7,0,0,8,1,4,0,1,0,3900466.999,26259696.63,0.0,0,0,5,11,595
1534.48,3413053,7.0933333329999995,22-Nov-24,Page Geraldine,92,170.0,1,0,1,1,1,10,0,2,8,33,0,0,6,2,0,0,0,1,1,0,0,1,1,0,2,11,2,0,1,1,0,4,1,2,15806583.94,15750927.99,0.0,1,7,2,7,600
13386.512659999999,2785879,7.325949367000001,9-Dec-34,Dench Judi,82,152.5,19,0,20,7,8,22,0,4,72,41,0,0,15,4,0,0,0,2,0,0,9,4,4,0,1,11,2,0,39,1,3,16,3,1,20144469.03,80144438.93,0.0,1,6,2,9,610
7389.621711,3317421,6.9700657889999995,26-Jul-45,Mirren Helen,71,160.0,4,0,9,3,21,34,0,20,61,76,0,0,14,10,0,1,0,9,2,0,6,2,14,6,1,17,2,0,24,2,6,24,2,0,24817789.8,44963694.64,0.0,1,3,3,10,615
4969.54,3497101,8.082857143,30-Jan-37,Redgrave Vanessa,79,180.5,4,0,8,2,18,8,0,5,34,84,0,0,13,4,0,0,0,14,3,0,7,2,10,0,0,23,1,0,14,3,1,13,5,0,1887431.979,30830354.58,525118.3555,1,5,2,11,620
20485.609630000003,3631098,7.549197861000001,28-Dec-34,Smith Maggie,82,162.5,1,0,6,1,6,31,0,7,48,34,0,0,12,8,0,1,0,1,0,0,2,2,6,0,1,14,0,0,32,0,0,3,3,0,23999910.96,34461504.44,0.0,2,4,2,8,630
22795.774569999998,3812565,6.73699422,5-Oct-75,Winslet Kate,41,165.0,2,0,6,7,12,9,0,5,47,31,0,0,14,3,0,0,0,3,0,0,3,2,1,5,0,16,2,0,27,0,0,6,1,0,23336941.07,41774810.24,2990654.2060000002,1,6,3,7,645
2847.2333329999997,2524682,6.707222222,28-Apr-41,Ann-Margret,75,157.5,6,0,5,0,9,63,0,11,44,38,0,0,13,2,0,0,0,5,2,0,36,9,2,1,10,12,1,0,11,1,2,9,2,3,3091527.607,13415941.2,801975.3893,1,3,5,5,665
49946.34444,2605353,6.879444444,14-May-69,Blanchett Cate,47,170.0,12,0,14,3,10,12,0,9,66,42,0,0,11,15,0,0,0,10,2,0,4,1,4,4,0,14,1,0,37,0,3,10,4,1,35641151.93,62285750.76,4195175.249,2,5,3,6,695
1615.9102990000001,3164453,7.48089701,16-Oct-25,Lansbury Angela,91,170.0,2,0,9,10,14,27,0,15,71,49,0,0,38,9,3,1,0,5,3,0,29,21,14,0,42,13,0,0,20,1,1,8,2,2,55173914.86,26331406.24,692974.0135,0,3,6,9,720
7569.443609,2589066,7.047368421,29-Aug-15,Bergman Ingrid,101,172.5,0,0,1,0,15,17,0,3,46,48,0,0,7,1,3,0,0,10,2,0,3,2,3,1,1,25,1,0,10,0,1,5,7,1,53637621.02,17874048.61,1562206.935,3,4,3,5,745
6926.149425,3163287,7.372988506,20-Apr-49,Lange Jessica,67,170.0,2,0,5,0,9,9,0,7,31,36,0,0,5,5,0,0,0,4,2,0,5,3,1,1,3,8,0,0,4,1,0,7,2,0,10672473.67,27799055.23,2362204.724,2,4,4,7,760
2457.0259739999997,3002240,7.009090909,12-May-07,Hepburn Katharine,109,167.5,0,0,3,0,17,29,0,0,58,41,0,0,9,0,1,0,0,9,0,0,8,2,2,0,2,29,0,0,11,2,0,2,3,3,296668431.9,19827377.69,1735689.699,4,8,0,8,800
1936.883041,2877563,7.013450292000001,21-Dec-37,Fonda Jane,79,170.0,2,0,4,0,17,30,0,5,97,37,0,0,16,3,0,1,0,9,1,0,20,1,6,0,21,19,4,0,14,7,3,8,4,3,90190631.16,16658618.44,3330461.758,2,5,4,8,810
4247.515385,3232396,6.958076922999999,24-Apr-34,MacLaine Shirley,82,167.5,2,0,3,0,21,61,0,4,82,43,0,0,12,4,0,0,0,6,1,0,31,12,0,2,14,30,0,0,9,0,4,3,1,2,42627361.25,31535455.69,2451406.3430000003,1,4,4,15,820
9676.969697,3665525,6.967878787999999,22-Jun-49,Streep Meryl,67,165.0,2,0,4,10,23,22,0,5,122,49,0,0,25,5,0,0,0,15,1,0,14,8,3,3,3,16,1,0,66,1,1,5,4,0,52578475.81,32022998.33,4403975.693,3,16,8,21,1800
