votes,id,rating,dob,name,age,heightcm,Action,Adult,Adventure,Animation,Biography,Comedy,Commercial,Crime,Documentary,Drama,Erotica,Experimental,Family,Fantasy,Film-Noir,Game-Show,Hardcore,History,Horror,Lifestyle,Music,Musical,Mystery,News,Reality-TV,Romance,Sci-Fi,Sex,Short,Sport,Talk-Show,Thriller,War,Western,gross,budget,salary,academy awards won,academy awards nominated,golden globes won,golden globes nominated,totalawards
9676.969697,3665525,6.967878787999999,22-Jun-49,Streep Meryl,67,165.0,2,0,4,10,23,22,0,5,122,49,0,0,25,5,0,0,0,15,1,0,14,8,3,3,3,16,1,0,66,1,1,5,4,0,52578475.81,32022998.33,4403975.693,3,16,8,21,1800
4247.515385,3232396,6.958076922999999,24-Apr-34,MacLaine Shirley,82,167.5,2,0,3,0,21,61,0,4,82,43,0,0,12,4,0,0,0,6,1,0,31,12,0,2,14,30,0,0,9,0,4,3,1,2,42627361.25,31535455.69,2451406.3430000003,1,4,4,15,820
1936.883041,2877563,7.013450292000001,21-Dec-37,Fonda Jane,79,170.0,2,0,4,0,17,30,0,5,97,37,0,0,16,3,0,1,0,9,1,0,20,1,6,0,21,19,4,0,14,7,3,8,4,3,90190631.16,16658618.44,3330461.758,2,5,4,8,810
2457.0259739999997,3002240,7.009090909,12-May-07,Hepburn Katharine,109,167.5,0,0,3,0,17,29,0,0,58,41,0,0,9,0,1,0,0,9,0,0,8,2,2,0,2,29,0,0,11,2,0,2,3,3,296668431.9,19827377.69,1735689.699,4,8,0,8,800
6926.149425,3163287,7.372988506,20-Apr-49,Lange Jessica,67,170.0,2,0,5,0,9,9,0,7,31,36,0,0,5,5,0,0,0,4,2,0,5,3,1,1,3,8,0,0,4,1,0,7,2,0,10672473.67,27799055.23,2362204.724,2,4,4,7,760
7569.443609,2589066,7.047368421,29-Aug-15,Bergman Ingrid,101,172.5,0,0,1,0,15,17,0,3,46,48,0,0,7,1,3,0,0,10,2,0,3,2,3,1,1,25,1,0,10,0,1,5,7,1,53637621.02,17874048.61,1562206.935,3,4,3,5,745
1615.9102990000001,3164453,7.48089701,16-Oct-25,Lansbury Angela,91,170.0,2,0,9,10,14,27,0,15,71,49,0,0,38,9,3,1,0,5,3,0,29,21,14,0,42,13,0,0,20,1,1,8,2,2,55173914.86,26331406.24,692974.0135,0,3,6,9,720
49946.34444,2605353,6.879444444,14-May-69,Blanchett Cate,47,170.0,12,0,14,3,10,12,0,9,66,42,0,0,11,15,0,0,0,10,2,0,4,1,4,4,0,14,1,0,37,0,3,10,4,1,35641151.93,62285750.76,4195175.249,2,5,3,6,695
2847.2333329999997,2524682,6.707222222,28-Apr-41,Ann-Margret,75,157.5,6,0,5,0,9,63,0,11,44,38,0,0,13,2,0,0,0,5,2,0,36,9,2,1,10,12,1,0,11,1,2,9,2,3,3091527.607,13415941.2,801975.3893,1,3,5,5,665
22795.774569999998,3812565,6.73699422,5-Oct-75,Winslet Kate,41,165.0,2,0,6,7,12,9,0,5,47,31,0,0,14,3,0,0,0,3,0,0,3,2,1,5,0,16,2,0,27,0,0,6,1,0,23336941.07,41774810.24,2990654.2060000002,1,6,3,7,645
20485.609630000003,3631098,7.549197861000001,28-Dec-34,Smith Maggie,82,162.5,1,0,6,1,6,31,0,7,48,34,0,0,12,8,0,1,0,1,0,0,2,2,6,0,1,14,0,0,32,0,0,3,3,0,23999910.96,34461504.44,0.0,2,4,2,8,630
4969.54,3497101,8.082857143,30-Jan-37,Redgrave Vanessa,79,180.5,4,0,8,2,18,8,0,5,34,84,0,0,13,4,0,0,0,14,3,0,7,2,10,0,0,23,1,0,14,3,1,13,5,0,1887431.979,30830354.58,525118.3555,1,5,2,11,620
7389.621711,3317421,6.9700657889999995,26-Jul-45,Mirren Helen,71,160.0,4,0,9,3,21,34,0,20,61,76,0,0,14,10,0,1,0,9,2,0,6,2,14,6,1,17,2,0,24,2,6,24,2,0,24817789.8,44963694.64,0.0,1,3,3,10,615
13386.512659999999,2785879,7.325949367000001,9-Dec-34,Dench Judi,82,152.5,19,0,20,7,8,22,0,4,72,41,0,0,15,4,0,0,0,2,0,0,9,4,4,0,1,11,2,0,39,1,3,16,3,1,20144469.03,80144438.93,0.0,1,6,2,9,610
1534.48,3413053,7.0933333329999995,22-Nov-24,Page Geraldine,92,170.0,1,0,1,1,1,10,0,2,8,33,0,0,6,2,0,0,0,1,1,0,0,1,1,0,2,11,2,0,1,1,0,4,1,2,15806583.94,15750927.99,0.0,1,7,2,7,600
467.8116197,2651772,8.261091549,26-Apr-33,Burnett Carol,83,165.0,1,0,2,8,18,76,0,0,70,21,0,0,30,2,0,1,0,6,0,0,36,15,0,0,34,7,0,0,8,1,4,0,1,0,3900466.999,26259696.63,0.0,0,0,5,11,595
7647.2668459999995,2866351,7.350404312999999,6-Nov-46,Field Sally,70,155.0,6,0,7,1,11,32,0,2,43,30,0,0,12,4,0,0,0,2,1,0,10,2,1,1,9,11,2,0,8,0,1,4,2,3,31827580.64,48875778.79,1734339.7959999999,2,1,2,9,560
8723.338028,3642643,7.15915493,25-Dec-49,Spacek Sissy,67,157.5,1,0,1,0,5,14,0,6,31,38,0,0,13,5,0,0,0,3,5,0,4,3,5,1,1,8,4,0,3,0,0,6,1,1,14360812.03,22190393.96,0.0,1,5,3,4,555
2446.1869920000004,3819825,7.154471545,27-Feb-30,Woodward Joanne,86,160.0,2,0,0,1,9,10,0,3,31,36,0,0,8,0,1,1,0,7,0,0,9,0,6,1,2,15,0,0,4,3,1,3,0,2,1892754.93,13482740.38,0.0,1,3,3,7,555
4858.908654,2818124,6.492307692000001,14-Jan-41,Dunaway Faye,75,167.5,8,0,8,0,9,16,0,11,38,64,0,0,12,4,0,0,0,5,2,0,9,1,12,1,7,19,4,0,10,1,1,27,4,3,25460394.07,22254898.05,1389079.253,1,2,3,8,545
2631.819892,2764915,8.343817204,5-Apr-08,Davis Bette,108,157.5,1,0,2,0,21,35,0,21,83,92,0,0,11,2,8,0,0,17,7,0,8,2,12,1,8,38,1,0,34,1,1,20,4,0,13891365.03,12631738.79,895639.44,2,9,0,3,530
8280.596413,2521602,7.420179372000001,1-Oct-35,Andrews Julie,81,167.5,1,0,5,11,16,49,0,2,71,17,0,0,43,12,0,0,0,2,0,0,46,17,1,1,8,18,1,0,17,0,1,2,2,0,80419193.12,69792872.09,4910132.606000001,1,2,3,7,525
15762.42925,3519748,6.366509434,28-Oct-67,Roberts Julia,49,170.0,3,0,4,1,11,32,0,8,42,28,0,0,16,4,0,0,0,3,2,0,14,1,4,3,3,20,1,0,11,0,1,12,2,0,112995360.5,50236500.67,11340531.99,1,3,3,5,515
7106.657321,2715506,6.975077882000001,19-Mar-47,Close Glenn,69,162.5,6,0,8,5,16,33,0,2,66,42,0,0,29,3,0,0,0,5,2,0,18,4,5,7,2,13,5,0,19,5,1,6,5,1,33937253.53,50867620.46,6480856.132999999,0,6,2,9,510
14825.2437,2881870,6.836554622,19-Nov-62,Foster Jodie,54,157.5,3,0,6,2,9,23,0,8,68,36,0,0,17,2,0,0,0,5,1,0,7,2,7,1,6,9,2,0,16,2,4,12,2,1,69197635.78,45185942.5,13381308.91,2,2,2,5,510
3674.9477810000003,3035109,6.943603133,15-Jun-63,Hunt Helen,53,167.5,9,0,4,5,7,21,0,7,22,34,0,0,14,3,0,1,0,4,3,0,3,1,0,1,3,13,5,0,11,4,0,7,0,2,93553984.15,27785375.77,1710620.1,1,1,4,4,510
11641.85619,3114226,6.385284281000001,20-Jun-67,Kidman Nicole,49,177.5,5,0,5,3,12,17,0,10,81,47,0,0,18,5,0,0,0,3,1,0,25,3,8,3,4,22,3,0,31,1,6,21,3,2,41713047.71,53959999.3,9151655.549,1,2,3,6,505
8990.967742,2557924,6.740322581,17-Sep-31,Bancroft Anne,85,165.0,4,0,5,2,7,27,0,10,17,43,0,0,9,2,6,1,0,8,0,0,3,3,5,1,8,20,0,0,1,1,1,10,6,5,25322302.87,35945140.08,4494.382022,1,4,2,6,490
21458.024540000002,3102605,6.895092025,5-Jan-46,Keaton Diane,70,165.0,0,0,2,1,10,38,0,6,24,34,0,0,10,0,0,0,0,2,0,0,4,0,1,0,2,21,1,0,3,3,1,3,1,0,22932275.48,39271049.13,2525061.027,1,3,2,7,480
1978.0958899999998,2698961,6.935616437999999,20-May-46,Cher,70,170.0,0,0,1,2,9,27,0,3,57,10,0,0,12,3,0,0,0,2,2,0,73,9,1,1,6,4,0,0,6,2,3,2,1,4,63034128.05,27647637.94,2526630.1040000003,1,3,3,3,475
546.0129870000001,3052364,7.325974026,9-May-36,Jackson Glenda,80,165.0,1,0,2,1,10,23,0,0,20,36,0,0,3,1,0,0,0,5,0,0,3,1,1,1,0,7,1,0,4,1,2,1,1,0,2022595.852,5843187.686000001,1603049.0480000002,2,2,1,7,475
5008.590551,3002221,7.037795276000001,4-May-29,Hepburn Audrey,87,167.5,0,0,3,0,16,24,0,6,62,17,0,0,13,1,0,0,0,4,1,0,9,5,2,0,0,23,0,0,8,0,2,3,1,1,85033140.05,23287774.55,2839843.297,1,4,1,8,455
11745.51037,2653071,7.058921162000001,7-Dec-32,Burstyn Ellen,84,167.5,3,0,2,2,10,20,0,8,36,83,0,0,18,6,0,0,0,5,2,0,6,0,5,0,5,17,2,0,9,5,1,10,3,0,50523524.52,26451085.78,48681.541580000005,1,5,1,6,445
3173.648148,3307268,7.201851852000001,1-Dec-45,Midler Bette,71,152.5,1,0,1,3,11,49,0,4,54,13,0,0,15,4,0,0,0,3,0,0,51,7,1,0,6,7,1,0,10,0,2,2,1,0,43021733.75,49851191.02,2229599.615,0,2,4,4,440
2665.125,3547887,6.684375,4-Jun-07,Russell Rosalind,109,170.0,1,0,5,0,5,36,0,2,23,29,0,0,6,0,0,0,0,2,0,0,0,7,5,0,5,19,0,0,15,0,0,3,2,0,100517086.2,15354216.64,0.0,0,4,4,1,440
41770.99248,3172387,7.030075188,15-Aug-90,Lawrence Jennifer,26,167.5,8,0,11,0,6,5,0,1,21,19,0,0,1,0,0,0,0,1,1,0,1,0,2,1,2,5,11,0,19,0,5,9,1,0,193549104.4,89414462.65,6969395.251,1,3,3,1,435
26009.51515,3331586,6.649494949,3-Dec-60,Moore Julianne,56,157.5,10,0,6,1,6,29,0,7,39,46,0,0,6,3,0,0,0,1,6,0,6,1,12,0,3,16,10,0,24,0,2,17,0,0,15803406.86,38167583.21,2820151.434,1,4,1,7,435
1913.21875,3813241,6.5991071429999995,18-Aug-20,Winters Shelley,96,160.0,8,0,7,3,8,47,0,22,26,75,0,0,13,6,13,0,0,3,10,0,6,11,6,0,5,24,3,0,7,1,2,22,4,7,0.0,14075622.44,0.0,2,2,1,5,435
315.47382200000004,3823701,6.513874346000001,5-Jan-17,Wyman Jane,99,162.5,5,0,7,0,7,60,0,7,20,36,0,0,8,2,2,0,0,1,0,0,9,23,5,1,6,37,1,0,16,6,2,4,0,5,0.0,13968303.86,0.0,1,3,3,1,435
1330.3149349999999,3693619,6.80487013,27-Feb-32,Taylor Elizabeth,84,155.0,2,0,7,0,37,35,0,1,141,61,0,0,28,7,1,1,0,15,2,0,24,7,10,2,7,27,0,0,25,2,1,13,4,4,54428135.06,30748287.21,3622112.2830000003,2,3,1,3,425
2322.618677,3665711,7.237354086,24-Apr-42,Streisand Barbra,74,162.5,0,0,1,0,15,28,0,1,81,15,0,0,9,1,0,0,0,7,0,0,50,13,0,0,7,17,0,0,17,3,1,1,1,0,131346014.7,41239787.57,13364145.63,1,1,2,7,420
17861.863999999998,3074527,5.6308,4-Jun-75,Jolie Angelina,41,167.5,18,0,12,8,19,18,0,12,61,25,0,0,15,6,0,0,0,8,0,0,8,0,7,7,4,14,4,0,41,1,3,19,4,1,83377458.15,65112775.77,12396482.07,1,1,3,3,415
23422.55,3705358,7.0372222220000005,15-Apr-59,Thompson Emma,57,170.0,1,0,3,1,6,30,0,4,32,27,0,0,8,6,0,0,0,2,1,0,5,2,2,0,2,18,5,0,17,0,2,5,0,0,36838982.29,58752376.39,2429149.798,1,3,1,7,405
11902.5256,2570596,7.083617747000001,28-Jun-48,Bates Kathy,68,157.5,2,0,5,7,8,38,0,5,30,59,0,0,15,6,0,0,0,1,1,0,2,4,6,1,1,23,1,0,14,2,1,8,0,1,60726956.59,46822455.4,0.0,1,2,2,4,390
11059.10811,3035704,7.564864865,20-Mar-58,Hunter Holly,58,155.0,3,0,5,4,4,20,0,7,27,30,0,0,6,2,0,0,0,1,1,0,5,0,2,1,3,15,1,0,4,1,0,4,1,0,23850078.67,38010452.9,0.0,1,3,1,6,385
26959.00671,2491973,6.951006711000001,20-Aug-74,Adams Amy,42,160.0,5,0,9,2,5,21,0,3,13,24,0,0,6,6,0,0,0,3,0,0,2,3,2,2,3,15,6,0,19,4,1,5,0,0,37971926.0,51252427.88,0.0,0,5,2,4,380
1327.381757,2588314,7.065033784,9-May-46,Bergen Candice,70,167.5,6,0,5,1,6,48,0,5,61,27,0,0,12,2,0,0,0,2,0,0,14,2,2,2,29,14,1,0,11,0,1,6,1,3,0.0,29395094.07,0.0,0,1,2,10,380
3290.977667,3423166,6.993796526000001,25-Mar-65,Parker Sarah Jessica,51,157.5,2,0,2,3,7,34,0,4,51,23,0,0,21,3,0,0,0,2,0,0,17,0,3,3,5,17,3,0,14,4,0,7,0,0,50117391.91,41509227.03,5775320.469,0,0,4,4,380
8694.872062999999,3569394,6.727154047000001,4-Oct-46,Sarandon Susan,70,167.5,4,0,6,9,16,46,0,11,110,70,0,0,22,6,0,0,0,7,4,0,19,5,8,4,4,27,4,0,24,5,2,17,6,0,46763840.05,22573619.36,8029964.995,1,4,0,8,380
10506.25,3037411,7.0229166670000005,8-Jul-51,Huston Anjelica,65,175.0,4,0,6,7,4,27,0,6,39,31,0,0,17,7,0,0,0,3,3,0,6,1,3,2,13,14,2,0,12,1,1,4,2,4,50346519.37,26365709.74,1101916.164,1,2,1,7,375
14179.5,2584478,6.526666667000001,29-May-58,Bening Annette,58,170.0,3,0,0,0,5,19,0,2,20,28,0,0,15,2,0,0,0,0,1,0,6,1,1,2,4,14,2,0,6,0,1,4,2,1,8234255.478999999,38385032.12,4417177.914,0,4,2,5,370
790.5795455,2993327,6.639772727,30-Jun-17,Hayward Susan,99,157.5,7,0,9,0,10,10,0,6,10,46,0,0,4,1,7,0,0,3,0,0,3,3,2,0,0,26,0,0,9,2,1,4,8,7,0.0,29048164.73,0.0,1,4,2,0,370
11719.55921,3677186,6.371710526,30-Jul-74,Swank Hilary,42,165.0,2,0,1,1,5,9,0,5,23,26,0,0,6,2,0,0,0,5,4,0,10,0,3,9,4,6,1,0,11,3,0,4,0,1,24811531.06,25454763.7,2034910.7230000002,2,0,2,1,370
2219.530516,2991391,7.082159624,21-Nov-45,Hawn Goldie,71,165.0,2,0,0,0,6,44,0,3,41,9,0,0,15,1,0,0,0,2,1,0,12,2,1,0,7,11,0,0,2,5,0,2,2,2,63156675.8,28952405.46,3882319.6489999997,1,1,1,8,365
9060.649425,3801444,7.300574713,28-Mar-48,Wiest Dianne,68,162.5,2,0,1,0,4,16,0,4,6,31,0,0,6,2,0,0,0,1,1,0,2,1,1,0,0,9,1,0,1,1,0,2,0,1,319670.275,28958116.36,0.0,2,1,1,3,365
1215.2955470000002,3315809,7.348987854,12-Mar-46,Minnelli Liza,70,160.0,1,0,2,2,9,26,0,1,100,15,0,0,28,3,0,0,0,5,0,0,74,31,1,0,8,8,0,0,12,3,6,2,0,0,130543964.1,16068398.48,0.0,1,1,2,4,360
1056.035714,2909701,7.025,29-Sep-04,Garson Greer,112,165.0,0,0,0,2,6,13,0,0,22,23,0,0,11,1,0,0,0,3,0,0,5,6,0,0,1,16,0,0,10,0,0,0,4,1,110132727.1,18743863.93,0.0,1,6,1,0,355
197.69573640000002,3331992,7.565116279,29-Dec-36,Moore Mary Tyler,80,167.5,0,0,1,2,17,36,0,4,39,24,0,0,15,4,0,0,0,5,0,0,8,4,0,0,14,5,0,0,1,0,0,3,0,1,13887442.34,9447061.141,0.0,0,0,3,6,345
2320.553191,3651171,6.909574468,21-Jun-25,Stapleton Maureen,91,157.5,2,0,1,3,4,22,0,1,18,30,0,0,11,3,0,2,0,4,1,0,9,4,1,0,3,12,4,0,6,0,0,4,0,0,0.0,32212066.54,0.0,1,3,1,4,345
2555.251852,3818416,6.96962963,20-Jul-38,Wood Natalie,78,150.0,3,0,2,0,9,24,0,4,38,41,0,0,11,1,1,0,0,2,0,0,5,5,3,1,5,27,2,0,5,3,1,4,4,8,103938032.8,18858300.95,1952193.621,0,3,2,5,340
17396.53125,3814313,6.498958332999999,22-Mar-76,Witherspoon Reese,40,156.0,6,0,7,6,7,31,0,6,24,29,0,0,19,7,0,0,0,2,0,0,12,2,1,0,4,17,7,0,17,0,4,6,0,0,89807107.46,48934268.86,11487040.11,2,0,1,3,335
7730.02521,3541401,7.052941176,19-Jun-30,Rowlands Gena,86,165.0,0,0,2,1,6,15,0,5,17,48,0,0,6,1,0,0,0,3,1,0,2,1,4,0,3,14,1,0,3,0,0,3,2,2,7570241.842,22482326.01,88343.55828,0,2,2,6,330
28100.857760000003,3786956,7.080172414,8-Oct-49,Weaver Sigourney,67,177.5,17,0,12,6,7,27,0,10,84,32,0,0,12,9,0,0,0,5,7,0,12,2,8,3,2,12,19,0,32,0,1,11,1,0,40232498.97,45313712.78,4018374.298,0,3,2,4,320
2100.45098,3076385,6.835294117999999,2-Mar-19,Jones Jennifer,97,165.0,3,0,2,0,7,4,0,3,10,24,0,0,4,1,0,0,0,2,0,0,1,1,3,0,0,17,0,0,4,0,0,1,4,2,117744239.5,27932220.78,0.0,1,4,1,1,315
7114.50495,3110261,6.923762376,30-Sep-21,Kerr Deborah,95,165.0,3,0,5,0,8,13,0,2,28,43,0,0,4,0,0,0,0,5,2,0,1,2,4,0,2,25,0,0,9,0,0,3,10,0,72688863.78,25009521.33,1935483.871,0,6,1,3,315
1830.7802199999999,3266786,6.984615385,3-Apr-42,Mason Marsha,74,162.0,3,0,1,0,1,13,0,3,14,26,0,0,1,3,0,0,0,0,1,0,1,1,0,0,2,7,0,0,4,0,1,4,1,0,55257394.28,21399321.13,0.0,0,4,2,2,310
11960.708990000001,3510784,7.068783069,3-Mar-58,Richardson Miranda,58,162.5,4,0,7,4,7,28,0,9,29,44,0,0,16,11,0,0,0,8,7,0,4,2,7,0,0,13,3,0,19,0,0,12,3,0,7469023.376,42224097.89,0.0,0,2,2,5,310
15831.83673,2705913,6.971428571000001,14-Apr-41,Christie Julie,75,157.5,0,0,1,1,7,8,0,2,28,31,0,0,3,4,0,0,0,2,4,0,2,0,3,0,0,15,4,0,13,2,0,3,1,1,108245.2555,21442065.91,1712593.8769999999,1,3,1,2,305
4002.579019,2931694,6.627111717000001,13-Nov-55,Goldberg Whoopi,61,162.5,9,0,17,24,20,117,0,8,145,44,0,0,66,16,0,0,0,10,1,0,62,11,2,0,12,15,8,0,26,6,8,8,1,0,46187225.19,21876819.57,11324959.81,1,1,2,1,300
4461.887097,2938665,6.9193548389999995,30 October 1896,Gordon Ruth,120,150.0,3,0,1,0,5,20,0,3,9,17,0,0,3,1,0,2,0,2,4,0,2,1,4,0,1,5,1,0,3,0,0,1,2,0,0.0,15055902.19,0.0,1,1,2,1,300
580.7769231000001,3156898,7.274230769,4-Apr-50,Lahti Christine,66,175.0,0,0,1,0,3,16,0,4,12,50,0,0,11,4,0,0,0,1,2,0,2,1,0,1,8,15,1,0,3,1,0,6,1,0,3974706.34,12540286.97,0.0,0,1,2,6,300
13743.76522,3201649,7.264347826,5-Feb-64,Linney Laura,52,167.5,4,0,4,2,6,19,0,7,26,36,0,0,3,2,0,0,0,2,1,0,5,0,7,2,1,6,5,0,15,0,0,10,0,0,46328669.98,50706917.39,13937.28223,0,3,2,3,300
53533.66242,3464657,6.736305732000001,9-Jun-81,Portman Natalie,35,157.5,9,0,9,0,11,14,0,1,41,31,0,0,3,10,0,0,0,4,0,0,7,0,3,0,1,11,10,0,31,1,1,8,6,1,47386746.4,48417014.27,1000000.0,1,1,2,1,300
6665.405941,2765722,6.76039604,23-Apr-55,Davis Judy,61,162.5,4,0,2,0,10,13,0,6,15,50,0,0,2,0,0,0,0,3,0,0,3,1,5,0,0,13,0,0,18,1,0,7,0,0,17058217.38,32465045.13,0.0,0,2,2,4,290
3954.6390979999996,2771091,7.137593985,1-Jul-16,de Havilland Olivia,100,160.0,5,0,9,0,8,23,0,5,33,32,0,0,3,1,3,0,0,8,4,0,2,2,6,0,2,30,0,0,13,1,0,9,4,5,81583575.9,24151796.18,216214.4349,2,3,0,0,290
383.9948454,2817264,7.48685567,14-Dec-46,Duke Patty,70,150.0,2,0,3,1,11,20,0,4,19,65,0,0,13,3,0,3,0,5,9,0,7,3,1,0,5,9,2,0,8,2,1,11,2,2,0.0,11525802.05,0.0,1,0,2,2,290
1216.49848,2852557,7.742857142999999,5-Jul-63,Falco Edie,53,162.5,0,0,0,0,2,12,0,5,16,20,0,0,5,0,0,0,0,1,2,0,6,0,2,0,5,2,0,0,2,0,0,7,0,0,0.0,8092066.668,0.0,0,0,2,7,290
2539.240964,2944818,6.779518072,31-Oct-25,Grant Lee,91,162.0,2,0,1,0,6,18,0,8,28,48,0,0,2,0,2,0,0,2,5,0,2,0,4,0,1,10,3,0,3,0,0,9,2,1,0.0,23913612.2,0.0,1,3,0,5,290
786.7588423999999,3651157,7.79807074,19-Jan-23,Stapleton Jean,93,170.0,1,0,2,1,5,21,0,2,16,24,0,0,13,4,0,0,0,2,0,0,7,5,3,0,7,6,0,0,2,1,0,2,0,0,0.0,39770102.58,0.0,0,0,2,7,290
12662.46082,2648742,6.848275862,26-Jul-64,Bullock Sandra,52,167.5,11,0,9,2,8,29,0,14,33,28,0,0,15,4,0,1,0,1,1,0,10,1,6,3,7,16,3,0,21,1,4,12,1,0,117479045.5,47377079.02,11812675.67,1,1,1,4,285
1582.992908,3605358,7.257919622,18-Feb-50,Shepherd Cybill,66,170.0,4,0,2,0,2,23,0,5,22,28,0,0,7,1,0,0,0,0,0,0,8,1,6,0,1,10,2,0,6,0,3,6,0,0,31506948.39,10384766.49,85107.98688,0,0,3,3,285
7515.2125,3105845,6.69375,12-Nov-29,Kelly Grace,87,165.0,1,0,2,0,8,5,0,3,42,11,0,0,6,1,0,0,0,2,0,0,10,3,3,0,0,7,0,0,11,0,1,4,1,1,0.0,8734858.837000001,124907.0632,1,1,2,0,280
7137.354839,3278310,6.956451613,16-Mar-16,McCambridge Mercedes,100,157.5,0,0,0,0,0,1,0,4,9,21,0,0,1,0,4,0,0,0,2,0,1,0,2,1,1,4,1,0,4,0,0,4,1,5,0.0,21088486.68,0.0,1,1,2,0,280
27782.2963,3282777,6.887037037000001,23-Jun-57,McDormand Frances,59,162.5,4,0,6,3,3,17,0,11,16,31,0,0,6,3,0,0,0,5,0,0,3,0,5,0,1,5,4,0,6,0,0,8,2,1,16808319.85,52340476.39,0.0,1,3,0,4,270
1490.424731,3332678,7.451612902999999,6-Dec-00,Moorehead Agnes,116,160.0,4,0,7,1,8,14,0,4,10,45,0,0,8,5,5,1,0,3,4,0,5,9,9,0,1,30,2,0,4,1,0,8,6,6,0.0,27947373.89,0.0,0,4,2,0,270
1195.478261,3597922,7.141086957000001,15-Feb-51,Seymour Jane,65,160.0,9,0,6,5,6,34,0,5,61,56,0,0,22,8,0,1,0,6,4,0,12,5,5,1,11,19,2,0,18,3,2,16,4,1,150228.6645,11825493.04,0.0,0,0,2,6,270
5827.894179999999,2765446,6.740740741000001,21-Jan-56,Davis Geena,60,180.0,3,0,4,4,4,21,0,5,29,17,0,0,15,6,0,0,0,1,3,0,6,1,5,2,1,7,3,0,3,2,1,3,0,0,28106960.83,56466326.85,5192972.647,1,1,1,3,265
19584.22059,3446886,6.418382352999999,29-Apr-58,Pfeiffer Michelle,58,167.5,2,0,3,2,3,18,0,4,32,39,0,0,8,8,0,0,0,0,4,0,9,4,3,0,2,20,0,0,14,0,0,7,0,0,64562445.71,53726474.7,10250780.52,0,3,1,5,265
5084.8625,3688674,6.97375,7-Jun-09,Tandy Jessica,107,160.0,0,0,2,0,2,8,0,2,17,25,0,0,13,1,0,0,0,2,1,0,1,1,3,0,2,6,2,0,3,0,0,2,2,1,406466.3968,27470177.76,0.0,1,1,1,3,265
20100.69231,3701960,6.347692307999999,7-Aug-75,Theron Charlize,41,172.5,13,0,8,2,7,16,0,10,32,27,0,0,14,6,0,0,0,3,1,0,14,0,5,2,5,11,7,0,30,1,2,17,2,1,23661213.23,65288023.89,12288786.48,1,1,1,3,265
2107.417582,3502602,7.165934066,14-Dec-35,Remick Lee,81,167.5,5,0,1,0,8,12,0,8,13,43,0,0,3,1,0,0,0,1,3,0,2,2,5,0,3,5,1,0,0,1,0,12,0,2,0.0,12296434.07,0.0,0,1,2,4,260
2209.380952,3019376,6.971428571000001,21-Jun-21,Holliday Judy,95,170.0,0,0,0,0,0,16,0,0,3,5,0,0,0,0,0,0,0,0,0,0,2,4,0,0,2,7,0,0,1,0,0,0,1,0,12490706.32,10339862.11,1811320.755,1,0,1,4,255
23334.68485,3420208,7.36,24-Jul-82,Paquin Anna,34,160.0,9,0,11,3,1,8,0,2,19,23,0,0,7,6,0,0,0,3,3,0,3,0,2,0,0,7,9,0,13,0,0,9,2,1,12039138.55,65719000.8,306544.73,1,0,1,4,255
733.8184282000001,3651040,7.426558266,16-Jul-07,Stanwyck Barbara,109,162.5,2,0,4,0,6,22,0,14,36,66,0,0,2,1,12,0,0,5,4,0,5,1,10,0,2,50,0,0,12,1,0,13,2,12,24320448.18,7363140.51,873605.8077,0,4,1,3,255
11496.51795,2788042,6.987179487000001,10-Feb-67,Dern Laura,49,175.0,3,0,4,2,11,12,0,6,33,45,0,0,7,1,0,0,0,5,1,0,5,0,4,0,1,9,3,0,16,1,1,11,1,0,2660729.485,25057918.78,4460.966543,0,2,2,2,250
152.1674208,2928284,7.652941176000001,31-May-43,Gless Sharon,73,162.5,1,0,0,0,4,9,0,15,19,28,0,0,4,0,0,0,0,1,0,0,1,0,3,0,7,5,2,0,2,0,1,3,0,0,308089.3252,237114.8199,0.0,0,0,2,5,250
2435.785276,3497099,6.83006135,8-Mar-43,Redgrave Lynn,73,175.0,1,0,3,4,5,31,0,2,11,42,0,0,26,8,0,4,0,3,3,0,8,3,6,0,3,18,1,0,1,1,1,11,5,1,0.0,20361111.68,0.0,0,2,2,2,250
2340.1555559999997,3603584,6.392222222000001,10-Aug-02,Shearer Norma,114,152.5,0,0,1,0,6,24,0,1,30,49,0,0,3,0,0,0,0,6,0,0,2,7,0,0,0,25,0,0,18,2,0,1,1,0,23076560.51,10416944.68,2571516.039,1,5,0,0,250
36554.184,2735636,6.9392,30-Sep-75,Cotillard Marion,41,169.0,7,0,6,2,2,18,0,6,23,38,0,0,1,5,0,0,0,3,0,0,7,1,8,2,1,18,4,0,27,0,0,13,5,0,3540116.615,67642082.02,0.0,1,1,1,2,245
29703.554219999998,2989201,6.821686747,12-Nov-82,Hathaway Anne,34,170.0,6,0,5,1,4,19,0,3,32,17,0,0,11,3,0,0,0,0,0,0,12,3,2,2,1,12,3,0,27,0,2,3,0,0,41229422.1,51753710.6,5583490.652000001,1,1,1,2,245
2860.3561640000003,3236206,6.94109589,7-Mar-08,Magnani Anna,108,157.5,0,0,0,0,5,19,0,1,20,32,0,0,3,0,0,0,0,4,0,0,3,2,0,0,0,10,0,0,5,0,0,1,4,0,31215.531219999997,5068937.551,0.0,1,1,1,2,245
2324.340909,2992432,7.045454545,10-Oct-00,Hayes Helen,116,150.0,2,0,3,0,4,14,0,5,15,25,0,0,13,2,0,0,0,2,0,0,5,2,7,0,6,5,0,0,3,0,0,3,2,0,100934653.5,15176117.81,0.0,2,0,0,2,240
12648.02083,3516386,7.033333333,14-Feb-02,Ritter Thelma,114,152.5,0,0,0,0,3,14,0,3,5,13,0,0,3,0,3,0,0,1,0,0,0,4,1,0,0,12,0,0,1,1,0,2,1,2,0.0,12841166.54,0.0,0,6,0,3,240
6283.743243,3730479,6.787162162,19-Jun-54,Turner Kathleen,62,170.0,5,0,4,7,7,30,0,9,40,23,0,0,17,5,0,0,0,2,0,0,9,2,2,0,5,18,2,0,17,0,0,5,0,0,18098352.64,32803890.8,79207.92079,0,1,2,3,240
4470.676871,2535379,7.291496598999999,8-Apr-68,Arquette Patricia,48,155.0,6,0,2,2,8,16,0,7,32,26,0,0,3,4,0,0,0,1,4,0,4,0,6,0,0,3,2,0,28,0,0,13,0,0,17199584.44,18965030.77,0.0,1,0,1,3,235
21338.31271,2592092,6.351202749,14-Aug-66,Berry Halle,50,162.5,17,0,13,1,9,13,0,7,77,23,0,0,23,7,0,1,0,2,2,0,18,0,3,2,8,8,15,0,25,1,2,18,0,0,28214740.75,73191324.55,6893950.142999999,1,0,1,3,235
1675.155172,2719280,6.872413793,13-Sep-03,Colbert Claudette,113,160.0,0,0,4,1,4,39,0,3,27,41,0,0,3,1,3,0,0,7,0,0,1,7,5,0,0,37,0,0,13,1,0,3,8,3,24001532.63,11792337.34,2244159.918,1,2,1,0,235
1775.0492960000001,3020068,7.322535211,29-Apr-17,Holm Celeste,99,167.0,1,0,1,1,2,19,0,3,17,22,0,0,14,1,1,3,0,3,0,0,8,10,5,0,6,15,0,0,3,0,0,6,0,0,0.0,17887231.17,0.0,1,2,1,0,235
3463.1962259999996,3175207,7.2590566039999995,30-Apr-26,Leachman Cloris,90,162.5,6,0,14,14,14,66,0,13,28,53,0,0,32,15,0,3,0,4,7,0,11,9,6,1,2,9,3,0,14,2,0,9,1,5,15990671.97,24387393.39,0.0,1,0,1,3,235
3457.5508979999995,3616949,7.141317365,31-Jan-29,Simmons Jean,87,160.0,1,0,5,2,11,16,0,5,14,53,0,0,9,1,4,0,0,8,2,0,0,1,7,0,2,19,2,0,1,0,0,6,3,2,10574753.09,34871616.74,0.0,0,2,1,5,235
7203.784753,2749663,6.615695067000001,22-Nov-58,Curtis Jamie Lee,58,167.5,7,0,4,4,7,23,0,3,45,23,0,0,25,3,0,1,0,1,16,0,12,1,4,3,7,9,8,0,19,1,1,12,0,0,45999232.53,25794440.53,1431899.2380000001,0,0,2,4,230
3533.676329,3155340,6.89178744,29-Nov-35,Ladd Diane,81,167.5,4,0,1,0,7,20,0,8,10,52,0,0,14,2,0,0,0,1,8,0,0,0,9,1,2,7,3,0,5,0,0,14,1,4,1913979.239,18782981.53,0.0,0,3,1,3,225
3250.943038,3170497,7.190506329,22-Jan-32,Laurie Piper,84,160.0,5,0,6,0,5,15,0,5,14,47,0,0,6,4,1,0,0,1,9,0,4,1,7,0,1,11,2,0,10,1,0,10,2,4,379010.854,13071317.51,42179.261860000006,0,3,1,3,225
2596.339623,3364982,7.038679245,20-Jan-26,Neal Patricia,90,170.0,1,0,0,0,6,8,0,2,27,46,0,0,8,0,2,0,0,5,3,0,6,0,3,1,3,8,2,0,8,1,1,6,5,1,0.0,11325926.12,0.0,1,1,1,1,225
386.4852071,3833878,6.728994083,6-Jan-13,Young Loretta,103,165.0,2,0,9,0,8,39,0,9,27,63,0,0,3,3,3,0,0,10,1,0,3,4,6,0,2,46,0,0,14,3,0,4,9,4,3933609.959,7196367.645,2589928.058,1,1,1,1,225
4929.014706,3183979,7.0882352939999995,5-Nov-13,Leigh Vivien,103,157.5,0,0,3,0,12,8,0,0,38,13,0,0,1,0,0,0,0,7,0,0,1,3,0,0,1,12,0,0,5,1,0,1,8,0,73846153.85,8839891.044,1023005.771,2,0,0,1,220
7665.507463,3537499,7.405223881,29-Jan-40,Ross Katharine,76,157.5,2,0,1,0,4,5,0,1,15,31,0,0,5,1,0,0,0,2,3,0,0,1,3,0,1,4,2,0,7,2,0,6,3,12,0.0,24306787.95,0.0,0,1,2,2,220
5730.589928,2856085,6.8762589929999995,9-Feb-45,Farrow Mia,71,163.0,3,0,8,7,12,25,0,3,37,33,0,0,13,10,0,1,0,2,4,0,3,1,6,0,2,11,2,0,7,0,0,5,3,0,16264900.29,28229398.23,0.0,0,0,1,7,215
973.7061069,3251546,7.785877863,8-Jun-66,Margulies Julianna,50,165.0,2,0,2,1,1,8,0,5,21,15,0,0,1,1,0,0,0,5,1,0,2,0,0,0,1,5,0,0,10,0,0,3,3,1,0.0,26254226.67,0.0,0,0,1,7,215
548.8780488,3269974,7.81010453,24-Aug-65,Matlin Marlee,51,160.0,2,0,0,1,1,9,0,2,13,23,0,0,11,1,0,0,0,2,0,0,7,0,2,1,8,6,2,0,4,3,0,7,0,1,7831713.131,9847805.724,0.0,1,0,1,2,215
1130.330484,3335791,7.486039886,11-Dec-31,Moreno Rita,85,155.0,5,0,7,2,6,36,0,7,41,34,0,0,21,1,0,2,0,4,1,0,13,20,2,1,3,15,0,0,1,1,1,5,3,6,0.0,10649103.81,0.0,1,0,1,2,215
2419.12844,3590134,7.66911315,19-Aug-65,Sedgwick Kyra,51,162.5,5,0,2,2,5,15,0,5,17,41,0,0,4,3,0,0,0,1,1,0,4,0,2,4,1,17,5,0,8,1,1,8,2,0,528316.31,16222607.98,0.0,0,0,1,7,215
3210.956835,3640669,6.484172662000001,28-Sep-67,Sorvino Mira,49,175.0,6,0,3,1,2,19,0,10,15,44,0,0,7,3,0,0,0,1,3,0,4,0,4,0,0,10,3,0,11,0,0,16,1,0,20679511.93,17470167.87,4321728.691000001,1,0,1,2,215
8754.494505,3654112,7.234065934,8-Feb-53,Steenburgen Mary,63,170.0,1,0,5,3,7,42,0,7,22,40,0,0,10,6,0,0,0,1,3,0,2,1,3,0,2,10,4,0,14,1,0,10,1,4,15648051.74,27653631.23,0.0,1,0,1,2,215
2249.396396,3735032,6.925225225,16-Dec-38,Ullmann Liv,78,170.18,1,0,1,2,12,5,0,2,37,46,0,0,6,5,0,0,0,4,3,0,6,1,1,1,1,6,0,0,16,1,0,6,3,2,571549.3535,14480798.56,0.0,0,2,1,4,215
2547.107527,2795559,6.917921147,30-Sep-31,Dickinson Angie,85,162.5,12,0,5,0,15,46,0,17,48,39,0,0,14,1,1,0,0,3,2,0,18,5,8,0,17,12,2,0,9,0,3,16,3,13,0.0,17787015.57,194726.1663,0,0,2,3,210
5345.3275109999995,3422995,7.346724891,2-Aug-64,Parker Mary-Louise,52,167.5,4,0,1,0,4,22,0,14,15,35,0,0,4,3,0,0,0,1,0,0,4,2,3,0,2,15,0,0,14,0,0,7,1,1,0.0,40573328.3,0.0,0,0,2,3,210
1462.471503,2572882,7.13626943,7-May-23,Baxter Anne,93,162.0,2,0,3,0,6,14,0,10,8,47,0,0,2,4,5,0,0,4,2,0,2,2,8,0,2,14,0,0,0,3,0,10,9,9,0.0,16589463.78,0.0,1,1,1,0,205
9560.461017,3186862,7.287457627,14-Sep-60,Leo Melissa,56,160.0,6,0,3,3,4,16,0,10,10,65,0,0,2,1,0,0,0,2,2,0,2,0,6,1,1,8,1,0,21,3,1,16,2,2,7900930.88,15107177.49,0.0,1,1,1,0,205
10561.866970000001,3806654,7.1339449539999995,9-Sep-80,Williams Michelle,36,160.0,1,0,4,0,3,9,0,1,13,23,0,0,6,2,0,0,0,0,2,0,4,1,2,1,1,9,2,0,6,0,1,6,2,2,4713329.044,47896091.63,0.0,0,3,1,2,205
97.58108108,3806656,6.024324324,23-Jul-80,Williams Michelle,36,167.5,0,0,0,0,3,4,0,0,20,1,0,0,14,0,0,0,0,0,0,0,50,3,0,0,6,0,0,0,3,2,0,0,0,0,0.0,1190047.8590000002,0.0,0,3,1,2,205
4677.088235,2553218,6.402941176000001,28-May-31,Baker Carroll,85,162.5,3,0,2,0,8,19,0,6,24,38,0,0,3,0,0,0,0,3,7,0,2,1,11,0,1,15,1,0,4,1,1,18,2,8,100081.3043,31827780.7,315568.8623,0,1,2,1,200
1748.678112,2602829,5.863090129,1-Jul-39,Black Karen,77,167.5,13,0,3,0,6,51,0,15,30,78,0,0,5,8,0,0,0,3,31,0,4,3,9,0,0,21,12,0,20,1,1,39,0,2,33186484.0,4749383.336,0.0,0,1,2,1,200
5065.9615380000005,3011334,7.340384615,15-Aug-12,Hiller Wendy,104,167.5,1,0,2,0,8,6,0,2,6,29,0,0,4,0,0,0,0,3,2,0,2,0,3,0,0,7,0,0,1,0,0,2,3,0,0.0,7830656.956,0.0,1,2,0,2,200
436.7142857,3485854,7.05,12-Jan-10,Rainer Luise,106,160.0,0,0,0,0,6,3,0,0,18,11,0,0,1,0,0,0,0,3,0,0,1,6,0,0,0,7,0,0,5,0,0,1,1,0,0.0,17100713.1,0.0,2,0,0,0,200
17529.3,3714802,6.56875,4-Dec-64,Tomei Marisa,52,164.0,7,0,2,0,6,36,0,9,25,35,0,0,13,2,0,0,0,1,3,0,7,1,4,3,1,20,2,0,9,1,2,10,1,0,12616982.31,26317232.48,1833260.711,1,2,0,2,200
1711.0222219999998,2538135,7.3377777779999995,22-Dec-07,Ashcroft Peggy,109,160.0,0,0,1,2,3,4,0,0,8,18,0,0,0,0,0,0,0,1,0,0,1,1,2,0,0,1,0,0,4,0,0,2,1,0,7297.379543999999,28874225.75,0.0,1,0,1,1,195
14235.669569999998,2569133,6.245217391000001,8-Dec-53,Basinger Kim,63,170.0,7,0,5,1,4,10,0,12,35,29,0,0,7,2,0,0,0,1,1,0,5,0,5,0,2,12,1,0,13,4,1,14,0,0,26929709.0,40448234.46,2591726.335,1,0,1,1,195
71.67058824,2616537,7.6888235289999995,30 August 1898,Booth Shirley,118,152.5,0,0,0,1,0,4,0,0,0,6,0,0,2,1,0,0,0,0,0,0,0,1,1,0,1,3,0,0,1,0,0,0,0,0,0.0,0.0,0.0,1,0,1,1,195
1305.61194,2667859,6.751492537000001,4-Jan-37,Cannon Dyan,79,162.5,8,0,2,1,5,36,0,12,16,22,0,0,9,2,0,0,0,0,0,0,8,1,7,0,8,12,1,0,3,2,0,5,1,0,212975.6695,36578279.45,0.0,0,2,1,3,195
4322.848921,2817176,6.660431655,20-Jun-31,Dukakis Olympia,85,157.5,8,0,7,0,7,37,0,9,23,60,0,0,6,4,0,0,0,3,2,0,6,1,3,0,2,18,0,0,5,0,0,9,3,0,90325.8856,14110811.82,0.0,1,0,1,1,195
2640.242424,3391573,7.121212121,5-Nov-63,O'Neal Tatum,53,167.5,1,0,0,0,3,8,0,2,9,19,0,0,4,0,0,0,0,0,1,0,1,0,0,0,0,2,0,0,1,3,0,3,0,0,42953580.82,12428330.26,781380.3258,1,0,1,1,195
30533.50777,3416958,6.20880829,27-Sep-72,Paltrow Gwyneth,44,175.0,7,0,6,0,7,23,0,7,42,26,0,0,12,2,0,0,0,5,0,0,14,2,6,2,1,12,5,0,12,1,1,9,0,0,37864925.36,37959382.7,6275964.864,1,0,1,1,195
27436.652169999998,3790719,6.675652174,7-Mar-70,Weisz Rachel,46,165.0,4,0,5,0,4,9,0,5,25,34,0,0,4,7,0,0,0,6,2,0,4,0,5,0,1,14,2,0,17,1,2,14,3,0,1182242.731,70001145.25,0.0,1,0,1,1,195
1184.848485,2566967,6.842424242000001,15 August 1879,Barrymore Ethel,137,167.5,0,0,0,0,1,5,0,5,9,32,0,0,1,2,2,0,0,1,1,0,3,5,3,0,0,13,0,0,6,0,0,5,1,1,0.0,21398881.99,789705.6529,1,3,0,0,190
12184.66038,2599629,6.521698112999999,9-Mar-64,Binoche Juliette,52,165.0,2,0,2,0,7,10,0,4,30,52,0,0,6,0,0,0,0,4,0,0,1,0,4,2,0,25,3,0,7,0,1,8,4,0,1201510.121,37136336.89,1664300.725,1,1,0,3,190
2167.635958,2865706,7.272362556,18-May-70,Fey Tina,46,160.0,2,0,1,3,5,64,0,2,23,5,0,0,4,1,0,0,0,2,0,0,8,1,0,4,1,5,1,0,13,1,1,2,1,0,19410904.23,36139802.12,0.0,0,0,2,2,190
4803.768657,3019403,6.878358209,2-Jul-37,Holliday Polly,79,170.0,0,0,1,0,1,12,0,1,1,14,0,0,4,0,0,0,0,0,0,0,0,1,0,0,1,8,0,0,0,1,0,0,0,0,0.0,50520615.1,0.0,0,0,2,2,190
640.5350553999999,3210460,7.230627306000001,23-Aug-49,Long Shelley,67,165.0,2,0,1,2,1,54,0,0,19,21,0,0,18,5,0,0,0,3,0,0,3,2,0,0,3,11,2,0,17,1,0,0,0,1,40024098.73,12252048.23,0.0,0,0,2,2,190
1133.6524060000002,3213067,6.480748663,20-Sep-34,Loren Sophia,82,172.5,5,0,6,0,18,47,0,3,61,60,0,0,7,6,0,1,0,11,0,0,4,8,2,1,4,34,0,0,7,1,1,5,12,2,26670002.56,49573632.87,4235130.203,1,1,0,3,190
9868.652632,3811968,7.135789474,16-May-55,Winger Debra,61,160.0,1,0,1,0,1,12,0,2,15,20,0,0,5,2,0,0,0,1,0,0,2,0,2,0,1,7,1,0,2,1,0,6,2,1,23637695.19,21434846.38,3669526.9080000003,0,3,0,5,190
14050.520230000002,2721344,6.972254335,1-Nov-72,Collette Toni,44,170.0,3,0,4,3,2,33,0,9,16,38,0,0,5,1,0,1,0,0,3,0,6,0,5,1,1,15,0,0,10,0,0,9,1,0,312880.7322,22491457.79,771799.7676,0,1,1,4,185
2617.981707,2952307,6.387804878,9-Aug-57,Griffith Melanie,59,176.0,5,0,7,5,10,31,0,12,31,36,0,0,10,2,0,0,0,0,1,0,7,0,6,0,3,16,2,0,6,2,0,15,1,2,21902589.47,28653415.59,1722315.323,0,1,1,4,185
1598.112069,3677325,7.315517241,27 March 1899,Swanson Gloria,117,152.5,0,0,1,0,2,41,0,1,37,40,0,0,1,0,1,0,0,6,1,0,0,4,0,1,1,14,0,0,40,0,0,0,2,0,0.0,4972686.238,2406724.556,0,3,1,1,185
8742.144,2504875,6.9216,28-Oct-39,Alexander Jane,77,165.0,4,0,1,0,7,7,0,5,18,48,0,0,14,3,0,0,0,8,2,0,5,0,4,0,0,9,2,0,5,1,0,5,1,3,3703908.434,32151057.99,0.0,0,4,0,3,180
1120.183673,2552478,7.069387755,7 December 1893,Bainter Fay,123,162.5,1,0,2,0,2,19,0,1,5,26,0,0,2,1,1,0,0,1,0,0,0,5,1,0,0,20,0,0,4,1,0,1,4,1,0.0,9643524.568,0.0,1,2,0,1,180
706.0451613,2740567,4.143225806,23-Mar-05,Crawford Joan,111,157.5,1,0,4,1,7,31,0,7,63,71,0,0,8,1,9,1,0,8,11,0,7,10,3,0,1,43,2,0,26,3,0,16,4,3,18058718.01,10450201.94,1347388.12,1,2,0,1,180
603.5396825,3077994,7.030555556,31-Mar-34,Jones Shirley,82,162.5,3,0,5,1,6,44,0,2,41,28,0,0,21,2,0,0,0,1,2,0,26,20,4,0,10,7,1,0,7,1,0,1,0,4,659576.087,8806682.506000001,0.0,1,0,0,4,180
1090.323077,3230600,6.876923077000001,1-Apr-39,MacGraw Ali,77,170.0,2,0,0,0,5,4,0,1,23,7,0,0,4,0,0,0,0,1,1,0,4,0,1,0,2,4,0,0,1,1,0,2,0,1,101274686.2,13221258.08,100738.7848,0,1,2,0,180
6715.189189,3458015,6.760810811,28-Oct-29,Plowright Joan,87,160.0,0,0,8,1,5,20,0,4,5,42,0,0,10,3,0,0,0,2,0,0,4,1,4,0,0,8,0,0,1,1,1,6,3,0,285968.6186,76080633.33,459066.5647,0,1,2,0,180
4224.920635,3634072,6.4841269839999995,27-Oct-45,Snodgress Carrie,71,167.0,2,0,2,0,3,3,0,6,1,31,0,0,0,0,0,0,0,0,4,0,1,0,3,1,0,3,0,0,1,4,0,7,0,4,0.0,13638649.46,0.0,0,1,2,0,180
931.7049892000001,2509392,7.150976139,12-Jan-51,Alley Kirstie,65,170.0,3,0,2,5,3,31,0,3,15,20,0,0,11,1,0,0,0,2,2,0,3,0,0,1,2,11,2,0,5,2,0,6,0,0,31727524.8,21462195.36,0.0,0,0,1,5,175
4907.460317,2606841,7.172222222,20-Feb-46,Blethyn Brenda,70,155.0,1,0,1,4,3,22,0,4,18,37,0,0,5,3,0,0,0,1,2,0,2,2,5,0,0,14,0,0,15,2,1,2,2,0,6022945.777000001,15334157.64,0.0,0,2,1,2,175
2085.953488,2674624,6.5984496120000005,1-Jul-31,Caron Leslie,85,152.5,0,0,2,0,6,16,0,3,37,37,0,0,6,1,0,0,0,5,0,0,12,19,1,0,3,21,1,0,2,1,1,2,6,1,0.0,13451436.21,0.0,0,2,1,2,175
34475.238639999996,2695776,7.095454545,24-Mar-77,Chastain Jessica,39,160.0,3,0,6,0,5,4,0,4,9,28,0,0,0,3,0,0,0,5,3,0,2,1,2,2,1,4,5,0,19,0,3,8,2,1,73752550.04,31654487.34,106.69559299999999,0,2,1,2,175
198.33190580000002,2722115,7.148179872,23-May-33,Collins Joan,83,160.0,2,0,7,1,12,45,0,16,45,38,0,0,23,3,2,1,0,5,6,0,12,7,6,4,13,18,7,0,8,2,2,11,1,2,7248069.637,14112314.67,552302.6568,0,0,1,5,175
31133.18584,2725528,5.901769912000001,12-Dec-70,Connelly Jennifer,46,165.0,6,0,6,1,3,9,0,6,27,30,0,0,6,4,0,0,0,1,2,0,7,2,6,1,2,12,5,0,20,1,2,14,0,1,9586688.923,49024204.96,1956521.739,1,0,1,0,175
52.11111111,2792057,6.965873016000001,10-Dec-52,Dey Susan,64,167.5,6,0,2,1,0,7,0,0,4,26,0,0,6,0,0,0,0,1,1,0,2,0,1,0,4,5,3,0,1,1,0,5,1,1,1536989.781,7988696.172,0.0,0,0,1,5,175
8060.313609000001,2873820,6.665088757,22-Jul-34,Fletcher Louise,82,172.5,7,0,3,0,2,16,0,11,10,54,0,0,5,5,0,0,0,0,13,0,2,0,7,0,0,19,10,0,4,2,0,23,1,1,16217705.99,24728167.38,0.0,1,0,1,0,175
121.77480919999999,2982425,7.189312977,22-Aug-39,Harper Valerie,77,165.0,3,0,4,7,13,33,0,3,29,17,0,0,14,1,0,0,0,2,2,0,8,3,3,1,8,6,4,0,4,2,1,4,0,0,0.0,2435751.222,4329.896907,0,0,1,5,175
1685.4620690000002,3031660,6.517241379,12-Sep-81,Hudson Jennifer,35,172.5,0,0,0,0,1,6,0,1,11,10,0,0,8,0,0,0,0,1,0,0,47,6,0,5,3,1,0,0,4,2,4,0,0,0,0.0,20604535.67,0.0,1,0,1,0,175
16690.66667,3033808,7.166666667,3 January 1877,Hull Josephine,139,155.0,0,0,0,0,0,3,0,1,0,3,0,0,0,1,0,0,0,0,0,0,0,0,0,0,0,0,0,0,1,0,0,1,0,1,0.0,15275113.64,0.0,1,0,1,0,175
3888.2982460000003,3035798,7.177192982,12-Nov-22,Hunter Kim,94,157.5,3,0,2,0,6,8,0,2,20,41,0,0,1,1,2,0,0,3,4,0,2,1,9,0,0,5,5,0,5,0,0,6,3,1,0.0,12510601.43,0.0,1,0,1,0,175
6937.276423,3291297,7.491056911,5-Aug-61,McTeer Janet,55,182.5,2,0,1,0,5,4,0,1,5,26,0,0,3,4,0,0,0,2,2,0,3,0,3,0,0,5,1,0,9,0,0,2,0,0,1996570.756,6586580.278,0.0,0,2,1,2,175
1854.6405690000001,3497776,7.499644128,27-Jan-21,Reed Donna,95,157.5,2,0,4,0,3,12,0,9,13,24,0,0,4,2,4,0,0,1,1,0,2,3,9,0,0,16,0,0,5,3,0,7,5,8,0.0,14503788.41,0.0,1,0,1,0,175
7374.185184999999,3544647,6.928395062000001,28-Feb-48,Ruehl Mercedes,68,175.0,1,0,1,0,4,20,0,5,8,25,0,0,7,3,0,0,0,1,0,0,1,0,1,1,0,7,0,0,7,0,0,3,1,0,1448604.878,28400479.29,2491349.481,1,0,1,0,175
1031.854167,3548696,6.802083333,11 May 1892,Rutherford Margaret,124,162.5,1,0,3,1,0,39,0,10,5,14,0,0,1,3,0,0,0,1,0,0,0,2,8,0,0,4,1,0,0,0,0,3,4,0,0.0,16086274.51,0.0,1,0,1,0,175
21978.41718,3644697,6.991411042999999,25-May-70,Spencer Octavia,46,155.0,4,0,2,1,2,21,0,0,4,27,0,0,2,4,0,0,0,2,1,0,1,0,2,0,1,5,5,0,9,0,0,6,1,0,0.0,20657362.07,0.0,1,0,1,0,175
122.5207469,2592809,7.587551867,23-Apr-60,Bertinelli Valerie,56,160.0,2,0,1,0,6,15,0,1,12,21,0,0,10,4,0,0,0,2,1,0,6,1,0,0,2,5,1,0,0,0,1,6,1,0,0.0,2199710.5640000002,0.0,0,0,2,1,170
2124.403382,2998784,6.8413043479999995,5-Jul-29,Helmond Katherine,87,155.0,0,0,4,0,4,22,0,0,5,31,0,0,7,3,0,0,0,2,2,0,2,0,4,0,0,3,3,0,2,0,0,6,0,1,0.0,15911355.49,0.0,0,0,2,1,170
1011.59058,3171455,7.046376812,15-Oct-37,Lavin Linda,79,157.5,0,0,0,2,2,17,0,1,10,16,0,0,11,0,0,0,0,1,0,0,11,4,1,0,5,2,0,0,2,1,0,1,0,0,0.0,421971.8704,0.0,0,0,2,1,170
2766.3913039999998,3613831,6.917391304,25-Mar-21,Signoret Simone,95,165.0,3,0,1,0,6,10,0,13,32,48,0,0,1,1,1,0,0,3,2,0,0,0,4,0,1,12,0,0,8,0,0,9,4,0,19793814.43,5068937.551,0.0,1,1,0,2,170
2698.484962,2952522,7.85,18-Dec-68,Griffiths Rachel,48,172.5,2,0,0,3,4,11,0,5,7,26,0,0,5,1,0,0,0,1,2,0,5,2,2,2,0,12,2,0,2,1,2,4,1,0,787725.4355,29585756.98,0.0,0,1,1,3,165
1566.178756,3032293,7.6212435229999995,9-Dec-62,Huffman Felicity,54,162.5,1,0,3,1,3,13,0,5,15,20,0,0,7,0,0,0,0,1,0,0,1,0,3,3,2,0,0,0,7,0,2,3,1,0,81640.74262,6825623.779,0.0,0,1,1,3,165
5929.253125,3663022,6.418125,10-Mar-58,Stone Sharon,58,170.0,14,0,10,3,16,29,0,15,97,37,0,0,14,6,0,0,0,5,3,0,20,1,8,2,5,11,6,0,32,2,2,23,1,1,14060683.43,36017642.45,7362201.774,0,1,1,3,165
34109.08148,3708191,6.265925926,29-Apr-70,Thurman Uma,46,183.0,9,0,3,2,5,22,0,4,29,24,0,0,7,1,0,0,0,2,0,0,5,1,3,2,0,18,8,0,23,2,1,9,0,1,28542251.79,42650664.89,6856085.296,0,1,1,3,165
1898.118182,2878029,7.192727272999999,22-Oct-17,Fontaine Joan,99,157.5,4,0,12,0,3,16,0,4,15,36,0,0,1,0,6,0,0,4,1,0,3,4,2,0,2,31,1,0,4,1,0,5,5,1,0.0,20123211.01,0.0,1,2,0,0,160
2150.5378149999997,3242650,6.7218487389999995,30-Jan-25,Malone Dorothy,91,165.0,3,0,0,0,5,13,0,12,6,32,0,0,3,0,7,0,0,1,3,0,0,12,11,0,4,17,2,0,2,0,0,10,2,18,0.0,18391695.0,639216.1532,1,0,0,3,160
1217.071078,3302626,7.3674019610000006,15-Aug-68,Messing Debra,48,170.0,1,0,2,1,1,12,0,0,10,8,0,0,9,1,0,0,0,1,1,0,3,2,1,3,3,7,0,0,4,1,0,1,0,0,38988626.73,42509919.39,0.0,0,0,0,8,160
30520.15267,3678762,6.852671756,5-Nov-60,Swinton Tilda,56,179.0,4,0,9,1,9,16,0,10,44,47,0,0,6,10,0,0,0,4,4,0,2,0,8,1,3,14,12,0,21,1,2,13,1,0,2786363.8710000003,40749182.83,0.0,1,0,0,3,160
2938.7553190000003,3722793,6.756382979,8-Mar-10,Trevor Claire,106,157.5,3,0,7,0,2,20,0,18,13,45,0,0,5,1,11,0,0,2,0,0,3,1,6,0,2,12,0,0,9,3,0,7,2,13,12949640.29,13823435.17,258992.8058,1,2,0,0,160
2948.855072,3822345,6.995652174,27-Oct-18,Wright Teresa,98,157.5,0,0,3,0,4,6,0,4,7,31,0,0,5,2,2,0,0,1,1,0,2,0,0,0,1,12,0,0,3,1,0,6,2,3,0.0,22573172.83,0.0,1,2,0,0,160
3172.319048,2518656,7.787142857,9-Aug-68,Anderson Gillian,48,160.0,5,0,4,3,2,9,0,2,29,18,0,0,1,2,0,0,0,3,3,0,3,0,7,2,2,4,11,0,15,0,1,8,0,0,2062052.237,26088303.61,2988957.055,0,0,1,4,155
29966.73034,2609025,6.87752809,23-Feb-83,Blunt Emily,33,167.5,8,0,6,4,1,15,0,6,10,23,0,0,6,7,0,0,0,3,3,0,3,4,5,2,0,8,3,0,19,0,0,8,1,0,26604419.47,54267383.23,0.0,0,0,1,4,155
187.13002360000002,2756797,7.427423168,21-Feb-46,Daly Tyne,70,166.0,5,0,2,0,8,13,0,11,24,43,0,0,9,2,0,0,0,0,0,0,8,6,2,1,6,7,1,0,5,1,0,6,0,0,16072.473869999998,9602839.656,0.0,0,0,1,4,155
58.17832957,2848102,7.490970655,18-Nov-42,Evans Linda,74,170.0,3,0,2,0,2,12,0,4,10,15,0,0,11,2,0,1,0,0,0,0,5,2,1,0,8,6,0,0,1,1,0,3,0,3,0.0,24249352.12,121452.1452,0,0,1,4,155
677.9343284,2874363,7.411641791,11-Nov-64,Flockhart Calista,52,162.5,0,0,0,0,2,7,0,0,18,8,0,0,7,1,0,0,0,0,1,0,3,0,0,2,5,5,0,0,4,0,0,1,0,0,0.0,12232154.3,5669.291339,0,0,1,4,155
3302.236715,2908376,7.234782609,10-Jun-22,Garland Judy,94,147.5,0,0,3,1,11,35,0,0,97,12,0,0,16,3,0,0,0,7,0,0,35,46,0,0,1,23,0,0,35,1,1,0,6,1,32599172.25,14840444.64,1012169.844,0,2,1,1,155
17128.65854,3341184,7.041463415,13-May-77,Morton Samantha,39,157.5,3,0,4,3,4,6,0,2,11,27,0,0,4,2,0,0,0,1,2,0,3,0,2,0,0,9,3,0,7,0,0,4,2,0,194456.6727,33818895.45,0.0,0,2,1,1,155
31685.414289999997,3550380,6.8514285710000005,29-Oct-71,Ryder Winona,45,157.5,3,0,0,2,8,20,0,3,37,38,0,0,9,5,0,0,0,3,6,0,7,0,3,0,2,17,6,0,12,0,0,8,1,0,26996059.16,28499812.95,4186915.8880000003,0,2,1,1,155
807.8565517000001,3554748,7.811172414,19-Jan-54,Sagal Katey,62,172.5,4,0,3,8,3,40,0,0,18,15,0,0,10,4,0,0,0,0,0,0,8,1,1,1,1,7,11,0,15,1,0,0,1,0,0.0,3137248.3389999997,0.0,0,0,1,4,155
2598.513587,3735012,7.280163043,30-Dec-59,Ullman Tracey,57,162.5,0,0,2,5,3,34,0,4,14,12,0,0,6,6,0,1,0,2,0,0,6,7,0,0,0,5,0,0,4,0,0,0,0,0,1327837.568,31832538.06,0.0,0,0,1,4,155
14625.71315,3778930,7.5537848610000005,22-Feb-50,Walters Julie,66,157.5,0,0,4,3,12,62,0,2,69,40,0,0,10,4,0,0,0,4,0,0,3,8,4,4,0,16,1,0,53,2,0,2,2,0,766132.4468,56908129.79,0.0,0,2,1,1,155
25045.110090000002,2508535,7.120183486,20-Aug-56,Allen Joan,60,175.0,7,0,2,0,6,8,0,3,18,29,0,0,7,4,0,0,0,4,1,0,1,0,4,0,1,5,2,0,13,0,1,7,4,0,11534564.83,45827756.78,0.0,0,3,0,3,150
260.3861386,2744536,7.153465347000001,17-Sep-33,Crowley Pat,83,162.5,2,0,3,0,4,7,0,8,3,18,0,0,3,0,0,0,0,1,0,0,1,2,3,0,0,5,0,0,3,0,1,2,1,4,0.0,3135970.452,0.0,0,0,2,0,150
6841.193276999999,2758000,7.5352941179999995,12-Apr-79,Danes Claire,37,162.5,5,0,1,2,4,8,0,4,28,23,0,0,5,2,0,0,0,0,0,0,9,0,2,1,3,11,4,0,20,0,2,7,0,0,24534807.12,38859398.31,266738.9826,0,0,2,0,150
671.2636364,2768071,6.744545455,3-Apr-22,Day Doris,94,167.5,0,0,0,0,11,38,0,2,27,11,0,0,7,0,2,0,0,2,0,0,12,15,2,1,1,26,0,0,9,2,0,4,0,2,47626156.59,10147466.11,0.0,0,1,0,6,150
900.0617284,2819561,6.987654321,20 December 1898,Dunne Irene,118,162.5,0,0,0,0,1,21,0,0,18,26,0,0,4,2,0,0,0,6,0,0,3,9,1,0,0,28,0,0,5,0,1,0,4,3,0.0,21372313.69,2627737.226,0,5,0,0,150
6165.983871,2943451,6.835483871,28-Nov-23,Grahame Gloria,93,165.0,2,0,4,0,0,10,0,12,2,24,0,0,3,1,11,0,0,0,3,0,2,4,4,0,0,13,1,0,3,0,0,11,1,5,0.0,14222868.04,452830.1887,1,1,0,1,150
1191.238351,3715065,7.410573477000001,1-Sep-39,Tomlin Lily,77,162.5,0,0,3,4,16,82,0,2,66,7,0,0,25,3,0,0,0,2,0,0,20,3,3,2,4,3,3,0,14,1,4,1,1,0,8008780.444,15900748.43,0.0,0,1,0,6,150
1327.2320000000002,3731873,6.416,19-Sep-49,Twiggy,67,165.0,1,0,0,0,1,15,0,0,23,4,0,0,5,1,0,0,0,0,1,0,14,3,0,0,5,4,0,0,4,1,1,2,0,0,0.0,18645579.89,0.0,0,0,2,0,150
3925.5384619999995,2986444,6.761538462000001,23-Dec-43,Hartman Elizabeth,73,160.0,1,0,1,1,0,2,0,1,1,10,0,0,1,2,0,0,0,0,1,0,0,0,0,0,0,2,1,0,1,0,0,2,0,1,0.0,7988942.554,0.0,0,1,1,2,145
10461.664920000001,3005958,7.1083769629999995,5-Feb-48,Hershey Barbara,68,162.5,2,0,6,2,9,18,0,10,14,61,0,0,5,1,0,0,0,6,5,0,3,0,4,0,2,11,0,0,4,4,0,10,1,4,25644597.6,11755040.09,0.0,0,1,1,2,145
3198.955975,3234015,7.225157232999999,11-Sep-50,Madigan Amy,66,162.5,3,0,1,1,5,13,0,4,18,40,0,0,6,1,0,0,0,3,1,0,3,2,3,0,0,10,2,0,11,2,0,8,1,2,921583.7390000001,13364177.67,0.0,0,1,1,2,145
681.7304965,3537250,7.2035460989999995,26-Mar-44,Ross Diana,72,160.0,0,0,2,1,6,9,0,1,52,6,0,0,15,1,0,0,0,3,0,0,87,6,0,0,0,2,0,0,4,4,1,0,0,0,51635208.88,28829949.95,0.0,0,1,1,2,145
1024.60804,3738665,7.0758793970000005,18-Nov-39,Vaccaro Brenda,77,162.5,5,0,4,2,4,20,0,7,8,30,0,0,5,3,0,1,0,1,3,0,2,0,4,0,2,10,1,0,5,3,0,9,0,1,3718748.81,34472939.66,0.0,0,1,1,2,145
5646.388535,3818695,7.310191082999999,8-Nov-52,Woodard Alfre,64,157.5,1,0,3,4,11,16,0,3,44,56,0,0,13,5,0,0,0,9,2,0,7,2,4,2,3,5,4,0,13,4,1,7,3,0,23669715.31,26815787.57,0.0,0,1,1,2,145
232.61498030000004,2556222,7.439684625,6-Aug-11,Ball Lucille,105,165.0,4,0,6,0,12,142,0,10,78,30,0,0,13,5,3,1,0,6,0,0,31,29,6,0,9,33,1,0,27,4,1,2,2,2,117241379.3,9228933.844,1850566.997,0,0,0,7,140
4142.571429,2713617,6.81875,30-Apr-44,Clayburgh Jill,72,170.0,2,0,0,0,6,24,0,6,7,35,0,0,2,0,0,0,0,0,0,0,2,0,4,0,0,12,1,0,1,1,0,5,0,0,30540862.94,15534994.68,0.0,0,2,0,4,140
2686.770833,2786817,7.127083333,27-Apr-37,Dennis Sandy,79,155.0,0,0,1,0,2,9,0,2,8,19,0,0,1,0,0,0,0,1,5,0,1,0,2,0,2,2,1,0,3,0,0,2,0,0,55456.1658,12605689.08,0.0,1,0,0,2,140
5087.255319,3087203,6.973049645,29-Sep-42,Kahn Madeline,74,157.5,1,0,1,2,4,48,0,4,21,7,0,0,16,8,0,0,0,1,0,0,7,6,2,0,1,4,3,0,6,0,0,1,0,2,3100000.0,16580310.96,0.0,0,2,0,4,140
26581.05405,3761184,6.754054054,3-Oct-88,Vikander Alicia,28,162.5,4,0,3,0,7,1,0,0,12,15,0,0,0,2,0,0,0,3,3,0,0,0,1,0,0,6,1,0,16,0,0,3,2,0,4070868.808,47791041.89,0.0,1,0,0,2,140
14207.392409999999,3842233,6.399367089,25-Sep-69,Zeta-Jones Catherine,47,167.5,4,0,7,3,8,17,0,6,41,13,0,0,9,6,0,0,0,4,1,0,10,4,1,0,5,13,1,0,14,3,0,6,1,0,49843443.13,58520172.11,9047522.346,1,0,0,2,140
3114.003846,2684874,6.753461538,21-Aug-56,Cattrall Kim,60,169.0,8,0,4,0,3,28,0,9,25,32,0,0,8,2,0,0,0,5,3,0,4,0,8,1,0,11,10,0,6,2,0,17,2,1,60691.84825,31566055.36,0.0,0,0,1,3,135
925.5348837000001,2831024,6.8738372089999995,21-Jan-47,Eikenberry Jill,69,170.0,1,0,3,1,2,17,0,2,8,31,0,0,5,0,0,0,0,2,0,0,1,0,1,0,0,4,1,0,4,1,0,4,0,1,0.0,27559380.28,0.0,0,0,1,3,135
9371.565217,2908629,6.95819398,17-Apr-72,Garner Jennifer,44,170.0,7,0,3,2,4,27,0,5,27,20,0,0,14,7,0,0,0,0,0,0,8,0,2,2,0,8,2,0,15,1,3,5,0,2,39141500.99,33944725.46,4039670.767,0,0,1,3,135
3643.188679,3160957,7.183962264,28-Oct-02,Lanchester Elsa,114,160.0,2,0,5,0,3,37,0,10,13,23,0,0,8,6,5,0,0,1,12,0,2,11,9,0,0,14,4,0,9,0,0,7,1,2,0.0,10552224.75,31128.57945,0,2,1,0,135
1159.271429,3202586,7.6319047620000005,30-Aug-46,Lipton Peggy,70,165.0,3,0,1,0,1,9,0,2,6,12,0,0,2,1,0,0,0,0,0,0,2,0,2,0,0,2,1,0,0,0,0,4,0,0,0.0,10036557.82,46206.89655,0,0,1,3,135
1260.1107539999998,3214971,7.69117175,13-Jan-61,Louis-Dreyfus Julia,55,157.5,0,0,3,2,2,31,0,0,31,7,0,0,11,5,0,0,0,0,1,0,8,1,0,4,3,2,0,0,14,0,0,0,0,0,17815656.28,38171053.89,0.0,0,0,1,3,135
503.8951613,3704078,7.003629032,21-Nov-37,Thomas Marlo,79,160.0,0,0,0,5,4,21,0,0,16,12,0,0,13,2,0,0,0,0,0,0,4,1,0,0,11,4,0,0,1,0,1,0,0,0,0.0,4092634.205,0.0,0,0,1,3,135
6809.53125,3781476,7.480357142999999,11-Jul-56,Ward Sela,60,167.5,7,0,4,0,3,8,0,7,11,17,0,0,3,1,0,0,0,1,1,0,7,0,2,0,6,6,2,0,4,0,0,9,0,1,0.0,55849819.05,0.0,0,0,1,3,135
1641.922018,3782777,7.054587156,16-Aug-46,Warren Lesley Ann,70,170.0,2,0,3,0,5,36,0,11,19,55,0,0,8,3,0,0,0,2,1,0,11,15,8,0,2,18,2,0,7,0,1,16,0,5,0.0,11204239.56,0.0,0,0,1,3,135
973.8387097000001,2812504,6.85,9 November 1868,Dressler Marie,148,167.5,0,0,0,1,6,35,0,0,25,13,0,0,2,0,0,0,0,6,0,0,3,6,0,0,0,11,0,0,25,0,0,0,1,0,35036496.35,9840441.534,840000.0,1,1,0,0,130
847.7391303999999,2912886,6.856521739,6-Oct-06,Gaynor Janet,110,150.0,3,0,4,0,2,33,0,1,14,23,0,0,1,1,0,0,0,3,0,0,0,6,1,0,0,22,0,0,20,1,0,0,0,15,37984285.38,11754866.91,0.0,1,1,0,0,130
1404.724409,3424883,7.007874016000001,20-Nov-27,Parsons Estelle,89,160.0,2,0,0,0,4,9,0,1,10,21,0,0,3,3,0,0,0,3,0,0,0,1,0,1,1,4,1,0,1,0,1,1,1,1,0.0,15014870.25,35928.143710000004,1,1,0,0,130
3231.176955,3506783,6.9526748970000005,1-Apr-32,Reynolds Debbie,84,155.0,1,0,7,6,17,62,0,4,74,14,0,0,26,5,0,0,0,5,0,0,24,38,2,0,7,25,0,0,15,1,2,3,0,3,65110346.99,12898872.3,1323529.412,0,1,0,5,130
871.9090909,3638688,6.545454545,15 February 1899,Sondergaard Gale,117,165.0,3,0,6,0,4,11,0,4,4,25,0,0,1,2,2,0,0,3,8,0,4,2,6,0,0,13,1,0,3,0,0,8,5,4,0.0,11456136.03,0.0,1,1,0,0,130
4873.0504200000005,2604203,6.2,22-Jan-59,Blair Linda,57,155.0,13,0,1,1,3,13,0,5,29,21,0,0,9,4,0,1,0,2,14,0,5,0,4,1,3,2,1,0,10,2,0,20,0,0,11648373.73,7890586.623,0.0,0,1,1,1,125
4037.148649,2631313,6.886486486,3-Sep-32,Brennan Eileen,84,165.0,1,0,6,1,0,32,0,9,6,29,0,0,10,6,0,0,0,0,2,0,1,5,8,0,1,11,0,0,4,0,0,7,1,0,84896193.41,12870551.84,0.0,0,1,1,1,125
24047.602740000002,2984158,7.221917808,19-Sep-27,Harris Rosemary,89,164.0,4,0,5,0,6,9,0,0,13,30,0,0,2,1,0,0,0,7,0,0,3,1,1,0,2,9,2,0,6,0,0,1,1,1,0.0,104957512.6,0.0,0,1,1,1,125
28119.95455,2991220,7.151515152000001,27-Apr-76,Hawkins Sally,40,157.48,2,0,2,3,3,16,0,3,8,23,0,0,4,5,0,0,0,1,0,0,0,0,0,0,1,12,3,0,15,0,0,5,2,0,2557105.817,51582619.36,0.0,0,1,1,1,125
1212.287356,3075484,7.215517241000001,28-Apr-30,Jones Carolyn,86,162.5,2,0,4,0,1,7,0,6,4,15,0,0,2,2,4,1,0,3,5,0,1,4,2,0,3,7,2,0,4,0,0,6,0,4,0.0,6629307.476,0.0,0,1,1,1,125
3451.964912,3121362,6.182807017999999,31-Oct-41,Kirkland Sally,75,172.5,14,0,3,0,8,62,0,16,31,83,0,0,22,3,0,0,0,3,17,0,12,3,12,0,3,24,7,0,42,2,2,31,0,4,37573564.95,4290824.77,432432.4324,0,1,1,1,125
4392.598039,3612733,6.853921569,8-Aug-10,Sidney Sylvia,106,155.0,1,0,2,0,3,13,0,10,9,46,0,0,4,1,7,0,0,3,4,0,3,0,4,0,0,17,1,0,4,1,0,7,3,0,0.0,8382322.681,1250000.0,0,1,1,1,125
5516.95122,3791186,7.146341463,27-Aug-43,Weld Tuesday,73,157.5,2,0,0,0,3,16,0,6,3,30,0,0,3,0,1,0,0,1,1,0,2,2,1,0,2,10,0,0,0,0,0,6,1,0,0.0,19672808.4,152619.1204,0,1,1,1,125
870.7658228,2857514,6.713924051,2-Feb-47,Fawcett Farrah,69,165.0,3,0,3,1,7,17,0,4,19,21,0,0,6,0,0,1,0,0,0,0,0,0,2,1,4,6,3,0,3,5,0,5,0,1,21504942.11,24317662.04,1080432.173,0,0,0,6,120
2757.5466239999996,3035237,7.696463023,2-Apr-45,Hunt Linda,71,142.5,8,0,7,3,2,9,0,2,35,20,0,0,5,5,0,0,0,7,4,0,3,1,6,0,0,6,2,0,10,0,1,7,4,1,1587792.254,25233234.41,0.0,1,0,0,1,120
40808.4876,3127726,6.805785124,26-Mar-85,Knightley Keira,31,167.5,7,0,11,2,8,11,0,2,51,24,0,0,3,6,0,0,0,6,1,0,2,0,3,1,0,13,3,0,46,1,1,7,3,0,16258165.8,79133107.74,5788712.012,0,2,0,3,120
442.0057971,3207347,7.4504347829999995,25-Sep-61,Locklear Heather,55,162.5,4,0,2,1,3,20,0,4,14,19,0,0,13,1,0,5,0,0,3,0,11,0,1,0,11,5,3,0,2,4,0,15,0,0,0.0,24423045.31,0.0,0,0,0,6,120
34765.022730000004,3387614,7.131818182000001,1-Mar-83,Nyong'o Lupita,33,162.5,4,0,3,0,1,0,0,0,3,4,0,0,2,3,0,0,0,0,0,0,0,0,1,0,1,1,3,0,2,1,1,1,0,0,0.0,122193211.6,0.0,1,0,0,1,120
543.8325991,3440206,7.445154185,31-Mar-48,Perlman Rhea,68,150.0,0,0,3,6,4,39,0,2,14,20,0,0,18,3,0,0,0,1,1,0,7,2,1,0,3,6,1,0,22,2,0,1,0,0,15296367.11,16679792.31,0.0,0,0,0,6,120
5630.373626,3527989,6.737362637,16-Jul-11,Rogers Ginger,105,160.0,0,0,4,0,7,73,0,6,57,35,0,0,15,5,4,2,0,3,0,0,22,32,10,0,5,46,1,0,19,3,1,4,7,1,93938650.31,14773656.74,0.0,1,0,0,1,120
22435.6092,3785151,6.72183908,14-Jan-67,Watson Emily,49,170.0,1,0,1,3,7,11,0,2,22,33,0,0,5,3,0,0,0,4,1,0,3,1,2,0,0,9,1,0,16,0,0,4,5,0,6101700.437000001,31734222.0,0.0,0,2,0,3,120
222.9950187,2508287,7.1556662520000005,16-Jan-50,Allen Debbie,66,155.0,0,0,0,3,9,16,0,0,49,18,0,0,26,2,0,1,0,1,0,0,26,10,0,0,5,3,0,0,6,4,1,0,0,0,3344947.735,10484069.54,2112676.056,0,0,1,2,115
6857.912317,2524205,7.429645094,11-Feb-69,Aniston Jennifer,47,164.0,3,0,4,2,5,44,0,5,30,21,0,0,14,4,0,1,0,0,1,0,13,0,0,2,2,14,2,0,16,0,1,1,1,0,41417160.83,30892135.86,31833879.15,0,0,1,2,115
5258.936255,2553575,7.533864542000001,8-Jun-50,Baker Kathy,66,165.0,3,0,2,0,1,15,0,16,3,53,0,0,3,6,0,0,0,2,4,0,1,1,7,1,0,14,0,0,4,3,0,13,0,0,0.0,23950681.63,0.0,0,0,1,2,115
14541.239480000002,2566965,6.5608414239999995,22-Feb-75,Barrymore Drew,41,160.0,6,0,7,5,7,37,0,8,64,25,0,0,18,4,0,0,0,1,7,0,14,3,3,1,9,25,3,0,15,3,1,13,0,1,41490355.25,37271305.7,7517326.057,0,0,1,2,115
1983.6131149999999,2833361,7.31704918,30-Sep-71,Elfman Jenna,45,175.0,0,0,2,5,3,14,0,0,10,6,0,0,8,2,0,0,0,0,0,0,13,0,1,1,1,8,1,0,7,0,1,1,0,0,15670553.31,22732916.69,0.0,0,0,1,2,115
3442.315789,2864654,7.427863777000001,18-Apr-84,Ferrera America,32,152.5,4,0,9,9,0,20,0,2,18,19,0,0,16,8,0,0,0,0,0,0,2,0,0,4,2,4,0,0,10,0,0,2,0,1,7797570.65,21422786.17,0.0,0,0,1,2,115
574.9926471,3313587,7.372794118,18-Apr-46,Mills Hayley,70,157.5,1,0,6,5,4,20,0,5,23,18,0,0,21,4,0,0,0,1,2,0,4,2,6,0,0,10,0,0,6,0,0,8,0,1,205853135.2,1285310.313,0.0,0,0,1,2,115
1414.650794,3442812,7.443386243,28-Feb-48,Peters Bernadette,68,157.5,2,0,7,4,6,28,0,2,25,20,0,0,27,9,0,0,0,1,0,0,34,19,1,1,4,9,2,0,4,0,0,1,0,0,898010.3226,40323291.93,0.0,0,0,1,2,115
516.8225806,3778703,7.652995392,31-Jan-41,Walter Jessica,75,170.0,4,0,1,0,0,19,0,5,10,31,0,0,2,2,0,0,0,0,4,0,1,2,4,0,0,7,4,0,5,4,0,7,0,1,0.0,17712060.1,0.0,0,0,1,2,115
4352.759259,2625426,7.733703704,2-Oct-54,Bracco Lorraine,62,170.0,0,0,1,0,4,12,0,10,14,27,0,0,7,2,0,0,0,1,0,0,2,0,3,1,4,9,0,0,5,3,1,6,0,1,6166575.583,39510513.06,0.0,0,1,0,4,110
7878.269231,2983095,6.880769231,25-Jul-35,Harris Barbara,81,160.0,1,0,0,1,0,15,0,3,0,6,0,0,3,1,0,0,0,0,0,0,1,1,1,0,1,4,1,0,1,0,0,1,0,0,68493729.37,10526373.18,0.0,0,1,0,4,110
2266.73913,3422615,6.541304348,26-Jun-22,Parker Eleanor,94,165.0,7,0,8,0,6,16,0,6,2,43,0,0,3,1,2,0,0,2,3,0,3,4,9,0,1,14,0,0,3,0,0,7,6,3,2391459.075,13235369.25,0.0,0,3,0,1,110
3551.7304689999996,2548772,7.322265625,16-Sep-24,Bacall Lauren,92,170.0,2,0,4,3,29,25,0,13,105,40,0,0,17,1,3,0,0,9,1,0,17,3,9,1,18,15,0,0,16,2,0,13,3,1,0.0,16678379.0,136217.3854,0,1,1,0,105
3076.2416670000002,2549736,7.158333333,13-Nov-06,Baddeley Hermione,110,157.5,2,0,4,2,2,22,0,6,0,26,0,0,8,5,2,0,0,2,1,0,5,3,5,1,0,6,2,0,2,0,0,2,1,2,0.0,19850069.38,0.0,0,1,1,0,105
8759.946058,2569544,6.976763485,16-Aug-58,Bassett Angela,58,160.0,7,0,2,4,9,17,0,8,30,39,0,0,29,1,0,0,0,4,3,0,14,3,3,2,4,10,5,0,7,2,1,9,1,0,52302372.59,40632793.85,4060030.293,0,1,1,0,105
342.2368421,2692913,7.271929825,31-Jan-21,Channing Carol,95,172.5,0,0,0,3,4,17,0,0,24,1,0,0,16,2,0,0,0,2,0,0,23,17,0,0,11,2,0,0,1,2,0,0,0,1,10399.923340000001,9773760.4,0.0,0,1,1,0,105
1817.563291,2829977,7.448101266,5-Mar-39,Eggar Samantha,77,162.5,4,0,10,5,4,7,0,10,7,32,0,0,5,5,0,0,0,2,8,0,2,2,9,0,0,11,3,0,0,0,0,14,1,2,0.0,31219192.28,1035712.5240000001,0,1,1,0,105
415.15517239999997,2966959,7.124137931,1-Mar-34,Hackett Joan,82,167.5,2,0,1,0,0,6,0,5,2,22,0,0,2,0,0,0,0,0,4,0,0,0,3,0,0,3,1,0,0,0,0,6,0,5,0.0,9655172.413999999,0.0,0,1,1,0,105
10703.918029999999,3031682,6.300819672,19-Apr-79,Hudson Kate,37,165.0,2,0,3,1,2,27,0,3,18,16,0,0,5,1,0,0,0,1,1,0,11,1,2,1,2,17,0,0,8,2,0,6,1,1,53652627.98,39771480.62,5002613.156,0,1,1,0,105
17035.05882,3167049,6.975630252,1-Oct-89,Larson Brie,27,167.5,7,0,4,1,1,18,0,3,4,14,0,0,4,1,0,0,0,0,0,0,6,1,0,0,1,6,5,0,11,0,0,1,0,0,7858932.427,26183344.01,0.0,0,1,1,0,105
4610.896739,3183715,6.931521739,6-Jul-27,Leigh Janet,89,162.5,7,0,8,0,16,33,0,9,54,35,0,0,12,2,3,0,0,3,10,0,13,5,5,1,5,18,2,0,4,3,0,16,4,3,55789776.99,20217855.07,202702.7027,0,1,1,0,105
1112.273973,3657486,7.160273973,3-Apr-21,Sterling Jan,95,162.5,1,0,3,0,1,7,0,12,0,30,0,0,3,0,10,3,0,1,0,0,1,1,3,1,0,6,1,0,1,2,0,7,0,5,0.0,24743229.36,0.0,0,1,1,0,105
2277.020408,3710024,7.157142857,14-Feb-60,Tilly Meg,56,165.0,0,0,0,0,0,5,0,4,1,14,0,0,1,1,0,0,0,0,6,0,0,0,5,0,0,5,2,0,0,0,0,5,0,0,1432432.7219999998,21640680.59,0.0,0,1,1,0,105
1833.0442480000002,2540306,6.752212388999999,3-May-06,Astor Mary,110,162.5,4,0,6,0,3,38,0,11,12,81,0,0,4,1,4,0,0,6,1,0,1,7,9,0,0,36,0,0,15,2,0,4,4,2,0.0,13260371.99,0.0,1,0,0,0,100
2821.977143,2761568,6.681714286,15 October 1879,Darwell Jane,137,165.0,8,0,15,0,4,50,0,17,6,95,0,0,5,2,3,0,0,3,1,0,5,16,7,0,0,48,0,0,14,3,0,2,6,16,0.0,12233715.22,0.0,1,0,0,0,100
16447.08333,2766911,7.571875,11-Aug-65,Davis Viola,51,162.5,5,0,2,1,6,6,0,11,9,38,0,0,4,2,0,0,0,1,0,0,5,0,8,0,3,8,3,0,9,0,1,9,2,0,0.0,47929075.31,0.0,0,2,0,2,100
721.7816712,3000810,7.275202156000001,6-Apr-52,Henner Marilu,64,167.5,7,0,1,1,2,35,0,10,15,24,0,0,7,2,0,1,0,1,0,0,8,1,9,0,5,11,1,0,5,2,1,9,0,1,0.0,23371693.94,0.0,0,0,0,5,100
32519.2766,3103377,6.580851064,23-Mar-59,Keener Catherine,57,170.0,1,0,4,2,5,33,0,10,12,45,0,0,5,4,0,0,0,1,1,0,6,0,4,1,0,14,1,0,13,0,0,7,0,0,8761001.854,26064448.3,0.0,0,2,0,2,100
38106.863639999996,3248728,7.0181818179999995,17-Apr-85,Mara Rooney,31,157.5,0,0,2,1,2,2,0,3,6,16,0,0,2,2,0,0,0,0,1,0,2,1,2,0,0,5,2,0,3,1,0,3,0,0,16762930.15,43318837.18,0.0,0,2,0,2,100
2551.973913,3281781,6.696521739,10 June 1895,McDaniel Hattie,121,155.0,4,0,1,1,4,38,0,4,20,34,0,0,3,1,1,0,0,4,0,0,0,11,1,0,0,30,1,0,8,2,0,1,6,3,0.0,10493254.15,17266.18705,1,0,0,0,100
6264.118321,3282679,7.842748092000001,28-Apr-52,McDonnell Mary,64,165.0,2,0,2,0,2,4,0,1,20,27,0,0,3,0,0,0,0,3,0,0,1,0,1,1,1,0,6,0,12,1,0,5,0,1,9262356.094,11866804.73,0.0,0,2,0,2,100
2095.573427,3321509,5.86013986,11-Dec-67,Mo'Nique,49,165.0,2,0,0,1,5,22,0,2,21,10,0,0,8,0,0,2,0,0,0,0,11,2,0,0,2,3,0,0,3,0,0,2,0,0,4394581.8,8248733.555,0.0,1,0,0,0,100
3211.6192309999997,3379437,7.111923077,9-Apr-66,Nixon Cynthia,50,170.0,0,1,2,0,4,13,0,3,22,23,0,0,9,1,0,0,0,1,1,0,2,2,0,3,4,6,0,0,10,0,0,4,0,0,0.0,28856895.34,0.0,0,0,0,5,100
203.4375,3450255,6.471323529,8 April 1892,Pickford Mary,124,150.0,1,0,4,1,13,81,0,3,74,158,0,0,4,5,0,0,0,15,0,0,1,3,0,0,0,55,0,0,244,0,0,0,6,13,12608937.35,8165537.153,4070498.034,1,0,0,0,100
29239.64815,3532159,6.864814815,12-Apr-94,Ronan Saoirse,22,165.0,6,0,5,2,1,4,0,2,3,16,0,0,2,5,0,0,0,2,1,0,0,0,2,0,0,10,3,0,6,0,0,10,1,0,21065721.32,31267820.04,0.0,0,2,0,2,100
186.1813031,3565568,7.577053824,29-Aug-17,Sanford Isabel,99,157.5,3,0,0,0,2,14,0,4,8,8,0,0,6,0,0,0,0,0,0,0,3,1,0,1,2,4,0,0,1,0,0,3,0,1,0.0,13034354.32,0.0,0,0,0,5,100
4960.26,3664431,6.702000000000001,2-Aug-14,Straight Beatrice,102,167.5,0,0,0,0,0,4,0,2,3,14,0,0,3,3,1,0,0,0,2,0,1,0,1,0,0,6,1,0,3,0,0,4,0,0,0.0,24912380.53,0.0,1,0,0,0,100
5492.263158,3745142,7.118421053,29-Dec-15,Van Fleet Jo,101,165.0,0,0,1,0,2,4,0,4,3,14,0,0,2,1,0,0,0,2,1,0,1,1,2,0,1,4,0,0,2,0,0,1,0,2,0.0,20037931.25,0.0,1,0,0,0,100
328.56521739999994,2555909,7.076811594,12-Nov-37,Balin Ina,79,165.0,4,0,3,0,1,6,0,4,2,17,0,0,0,1,0,0,0,1,0,0,0,0,0,0,0,3,0,0,0,0,0,1,1,3,0.0,81095108.34,0.0,0,0,1,1,95
1474.3461539999998,2847695,6.965384615,8 February 1888,Evans Edith,128,167.5,0,0,1,0,1,10,0,1,2,20,0,0,3,2,0,0,0,0,2,0,2,2,1,0,1,6,0,0,0,0,0,2,0,0,0.0,28865979.38,0.0,0,0,1,1,95
581.4316547000001,2980820,7.8075539570000005,23-Jan-64,Hargitay Mariska,52,172.0,3,0,1,0,2,11,0,6,9,9,0,0,3,1,0,0,0,1,3,0,6,1,1,1,0,4,0,0,5,3,0,4,0,1,0.0,21878524.46,566626.6507,0,0,1,1,95
700.8888889,2988594,6.259259258999999,17-Dec-47,Hassett Marilyn,69,165.0,1,0,1,0,3,2,0,2,0,9,0,0,1,0,0,0,0,0,4,0,0,0,0,0,0,3,0,0,1,0,0,5,1,0,98624293.44,333706.2294,0.0,0,0,1,1,95
2116.834437,2989088,7.352759382,8-Dec-64,Hatcher Teri,52,165.0,8,0,5,7,1,27,0,6,14,11,0,0,8,3,0,0,0,0,0,0,4,0,2,3,0,7,2,0,9,1,0,9,0,0,0.0,57752775.6,4408681.842,0,0,1,1,95
367.375,3067586,6.8375,29-Jan-50,Jillian Ann,66,167.5,1,0,0,1,5,21,0,3,4,17,0,0,12,2,0,3,0,1,0,0,4,3,1,0,2,3,1,0,0,3,1,4,1,0,0.0,11384690.65,0.0,0,0,1,1,95
2740.525773,3120254,5.996907216,24-Jan-61,Kinski Nastassja,55,165.0,4,0,2,0,5,13,0,8,13,45,0,0,4,2,0,0,0,4,4,0,6,2,6,0,1,26,3,0,9,0,0,13,2,1,4439306.956,36114642.86,0.0,0,0,1,1,95
512.7761194,3150785,6.455223881,19-May-39,Kwan Nancy,77,157.5,10,0,5,1,3,13,0,10,16,29,0,0,1,0,0,0,0,1,2,0,1,1,2,0,0,3,1,0,6,2,1,7,2,1,87491638.8,13046585.85,0.0,0,0,1,1,95
732.1363636,3163186,6.8439393939999995,8-Mar-36,Langdon Sue Ane,80,165.0,3,0,0,0,0,8,0,2,2,6,0,0,0,0,0,0,0,0,2,0,3,3,2,0,1,7,2,0,1,0,0,3,0,3,0.0,17244766.13,0.0,0,0,1,1,95
5291.623762,3224949,7.379405941,14-Jul-60,Lynch Jane,56,180.0,5,0,7,21,3,62,0,5,22,15,0,0,18,6,0,0,0,1,2,0,11,6,0,1,4,8,1,0,38,3,2,1,0,0,0.0,28429850.66,40204.24317,0,0,1,1,95
1620.169271,3245493,7.490625,8-Mar-61,Manheim Camryn,55,175.0,1,0,2,2,4,12,0,5,14,22,0,0,11,1,0,0,0,1,1,0,2,2,3,0,3,5,0,0,7,1,0,6,1,0,0.0,12677690.33,0.0,0,0,1,1,95
340.9090909,3247350,6.377922077999999,19-Apr-33,Mansfield Jayne,83,168.0,0,1,4,0,6,18,0,6,40,16,0,0,2,3,4,0,0,0,0,0,5,4,1,1,2,3,0,0,6,0,0,5,1,1,0.0,1742821.9730000002,317241.7819,0,0,1,1,95
4728.130889999999,3327232,6.865968586,1-Jun-26,Monroe Marilyn,90,162.5,0,0,1,1,16,25,0,4,124,24,0,0,5,0,3,0,0,12,0,0,10,6,2,1,1,18,0,0,11,5,0,3,1,4,63038159.98,11365031.91,848913.913,0,0,1,1,95
1323.5294119999999,3731318,6.5882352939999995,14-Mar-42,Tushingham Rita,74,160.0,0,0,1,0,1,15,0,3,9,32,0,0,1,2,0,0,0,3,3,0,1,1,3,0,0,9,1,0,10,2,0,7,3,1,0.0,5606197.159,0.0,0,0,1,1,95
1823.1899440000002,3791103,6.684357542000001,5-Sep-40,Welch Raquel,76,165.0,4,0,9,1,5,38,0,10,40,20,0,0,16,5,0,0,0,8,2,0,16,6,4,1,7,9,2,0,12,4,4,5,3,4,57485029.94,21205866.27,652844.2318,0,0,1,1,95
2139.1397850000003,2692922,7.333691756,13-Feb-44,Channing Stockard,72,157.5,2,0,1,1,6,32,0,8,26,48,0,0,6,3,0,0,0,4,0,0,5,4,6,2,3,18,1,0,7,2,0,7,4,0,6020528.739,29603095.17,0.0,0,1,0,3,90
2348.232759,2904657,6.806896552,18-Sep-05,Garbo Greta,111,167.5,0,1,0,2,10,14,0,2,50,32,0,0,7,0,0,0,0,8,0,0,1,4,1,0,0,28,0,0,16,0,0,1,1,0,9504907.821,9580625.144,3367234.1539999996,0,3,0,0,90
578.8235294,3300439,6.894117647000001,18-Oct-20,Mercouri Melina,96,165.0,0,0,1,0,1,9,0,2,8,15,0,0,2,0,0,0,0,2,0,0,3,0,0,0,0,4,0,0,3,0,0,1,1,0,0.0,26770200.31,0.0,0,1,0,3,90
2256.703226,2601340,6.4329032260000005,13-Sep-44,Bisset Jacqueline,72,165.0,11,0,3,0,17,28,0,12,35,61,0,0,4,4,0,0,0,7,3,0,7,0,14,1,5,28,0,0,6,0,3,18,4,0,20683071.49,22504207.51,2329668.55,0,0,0,4,80
48837.11765,2614798,7.078431373,26-May-66,Bonham Carter Helena,50,155.0,6,0,14,9,6,24,0,3,22,39,0,0,14,12,0,0,0,11,3,0,1,3,3,2,0,24,6,0,23,1,1,5,3,1,3584272.591,76332686.42,0.0,0,2,0,1,80
16541.51136,2749993,6.9193181820000005,11-Oct-62,Cusack Joan,54,172.5,8,0,10,11,2,53,0,5,13,21,0,0,23,11,0,0,0,0,2,0,7,1,3,0,1,20,4,0,14,1,2,5,0,0,0.0,57512185.48,0.0,0,2,0,1,80
19479.24151,2794516,6.185283019,30-Aug-72,Diaz Cameron,44,170.0,6,0,8,11,6,43,0,10,55,15,0,0,26,13,0,1,0,3,3,0,14,3,4,6,4,15,4,0,28,3,1,10,0,0,81379835.09,60946234.53,12383639.1,0,0,0,4,80
12348.26667,2797520,6.766666667000001,13-Oct-39,Dillon Melinda,77,170.0,2,0,2,0,4,8,0,2,8,35,0,0,5,2,0,0,0,0,1,0,4,1,1,0,0,5,3,0,0,0,0,4,1,1,38676769.2,32209808.87,0.0,0,2,0,1,80
107.6963351,3029107,7.04921466,28-May-41,Howland Beth,75,162.5,0,0,0,0,0,7,0,2,3,3,0,0,3,0,0,0,0,0,0,0,1,2,1,0,0,0,0,0,0,0,0,0,0,0,0.0,1983372.955,0.0,0,0,0,4,80
99.4,3052592,7.400727272999999,29-Oct-48,Jackson Kate,68,170.0,1,0,3,0,3,14,0,4,13,24,0,0,8,2,0,0,0,0,9,0,5,0,5,0,8,5,2,0,2,1,0,9,0,0,0.0,2667245.538,0.0,0,0,0,4,80
9941.605081,3059214,7.520092378999999,19-Nov-59,Janney Allison,57,180.0,4,0,6,5,2,35,0,2,16,36,0,0,11,1,0,0,0,0,0,0,2,0,2,3,4,16,1,0,20,0,1,2,1,0,0.0,33884655.36,114809.7335,0,0,0,4,80
56879.30435,3069831,6.521195652,22-Nov-84,Johansson Scarlett,32,157.5,19,0,12,1,11,21,0,5,26,28,0,0,5,3,0,0,0,2,2,0,15,1,4,3,4,11,19,0,19,0,1,10,0,1,43829561.64,102872077.7,8987968.896,0,0,0,4,80
2096.253508,3100044,7.408980355,7-Sep-50,Kavner Julie,66,167.5,10,0,14,21,2,52,0,3,11,12,0,0,5,7,0,0,0,0,0,0,5,0,4,0,0,6,8,0,13,6,0,1,0,0,4998592.73,39273185.57,293548.3871,0,0,0,4,80
184.46058090000002,3175766,7.728215767999999,9-Apr-39,Learned Michael,77,167.5,1,0,0,0,2,10,0,2,8,29,0,0,11,0,0,0,0,2,1,0,3,1,0,0,1,3,0,0,5,1,2,3,2,1,0.0,7831090.335,0.0,0,0,0,4,80
5681.016393,3309877,6.87704918,9-Sep-32,Miles Sylvia,84,162.5,1,0,1,0,5,15,0,5,11,11,0,0,4,1,0,0,0,0,2,0,1,1,4,0,1,3,0,0,5,0,0,1,0,1,0.0,6295187.293,0.0,0,2,0,1,80
330.97971010000003,3329115,7.573913042999999,15-Apr-33,Montgomery Elizabeth,83,165.0,1,0,2,0,4,8,0,7,6,22,0,0,1,3,0,0,0,4,1,0,1,3,3,0,0,6,0,0,2,0,0,4,2,2,358432.4168,33222232.94,0.0,0,0,0,4,80
1203.219873,3346804,7.317547568999999,12-Nov-58,Mullally Megan,58,160.0,0,0,0,5,0,31,0,2,11,7,0,0,11,2,0,0,0,1,0,0,6,1,0,2,0,6,1,0,9,1,1,0,0,0,0.0,19024090.19,117791.411,0,0,0,4,80
1029.6,3497218,6.986666667000001,9-Dec-15,Redman Joyce,101,152.5,1,0,3,0,0,5,0,0,2,9,0,0,0,0,0,0,0,2,0,0,0,0,2,0,0,3,0,0,2,0,0,1,1,0,0.0,7843137.255,0.0,0,2,0,1,80
35386.82828,3609151,6.337373737,25-Apr-46,Shire Talia,70,160.0,3,0,0,0,2,13,0,8,17,40,0,0,2,0,0,0,0,1,4,0,1,0,1,0,2,9,2,0,10,8,0,8,0,0,33495310.15,22793617.38,0.0,0,2,0,1,80
211.8554779,3667098,7.739160839,28-Jul-47,Struthers Sally,69,152.5,1,0,2,4,4,10,0,1,6,14,0,0,11,3,0,3,0,1,0,0,5,2,0,0,5,3,0,0,2,0,0,3,0,0,0.0,8870359.399,0.0,0,0,0,4,80
190.11111110000002,3678819,7.4925,4-Nov-37,Swit Loretta,79,165.0,5,0,0,0,2,23,0,4,23,16,0,0,13,1,0,0,0,3,1,0,3,3,0,1,3,3,2,0,1,1,0,2,2,1,0.0,540871.1078,0.0,0,0,0,4,80
380.0,3776149,7.1757575760000005,10-May-22,Walker Nancy,94,147.5,0,0,0,0,1,11,0,1,1,2,0,0,3,1,0,0,0,0,0,0,2,4,1,0,1,5,0,0,0,1,0,0,0,0,0.0,11829768.13,0.0,0,0,0,4,80
22941.05769,3786015,6.662179487,28-Sep-68,Watts Naomi,48,160.0,10,0,8,1,8,17,0,4,23,43,0,0,2,2,0,0,0,3,7,0,5,2,16,3,1,17,5,0,19,1,2,20,0,2,48930284.72,38616674.43,3076020.712,0,2,0,1,80
10666.34884,3786819,7.389534884,25-May-47,Weaver Jacki,69,147.5,2,0,2,3,1,24,0,6,4,22,0,0,2,2,0,1,0,0,2,0,1,1,3,0,0,8,2,0,4,1,0,6,0,0,0.0,19437165.9,0.0,0,2,0,1,80
884.8355978,3797224,7.464945652000001,17-Jan-22,White Betty,94,160.0,3,0,2,8,18,54,0,1,39,11,0,0,26,3,0,3,0,3,1,0,10,4,0,0,14,9,0,0,6,1,6,0,1,0,0.0,14477520.83,0.0,0,0,0,4,80
447.29914529999996,2510039,6.901709402000001,7-Oct-17,Allyson June,99,150.0,6,0,2,0,6,31,0,3,18,20,0,0,10,1,0,0,0,2,1,0,12,25,3,0,4,21,1,0,14,4,0,3,3,0,37767074.64,20200128.05,0.0,0,0,1,0,75
2133.933333,2521257,6.848571429,19-Mar-36,Andress Ursula,80,162.5,12,0,10,0,2,23,0,8,41,11,0,0,2,4,0,0,0,1,2,0,4,2,0,0,1,4,1,0,8,0,4,3,4,3,0.0,35463468.82,47682.119210000004,0,0,1,0,75
649.3,2523063,6.0525,19-Jun-32,Angeli Pier,84,150.0,3,0,7,0,2,5,0,4,4,22,0,0,0,1,0,0,0,2,3,0,1,3,2,0,0,7,1,0,2,1,0,4,2,1,0.0,19480408.9,29629.62963,0,0,1,0,75
4299.166667,2589147,5.927777777999999,14-Nov-51,Bergman Sandahl,65,172.5,10,0,3,0,0,10,0,0,6,9,0,0,1,4,0,0,0,0,3,0,0,5,1,0,0,3,6,0,6,2,0,10,1,0,0.0,23331967.37,0.0,0,0,1,0,75
497.8547297,2656069,7.391554053999999,24-Jul-36,Buzzi Ruth,80,157.5,1,0,5,15,2,52,0,1,11,4,0,0,28,6,0,0,0,0,4,0,18,3,0,0,0,2,4,0,7,1,2,1,1,3,0.0,2408923.5409999997,0.0,0,0,1,0,75
3608.810409,2681429,7.053531598999999,2-Aug-45,Cassidy Joanna,71,172.5,10,0,4,1,4,19,0,10,9,43,0,0,6,5,0,1,0,1,9,0,2,0,9,0,0,10,6,0,9,1,0,27,2,0,0.0,20125301.65,0.0,0,0,1,0,75
6026.124514,2726394,7.7,13-Nov-53,Conroy Frances,63,170.0,4,0,8,6,1,16,0,4,9,24,0,0,5,7,0,0,0,0,2,0,2,4,3,1,0,11,1,0,5,0,0,6,0,0,0.0,28801245.07,0.0,0,0,1,0,75
743.0,2778635,6.902272727000001,23-Apr-42,Dee Sandra,74,160.0,0,0,0,0,1,14,0,2,2,10,0,0,3,0,0,0,0,1,1,0,3,0,0,0,0,8,0,0,1,0,0,1,1,2,0.0,12093625.85,51245.5516,0,0,1,0,75
2834.174757,2806382,6.841747572999999,29-Jun-62,Donohoe Amanda,54,170.0,4,0,4,1,1,11,0,6,6,23,0,0,4,2,0,0,0,2,1,0,1,0,4,0,0,5,3,0,4,0,0,11,0,1,2412811.496,15949740.35,0.0,0,0,1,0,75
5110.698795,2831687,5.910843373,29-Sep-31,Ekberg Anita,85,165.0,8,0,12,0,0,25,0,7,16,21,0,0,1,2,4,0,0,2,4,0,2,2,2,0,0,12,1,0,4,0,0,6,2,6,0.0,17483958.84,0.0,0,0,1,0,75
537.0680628,2885183,6.931937173,16-Sep-30,Francis Anne,86,170.0,7,0,8,0,5,16,0,9,4,41,0,0,2,4,1,0,0,2,1,0,1,2,9,0,0,11,4,0,1,2,0,10,7,6,0.0,15539842.45,0.0,0,0,1,0,75
2207.276923,2995558,6.405384615,19-Jan-30,Hedren Tippi,86,160.0,4,0,5,0,12,21,0,6,34,30,0,0,2,1,0,1,0,3,9,0,1,1,11,1,3,12,4,0,8,0,0,20,3,1,22713032.08,7289689.844,3921.568627,0,0,1,0,75
2410.891892,3037343,6.7283783779999995,17-Apr-51,Hussey Olivia,65,155.0,9,0,9,0,3,9,0,3,14,20,0,0,2,3,0,0,0,4,8,0,2,2,7,1,0,9,5,0,6,1,0,14,1,2,18080297.4,10102327.98,0.0,0,0,1,0,75
293.38659789999997,3215145,6.864948453999999,11-Feb-34,Louise Tina,82,170.0,5,0,4,0,0,12,0,4,16,22,0,0,2,1,0,0,0,5,4,0,3,0,2,0,0,5,2,0,1,0,1,6,4,3,0.0,1808853.8390000002,0.0,0,0,1,0,75
2732.555556,3226258,6.3888888889999995,10-Jul-46,Lyon Sue,70,157.5,1,0,0,0,1,5,0,2,4,6,0,0,2,0,0,0,0,1,2,0,0,0,1,0,1,2,2,0,1,0,2,5,0,1,0.0,14561361.23,630143.923,0,0,1,0,75
2129.46648,3234333,6.384636872000001,16-Aug-58,Madonna,58,160.0,3,1,2,4,13,28,0,3,114,11,0,0,8,0,0,0,0,6,0,0,124,3,0,3,8,7,1,0,19,2,3,2,0,0,29643111.19,26280574.63,1184963.375,0,0,1,0,75
2503.700971,3301067,7.647572816,28-Nov-52,Merkerson S. Epatha,64,165.0,1,0,0,0,5,7,0,3,9,20,0,0,4,1,0,0,0,1,0,0,3,2,3,1,1,3,1,0,2,3,0,1,0,0,0.0,16583267.88,0.0,0,0,1,0,75
2048.215686,3301273,7.126470587999999,16-Jan-08,Merman Ethel,108,162.5,1,0,3,6,4,27,0,1,26,3,0,0,11,3,0,0,0,0,0,0,22,24,0,0,1,6,0,0,12,1,0,0,0,0,0.0,10383724.33,0.0,0,0,1,0,75
3454.6521740000003,3316531,6.2130434779999995,24-Jan-54,Miracle Irene,62,172.5,1,0,1,0,4,1,0,1,4,6,0,0,1,2,0,0,0,0,6,0,0,0,0,0,1,0,4,0,1,0,0,4,0,0,0.0,4565036.646000001,0.0,0,0,1,0,75
108.1868132,3321725,6.751648352,17-Feb-37,Mobley Mary Ann,79,162.5,0,0,2,0,1,10,0,2,11,4,0,0,7,0,0,2,0,0,0,0,2,2,0,0,1,3,0,0,0,0,0,1,0,2,0.0,4612888.509,0.0,0,0,1,0,75
939.72,3348451,7.152,28-Sep-34,Munro Janet,82,165.0,1,0,3,0,0,5,0,1,2,11,0,0,4,2,0,0,0,0,1,0,0,1,0,0,0,6,2,0,0,0,0,1,0,0,0.0,16494845.36,0.0,0,0,1,0,75
5784.262136,3384691,6.6873786410000005,13-Feb-33,Novak Kim,83,165.0,1,0,1,0,5,12,0,2,27,22,0,0,4,3,2,0,0,2,2,0,1,2,5,0,0,15,0,0,7,0,0,6,0,2,0.0,2916035.207,1361812.495,0,0,1,0,75
2628.6410960000003,3395940,7.732876712,20-Jul-71,Oh Sandra,45,165.0,1,0,4,5,0,18,0,6,20,28,0,0,10,2,0,0,0,1,1,0,4,2,3,2,1,8,1,0,15,0,0,7,1,0,1195894.488,7640231.683999999,430107.5269,0,0,1,0,75
5211.386364,3547669,7.4781818179999995,23-Mar-76,Russell Keri,40,160.0,5,0,4,1,1,8,0,1,6,15,0,0,9,2,0,0,0,2,3,0,3,0,1,1,1,6,4,0,7,0,0,6,2,0,14074193.87,44456464.4,141657.044,0,0,1,0,75
1338.4516130000002,3602986,7.167741935,25-May-35,Shaw Victoria,81,165.0,4,0,2,0,2,2,0,3,1,8,0,0,1,0,0,0,0,0,0,0,2,0,2,0,0,4,1,0,1,0,0,3,0,3,0.0,6216216.216,0.0,0,0,1,0,75
445.66379309999996,3638264,6.3284482760000005,5-Nov-40,Sommer Elke,76,167.5,8,0,10,0,4,43,0,14,11,28,0,0,3,0,0,0,0,2,4,0,2,3,7,0,2,4,2,0,0,2,1,10,3,1,0.0,21161157.02,0.0,0,0,1,0,75
1354.085714,3658327,7.205714286,18-Oct-34,Stevens Inger,82,162.5,0,0,3,0,0,1,0,2,2,8,0,0,2,0,1,0,0,1,0,0,0,0,1,0,1,6,1,0,0,0,0,5,1,5,0.0,17779014.32,5009.601673,0,0,1,0,75
624.4480518999999,3658692,6.145454545,1-Oct-36,Stevens Stella,80,162.5,13,0,5,0,1,32,0,13,15,38,0,0,3,3,0,1,0,0,12,0,6,5,2,0,1,8,6,0,8,0,0,15,1,8,127654.0541,11165490.51,0.0,0,0,1,0,75
1634.9920000000002,3694950,7.4864,22-Aug-60,Taylor Regina,56,170.0,2,0,0,0,2,1,0,4,1,15,0,0,1,1,0,0,0,0,0,0,0,1,3,0,0,1,0,0,0,0,0,4,1,1,0.0,43125565.28,0.0,0,0,1,0,75
520.6017699,3795562,7.72300885,4-Dec-51,Wettig Patricia,65,164.0,0,0,0,0,0,5,0,0,2,14,0,0,3,0,0,0,0,0,0,0,1,0,1,0,1,1,0,0,1,0,0,2,0,1,0.0,22746058.04,0.0,0,0,1,0,75
862.2380952,3823957,7.2119047620000005,8-Jun-31,Wynter Dana,85,165.0,4,0,3,0,0,3,0,5,6,21,0,0,2,1,0,0,0,3,2,0,0,0,3,0,0,4,3,0,0,0,0,0,6,1,0.0,15450434.85,0.0,0,0,1,0,75
4770.166667,3837276,5.875,4-May-54,Zadora Pia,62,150.0,1,0,1,0,2,4,0,2,7,3,0,0,3,1,0,0,0,0,0,0,4,3,0,0,2,1,2,0,3,1,0,1,0,0,2947518.0719999997,6130791.978999999,0.0,0,0,1,0,75
1379.053659,2607864,6.927317072999999,30-Aug-06,Blondell Joan,110,155.0,3,0,3,0,1,57,0,13,15,50,0,0,1,2,2,0,0,2,2,0,3,13,8,0,0,41,0,0,13,2,0,6,3,6,0.0,6984746.033,0.0,0,1,0,2,70
32660.75455,2964035,6.764545455,16-Nov-77,Gyllenhaal Maggie,39,172.5,2,0,0,1,2,15,0,3,20,25,0,0,5,2,0,0,0,1,0,0,4,0,1,1,1,7,1,0,9,0,0,7,0,0,12566555.93,37207925.87,595238.0952,0,1,0,2,70
3286.747664,2999141,6.3971962620000005,22-Nov-61,Hemingway Mariel,55,177.5,6,0,1,0,8,16,0,6,23,26,0,0,3,2,0,0,0,2,3,0,5,0,1,1,1,6,2,0,3,1,0,10,2,2,5459431.911,16831285.73,0.0,0,1,0,2,70
6622.71875,3046990,6.814583333,10-Sep-53,Irving Amy,63,160.0,2,0,3,1,2,10,0,2,21,21,0,0,7,3,0,0,0,0,6,0,8,3,2,0,2,12,2,0,8,0,0,10,1,1,9138946.064,25651059.24,0.0,0,1,0,2,70
19101.40769,3162169,6.703076922999999,22-Jan-65,Lane Diane,51,167.5,9,0,7,2,11,15,0,13,30,44,0,0,9,5,0,0,0,8,0,0,7,0,6,0,3,15,5,0,10,5,0,17,2,4,39886128.71,57312505.93,5965744.826,0,1,0,2,70
2873.663793,3163274,7.159482758999999,28-Nov-33,Lange Hope,83,157.0,3,0,1,0,4,6,0,2,12,26,0,0,2,1,0,1,0,1,3,0,2,0,2,0,1,6,0,0,0,1,0,7,2,1,0.0,15633472.46,0.0,0,1,0,2,70
5150.5263159999995,3207154,6.197368421,28-May-44,Locke Sondra,72,160.0,5,0,1,0,1,4,0,4,2,12,0,0,0,1,0,0,0,0,3,0,0,0,2,0,1,2,1,0,2,0,0,5,0,3,0.0,23464990.49,387867.049,0,1,0,2,70
11113.55844,3337679,6.516883117000001,29-Nov-60,Moriarty Cathy,56,172.5,4,0,3,3,4,27,0,8,5,21,0,0,8,2,0,0,0,1,2,0,0,0,1,0,1,6,1,0,13,1,0,7,0,0,0.0,24170666.19,0.0,0,1,0,2,70
6705.71831,3480531,6.754929577,19-Nov-54,Quinlan Kathleen,62,162.5,6,0,2,0,4,13,0,9,5,52,0,0,3,2,0,0,0,3,6,0,0,0,7,0,2,10,5,0,3,2,0,21,1,1,364968.6747,24447540.77,0.0,0,1,0,2,70
42597.20792,3662622,7.025742574,6-Nov-88,Stone Emma,28,165.0,2,0,5,2,2,29,0,0,7,9,0,0,3,3,0,0,0,2,1,0,10,2,0,0,5,7,2,0,6,1,1,0,0,0,122674877.1,59478156.27,0.0,0,1,0,2,70
3104.55,3832215,6.6166666670000005,9-Jan-39,York Susannah,77,165.0,2,0,10,1,4,16,0,8,22,47,0,0,4,6,0,0,0,4,8,0,0,1,6,0,1,10,2,0,15,0,0,11,1,0,0.0,25959622.32,0.0,0,1,0,2,70
2478.5375,2494043,6.48,27-Jun-55,Adjani Isabelle,61,163.0,4,0,1,0,9,19,0,8,20,32,0,0,2,2,0,0,0,4,5,0,2,0,5,1,0,15,0,0,5,0,1,9,2,0,1820046.583,48742426.61,0.0,0,2,0,0,60
559.3604061000001,2519201,7.413705584,5-Aug-45,Anderson Loni,71,165.0,4,0,2,3,7,32,0,3,15,13,0,0,11,3,0,0,0,1,0,0,12,1,0,0,7,2,1,0,0,1,1,5,0,1,0.0,1705999.4309999999,73619.6319,0,0,0,3,60
2043.914596,2528551,7.069099379,25-Nov-71,Applegate Christina,45,162.5,5,0,4,4,4,44,0,3,29,13,0,0,14,7,0,0,0,2,1,0,12,1,1,2,2,11,3,0,15,2,2,4,0,1,23585768.01,36276319.17,0.0,0,0,0,3,60
73.44850498,2604447,7.872923588,20-Feb-29,Blake Amanda,87,165.0,3,0,6,0,0,8,0,5,4,12,0,0,1,0,0,0,0,0,1,0,1,4,1,1,0,7,0,0,1,0,0,2,1,4,0.0,11006716.29,0.0,0,0,0,3,60
5170.463415,2614363,7.0121951220000005,3 May 1889,Bondi Beulah,127,162.5,1,0,3,1,4,19,0,2,4,46,0,0,3,3,2,0,0,6,2,0,2,2,1,0,0,24,1,0,1,0,1,1,4,6,0.0,13849290.8,0.0,0,2,0,0,60
1479.193878,2626840,6.885714286,8-Jun-50,Braga Sonia,66,155.0,2,0,1,0,3,12,0,6,2,36,0,0,3,2,0,0,0,1,1,0,2,1,2,0,1,9,0,0,2,0,0,5,1,1,29129.0,18969950.57,0.0,0,0,0,3,60
2192.782341,2631489,7.949897331,22-Jun-64,Brenneman Amy,52,165.0,3,0,2,0,0,6,0,4,9,19,0,0,2,2,0,0,0,0,0,0,2,0,1,0,0,6,0,0,6,0,0,6,0,0,4273177.702,52690706.35,115774.2402,0,0,0,3,60
4633.765363,2693399,6.437988827000001,31-Jul-44,Chaplin Geraldine,72,162.5,4,0,11,1,8,34,0,6,23,88,0,0,1,8,0,0,0,9,8,0,8,5,14,0,0,28,2,0,11,0,1,14,3,2,0.0,28286146.86,0.0,0,0,0,3,60
395.17857139999995,2696131,6.6892857139999995,24 December 1892,Chatterton Ruth,124,155.0,0,0,0,0,0,5,0,1,3,26,0,0,0,0,0,0,0,1,0,0,0,1,0,0,0,5,0,0,2,0,0,0,0,0,0.0,5280000.0,0.0,0,2,0,0,60
182.54186049999998,2743820,7.842790698,25-Mar-62,Cross Marcia,54,170.0,3,0,3,1,5,9,0,4,15,11,0,0,3,2,0,0,0,2,2,0,2,0,3,2,1,4,4,0,6,0,0,2,0,1,0.0,4401756.524,0.0,0,0,0,3,60
1284.135366,2779315,5.91,26-Jan-58,DeGeneres Ellen,58,167.5,1,0,5,4,5,39,0,2,40,4,0,0,12,1,0,0,0,1,0,0,29,1,3,4,4,2,1,0,7,0,5,1,0,0,252033781.1,25353937.3,11312245.41,0,0,0,3,60
10348.15169,2974168,7.250561798,26-Sep-56,Hamilton Linda,60,165.0,16,0,5,3,3,13,0,3,19,31,0,0,6,5,0,0,0,1,3,0,2,0,4,1,1,7,14,0,14,1,0,15,3,1,0.0,41192845.57,1762114.5369999998,0,0,0,3,60
1768.8039219999998,2998033,7.647058824,16-Nov-58,Helgenberger Marg,58,165.0,7,0,3,1,2,6,0,9,8,22,0,0,6,2,0,0,0,0,4,0,4,0,3,0,3,6,4,0,6,2,0,15,1,1,0.0,32747963.5,0.0,0,0,0,3,60
684.089701,3086278,7.601993355,21-Dec-55,Kaczmarek Jane,61,165.0,1,0,0,0,3,15,0,0,8,17,0,0,3,3,0,0,0,0,1,0,1,0,1,1,4,3,1,0,2,0,0,2,0,0,0.0,17911974.38,139372.8223,0,0,0,3,60
48.1656051,3106788,7.798726115,28-Jul-46,Kelsey Linda,70,157.5,1,0,1,0,1,1,0,2,3,16,0,0,2,0,0,0,0,1,2,0,0,0,1,0,0,1,0,0,1,1,0,4,0,0,0.0,0.0,0.0,0,0,0,3,60
36.25824176,3172652,8.114285714,26-Mar-49,Lawrence Vicki,67,165.0,0,0,1,5,2,28,0,0,9,2,0,0,9,0,0,8,0,1,0,0,10,1,0,0,1,0,0,0,8,1,0,0,0,0,0.0,4772148.009,0.0,0,0,0,3,60
6141.3977270000005,3230286,7.25625,21-Apr-58,MacDowell Andie,58,170.0,1,0,4,1,1,22,0,5,21,30,0,0,5,2,0,0,0,1,1,0,4,0,4,2,0,14,1,0,9,1,0,6,1,1,4268623.586,30455673.46,0.0,0,0,0,3,60
3194.284211,3258431,7.228684211,15-Oct-43,Marshall Penny,73,165.0,1,0,1,2,4,37,0,1,30,7,0,0,7,1,0,1,0,0,0,0,11,1,0,0,9,4,0,0,3,3,0,1,1,1,1056447.619,23407638.12,0.0,0,0,0,3,60
565.8421053,3279448,7.465384615,21-Feb-34,McClanahan Rue,82,157.5,1,0,3,3,11,31,0,4,19,33,0,0,18,3,0,0,0,2,0,0,6,5,4,0,2,7,0,0,4,1,0,4,0,0,0.0,816926.337,223048.3271,0,0,0,3,60
1148.140351,3314620,6.271929825,8-Jan-42,Mimieux Yvette,74,160.0,8,0,4,0,1,6,0,5,3,28,0,0,2,2,0,0,0,1,3,0,1,1,0,0,0,5,3,0,1,0,0,10,2,3,0.0,24271451.56,0.0,0,0,0,3,60
983.0950226,3425158,6.735294118,19-Jan-46,Parton Dolly,70,147.5,0,0,0,0,16,27,0,0,72,7,0,0,22,2,0,0,0,2,0,0,189,9,1,7,3,2,0,0,18,0,13,1,0,0,36268736.71,13027863.73,4619826.757,0,0,0,3,60
325.17857139999995,3487307,6.544642857,15 July 1889,Rambeau Marjorie,127,165.0,0,0,2,1,2,17,0,8,1,42,0,0,1,0,2,0,0,1,0,0,4,3,1,0,0,23,0,0,3,0,0,1,1,4,0.0,10732753.89,0.0,0,2,0,0,60
13001.57025,3549789,6.1958677689999995,19-Nov-61,Ryan Meg,55,170.0,5,0,3,1,5,23,0,4,32,18,0,0,3,6,0,0,0,2,1,0,6,2,5,1,4,20,1,0,8,1,0,7,1,0,34504610.0,39273107.36,15461209.61,0,0,0,3,60
1052.343284,3730386,7.6218905470000005,6-Dec-62,Turner Janine,54,165.0,4,0,2,0,1,5,0,3,4,16,0,0,4,0,0,0,0,0,2,0,2,1,2,0,0,6,3,0,3,1,0,7,0,1,0.0,26423476.06,0.0,0,0,0,3,60
998.9166667000002,3781424,6.71,12-Sep-57,Ward Rachel,59,172.5,3,0,6,0,2,4,0,6,5,15,0,0,1,1,0,0,0,2,4,0,1,0,4,0,0,4,1,0,1,0,0,8,2,1,26282651.7,27550114.06,0.0,0,0,0,3,60
3245.055901,2530609,6.732298137000001,24-Aug-47,Archer Anne,69,165.0,18,0,6,0,1,12,0,9,15,42,0,0,4,1,0,0,0,1,0,0,1,0,8,0,1,8,0,0,10,1,0,18,1,2,0.0,40962231.58,0.0,0,1,0,1,50
1345.766871,2656339,7.271165644,17 October 1886,Byington Spring,130,157.5,3,0,4,0,4,60,0,6,6,38,0,0,7,5,2,0,0,3,1,0,1,9,2,0,0,36,1,0,6,2,0,1,2,1,0.0,15094647.64,0.0,0,1,0,1,50
24688.540230000002,2712917,6.991954023,29-Dec-59,Clarkson Patricia,57,162.5,4,0,2,1,2,19,0,5,23,42,0,0,1,2,0,0,0,2,4,0,1,1,5,1,0,18,3,0,17,5,0,15,1,2,5457072.2870000005,24144277.95,0.0,0,1,0,1,50
846.1889764,2722449,7.545669291,3-Sep-40,Collins Pauline,76,155.0,0,0,1,2,0,14,0,1,3,21,0,0,2,1,0,0,0,2,0,0,1,0,1,0,0,4,1,0,3,0,0,0,2,0,12297896.13,22753760.67,0.0,0,1,0,1,50
480.2909091,2757847,6.894545455,9-Nov-22,Dandridge Dorothy,94,162.5,1,0,4,0,2,14,0,8,11,18,0,0,3,0,0,0,0,2,0,0,10,14,2,0,0,12,0,0,7,3,0,0,1,2,0.0,20662897.45,482225.9056,0,1,0,1,50
2917.392308,2796520,7.073846154,27-Dec-01,Dietrich Marlene,115,160.0,0,0,6,2,12,19,0,6,64,38,0,0,2,1,2,0,0,15,0,0,10,2,1,0,0,22,0,0,12,1,1,6,11,3,33342345.99,21240086.43,2088976.993,0,1,0,1,50
10050.802029999999,2813207,6.968527919,31-Jan-70,Driver Minnie,46,175.0,5,0,5,3,4,23,0,9,24,22,0,0,10,4,0,0,0,0,1,0,9,4,0,0,4,15,1,0,12,1,0,10,0,0,1679831.209,26715704.51,0.0,0,1,0,1,50
18760.37888,2855206,7.827329193,6-Aug-73,Farmiga Vera,43,170.0,6,0,2,0,1,11,0,9,9,24,0,0,1,2,0,0,0,2,4,0,1,0,8,0,0,11,1,0,10,0,1,13,2,1,37619367.84,19028051.87,0.0,0,1,0,1,50
1497.4957259999999,2907540,6.6769230770000005,24-Dec-22,Gardner Ava,94,165.0,8,0,10,0,4,22,0,10,27,45,0,0,6,4,6,0,0,7,2,0,2,11,7,0,0,33,1,0,14,0,0,11,5,2,18308823.53,23789095.8,1750294.5380000002,0,1,0,1,50
1409.227941,2926317,6.957352941,14 October 1893,Gish Lillian,123,160.0,1,0,3,2,7,19,0,5,39,90,0,0,7,2,1,0,0,10,0,0,7,1,4,0,4,20,0,0,63,0,1,4,9,6,66454150.84,14372100.77,20.0,0,1,0,1,50
9839.251799,2992204,6.883093525,2-Sep-66,Hayek Salma,50,155.0,14,0,3,3,4,30,0,8,41,25,0,0,8,2,0,0,0,5,4,0,16,2,1,2,3,11,3,0,9,3,1,10,0,2,16850879.72,35749571.92,0.0,0,1,0,1,50
1451.5714289999999,3023816,7.028571428999999,18-Oct-02,Hopkins Miriam,114,152.5,1,0,2,0,2,13,0,3,6,23,0,0,0,0,0,0,0,1,2,0,0,3,0,0,0,16,1,0,3,0,0,2,1,3,0.0,12308700.62,0.0,0,1,0,1,50
4471.481328,3062493,7.302904563999999,26-Apr-67,Jean-Baptiste Marianne,49,152.5,5,0,1,0,0,5,0,4,2,14,0,0,1,0,0,0,0,0,3,0,0,0,0,0,0,2,3,0,5,0,0,8,0,0,0.0,56850804.1,0.0,0,1,0,1,50
4157.795918,3070107,6.8591836729999995,5-Oct-23,Johns Glynis,93,160.0,2,0,6,4,3,25,0,5,5,32,0,0,12,10,0,0,0,6,3,0,3,3,5,0,0,17,1,0,3,0,0,6,6,0,0.0,19678956.7,0.0,0,1,0,1,50
13114.83582,3076012,7.046268657000001,17-Oct-83,Jones Felicity,33,157.5,5,0,3,0,2,5,0,3,4,17,0,0,1,2,0,0,0,1,0,0,0,0,4,0,0,13,2,0,7,1,0,4,0,0,788274.2742,56825924.4,0.0,0,1,0,1,50
6837.9537040000005,3091092,6.835648148,18-Jun-52,Kane Carol,64,155.0,5,0,6,4,7,57,0,9,12,42,0,0,14,6,0,0,0,2,6,0,7,0,2,0,2,16,1,0,7,1,0,12,0,1,23955512.87,29047859.16,0.0,0,1,0,1,50
999.5837104,3104838,6.621266968,2-Jun-37,Kellerman Sally,79,175.0,3,0,6,1,7,33,0,4,27,26,0,0,9,6,0,0,0,3,3,0,3,4,5,0,0,12,2,0,8,2,2,10,4,1,4536397.183,9026700.514,309278.3505,0,1,0,1,50
32464.95699,3107669,6.67311828,9-Aug-85,Kendrick Anna,31,155.0,4,0,7,2,0,26,0,4,5,19,0,0,4,8,0,0,0,0,2,0,14,5,0,0,0,14,0,0,5,0,0,4,0,0,76725394.71,34843052.48,0.0,0,1,0,1,50
14793.55172,3114996,6.965517241000001,6-Jan-81,Kikuchi Rinko,35,169.0,5,0,4,2,0,8,0,1,2,22,0,0,0,4,0,0,0,0,2,0,0,0,3,0,0,7,4,0,3,0,0,3,0,0,628944.2529,41950433.44,0.0,0,1,0,1,50
12074.0,3192680,6.939106145,21-Jun-73,Lewis Juliette,43,165.0,5,0,3,2,1,24,0,13,21,34,0,0,2,0,0,0,0,1,4,0,18,0,4,1,0,8,4,0,19,2,0,15,0,1,40044087.88,30790253.65,0.0,0,1,0,1,50
5685.55,3234644,6.7177272729999995,11-Sep-61,Madsen Virginia,55,162.5,9,0,8,3,5,27,0,12,25,45,0,0,6,10,0,0,0,2,8,0,8,1,13,1,1,14,7,0,15,1,0,25,1,1,35346185.01,29246112.71,0.0,0,1,0,1,50
976.7741935,3238428,6.777419355,24 February 1890,Main Marjorie,126,167.5,1,0,4,0,1,44,0,10,1,37,0,0,3,1,3,0,0,1,0,0,1,7,2,0,0,26,0,0,7,1,0,2,1,12,0.0,14304627.21,0.0,0,1,0,1,50
4728.416279,3278897,7.364418605,26-Aug-70,McCarthy Melissa,46,155.0,5,0,1,2,0,32,0,5,1,5,0,0,2,4,0,0,0,0,0,0,2,0,4,1,3,4,4,0,6,0,0,3,0,0,74307739.42,32377126.26,8250000.0,0,1,0,1,50
8187.808824,3284594,7.344852941,18-Jul-61,McGovern Elizabeth,55,175.0,2,0,1,0,4,16,0,6,8,30,0,0,1,1,0,0,0,5,0,0,0,0,2,0,0,13,1,0,6,0,0,7,1,0,2037.33547,16838197.27,0.0,0,1,0,1,50
1991.209302,3309857,6.5604651160000005,31-Dec-41,Miles Sarah,75,162.5,0,0,1,0,1,3,0,5,10,25,0,0,2,0,0,0,0,1,1,0,1,0,8,0,0,12,0,0,5,0,0,7,1,1,0.0,14980429.53,0.0,0,1,0,1,50
26158.56579,3347235,7.509210526,28-May-85,Mulligan Carey,31,167.5,0,0,0,0,3,2,0,2,10,13,0,0,0,0,0,0,0,8,0,0,1,0,0,1,0,5,1,0,10,0,1,0,1,0,7257644.767000001,32102790.81,0.0,0,1,0,1,50
8863.669903,3397543,7.103883495,Aug-68,Okonedo Sophie,48,170.0,3,0,4,2,4,7,0,3,9,21,0,0,3,0,0,0,0,3,0,0,3,0,3,1,0,3,3,0,5,2,0,5,1,0,0.0,40789679.63,0.0,0,1,0,1,50
33769.17273,3413031,6.773636364,21-Feb-87,Page Ellen,29,152.5,2,0,5,3,4,12,0,4,12,26,0,0,2,2,0,0,0,1,2,0,0,0,0,4,1,5,5,0,9,1,1,8,0,0,83081471.66,31173498.67,0.0,0,1,0,1,50
4447.577703,3439322,6.730067568,6-Sep-64,Perez Rosie,52,152.5,4,0,2,4,2,22,0,6,28,23,0,0,5,0,0,0,0,2,1,0,14,0,1,1,1,4,0,0,6,1,0,3,0,0,157236.0144,16054961.4,0.0,0,1,0,1,50
7451.881579000001,3440930,6.584210526000001,3-Sep-43,Perrine Valerie,73,167.5,6,0,5,0,4,20,0,3,8,22,0,0,8,4,0,0,0,0,1,0,1,1,1,0,1,9,4,0,3,5,0,6,1,1,0.0,36778261.42,0.0,0,1,0,1,50
27633.714289999996,3452162,7.002380952,27-Jan-79,Pike Rosamund,37,170.0,9,0,7,0,2,7,0,4,20,14,0,0,1,1,0,0,0,2,1,0,1,0,4,0,0,3,2,0,18,0,0,12,2,1,0.0,67384800.73,0.0,0,1,0,1,50
2785.8604649999997,3520103,7.062790698,20-Sep-27,Roberts Rachel,89,162.5,1,0,0,1,3,10,0,3,2,27,0,0,1,4,0,0,0,0,1,0,3,1,3,0,0,2,1,0,0,1,0,5,2,0,124776.4417,4958677.686000001,0.0,0,1,0,1,50
27137.82353,3520104,7.194117647000001,8-Apr-78,Roberts Rachel,38,172.5,1,0,1,0,0,1,0,0,0,0,0,0,1,0,0,0,0,0,0,0,2,0,0,0,0,1,2,0,1,0,0,2,0,0,27421711.99,41209321.89,0.0,0,1,0,1,50
18508.49587,3549304,7.55785124,3-May-68,Ryan Amy,48,157.5,3,0,2,1,3,9,0,7,3,22,0,0,3,1,0,0,0,0,1,0,3,0,3,2,0,3,2,0,9,1,0,7,0,0,0.0,23553060.0,0.0,0,1,0,1,50
11713.57432,3611161,6.883108107999999,6-Oct-63,Shue Elisabeth,53,155.0,9,0,4,0,3,17,0,5,16,24,0,0,9,2,0,0,0,0,6,0,3,0,5,1,2,14,5,0,16,6,0,13,0,2,44485094.43,36965036.16,0.0,0,1,0,1,50
4356.111111,3612658,7.650793651,6-May-83,Sidibe Gabourey,33,162.5,0,0,0,0,0,5,0,0,5,3,0,0,1,0,0,0,0,0,0,0,1,0,1,1,0,1,0,0,6,0,0,1,0,0,53020964.4,6220634.848999999,0.0,0,1,0,1,50
278.66037739999996,3640995,6.571698112999999,22-Jan-09,Sothern Ann,107,152.5,5,0,3,0,2,44,0,10,8,32,0,0,3,1,2,0,0,0,3,0,4,20,6,0,0,17,0,0,9,2,0,5,3,1,0.0,9478827.473,213523.1317,0,1,0,1,50
17919.913669999998,3652899,7.115827338,9-Jan-56,Staunton Imelda,60,150.0,2,0,9,15,3,24,0,6,21,28,0,0,15,10,0,0,0,1,1,0,3,4,3,1,0,7,1,0,12,1,0,3,0,0,2127379.175,63432512.35,0.0,0,1,0,1,50
8156.163636,3667407,6.785454545,4-Jul-10,Stuart Gloria,106,162.5,2,0,5,0,4,26,0,6,27,29,0,0,6,1,1,0,0,3,5,0,2,14,7,0,1,15,2,0,3,2,0,4,3,0,0.0,35187094.52,0.0,0,1,0,1,50
955.2105263000001,3675492,7.268421053,9-Feb-39,Suzman Janet,77,162.5,1,0,1,0,5,11,0,3,12,21,0,0,2,1,0,0,0,4,0,0,1,1,4,0,0,3,0,0,3,0,0,3,2,0,0.0,34004076.34,0.0,0,1,0,1,50
3181.7701859999997,3732757,6.933540373,18-Dec-24,Tyson Cicely,92,157.5,1,0,2,0,5,12,0,5,22,45,0,0,15,2,0,0,0,4,0,0,8,4,4,2,7,4,1,0,6,1,0,5,2,0,0.0,15361220.49,0.0,0,1,0,1,50
3529.869806,3811859,6.687257617999999,29-Jan-54,Winfrey Oprah,62,169.0,0,0,2,1,13,7,0,0,65,14,0,0,17,4,0,0,0,9,1,0,14,3,0,4,6,4,1,0,11,2,13,0,1,0,0.0,28640055.97,689781021.9,0,1,0,1,50
2928.174194,3812492,7.325806452,16-May-59,Winningham Mare,57,165.0,2,0,1,0,7,7,0,2,3,52,0,0,9,2,0,0,0,1,1,0,1,0,1,0,0,7,4,0,5,2,0,12,4,2,0.0,7374016.657000001,0.0,0,1,0,1,50
8888.222222,3818456,6.422222222,9 February 1892,Wood Peggy,124,165.0,0,0,0,0,1,6,0,0,0,8,0,0,1,0,0,0,0,1,0,0,1,1,0,0,2,6,0,0,0,0,0,0,0,0,0.0,14066151.28,0.0,0,1,0,1,50
9291.079137,2553304,7.066906475,25-Feb-38,Baker Diane,78,165.0,3,0,5,0,5,4,0,10,9,45,0,0,4,1,0,0,0,3,4,0,2,0,10,0,0,4,1,0,1,0,0,14,4,2,0.0,18861300.57,0.0,0,0,0,2,40
3372.8016090000006,2560185,7.532439677999999,2-May-52,Baranski Christine,64,170.0,1,0,7,4,2,28,0,2,8,11,0,0,13,7,0,0,0,1,0,0,11,11,3,0,0,10,0,0,6,0,0,2,0,0,0.0,51103309.08,0.0,0,0,0,2,40
8673.391667,2562912,6.8666666670000005,16-Apr-54,Barkin Ellen,62,165.0,6,0,3,0,5,21,0,10,8,38,0,0,3,3,0,0,0,2,1,0,6,3,4,0,2,11,1,0,2,2,0,11,0,1,8700262.791000001,22600112.83,0.0,0,0,0,2,40
2413.522727,2587708,6.509090909,15-Feb-47,Berenson Marisa,69,170.0,4,0,3,0,6,21,0,3,20,26,0,0,4,2,0,0,0,2,1,0,7,2,0,1,3,8,0,0,2,0,1,4,1,0,0.0,15098944.49,0.0,0,0,0,2,40
2141.5837100000003,2638961,7.733031673999999,23-Apr-46,Brown Blair,70,170.0,5,0,0,0,6,7,0,3,21,33,0,0,2,0,0,0,0,1,6,0,2,0,2,0,0,7,7,0,5,1,0,8,0,3,1404365.417,32617678.05,0.0,0,0,0,2,40
67.92481203,2654962,7.6830827070000005,30-Jan-58,Butler Brett,58,172.5,2,0,1,0,0,21,0,1,6,1,0,0,0,0,0,1,0,0,1,0,2,0,0,0,1,0,1,0,0,0,0,1,0,0,0.0,5699044.042,0.0,0,0,0,2,40
27672.21918,2656807,7.51369863,24-Jul-79,Byrne Rose,37,168.0,3,0,3,1,2,24,0,4,7,20,0,0,3,0,0,0,0,1,3,0,5,2,5,0,0,11,5,0,8,0,0,7,0,0,33496.9973,41801239.02,506.8937551,0,0,0,2,40
1014.646341,2675997,6.752439024,31-Dec-45,Carrera Barbara,71,170.0,9,0,6,0,1,8,0,4,6,12,0,0,1,2,0,0,0,1,3,0,0,0,2,0,0,6,2,0,2,0,0,10,0,3,0.0,25909126.1,0.0,0,0,0,2,40
579.3170732000001,2678347,7.0813008129999995,13-Sep-48,Carter Nell,68,147.5,0,0,1,2,1,19,0,2,11,4,0,0,18,3,0,3,0,1,0,0,14,8,0,0,1,4,1,0,0,1,0,1,0,0,0.0,9758872.412,0.0,0,0,0,2,40
15459.7265,2765525,7.294017094,23-Mar-64,Davis Hope,52,167.5,3,0,1,0,2,13,0,5,8,32,0,0,3,3,0,0,0,0,1,0,0,0,7,0,0,5,5,0,3,1,0,10,0,0,4986549.202,28083460.83,0.0,0,0,0,2,40
319.5950413,2781891,7.498347107000001,29-Nov-61,Delaney Kim,55,167.5,6,0,2,0,0,2,0,3,5,21,0,0,2,2,0,0,0,0,9,0,3,0,4,0,2,2,5,0,0,0,0,16,0,0,0.0,13355410.06,0.0,0,0,0,2,40
275.2635135,2810445,7.871621622,6-May-60,Downey Roma,56,160.0,3,0,1,1,3,4,0,5,11,12,0,0,4,2,0,0,0,2,0,0,1,0,0,0,0,5,1,0,1,0,1,3,0,0,0.0,13270555.55,161943.3198,0,0,0,2,40
1190.169323,2812415,7.511155378,30-Sep-57,Drescher Fran,59,160.0,1,0,0,4,3,33,0,2,19,5,0,0,4,4,0,0,0,1,3,0,9,0,1,1,3,1,0,0,6,0,2,2,0,0,17128363.36,23716698.27,0.0,0,0,0,2,40
2484.816901,2818537,6.887323943999999,20-Feb-46,Duncan Sandy,70,160.0,0,0,3,7,0,19,0,0,9,5,0,0,24,10,0,1,0,2,0,0,26,7,0,0,3,2,3,0,8,0,0,0,0,0,0.0,7102914.659,0.0,0,0,0,2,40
163.4275862,2827472,7.103103448,23-Aug-31,Eden Barbara,85,157.5,2,0,3,1,6,50,0,3,25,18,0,0,10,8,0,0,0,0,1,0,16,6,5,0,6,10,4,0,2,3,0,8,0,2,0.0,13074930.51,0.0,0,0,0,2,40
17842.584619999998,2877556,6.272307692,27-Jan-64,Fonda Bridget,52,165.0,5,0,5,5,3,16,0,6,11,30,0,0,3,8,0,0,0,2,3,0,1,0,0,0,2,8,4,0,2,0,0,7,0,1,40971857.86,30228431.19,0.0,0,0,0,2,40
274.6200466,2879072,6.769230769,14-Sep-64,Ford Faith,52,167.5,1,0,1,0,1,11,0,0,5,8,0,0,8,0,0,0,0,1,1,0,2,0,0,0,4,2,1,0,4,0,1,2,0,0,0.0,24255104.23,0.0,0,0,0,2,40
106.04029299999999,2886684,7.429304029,6-Jan-44,Franklin Bonnie,72,157.5,0,0,0,1,1,12,0,1,13,6,0,0,6,0,1,0,0,3,0,0,7,6,0,0,0,1,0,0,2,0,0,0,0,0,0.0,2798570.21,0.0,0,0,0,2,40
107.5052632,2946437,7.404631579,12-Sep-40,Gray Linda,76,167.5,1,0,4,1,5,15,0,2,24,18,0,0,20,2,0,0,0,2,1,0,6,2,5,0,3,3,1,0,3,0,0,3,1,2,0.0,3863919.086,0.0,0,0,0,2,40
5037.726073,2996464,7.413531353,24-Nov-78,Heigl Katherine,38,172.5,5,0,3,2,1,19,0,2,7,13,0,0,9,2,0,0,0,0,6,0,4,1,1,2,0,13,1,0,3,2,0,11,0,2,46452782.87,30447778.99,9307130.888,0,0,0,2,40
18440.33333,3034984,7.0933333329999995,22-Sep-61,Hunt Bonnie,55,170.0,2,0,7,6,3,20,0,2,16,10,0,0,16,5,0,0,0,2,0,0,2,1,4,0,2,8,0,0,10,4,1,1,0,0,0.0,52145306.99,0.0,0,0,0,2,40
10737.72,3076333,7.816571429,5-Jan-78,Jones January,38,165.0,2,0,1,0,0,4,0,2,9,9,0,0,1,0,0,0,0,0,1,0,2,0,3,0,0,3,0,0,9,1,0,5,0,3,0.0,35817452.31,0.0,0,0,0,2,40
17299.158330000002,3082097,6.743333333,19-Apr-68,Judd Ashley,48,167.5,2,0,1,0,7,10,0,10,34,27,0,0,9,1,0,0,0,1,1,0,14,2,8,1,1,5,1,0,12,0,0,9,0,0,19204075.86,30964052.68,2511379.906,0,0,0,2,40
345.1680672,3209140,6.599159664,4-Jul-27,Lollobrigida Gina,89,158.0,1,0,4,0,7,38,0,6,30,34,0,0,5,4,0,0,0,5,0,0,10,3,0,0,0,17,0,0,4,0,2,2,7,1,19097.11267,22935865.36,0.0,0,0,0,2,40
1039.936975,3257763,7.623109244,1-Jul-34,Marsh Jean,82,165.0,1,0,8,0,3,8,0,3,15,31,0,0,8,5,0,1,0,4,7,0,1,1,6,0,0,9,6,0,7,0,0,6,1,0,0.0,32773733.2,0.0,0,0,0,2,40
291.125,3290435,6.798214286,11-Sep-62,McNichol Kristy,54,160.0,1,0,2,0,0,11,0,1,6,19,0,0,11,1,0,3,0,0,2,0,10,1,1,0,1,5,0,0,1,6,0,4,2,0,19328982.13,8917664.872000001,0.0,0,0,0,2,40
307.2453988,3301002,7.106441717999999,27-May-35,Meriwether Lee,81,170.0,2,0,6,0,4,21,0,0,21,18,0,0,20,3,0,3,0,0,6,0,3,3,1,1,0,8,2,0,12,0,3,2,0,3,0.0,1496213.6369999999,0.0,0,0,0,2,40
5865.255172,3302928,7.187586207000001,16-Jun-55,Metcalf Laurie,61,165.0,0,0,3,3,1,19,0,4,10,12,0,0,3,1,0,0,0,0,0,0,1,1,1,0,0,3,3,0,3,0,0,3,0,0,2486735.502,54005168.8,0.0,0,0,0,2,40
272.5854922,3313634,7.236787565,21-Nov-41,Mills Juliet,75,155.0,0,0,2,2,2,13,0,2,14,15,0,0,4,2,0,0,0,0,3,0,1,0,2,0,3,7,0,0,4,1,0,0,2,1,0.0,17886150.78,0.0,0,0,0,2,40
13825.18243,3331159,6.02972973,11-Nov-62,Moore Demi,54,162.5,4,0,6,4,3,23,0,7,24,36,0,0,8,4,0,0,0,3,4,0,7,3,4,0,1,15,3,0,7,0,1,15,1,1,30670264.99,45461955.15,6763588.516,0,0,0,2,40
737.5929204,3371178,6.7637168139999995,16-Aug-33,Newmar Julie,83,177.5,7,0,5,1,5,25,0,5,12,10,0,0,2,5,0,0,0,3,4,0,6,10,3,0,1,10,6,0,5,0,0,1,0,4,0.0,14271366.66,0.0,0,0,0,2,40
8567.100671,3439854,7.143624161,18-Nov-60,Perkins Elizabeth,56,170.0,2,0,2,1,2,24,0,4,10,27,0,0,5,6,0,0,0,0,1,0,0,0,4,0,0,9,3,0,12,0,0,2,0,0,3919461.417,48217450.54,0.0,0,0,0,2,40
3859.7275990000003,3457621,7.192473118,31-Jan-37,Pleshette Suzanne,79,160.0,4,0,4,1,7,21,0,8,13,31,0,0,8,3,0,0,0,0,1,0,1,3,6,0,4,8,2,0,3,0,0,8,1,6,0.0,11080847.9,0.0,0,0,0,2,40
105.68,3471977,7.402461538,3-Jan-50,Principal Victoria,66,165.0,1,0,1,0,1,7,0,2,11,17,0,0,4,0,0,0,0,0,0,0,1,0,0,0,8,5,0,0,0,0,0,10,0,0,0.0,0.0,68068.29353,0,0,0,2,40
2957.454545,3480566,7.036363636,28-Jun-71,Quinn Aileen,45,150.0,0,0,0,1,0,3,0,0,3,3,0,0,6,2,0,0,0,0,0,0,2,2,0,0,0,0,0,0,1,0,0,0,0,0,0.0,18364663.92,0.0,0,0,0,2,40
1041.333333,3500372,6.990277777999999,4-Nov-30,Reid Kate,86,165.0,2,0,1,0,2,5,0,4,2,36,0,0,0,0,0,0,0,2,1,0,0,0,4,0,0,5,3,0,5,1,0,11,0,0,0.0,13906920.41,0.0,0,0,0,2,40
6168.661017,3510626,7.458757062,9-Jan-65,Richardson Joely,51,178.0,1,0,3,0,3,11,0,3,11,32,0,0,4,2,0,0,0,3,4,0,0,2,6,0,0,13,2,0,3,0,0,11,4,0,11316.99605,63683413.17,0.0,0,0,0,2,40
173.65957450000002,3510815,7.340780142000001,23-Feb-51,Richardson Patricia,65,167.5,1,0,3,0,1,13,0,3,3,12,0,0,7,1,0,0,0,0,0,0,4,1,0,0,0,3,2,0,1,0,0,1,0,0,0.0,5210123.68,0.0,0,0,0,2,40
997.373057,3548891,6.866839378,16-Sep-48,Ruttan Susan,68,165.0,3,0,0,0,2,14,0,7,5,24,0,0,6,2,0,0,0,0,4,0,1,0,2,0,0,4,3,0,5,1,1,8,0,1,0.0,27952408.35,0.0,0,0,0,2,40
1542.073394,3607175,6.734862385,31-May-65,Shields Brooke,51,180.0,2,0,6,5,9,55,0,2,52,23,0,0,29,0,0,0,0,4,2,0,28,1,6,1,8,10,1,0,7,0,1,4,0,2,40726654.25,13110977.67,988554.7729,0,0,0,2,40
242.9375,3619503,7.053125,8-Jun-40,Sinatra Nancy,76,157.5,2,0,0,0,5,7,0,0,22,2,0,0,3,1,0,0,0,0,1,0,25,3,0,0,3,0,0,0,3,0,1,1,0,0,0.0,5070421.936000001,0.0,0,0,0,2,40
16210.59016,3635064,6.368852459,10-Jun-83,Sobieski Leelee,33,175.0,1,0,2,0,3,4,0,5,5,16,0,0,3,3,0,0,0,1,2,0,1,0,5,0,0,3,0,0,3,0,0,10,2,0,12168533.11,19553258.81,1355166.573,0,0,0,2,40
624.206278,3666216,7.658744395,24-Jun-67,Stringfield Sherry,49,167.5,1,0,0,0,1,2,0,5,1,19,0,0,0,0,0,0,0,1,0,0,2,0,0,0,0,1,0,0,1,1,0,2,0,0,0.0,24565293.26,0.0,0,0,0,2,40
868.88,3695492,6.9352,25-Jan-45,Taylor-Young Leigh,71,170.0,4,0,3,0,3,9,0,8,8,22,0,0,3,1,0,1,0,2,2,0,1,0,3,0,2,3,5,0,1,2,0,8,0,0,0.0,5546263.833,0.0,0,0,0,2,40
1118.111111,3709336,6.574074073999999,13-Oct-42,Tiffin Pamela,74,167.5,2,0,0,0,0,15,0,2,1,7,0,0,0,0,0,0,0,0,0,0,0,2,2,0,0,4,0,0,1,0,0,1,0,2,0.0,28589260.96,0.0,0,0,0,2,40
292.19642860000005,3773395,6.982142857,22-Jun-49,Wagner Lindsay,67,172.5,10,0,3,0,4,10,0,6,14,39,0,0,6,3,0,0,0,2,1,0,3,0,4,0,0,8,9,0,5,1,1,11,0,0,0.0,8915625.631000001,0.0,0,0,0,2,40
10461.92793,2495776,7.456756757000001,11-May-52,Aghdashloo Shohreh,64,162.5,1,0,2,2,2,2,0,0,12,18,0,0,3,3,0,0,0,7,0,0,1,0,1,1,0,2,1,0,5,0,0,2,0,0,717109.7333,12559787.33,0.0,0,1,0,0,30
1485.065217,2509444,6.493478261,31 October 1879,Allgood Sara,137,165.0,1,0,1,0,2,12,0,8,0,26,0,0,3,2,3,0,0,4,3,0,1,8,4,0,0,13,1,0,1,2,0,5,2,1,0.0,22017264.57,0.0,0,1,0,0,30
6392.979592000001,2518895,7.063265306,10 February 1897,Anderson Judith,119,165.0,1,0,2,0,3,9,0,4,8,31,0,0,3,2,5,0,0,2,2,0,1,2,6,0,2,13,0,0,3,0,0,9,3,4,0.0,13825462.76,486486.4865,0,1,0,0,30
1311.978632,2531107,7.115811966,30-Apr-08,Arden Eve,108,167.5,0,0,1,1,3,43,0,6,5,16,0,0,6,4,4,0,0,0,0,0,4,21,7,0,1,22,0,0,4,1,0,1,0,2,0.0,25332599.62,0.0,0,1,0,0,30
2457.6923079999997,2536434,7.015384615,17-Oct-00,Arthur Jean,116,157.5,4,0,3,0,9,41,0,8,12,37,0,0,0,1,0,0,0,3,0,0,0,2,5,0,0,32,0,0,14,0,0,2,2,28,96806722.69,14852555.01,372925.7457,0,1,0,0,30
856.3898810000001,2579330,7.511309524,31-Oct-22,Bel Geddes Barbara,94,155.0,1,0,0,0,2,0,0,2,5,12,0,0,3,0,4,0,0,0,0,0,2,1,1,0,2,3,0,0,1,0,0,5,1,1,0.0,10195532.0,0.0,0,1,0,0,30
555.4375,2609126,6.6875,16-Aug-28,Blyth Ann,88,155.0,2,0,6,0,5,14,0,3,6,19,0,0,2,4,3,0,0,2,0,0,6,3,3,0,0,13,0,0,4,0,0,1,1,2,4280597.015,17607520.8,640569.395,0,1,0,0,30
26180.39024,2631817,6.797560976000001,14-Apr-96,Breslin Abigail,20,152.5,3,0,6,3,1,9,0,3,7,14,0,0,7,2,0,0,0,0,4,0,6,1,3,2,1,4,3,0,7,0,0,8,0,1,41015493.01,35096461.69,2229416.2180000003,0,1,0,0,30
4484.367089,2650849,6.67721519,7 August 1884,Burke Billie,132,155.0,1,0,3,0,2,63,0,2,8,31,0,0,3,5,0,0,0,0,0,0,6,12,3,0,0,33,0,0,9,3,0,0,1,1,0.0,8725146.849,3743119.2660000003,0,1,0,0,30
110.027027,2677012,6.837837838,19-Nov-03,Carroll Nancy,113,160.0,0,0,1,0,0,16,0,5,1,21,0,0,1,0,0,0,0,1,0,0,2,8,3,0,0,19,0,0,1,0,0,0,1,1,0.0,15576420.44,0.0,0,1,0,0,30
13091.70492,2683113,7.82295082,24-Mar-90,Castle-Hughes Keisha,26,155.0,1,0,0,0,1,6,0,1,5,9,0,0,4,2,0,0,0,1,2,0,2,0,0,0,0,3,1,0,1,0,0,3,0,0,35594767.8,18164362.52,0.0,0,1,0,0,30
