votes,id,rating,dob,name,age,heightcm,Action,Adult,Adventure,Animation,Biography,Comedy,Commercial,Crime,Documentary,Drama,Erotica,Experimental,Family,Fantasy,Film-Noir,Game-Show,Hardcore,History,Horror,Lifestyle,Music,Musical,Mystery,News,Reality-TV,Romance,Sci-Fi,Sex,Short,Sport,Talk-Show,Thriller,War,Western,gross,budget,salary,academy awards won,academy awards nominated,golden globes won,golden globes nominated,totalawards
84.6,1439201,7.72,28-Jul-99,McCollum Ethan,17,177.5,0,0,0,0,1,3,0,0,0,2,0,0,1,0,0,0,0,0,0,0,1,0,0,0,0,2,0,0,1,0,0,0,0,0,0.0,522661.742,0.0,0,0,0,0,0
9171.848484999999,1932525,7.181818182000001,14-Aug-99,Ryan Garrett,17,172.5,0,0,0,0,0,5,0,1,0,3,0,0,3,1,0,0,0,0,1,0,0,0,2,0,0,1,0,0,1,0,0,0,0,0,0.0,13204028.08,0.0,0,0,0,0,0
682.625,1434632,6.125,18-Jul-99,McBride Sevan,17,165.0,1,0,0,0,0,8,0,0,0,7,0,0,1,0,0,0,0,0,1,0,0,0,0,0,0,1,0,0,9,0,0,1,0,0,0.0,1277226.215,0.0,0,0,0,0,0
395.7931034,1596919,7.0896551720000005,7-May-99,Nelson Elijah,17,162.5,1,0,0,0,0,5,0,0,0,5,0,0,5,1,0,0,0,0,0,0,0,0,0,0,0,1,0,0,3,0,0,2,0,0,0.0,415111.1293,0.0,0,0,0,0,0
467.0,776459,7.1,22-Mar-99,Gatlin Alec,17,155.0,0,0,0,0,0,0,0,1,0,0,0,0,0,0,0,0,0,0,0,0,0,0,0,0,0,1,0,0,1,0,0,0,0,0,0.0,550.3173497,0.0,0,0,0,0,0
11.0,2475828,8.7,16-Jul-99,Zimmerman Isaac,17,170.0,1,0,0,0,0,1,0,0,0,0,0,0,0,0,0,0,0,0,0,0,0,0,0,0,0,0,0,0,1,0,0,1,0,0,0.0,0.0,0.0,0,0,0,0,0
61.0,688327,7.25,17-Mar-99,Ferraro John,17,172.5,1,0,1,0,0,2,0,0,0,4,0,0,0,0,0,0,0,0,0,0,0,0,0,0,0,0,1,0,3,0,0,0,0,0,0.0,0.0,0.0,0,0,0,0,0
13164.5,680347,7.31875,15-Dec-99,Feldman Josh,17,170.0,2,0,1,0,0,3,0,2,0,9,0,0,8,2,0,0,0,0,3,0,1,0,2,0,0,2,1,0,15,0,0,5,0,0,0.0,302432.5932,0.0,0,0,0,0,0
5.0,2113785,3.6,19-Mar-99,Squire Devin G.,17,175.0,4,0,1,0,0,4,0,0,1,2,0,0,0,0,0,0,0,0,2,0,0,0,0,0,0,0,0,0,10,0,0,0,0,0,0.0,10.12585595,0.0,0,0,0,0,0
65191.0,465623,7.15,7-Dec-99,Craig Tyler,17,177.5,2,0,0,0,0,1,0,1,0,1,0,0,1,0,0,0,0,0,1,0,0,0,0,0,0,1,0,0,1,0,0,0,0,0,0.0,9426384.833999999,0.0,0,0,0,0,0
2762.55,1079116,7.27,13-Aug-99,Johnson Matthew Glen,17,162.5,0,0,0,0,1,6,0,0,0,8,0,0,0,0,0,0,0,0,0,0,0,0,0,0,0,1,0,0,6,0,0,1,0,0,0.0,154005.3904,0.0,0,0,0,0,0
11.16666667,1132049,7.066666667000001,13-May-99,Keating Josiah,17,175.0,0,0,1,0,0,5,0,1,0,1,0,0,0,0,0,0,0,0,0,0,0,0,0,0,0,0,0,0,4,0,0,0,0,0,0.0,8304.136253,0.0,0,0,0,0,0
5487.83871,911831,6.935483871000001,11-Feb-98,Harris Andy Scott,18,182.5,0,0,1,1,0,9,0,1,0,14,0,0,3,0,0,0,0,0,1,0,2,1,2,0,0,3,1,0,22,0,1,3,0,1,0.0,2677040.707,0.0,0,0,0,0,0
10771.47541,828654,6.875409836,15-Feb-98,Gordon Zachary,18,172.5,1,0,6,7,0,13,0,0,1,3,0,0,12,1,0,0,0,0,0,0,1,0,1,0,1,2,1,0,2,0,0,0,0,0,59294942.04,15108551.55,0.0,0,0,0,0,0
1689.6666670000002,2421104,6.0,19-Jun-98,Wofford Cameron,18,167.5,0,0,0,0,0,2,0,0,0,4,0,0,1,1,0,0,0,0,1,0,0,0,0,0,0,1,0,0,1,0,0,1,0,0,0.0,15972352.39,0.0,0,0,0,0,0
12002.775,508366,7.54,29-Dec-98,Davey-Fitzpatrick Seamus,18,170.0,0,0,0,0,1,2,0,1,1,12,0,0,1,0,0,0,0,0,1,0,0,0,1,0,0,2,0,0,6,1,0,3,0,0,0.0,3813547.8310000002,0.0,0,0,0,0,0
18149.02128,2082375,6.540425532,8-Jul-98,Smith Jaden,18,170.0,2,0,1,0,1,2,0,0,6,4,0,0,3,0,0,0,0,0,0,0,12,0,0,0,5,0,2,0,5,1,0,1,0,0,128357363.4,58996491.74,3301904.098,0,0,0,0,0
1471.536364,1891169,7.755909091,31-Jul-98,Rodriguez Rico,18,165.0,1,0,2,3,1,8,0,0,1,4,0,0,8,0,0,0,0,0,0,0,5,0,0,2,4,0,0,0,8,0,1,0,0,0,0.0,76099.85527999999,78308.17062,0,0,0,0,0
23.33333333,2072202,7.655555556,27-Jul-98,Skye Ari,18,145.0,1,0,1,0,0,5,0,1,0,6,0,0,1,1,0,0,0,0,0,0,0,0,0,0,0,1,1,0,9,0,0,0,1,0,0.0,174447.2946,0.0,0,0,0,0,0
275.1666667,2265956,6.783333333,8-Dec-98,Turner Greyson,18,172.5,0,0,0,0,0,2,0,0,0,1,0,0,4,0,0,0,0,0,1,0,0,0,0,0,0,0,0,0,2,1,0,0,0,0,0.0,1157066.0520000001,0.0,0,0,0,0,0
5911.5,2277641,8.15,3-Dec-98,Ur Corbin,18,137.5,0,0,0,0,1,0,0,0,0,2,0,0,0,0,0,0,0,1,0,0,0,0,0,0,0,0,0,0,1,1,0,0,0,0,0.0,8949.505214,0.0,0,0,0,0,0
19783.681819999998,1306904,6.65,6-Apr-98,List Spencer,18,180.0,1,0,1,0,0,3,0,1,1,5,0,0,1,0,0,0,0,0,3,0,3,0,1,0,2,0,0,0,2,0,0,4,0,0,0.0,79475759.53,0.0,0,0,0,0,0
15.02,2135211,7.64,24-Jun-98,Stewart Coy,18,170.0,0,0,0,0,0,2,0,0,0,2,0,0,0,0,0,0,0,0,1,0,1,0,0,0,1,0,0,0,3,1,0,1,0,0,0.0,15188.783930000001,0.0,0,0,0,0,0
34739.0,2386471,6.15,8-Mar-98,Whisenhunt Brayden,18,172.5,0,0,0,0,0,1,0,0,0,2,0,0,2,0,0,0,0,0,0,0,0,0,0,0,0,0,0,0,1,0,0,1,0,0,0.0,88050.77595,0.0,0,0,0,0,0
45189.26923,760410,7.125,12-Jan-98,Gamble Nathan,18,160.0,1,0,1,1,0,4,0,0,12,10,0,0,5,3,0,0,0,0,1,0,1,0,0,0,0,0,2,0,20,0,0,1,0,1,0.0,16143529.5,0.0,0,0,0,0,0
9396.518519,358619,7.425925926000001,19-Aug-97,Castanon Joseph,19,157.5,0,0,0,0,0,5,0,0,0,7,0,0,2,2,0,0,0,0,1,0,1,0,2,0,0,1,0,0,7,0,1,1,0,0,0.0,10798653.49,0.0,0,0,0,0,0
1726.3,2423126,7.425,1-Nov-97,Wolff Alex,19,175.0,0,0,1,0,1,7,0,1,0,7,0,0,5,1,0,0,0,1,1,0,1,0,0,0,0,2,0,0,2,0,1,2,0,0,4000.0,9520984.081,0.0,0,0,0,0,0
36.05882353,1232696,7.776470588,6-May-97,Lalanne Max,19,185.5,2,0,3,0,1,1,0,0,0,5,0,0,0,2,0,0,0,0,0,0,0,0,0,0,0,0,1,0,5,0,0,2,0,0,0.0,669837.297,0.0,0,0,0,0,0
485.1460674,1341093,8.307865169,14-Jan-97,Luthman Joey,19,172.5,5,0,3,0,1,11,0,0,1,15,0,0,8,2,0,0,0,0,2,0,0,0,3,0,0,3,6,0,23,1,0,6,0,0,0.0,621448.1146,0.0,0,0,0,0,0
30756.76,311239,7.228,1-Apr-97,Butterfield Asa,19,182.88,1,0,3,0,0,2,0,0,1,10,0,0,3,4,0,0,0,1,1,0,1,0,1,0,1,2,2,0,7,0,0,1,2,0,24603807.7,100153382.6,0.0,0,0,0,0,0
2061.827586,1840303,7.55862069,7-Oct-97,Refvem Aaron,19,157.5,0,0,0,0,0,3,0,1,1,4,0,0,1,0,0,0,0,1,2,0,0,0,0,0,0,0,1,0,8,0,0,4,0,1,0.0,867799.5275,0.0,0,0,0,0,0
2450.669643,995610,7.903571428999999,13-Jul-97,Howard Leo,19,175.0,3,0,2,0,0,4,0,0,0,1,0,0,4,2,0,0,0,0,1,0,0,0,0,0,1,0,2,0,0,0,0,1,0,0,11528.047840000001,67547579.1,0.0,0,0,0,0,0
51.33333333,2437200,7.4,5-Jun-97,Wyatt Samuel,19,177.5,0,0,0,0,1,3,0,0,0,3,0,0,1,0,0,0,0,1,0,0,0,0,0,0,0,0,0,0,2,0,0,1,0,0,0.0,3936.324168,0.0,0,0,0,0,0
43.0,1179039,7.0,1-Apr-97,Knittle II Jason F.,19,182.5,2,0,0,0,0,2,0,4,0,8,0,0,0,0,0,0,0,0,4,0,0,0,0,0,3,2,0,0,9,0,0,2,2,0,0.0,271807.7304,0.0,0,0,0,0,0
123.0,1794358,5.2,8-Dec-97,Puehse Nic,19,152.5,0,0,0,0,0,0,0,0,0,0,0,0,2,0,0,0,0,0,0,0,0,0,0,0,0,0,0,0,0,0,0,0,0,0,0.0,550317.3497,0.0,0,0,0,0,0
202.0,889159,8.22,7-Mar-97,Hall David,19,137.5,0,0,0,0,0,0,0,0,0,2,0,0,0,0,0,0,0,0,0,0,0,0,0,0,0,0,0,0,1,0,0,0,0,0,0.0,4669.2607,0.0,0,0,0,0,0
545.2222222,1971487,7.211111111,29-Aug-97,Saso Nick,19,167.5,0,0,1,0,0,2,0,0,0,2,0,0,2,0,0,0,0,0,4,0,0,0,0,0,0,0,0,0,6,0,0,2,0,0,0.0,6954.073069,0.0,0,0,0,0,0
10488.73585,224378,7.5283018870000005,24-Jan-97,Bobo Jonah,19,170.0,1,0,2,1,0,7,0,0,4,4,0,0,2,1,0,0,0,0,0,0,0,0,0,0,0,2,1,0,4,0,0,0,0,0,34464565.28,33863813.67,0.0,0,0,0,0,0
590.2,776474,6.48,14-Apr-97,Gatlin Hardy,19,170.0,1,0,1,0,0,3,0,1,0,2,0,0,0,1,0,0,0,0,0,0,1,0,0,0,0,0,1,0,4,0,0,0,0,0,0.0,550.3173497,0.0,0,0,0,0,0
5184.241379,428432,6.865517241,5-May-97,Coleman Bobby,19,162.5,0,0,1,0,0,5,0,3,1,7,0,0,5,0,0,0,0,0,0,0,1,0,1,1,0,2,1,0,0,0,0,2,0,0,0.0,23350687.04,0.0,0,0,0,0,0
92.93023256,2091118,8.202325581,24-Jan-97,Snyder Dylan Riley,19,175.0,0,0,0,0,0,5,0,0,0,4,0,0,1,1,0,0,0,0,2,0,0,0,0,0,1,1,2,0,5,0,1,0,0,0,0.0,290635.3019,0.0,0,0,0,0,0
245.33333330000002,523714,7.925,10-Jun-96,de la Celle Julian,20,175.0,0,0,0,0,0,1,0,0,0,5,0,0,1,0,0,0,0,0,1,0,1,0,0,0,0,1,0,0,5,0,0,1,0,0,0.0,25068.93755,0.0,0,0,0,0,0
21498.0625,180503,7.03,9-Feb-96,Bennett Jimmy,20,167.5,3,0,2,5,0,8,0,4,3,13,0,0,13,4,0,0,0,0,4,0,0,0,5,0,3,0,0,0,6,0,1,6,0,0,23398827.06,39942801.27,0.0,0,0,0,0,0
14277.0,1917166,7.5,23-Apr-96,Rowe Charlie,20,175.0,0,0,1,1,0,2,0,0,0,3,0,0,2,0,0,0,0,0,0,0,1,0,0,0,0,2,1,0,1,0,0,0,0,0,37163835.73,51620857.29,0.0,0,0,0,0,0
33333.342860000004,2077778,6.668571429,13-Jun-96,Smit-McPhee Kodi,20,185.0,4,0,5,4,2,4,0,1,1,13,0,0,3,1,0,0,0,0,1,0,0,0,1,0,0,1,3,0,3,0,2,1,0,2,24029667.28,71260795.89,0.0,0,0,0,0,0
6104.782609000001,1051110,8.133043478,7-Aug-96,James Liam,20,167.5,2,0,2,0,0,2,0,0,2,4,0,0,1,0,0,0,0,0,0,0,0,0,0,0,0,0,1,0,1,0,0,0,0,0,0.0,76777040.61,0.0,0,0,0,0,0
90.4,1452894,7.54,13-Jan-96,McKendry Cameron,20,175.0,1,0,0,0,2,2,0,1,1,9,0,0,0,0,0,0,0,0,2,0,0,0,0,0,0,0,0,0,4,0,0,4,0,0,0.0,453659.2125,0.0,0,0,0,0,0
252.125,1547673,6.75,22-Jul-96,Mortenson Caon,20,160.0,2,0,1,0,0,1,0,0,0,1,0,0,2,1,0,0,0,0,3,0,0,0,0,0,0,0,1,0,5,0,0,3,0,0,0.0,3560770.205,0.0,0,0,0,0,0
246.8,1955417,7.78,Feb-96,Samuels Harrison,20,180.0,2,0,2,0,0,2,0,0,0,2,0,0,0,0,0,0,0,0,0,0,0,0,0,0,0,0,0,0,3,0,0,0,0,0,0.0,181536.5371,0.0,0,0,0,0,0
19512.07692,917691,6.938461537999999,8-May-96,Hartigan Dylan,20,182.5,0,0,0,0,0,2,0,0,0,2,0,0,0,0,0,0,0,0,0,0,0,0,0,0,0,0,1,0,1,0,0,1,0,0,0.0,114346214.9,0.0,0,0,0,0,0
17489.95455,7073,7.159090909,2-Sep-96,Abrams Austin,20,170.0,1,0,0,0,0,4,0,0,0,5,0,0,0,0,0,0,0,0,1,0,0,0,2,0,0,2,1,0,0,0,0,2,0,0,42876.11517,9276381.362,0.0,0,0,0,0,0
11131.81481,460464,7.314814815,31-Jan-96,Courtney Joel,20,186.0,4,0,4,0,0,2,0,1,0,4,0,0,2,1,0,0,0,1,2,0,0,0,1,0,0,0,2,0,0,0,0,4,0,0,135507862.0,20449265.5,0.0,0,0,0,0,0
8519.783333,1269328,7.1566666670000005,4-Oct-96,Lee Ryan,20,172.5,2,0,3,1,0,18,0,1,2,6,0,0,5,4,0,0,0,1,2,0,1,0,2,1,0,0,3,0,15,2,0,3,1,0,0.0,18341609.38,0.0,0,0,0,0,0
19337.9,1274852,7.42,5-Mar-96,Leinbach Jacob,20,185.0,2,0,0,0,0,0,0,1,0,5,0,0,0,0,0,0,0,0,0,0,0,0,0,0,0,0,2,0,3,0,0,2,0,0,0.0,58698991.8,0.0,0,0,0,0,0
2730.0,1829468,7.328571429,26-Jan-96,Raum-Aronnan,20,172.5,0,0,0,0,0,1,0,0,0,2,0,0,1,0,0,0,0,0,0,0,0,0,0,0,0,0,0,0,4,0,0,1,0,0,0.0,476190.4762,0.0,0,0,0,0,0
64.5,1306897,7.25,18-Feb-96,List Mitchell,20,170.0,0,0,0,0,2,1,0,0,0,2,0,0,1,0,0,0,0,0,0,0,0,0,0,0,0,1,0,0,2,0,0,0,0,0,0.0,167803.2228,0.0,0,0,0,0,0
149.0,1486273,6.841860465,31-Jul-96,Michael Blake,20,180.0,0,0,0,1,0,3,0,0,0,3,0,0,4,1,0,0,0,0,3,0,4,1,0,0,1,0,0,0,3,0,0,3,0,0,0.0,70889.24493,0.0,0,0,0,0,0
3845.85,2272523,7.275,7-Oct-96,Uczkowski Jan,20,177.5,1,0,1,0,0,3,0,0,0,9,0,0,2,3,0,0,0,0,4,0,0,0,0,0,0,1,2,0,14,0,0,2,0,0,0.0,209757.0739,0.0,0,0,0,0,0
6.0,1312005,9.0,31-Aug-96,Lloyd Takaya,20,180.0,1,0,1,0,0,4,0,0,0,5,0,0,0,0,0,0,0,0,0,0,0,0,0,0,0,0,0,0,3,0,0,1,0,0,0.0,50629.279760000005,0.0,0,0,0,0,0
6657.6,716392,7.018947367999999,12-Sep-96,Ford Colin,20,177.5,1,0,2,1,0,8,0,1,1,10,0,0,4,1,0,0,0,0,0,0,0,1,0,0,0,3,1,0,2,0,0,3,0,1,35581107.22,15631835.34,0.0,0,0,0,0,0
7189.28,659931,8.244,9-Aug-96,Evans Matthew J.,20,175.0,0,0,0,0,2,4,0,1,2,3,0,0,0,0,0,0,0,2,0,0,0,0,0,0,0,0,0,0,4,0,0,0,1,0,0.0,21339118.61,0.0,0,0,0,0,0
28633.93333,1250443,6.98,10-Aug-96,Latimore Jacob,20,167.5,2,0,1,1,0,1,0,1,0,5,0,0,3,0,0,0,0,1,1,0,3,1,1,0,0,0,1,0,1,0,1,2,0,0,0.0,19566212.54,0.0,0,0,0,0,0
7079.961538,361396,7.1,7-Feb-96,Castro David,20,172.5,1,0,0,0,0,4,0,1,0,9,0,0,1,0,0,0,0,0,0,0,0,0,0,0,0,0,0,0,1,0,0,0,0,0,0.0,2556180.5730000003,0.0,0,0,0,0,0
46870.722219999996,2036429,6.905555556,11-Nov-96,Sheridan Tye,20,170.0,3,0,1,0,0,1,0,2,1,10,0,0,0,1,0,0,0,1,1,0,0,0,1,0,0,0,2,0,6,0,0,5,1,1,3681044.313,15990094.35,0.0,0,0,0,0,0
6053.666667,797106,5.933333332999999,17-Mar-96,Gilbert Brian,20,170.0,0,0,0,0,0,6,0,4,0,2,0,0,0,2,0,0,0,0,0,0,1,0,1,0,0,0,0,0,2,0,0,1,0,0,0.0,16004338.95,0.0,0,0,0,0,0
20.0,1626351,5.7,5-Mar-96,Novak Cory,20,177.5,0,0,1,0,0,0,0,0,0,1,0,0,0,0,0,0,0,0,1,0,0,0,0,0,0,0,0,0,2,0,0,0,0,0,0.0,10389.36938,0.0,0,0,0,0,0
15470.28571,780271,7.20952381,5-May-95,Gearhart Devon,21,172.5,1,0,1,0,2,2,0,2,1,12,0,0,3,1,0,0,0,0,2,0,0,0,1,0,0,2,0,0,4,2,0,4,1,1,0.0,15349884.86,0.0,0,0,0,0,0
1874.6,1216727,7.9,11-Sep-95,Kurd-Misto Eyad,21,172.5,0,0,0,0,0,2,0,0,0,1,0,0,1,0,0,0,0,0,0,0,0,0,0,0,0,0,0,0,3,0,0,0,1,0,0.0,6867.172878,0.0,0,0,0,0,0
337.9304348,1343595,8.293043478,29-Dec-95,Lynch Ross,21,177.5,0,0,0,1,1,3,0,1,1,1,0,0,3,0,0,0,0,0,1,0,8,4,0,0,4,0,0,0,1,0,0,1,0,0,0.0,1013787.51,0.0,0,0,0,0,0
5353.042372999999,1883286,7.555084746,22-Mar-95,Robinson Nick,21,185.0,3,0,5,0,0,3,0,0,0,7,0,0,1,0,0,0,0,0,0,0,1,0,0,0,0,1,4,0,3,0,0,2,0,0,670597.0319,45583819.47,0.0,0,0,0,0,0
6683.5384619999995,2454326,7.338461538,21-Dec-95,Young Arthur,21,130.0,0,0,0,0,0,1,0,0,0,0,0,0,0,0,0,0,0,0,0,0,0,0,0,0,0,0,0,0,1,0,0,0,0,0,0.0,0.0,0.0,0,0,0,0,0
52087.0,2366559,6.3,17-Oct-95,Way John,21,167.5,0,0,1,0,0,3,0,0,0,1,0,0,1,1,0,0,0,0,1,0,0,0,0,0,0,0,0,0,3,0,0,0,0,0,0.0,29365488.55,0.0,0,0,0,0,0
838.8,579170,7.26,3-Dec-95,Dolan Jamie,21,180.0,0,0,1,0,0,1,0,0,0,4,0,0,0,1,0,0,0,0,0,0,2,0,0,0,0,1,0,0,3,0,0,1,0,0,0.0,41209.32189,0.0,0,0,0,0,0
6101.282051,183313,7.31025641,12-May-95,Benward Luke,21,185.0,4,0,3,0,0,7,0,0,0,6,0,0,8,3,0,0,0,0,2,0,1,1,0,0,0,1,3,0,0,1,0,0,1,0,15503280.95,11639907.32,0.0,0,0,0,0,0
5279.0625,1830775,7.68125,25-Apr-95,Rawley Danny,21,172.5,0,0,1,0,0,1,0,0,2,7,0,0,0,1,0,0,0,0,1,0,0,0,0,0,1,0,1,0,5,0,0,1,0,0,0.0,202054.1717,0.0,0,0,0,0,0
420.7272727,113073,6.836363636000001,25-Oct-95,Backstrom Garrett,21,177.5,0,0,0,0,0,3,0,1,0,6,0,0,1,0,0,0,0,0,0,0,0,0,1,0,0,0,0,0,3,0,0,1,0,0,0.0,1029257.349,0.0,0,0,0,0,0
903.5,1255571,5.775,2-Sep-95,Lawley Kian,21,185.0,0,0,0,0,1,1,0,0,1,2,0,0,0,0,0,0,0,0,1,0,1,0,0,0,0,0,0,0,0,0,0,1,0,0,0.0,0.0,0.0,0,0,0,0,0
104.0625,1119376,9.30625,2-Oct-95,Karem Wyatt,21,180.0,1,0,0,0,0,1,0,0,0,0,0,0,0,0,0,0,0,0,0,0,0,0,0,0,0,0,1,0,1,0,0,0,0,0,0.0,0.0,0.0,0,0,0,0,0
5639.79661,162663,7.5050847460000005,2-Jun-95,Beaumon Sterling,21,185.0,2,0,0,1,0,3,0,1,0,6,0,0,2,1,0,0,0,0,4,0,0,0,1,0,0,0,1,0,5,0,0,3,0,0,0.0,771247.2644,0.0,0,0,0,0,0
13337.363640000001,1016239,6.809090909,1-Feb-95,Hyland Ian,21,182.5,0,0,0,0,0,3,0,1,0,7,0,0,0,0,0,0,0,0,1,0,0,0,0,0,0,2,0,0,2,0,0,0,0,0,0.0,101641079.9,0.0,0,0,0,0,0
17.0,1115532,8.2,20-Jul-95,Kantor Jake,21,182.5,0,0,0,0,0,1,0,0,0,0,0,0,0,0,0,0,0,0,0,0,0,1,0,0,0,1,0,0,1,0,0,0,0,0,0.0,0.0,0.0,0,0,0,0,0
12.0,1291236,6.2,27-Sep-95,Lewis Sam,21,177.5,0,0,0,0,0,0,0,1,0,0,0,0,0,0,0,0,0,0,0,0,0,1,0,0,0,1,0,0,2,0,0,0,0,0,0.0,300971.1894,0.0,0,0,0,0,0
235.25,2169570,5.4,6-Aug-95,Switzer Richard,21,165.0,1,0,1,0,0,1,0,1,0,1,0,0,1,0,0,0,0,0,1,0,0,0,0,0,0,1,0,0,0,0,0,2,0,0,0.0,1362500.0,0.0,0,0,0,0,0
207.4074074,1928510,7.5629629629999995,25-Dec-95,Russell Brandon Tyler,21,167.5,2,0,0,0,0,3,0,1,0,8,0,0,8,0,0,0,0,0,3,0,0,0,1,1,0,0,1,0,9,0,0,3,0,0,0.0,1993941.9109999998,0.0,0,0,0,0,0
15391.129030000002,665198,6.95483871,27-Sep-95,Faerch Daeg,21,180.0,4,0,0,0,0,7,0,2,4,12,0,0,3,0,0,0,0,0,9,0,0,1,3,0,0,0,2,0,22,0,0,10,0,1,0.0,3304910.46,0.0,0,0,0,0,0
6489.555556,2221257,6.772222222000001,22-Dec-95,Thorne Remy,21,175.0,1,0,0,0,0,3,0,1,0,6,0,0,1,0,0,0,0,0,0,0,0,0,1,0,0,1,2,0,4,0,0,2,0,0,0.0,13279719.09,0.0,0,0,0,0,0
1115.159091,613243,7.1375,12-May-95,Duty Kenton,21,193.0,0,0,1,0,0,8,0,1,1,5,0,0,8,0,0,0,0,1,1,0,0,0,0,0,1,0,0,0,7,0,1,2,0,0,0.0,3652613.146,0.0,0,0,0,0,0
1982.0,1787425,7.316666667000001,13-Jun-95,Price Tristan,21,162.5,1,0,0,0,0,1,0,0,0,1,0,0,1,0,0,0,0,0,0,0,1,0,1,0,0,1,1,0,2,0,0,0,1,0,0.0,27867.70273,0.0,0,0,0,0,0
21791.92593,1501785,6.877777778,26-Dec-95,Mills Zach,21,175.0,0,0,1,0,0,6,0,0,0,7,0,0,3,1,0,0,0,0,0,0,0,0,2,0,0,0,1,0,1,0,0,1,0,0,0.0,23713892.42,0.0,0,0,0,0,0
24742.66667,434587,6.85,27-Aug-94,Coltrane Ellar,22,167.5,0,0,0,0,1,1,0,0,2,7,0,0,0,0,0,0,0,0,1,0,0,0,0,0,0,0,1,0,2,0,0,2,0,0,25708840.23,1599608.638,0.0,0,0,0,0,0
8.95,2339912,6.89,22-Nov-94,Wade Tim,22,175.0,0,0,1,0,0,6,0,0,1,3,0,0,5,0,0,0,0,0,0,0,0,0,3,0,0,0,3,0,14,0,0,2,1,0,0.0,4324.926987,0.0,0,0,0,0,0
1036.0,719939,6.25,18-Nov-94,Forte Forrest,22,170.0,4,0,0,0,0,2,0,1,0,1,0,0,0,1,0,0,0,0,0,0,0,0,0,0,0,0,0,0,5,0,0,3,1,0,0.0,633784.6067,0.0,0,0,0,0,0
48856.714289999996,634632,6.761904762,14-Mar-94,Elgort Ansel,22,187.5,3,0,6,0,2,1,0,2,3,9,0,0,0,1,0,0,0,0,1,0,2,0,3,0,0,3,6,0,2,0,1,4,0,0,0.0,60463303.75,0.0,0,0,0,0,0
199.03571430000002,1682699,7.732142857,23-Feb-94,Palatas Cameron,22,177.5,1,0,0,0,0,6,0,0,0,4,0,0,2,0,0,0,0,0,1,0,0,0,0,0,0,1,2,0,6,1,0,1,0,0,0.0,1062103.8059999999,0.0,0,0,0,0,0
2153.666667,634571,5.6,21-Sep-94,Elgene Jesse,22,185.0,0,0,0,0,1,2,0,0,0,3,0,0,1,1,0,0,0,0,0,0,0,0,0,0,0,0,0,0,2,1,0,0,0,0,0.0,10321854.1,0.0,0,0,0,0,0
1891.2300469999998,102820,7.331924882999999,3-Dec-94,Austin Jake T.,22,170.0,3,0,7,7,0,11,0,1,5,8,0,0,16,4,0,1,0,0,0,0,0,2,0,0,1,0,2,0,5,3,0,0,0,0,44675740.8,36419755.46,0.0,0,0,0,0,0
1143.333333,1696456,7.033333333,22-Apr-94,Parker Chase,22,182.5,3,0,0,0,0,0,0,1,0,2,0,0,0,0,0,0,0,0,0,0,0,0,0,0,0,1,0,0,3,0,0,3,0,0,0.0,3056.606153,0.0,0,0,0,0,0
28366.83333,1238446,5.683333332999999,9-Aug-94,Landis Forrest,22,167.5,0,0,1,0,0,1,0,0,1,1,0,0,1,0,0,0,0,0,0,0,0,0,1,0,0,0,0,0,2,0,0,0,0,0,0.0,3344124.327,0.0,0,0,0,0,0
8634.126984,309535,7.505555556,14-Feb-94,Butcher Paul,22,175.0,0,0,2,7,0,4,0,0,4,2,0,0,9,3,0,0,0,0,0,0,1,0,2,0,0,0,2,0,12,0,0,2,0,0,0.0,13203669.96,0.0,0,0,0,0,0
326.88235289999994,655816,7.876470587999999,13-Mar-94,Estes Cody,22,157.5,0,0,0,0,0,0,0,0,0,0,0,0,0,0,0,0,0,0,0,0,0,0,0,0,0,0,0,0,1,0,0,0,0,0,0.0,79877.11214,0.0,0,0,0,0,0
16.6,1966158,2.706666667,16-Mar-94,Santos Keven,22,173.0,0,0,3,0,0,1,0,0,1,6,0,0,0,0,0,0,0,0,0,0,0,0,2,0,0,0,0,0,6,0,0,3,0,0,0.0,0.0,0.0,0,0,0,0,0
277.38235289999994,1767913,6.620588235,9-Apr-94,Pollari Joey,22,180.0,1,0,0,0,0,1,0,0,0,2,0,0,2,1,0,0,0,0,0,0,0,0,0,0,0,0,4,0,1,0,0,2,0,0,0.0,717415.6059999999,0.0,0,0,0,0,0
152.04,1650294,8.794666667000001,24-May-94,Okubo Shunsuke,22,178.0,0,0,1,0,0,2,0,0,0,5,0,0,3,0,0,0,0,0,0,0,0,0,0,0,0,1,1,0,5,0,0,0,0,0,0.0,16000000.0,0.0,0,0,0,0,0
9427.712329,2423297,7.112328767,17-Dec-94,Wolff Nat,22,185.0,1,0,0,0,0,8,0,0,0,11,0,0,4,1,0,0,0,0,0,0,3,0,1,0,0,6,0,0,1,0,1,2,0,0,32392677.99,7334559.885,0.0,0,0,0,0,0
3325.217391,1894297,6.182608696,24-Apr-94,Rogers Austin,22,172.5,0,0,0,1,0,8,0,0,0,2,0,0,5,2,0,0,0,0,1,0,0,0,0,0,0,2,0,0,3,0,0,1,0,0,0.0,13265544.81,0.0,0,0,0,0,0
10889.75,226702,5.45,19-Jun-94,Boewe Christian,22,150.0,2,0,0,0,0,1,0,1,0,1,0,0,0,0,0,0,0,0,0,0,0,0,0,0,0,0,0,0,2,0,0,1,0,0,0.0,238744.2386,0.0,0,0,0,0,0
16479.31884,2135005,6.431884058,21-Jan-94,Stewart Booboo,22,172.5,14,0,7,3,0,14,0,1,5,15,0,0,8,7,0,0,0,1,5,0,4,2,0,0,1,9,3,0,9,2,1,8,1,2,0.0,1236103.364,0.0,0,0,0,0,0
1223.4,1483579,7.04,2-Oct-94,Meyer Brendan,22,167.5,2,0,1,0,1,6,0,2,0,8,0,0,4,2,0,0,0,0,1,0,0,0,3,0,1,2,2,0,5,1,1,3,0,0,0.0,1699414.205,0.0,0,0,0,0,0
23404.1,1788854,6.06,18-Dec-94,Prince Shawn,22,172.5,0,0,0,0,0,0,0,1,0,2,0,0,0,0,0,0,0,0,0,0,0,0,0,0,0,0,0,0,1,0,0,1,0,0,0.0,1785.714286,0.0,0,0,0,0,0
47021.78261,251409,7.239130435,24-May-94,Boyd Cayden,22,180.0,1,0,1,0,0,0,0,0,0,3,0,0,1,1,0,0,0,0,0,0,0,0,0,0,0,1,0,0,0,0,0,0,0,0,0.0,25184373.47,0.0,0,0,0,0,0
355.8333333,1066953,7.720238095,23-Jun-94,Jessup Connor,22,180.0,1,0,0,0,0,1,0,0,1,6,0,0,0,0,0,0,0,0,0,0,0,0,0,0,0,0,2,0,3,1,0,1,0,0,33962.0,0.0,0.0,0,0,0,0,0
12.89864865,1788846,7.45,29-Jun-94,Prince Ryan,22,175.0,2,0,2,0,0,6,0,2,0,1,0,0,0,1,0,0,0,0,1,0,0,0,1,0,0,0,6,0,4,0,0,1,0,0,0.0,113.8858299,0.0,0,0,0,0,0
23762.46154,2461638,7.602564103,23-Mar-94,Zadina Bridger,22,167.5,1,0,2,1,0,5,0,0,0,10,0,0,1,1,0,0,0,1,1,0,2,0,3,0,0,0,2,0,5,1,1,3,0,1,0.0,36961147.54,0.0,0,0,0,0,0
20.5,447807,8.4,19-Feb-94,Copeland Will,22,167.5,0,0,0,0,0,1,0,0,0,2,0,0,1,1,0,0,0,0,1,0,0,0,0,0,0,0,0,0,3,0,0,0,0,0,0.0,0.0,0.0,0,0,0,0,0
3608.7785229999995,201677,5.734899329,1-Mar-94,Bieber Justin,22,175.0,1,0,1,0,1,12,0,0,25,2,0,0,2,1,0,0,0,0,0,0,66,1,0,3,5,0,2,0,16,2,2,0,0,0,53362951.49,29219900.46,0.0,0,0,0,0,0
28838.7,1056964,6.6,3-Jun-94,Jarred Tristan,22,167.5,0,0,1,0,1,4,0,1,0,3,0,0,1,1,0,0,0,0,0,0,1,0,0,0,0,0,0,0,3,0,0,0,0,0,0.0,767647.2977,0.0,0,0,0,0,0
7146.447368000001,1786491,7.343421052999999,11-Nov-94,Price Connor,22,167.5,0,0,0,3,1,7,0,1,0,13,0,0,5,2,0,0,0,0,0,0,0,1,1,0,0,2,0,0,6,2,0,1,1,0,40434481.04,30929667.22,0.0,0,0,0,0,0
699.7804878,938513,8.26504065,16-May-94,Heizer Miles,22,175.0,1,0,1,0,1,4,0,2,0,6,0,0,2,0,0,0,0,0,0,0,1,0,0,0,0,1,1,0,4,0,0,1,0,0,0.0,8357106.168,0.0,0,0,0,0,0
8.0,1044834,6.885714286,10-Dec-94,Jacobs Tyler James,22,177.5,5,0,0,0,0,29,0,0,0,1,0,0,0,0,0,0,0,0,1,0,0,0,0,0,2,2,0,0,18,0,2,0,0,4,0.0,1527.649208,0.0,0,0,0,0,0
14202.583330000001,2212670,5.608333332999999,22-Sep-93,Thomas Alexander Isaiah,23,167.5,2,0,1,0,1,3,0,0,0,1,0,0,0,0,0,0,0,0,7,0,0,0,1,0,0,0,5,0,2,1,0,2,0,0,0.0,11174446.03,0.0,0,0,0,0,0
5.0,887574,6.2,24-Mar-93,Hale D.J.,23,165.0,3,0,4,0,0,4,0,4,0,6,0,0,0,2,0,0,0,0,2,0,0,1,0,0,0,1,1,0,6,0,0,2,0,0,0.0,207064.0124,0.0,0,0,0,0,0
283.0,500189,7.066666667000001,8-Sep-93,Daniel Dillon,23,180.0,0,0,1,1,0,3,0,1,0,2,0,0,1,0,0,0,0,0,0,0,0,0,0,0,0,1,1,0,7,0,0,0,0,0,0.0,1000.0,0.0,0,0,0,0,0
3630.291971,1522009,8.051824818,16-Aug-93,Monaghan Cameron,23,177.5,2,0,2,0,0,13,0,0,3,10,0,0,6,4,0,0,0,0,2,0,1,1,3,0,1,2,1,0,17,1,0,3,0,0,0.0,13763920.22,0.0,0,0,0,0,0
7.142857143,776583,7.728571429,18-Jan-93,Gatsby Nick,23,180.0,0,0,0,0,0,5,0,0,0,0,0,0,0,0,0,0,0,0,2,0,0,0,1,0,0,0,0,0,6,0,0,1,0,0,0.0,1518.878393,0.0,0,0,0,0,0
41593.75,2028696,7.833333333,21-Mar-93,Sharma Suraj,23,172.5,0,0,2,0,1,1,0,0,0,3,0,0,0,1,0,0,0,0,0,0,0,0,0,0,0,1,0,0,0,1,0,0,0,0,124987023.0,51114895.92,0.0,0,0,0,0,0
6.0,2044252,6.75,15-Aug-93,Short David,23,172.5,0,0,0,0,0,2,0,4,0,7,0,0,0,0,0,0,0,0,2,0,0,0,2,0,0,0,0,0,7,0,1,0,0,0,0.0,592.4886964,0.0,0,0,0,0,0
239.5,282702,5.65,20-Jan-93,Brown Moe,23,170.0,0,0,0,0,0,0,0,0,0,0,0,0,0,0,0,0,0,0,0,0,0,0,0,0,0,0,0,0,0,0,0,2,0,0,0.0,0.0,0.0,0,0,0,0,0
278.3333333,2331415,6.8,20-Aug-93,Volney Stefflrenan,23,180.0,0,0,0,0,0,2,0,0,0,0,0,0,0,0,0,0,0,0,0,0,0,0,0,0,0,0,0,0,2,0,0,0,0,0,0.0,5000.0,0.0,0,0,0,0,0
8.0,259600,7.38,30-Jan-93,Brandt Steven,23,180.0,0,0,0,0,0,1,0,0,0,1,0,0,0,0,0,0,0,0,0,0,0,0,0,0,0,1,0,0,3,0,0,2,0,0,0.0,5673.8269789999995,0.0,0,0,0,0,0
179.8,475292,4.281333333,29-Aug-93,Cruikshank Lucas,23,170.0,0,0,4,1,0,12,0,0,0,0,0,0,2,1,0,0,0,0,2,0,5,0,0,0,5,2,0,0,4,0,3,0,0,0,0.0,0.0,0.0,0,0,0,0,0
42177.66667,358235,8.2,25-Dec-93,Cast Emilio,23,172.5,0,0,1,0,0,1,0,0,0,2,0,0,4,0,0,0,0,3,0,0,0,0,0,0,0,0,0,0,2,1,0,0,3,0,0.0,2832077.034,0.0,0,0,0,0,0
1148.0,2586,6.6,11-Nov-93,Abbas Sam,23,177.5,0,0,0,0,0,1,0,1,0,5,0,0,0,1,0,0,0,0,0,0,0,0,0,0,0,1,1,0,4,0,0,0,0,0,0.0,12151.02714,0.0,0,0,0,0,0
12233.66667,944777,7.270833333,29-Jun-93,Henrie Lorenzo James,23,175.0,1,0,2,0,0,2,0,0,0,3,0,0,0,1,0,0,0,0,0,0,1,0,0,0,1,0,1,0,0,0,0,0,0,0,0.0,0.0,0.0,0,0,0,0,0
3595.2033899999997,910603,7.596610169,14-Feb-93,Harper Shane,23,185.0,0,0,0,1,0,1,0,0,0,4,0,0,3,1,0,0,0,0,0,0,2,1,0,0,1,2,0,0,1,0,0,0,0,0,0.0,1813787.51,0.0,0,0,0,0,0
794.8857142999999,988137,6.925714286,13-Sep-93,Horan Niall,23,170.0,0,0,0,0,0,0,0,0,14,0,0,0,0,0,0,0,0,0,0,0,14,0,0,2,0,0,0,0,1,0,0,0,0,0,29690252.19,3452443.4910000004,0.0,0,0,0,0,0
132.5,987735,6.25,14-Jul-93,Hopper Andrew,23,170.0,0,0,0,0,0,1,0,1,0,3,0,0,0,0,0,0,0,0,1,0,0,0,1,0,0,1,0,0,2,0,0,1,0,0,0.0,2755226.617,0.0,0,0,0,0,0
8174.317073,638769,6.995121951000001,22-Sep-93,Ellison Chase,23,175.0,0,0,1,0,0,8,0,0,6,7,0,0,3,3,0,0,0,0,0,0,1,0,0,0,1,2,0,0,8,0,0,0,0,0,856750.8449,12007897.54,0.0,0,0,0,0,0
103.5,2346915,6.433333332999999,27-Jan-93,Walker Ryan,23,180.0,1,0,0,1,0,1,0,0,0,1,0,0,0,0,0,0,0,0,0,0,0,0,0,0,0,0,1,0,1,0,0,1,0,0,0.0,1756893.755,0.0,0,0,0,0,0
264.0,1940266,8.05,19-May-93,Sadhnani Nik,23,172.5,0,0,0,0,0,1,0,0,0,2,0,0,0,0,0,0,0,0,0,0,1,0,0,0,0,1,0,0,2,0,0,0,0,0,0.0,10000.0,0.0,0,0,0,0,0
569.2,1483897,6.4,28-Oct-93,Meyer J. Dhylan,23,167.5,0,0,0,0,0,1,0,0,0,4,0,0,1,0,0,0,0,1,0,0,1,0,0,0,0,0,0,0,3,0,0,0,0,0,0.0,1686938.345,0.0,0,0,0,0,0
3616.470588,2272522,6.817647059,7-Oct-93,Uczkowski Dariusz M.,23,172.5,1,0,0,0,0,5,0,0,0,4,0,0,2,1,0,0,0,0,2,0,0,0,1,0,0,0,1,0,6,0,0,1,0,0,0.0,493300.4447,0.0,0,0,0,0,0
5.0,1907611,7.8,19-Sep-93,Rosen Jason,23,170.0,1,0,0,0,1,2,0,0,0,4,0,0,1,0,0,0,0,0,0,0,0,0,0,0,0,0,2,0,5,0,0,0,0,0,0.0,362.97195980000004,0.0,0,0,0,0,0
13405.72222,1690369,7.688888888999999,6-Jul-93,Papac Benjamin,23,170.0,0,0,1,0,0,3,0,0,0,5,0,0,1,2,0,0,0,0,2,0,0,0,0,0,0,1,0,0,3,0,0,1,0,0,0.0,58729964.52,0.0,0,0,0,0,0
2294.192982,1371435,6.705263157999999,12-Jun-92,Malgarini Ryan,24,170.0,0,0,1,0,0,8,0,0,0,2,0,0,3,2,0,0,0,0,0,0,1,0,1,0,0,2,1,0,0,1,0,1,0,0,0.0,14374891.6,0.0,0,0,0,0,0
25881.06667,2192560,7.213333333,16-Feb-92,Tatro Jimmy,24,175.0,0,0,0,0,0,6,0,0,0,0,0,0,0,0,0,0,0,0,0,0,0,0,0,0,0,0,0,0,2,0,0,0,0,0,0.0,0.0,0.0,0,0,0,0,0
12877.241829999999,1937865,7.306535948,14-Jun-92,Sabara Daryl,24,172.5,6,0,8,9,0,20,0,1,4,13,0,0,19,7,0,2,0,1,1,0,2,0,1,0,0,2,5,0,8,1,0,4,0,0,5152730.952,69070189.84,0.0,0,0,0,0,0
86.0,1354391,8.5,21-Jun-92,Mack Walter,24,157.5,2,0,0,0,0,0,0,0,0,0,0,0,0,0,0,0,0,0,1,0,0,0,2,0,0,0,1,0,4,0,0,0,0,0,0.0,80.02169477,0.0,0,0,0,0,0
12512.5,960519,7.7,14-Feb-92,Highmore Freddie,24,175.0,4,0,15,9,1,9,0,0,8,13,0,0,16,11,0,0,0,0,0,0,1,0,0,1,0,3,3,0,9,0,1,0,0,0,37198422.66,68079618.55,0.0,0,0,0,0,0
1306.868966,1204130,7.380689655,18-Nov-92,Kress Nathan,24,165.0,2,0,2,1,1,10,0,0,1,1,0,0,5,0,0,0,0,0,1,0,6,0,0,0,4,1,0,0,7,1,1,1,0,0,0.0,9115680.715,0.0,0,0,0,0,0
15825.096769999998,1202559,7.716129032,14-Apr-92,Krause Nick,24,175.0,0,0,0,0,0,3,0,0,0,5,0,0,2,0,0,0,0,0,0,0,0,0,0,0,0,1,1,0,1,0,0,0,0,0,0.0,8159665.967999999,0.0,0,0,0,0,0
12.66666667,2291858,7.733333332999999,22-Oct-92,Van Doorne Taylor,24,172.5,1,0,0,0,0,3,0,0,0,2,0,0,0,0,0,0,0,0,0,0,0,0,0,0,0,0,0,0,3,0,0,1,0,0,0.0,7830.817062,0.0,0,0,0,0,0
997.8,2055030,6.06,3-Dec-92,Silvers Tyler,24,182.5,0,0,0,0,0,3,0,0,0,2,0,0,0,1,0,0,0,0,0,0,0,0,0,0,0,0,0,0,2,0,0,0,0,0,0.0,764818.3556,0.0,0,0,0,0,0
297.2,1876168,6.09,27-Mar-92,Robbins Jake,24,167.5,0,0,0,0,0,2,0,0,0,11,0,0,0,0,0,0,0,0,1,0,1,0,0,0,0,2,0,0,9,0,0,2,0,0,0.0,50894.66541,0.0,0,0,0,0,0
102780.0,510910,6.7,17-Jul-92,Davies Jonno,24,180.0,3,0,1,0,0,1,0,2,0,2,0,0,0,0,0,0,0,0,0,0,0,0,0,0,0,0,0,0,1,0,0,2,0,0,0.0,82019433.21,0.0,0,0,0,0,0
1610.988166,1498545,7.528402367000001,18-Feb-92,Miller Logan,24,165.0,1,0,2,1,0,4,0,0,1,7,0,0,2,2,0,0,0,0,2,0,0,0,1,0,0,1,1,0,1,0,0,5,0,1,0.0,15188783.93,0.0,0,0,0,0,0
86.66666667,989424,7.033333333,5-Aug-92,Horner Adam,24,172.5,0,0,1,0,0,3,0,0,0,3,0,0,0,0,0,0,0,0,3,0,0,0,0,0,0,0,2,0,3,0,0,3,1,0,0.0,10669.5593,0.0,0,0,0,0,0
38507.79412,1497165,7.3382352939999995,30-Sep-92,Miller Ezra,24,177.5,4,0,5,0,2,5,0,1,0,11,0,0,1,5,0,0,0,2,0,0,1,0,2,2,0,3,4,0,3,0,1,3,0,0,2868.254026,6062965.435,0.0,0,0,0,0,0
56474.318179999995,1802467,7.740909091,24-Apr-92,Quaid Jack,24,185.0,2,0,2,0,0,14,0,0,10,6,0,0,1,3,0,0,0,0,1,0,1,0,1,0,0,4,1,0,20,0,0,2,0,0,0.0,13012480.03,0.0,0,0,0,0,0
31326.04301,1013811,6.889247312,12-Oct-92,Hutcherson Josh,24,167.5,11,0,11,1,1,18,0,2,24,14,0,0,12,7,0,0,0,0,3,0,6,0,1,0,3,4,9,0,26,1,2,7,0,0,37280477.08,62378238.62,0.0,0,0,0,0,0
4661.439024,1255198,7.812195122,17-Dec-92,Law Thomas,24,175.0,1,0,0,0,0,1,0,0,1,0,0,0,1,1,0,0,0,0,1,0,1,0,0,0,0,0,1,0,1,0,0,1,0,0,26789303.43,20604660.95,0.0,0,0,0,0,0
757.9375,2424419,7.25,27-Apr-92,Womack Mark,24,180.0,0,0,0,0,0,5,0,0,0,1,0,0,1,0,0,0,0,0,1,0,0,0,0,0,0,0,0,0,6,1,0,1,0,1,0.0,5704399.731000001,0.0,0,0,0,0,0
12.875,1313112,6.975,25-Nov-92,Loboda Joey,24,175.0,0,0,0,0,0,3,0,0,0,1,0,0,0,0,0,0,0,0,0,0,2,0,2,0,0,0,0,0,1,0,0,1,0,0,0.0,3153.276104,0.0,0,0,0,0,0
2634.652174,2374828,7.017391303999999,17-Nov-92,Weiss Darian,24,172.5,2,0,0,0,0,2,0,3,1,10,0,0,1,1,0,0,0,0,2,0,0,0,0,0,0,1,1,0,5,0,0,4,0,2,0.0,1411471.876,0.0,0,0,0,0,0
12922.14407,1253496,6.886440678,11-Feb-92,Lautner Taylor,24,170.0,7,0,5,1,0,8,0,1,2,6,0,0,4,5,0,0,0,0,0,0,10,0,0,2,2,4,0,0,8,2,0,1,0,1,174132709.1,56926226.11,7938834.255,0,0,0,0,0
8400.197674,1512291,8.605813953,21-Aug-92,Mitte RJ,24,177.5,1,0,0,0,0,1,0,1,2,3,0,0,1,1,0,0,0,0,2,0,3,0,0,0,1,0,1,0,5,0,1,2,0,0,0.0,328789.9071,0.0,0,0,0,0,0
15306.37778,252057,7.697777778,17-Mar-92,Boyega John,24,175.0,5,0,3,2,0,1,0,2,6,7,0,0,1,2,0,0,0,2,0,0,0,0,0,1,0,1,5,0,2,0,0,2,0,0,0.0,130976949.0,455663.5178,0,0,0,0,0
12.98958333,1239040,8.535416667,27-Nov-92,Landry Travis,24,180.0,18,0,9,0,0,3,0,0,2,12,0,0,0,0,0,0,0,0,2,0,0,0,0,0,0,0,0,0,28,0,0,2,0,0,0.0,2499.505497,0.0,0,0,0,0,0
13354.3012,501447,7.386746988,23-Dec-92,Daniels Spencer,24,180.0,0,0,0,0,0,6,0,0,0,11,0,0,1,1,0,0,0,0,4,0,0,0,1,0,1,3,0,0,9,1,0,4,0,0,0.0,1269179.05,0.0,0,0,0,0,0
760.483871,1063485,7.719354839,27-Aug-92,Jenner Blake,24,182.5,0,0,0,0,0,3,0,1,0,4,0,0,0,1,0,0,0,0,2,0,0,0,0,0,0,2,0,0,3,0,0,2,0,0,3369431.0,5001650.952,0.0,0,0,0,0,0
1230.494186,2407519,7.416860465,9-Oct-92,Williams Tyler James,24,170.0,0,0,1,0,0,6,0,0,3,3,0,0,7,0,0,0,0,1,0,0,4,1,0,0,2,2,0,0,2,2,0,1,0,0,4464876.318,18035298.01,0.0,0,0,0,0,0
4487.607143,797962,7.391666667000001,28-Sep-92,Gilchrist Keir,24,167.5,0,0,0,0,1,8,0,2,0,17,0,0,5,2,0,0,0,1,3,0,0,0,2,0,0,1,2,0,9,0,0,6,0,2,6989094.177999999,3694783.828,0.0,0,0,0,0,0
463.75,2468368,7.51,7-Jan-92,Zecharia Paul,24,170.0,0,0,0,0,0,4,0,2,0,0,0,0,0,0,0,0,0,0,1,0,0,0,0,0,0,1,0,0,5,0,0,0,0,0,0.0,0.0,0.0,0,0,0,0,0
38.75,1318149,7.85,3-Jan-92,London Chris,24,175.0,1,0,0,0,1,3,0,2,0,5,0,0,0,0,0,0,0,0,0,0,0,0,0,0,0,2,1,0,5,0,0,0,0,0,0.0,5010.3023299999995,0.0,0,0,0,0,0
20811.96491,1334978,7.7,7-May-92,Ludwig Alexander,24,185.0,4,0,2,1,1,3,0,0,12,4,0,0,4,2,0,0,0,1,1,0,2,0,0,0,2,0,1,0,11,2,1,5,1,0,10178567.87,13427784.37,0.0,0,0,0,0,0
46973.363639999996,1282199,7.378181818,19-Jan-92,Lerman Logan,24,172.5,3,0,6,0,1,5,0,1,3,14,0,0,5,2,0,0,0,0,0,0,2,0,1,0,1,3,1,0,5,0,0,3,1,1,62289390.69,58106688.06,0.0,0,0,0,0,0
17.0,274432,7.4,19-Sep-92,Bromley Grant Douglas,24,175.0,0,0,0,0,0,0,0,0,0,4,0,0,0,0,0,0,0,0,0,0,0,0,0,0,0,0,1,0,4,0,0,0,0,0,0.0,945.9745121,0.0,0,0,0,0,0
262.5,551230,5.6,4-Sep-92,DeRosa Oscar,24,175.0,0,0,0,0,0,0,0,2,0,2,0,0,0,0,0,0,0,0,0,0,0,0,0,0,0,0,0,0,1,1,0,0,0,0,0.0,0.0,0.0,0,0,0,0,0
6440.660714,917980,6.9625,17-Jan-92,Hartley Nate,24,185.0,1,0,1,0,0,11,0,0,0,5,0,0,1,0,0,0,0,0,0,0,0,0,0,0,0,3,0,0,3,0,0,0,0,0,36622218.92,12743619.29,0.0,0,0,0,0,0
2652.75,2208680,6.9875,11-Apr-92,Thatcher Zach,24,170.0,0,0,0,0,0,2,0,0,1,1,0,0,0,1,0,0,0,0,0,0,0,0,0,0,0,0,0,0,3,0,0,0,0,0,0.0,112058.3224,0.0,0,0,0,0,0
1060.852459,1862334,7.527868852,30-Oct-92,Richmond Tequan,24,167.5,1,0,0,0,1,3,0,4,0,4,0,0,7,0,0,0,0,0,0,0,1,0,1,0,0,0,0,0,1,0,0,1,0,0,89371.68662000001,613871.2012,0.0,0,0,0,0,0
850.9205882000001,2113082,7.574705882000001,4-Aug-92,Sprouse Cole,24,180.0,1,0,3,1,0,13,0,2,5,5,0,0,22,0,0,1,0,0,0,0,3,0,1,0,2,0,1,0,7,1,0,0,0,0,0.0,11504160.15,22294.162180000003,0,0,0,0,0
2984.454545,2387645,6.827272727,26-Apr-92,White Dallas,24,175.0,0,0,4,0,1,2,0,1,0,7,0,0,0,0,0,0,0,0,2,0,0,0,0,0,0,1,1,0,6,0,0,1,0,0,0.0,2016464.065,0.0,0,0,0,0,0
1221.836158,1083601,7.20960452,16-Sep-92,Jonas Nick,24,167.5,0,0,2,0,1,2,0,0,25,2,0,0,7,1,0,1,0,0,0,0,47,4,0,2,8,1,0,0,6,0,1,1,0,0,0.0,18889515.58,0.0,0,0,0,0,0
1339.754209,1400440,7.679124579,15-Oct-92,Martella Vincent,24,162.5,6,0,5,3,0,9,0,0,1,2,0,0,15,2,0,0,0,0,3,0,4,2,2,0,4,0,4,0,2,0,1,1,1,0,0.0,1205294.601,0.0,0,0,0,0,0
3559.0625,1416241,7.28125,29-Mar-92,Massoglia Chris,24,180.0,1,0,3,0,0,1,0,0,9,0,0,0,3,2,0,0,0,0,1,0,0,0,0,0,0,0,0,0,9,0,0,2,0,1,0.0,12844026.23,0.0,0,0,0,0,0
17.5,2074202,5.95,22-Dec-92,Sless Jeremy,24,170.0,4,0,2,1,0,2,0,2,0,4,0,0,1,0,0,0,0,0,3,0,0,0,1,0,0,1,0,0,5,0,0,2,0,0,0.0,21439.94765,0.0,0,0,0,0,0
85786.0,1068098,8.028571429,30-Oct-92,Jia Dave,24,170.0,2,0,2,0,0,2,0,1,1,3,0,0,1,0,0,0,0,0,1,0,0,0,0,0,0,0,2,0,7,0,0,0,0,0,0.0,34345352.63,0.0,0,0,0,0,0
564.0084034,2269463,7.873109244,6-Mar-91,Tyler the Creatornan,25,185.0,0,0,0,1,0,7,0,0,2,1,0,0,0,0,0,0,0,0,0,0,24,0,0,0,0,0,0,0,23,0,0,0,0,0,0.0,0.0,0.0,0,0,0,0,0
4032.785714,180730,7.6238095239999994,13-Nov-91,Bennett Matt,25,175.0,1,0,0,0,0,7,0,0,3,1,0,0,3,0,0,0,0,0,0,0,2,0,0,1,3,3,1,0,3,0,0,0,0,0,589113.6222,2809017.125,0.0,0,0,0,0,0
28.88888889,1839402,5.677777777999999,9-May-91,Reese Douglas,25,180.0,0,0,0,0,0,3,0,0,3,8,0,0,0,0,0,0,0,0,3,0,0,0,0,0,0,0,0,0,6,0,0,0,0,0,0.0,1367.0861869999999,0.0,0,0,0,0,0
3384.941176,746605,7.217647059,29-Jun-91,Fulton Soren,25,172.5,2,0,2,0,0,5,0,0,0,8,0,0,5,0,0,0,0,0,0,0,0,0,0,0,0,2,1,0,1,0,0,0,0,0,0.0,20746963.4,0.0,0,0,0,0,0
1747.423077,2379863,6.9461538460000005,8-Mar-91,Werkheiser Devon,25,175.0,1,0,0,3,0,11,0,1,5,4,0,0,10,3,0,0,0,0,2,0,2,1,0,0,4,1,0,0,4,0,1,5,0,0,0.0,1365968.59,0.0,0,0,0,0,0
56729.6,1550640,7.28,17-Jan-91,Moss Jameson,25,167.5,1,0,0,1,0,5,0,0,0,0,0,0,0,1,0,0,0,0,1,0,0,1,0,0,0,0,0,0,4,0,0,0,0,0,0.0,97490.61135,0.0,0,0,0,0,0
18646.08696,2119059,7.595652174,12-Aug-91,Stanfield Keith,25,180.0,0,0,0,0,2,2,0,1,1,14,0,0,1,1,0,0,0,0,2,0,1,0,0,0,0,1,0,0,8,1,0,2,0,0,0.0,3915.408531,0.0,0,0,0,0,0
2033.9574469999998,319600,7.253191489,22-Apr-91,Cagley Adam,25,175.0,1,0,1,0,0,9,0,0,0,3,0,0,6,1,0,0,0,0,1,0,1,0,0,0,0,1,0,0,2,0,0,0,0,0,0.0,6181398.284,0.0,0,0,0,0,0
6.0,1388703,8.8,17-Jan-91,Marcus Dylan,25,167.5,0,0,0,0,0,1,0,0,1,0,0,0,0,0,0,0,0,0,0,0,0,0,0,0,2,0,0,0,1,0,0,0,0,0,0.0,7865.657929999999,0.0,0,0,0,0,0
632.0723684,1570408,7.513815789,9-Jul-91,Musso Mitchel,25,172.5,1,0,1,2,0,10,0,0,5,3,0,0,14,3,0,1,0,0,1,0,7,0,1,0,0,1,1,0,6,0,0,1,0,0,0.0,26126414.62,0.0,0,0,0,0,0
1720.818182,202838,5.881818182000001,27-Feb-91,Bigelow Cameron,25,180.0,3,0,0,0,0,1,0,5,0,13,0,0,1,0,0,0,0,0,2,0,0,0,1,0,0,1,0,0,10,0,0,4,0,0,0.0,3607392.523,0.0,0,0,0,0,0
50.75,1570187,8.275,23-Aug-91,Musolino Mitchell,25,175.0,0,0,0,0,0,0,0,0,0,0,0,0,0,0,0,0,0,0,4,0,0,0,0,0,0,0,0,0,0,0,0,0,0,0,0.0,10000.0,0.0,0,0,0,0,0
34537.0,396112,6.08,25-Jan-91,Chitwood Seth,25,180.0,2,0,0,0,0,3,0,0,0,2,0,0,0,1,0,0,0,0,1,0,0,0,0,0,0,0,1,0,2,1,1,1,0,0,0.0,31852958.05,0.0,0,0,0,0,0
299.3278689,579940,7.75136612,5-Jul-91,Dolley Jason,25,177.8,0,0,1,1,0,6,0,0,3,4,0,0,17,0,0,1,0,0,0,0,0,0,0,0,2,0,1,0,4,0,0,0,0,0,0.0,595238.0952,0.0,0,0,0,0,0
9626.092308,1840657,7.781538462,1991,Regbo Toby,25,175.0,0,0,2,0,0,0,0,0,0,5,0,0,1,3,0,0,0,1,0,0,1,0,1,0,0,1,2,0,1,0,0,2,1,0,0.0,28331408.8,0.0,0,0,0,0,0
11.75,800080,8.2,26-Feb-91,Gilliard Colin,25,175.0,0,0,1,0,0,2,0,0,0,4,0,0,0,1,0,0,0,0,0,0,0,0,0,0,0,0,0,0,6,0,0,0,0,0,0.0,23154.84805,0.0,0,0,0,0,0
218.5,1121456,6.25,27-Jul-91,Karpel Daniel,25,175.0,1,0,0,0,0,2,0,0,0,5,0,0,3,1,0,0,0,0,0,0,0,0,2,0,0,1,0,0,2,0,0,1,0,0,0.0,1290566.259,0.0,0,0,0,0,0
18270.85714,1040472,6.171428571,24-Feb-91,Jackson Jr. O'Shea,25,177.5,0,0,0,0,1,2,0,1,0,3,0,0,0,0,0,0,0,1,0,0,3,0,0,0,0,0,0,0,0,0,0,0,0,0,162927133.5,28352396.66,0.0,0,0,0,0,0
7.666666667,893843,7.2,22-Jan-91,Hameed Umair,25,175.0,0,0,1,0,0,0,0,0,0,0,0,0,0,0,0,0,0,0,0,0,0,0,0,0,0,0,0,0,1,0,0,0,0,0,0.0,0.0,0.0,0,0,0,0,0
6988.7,1633639,8.49,26-Aug-91,O'Brien Dylan,25,178.0,5,0,0,0,0,7,0,0,2,2,0,0,0,0,0,0,0,0,2,0,4,0,1,0,1,1,3,0,5,0,0,5,0,0,93270654.26,31904597.33,0.0,0,0,0,0,0
112808.3333,1792868,6.3666666670000005,19-Apr-91,Pryce David James,25,175.0,1,0,0,0,0,2,0,0,0,0,0,0,0,0,0,0,0,0,0,0,0,0,0,0,0,1,1,0,1,0,0,1,0,0,0.0,6332794.749,0.0,0,0,0,0,0
97.0,2414099,7.7,21-Jul-91,Wilson Tres,25,175.0,1,0,1,0,0,4,0,0,0,4,0,0,2,0,0,0,0,0,0,0,0,0,0,0,0,1,0,0,8,0,0,0,0,0,0.0,481.1884928,0.0,0,0,0,0,0
66947.5,408091,7.15,7-Jun-91,Cioffi Jon,25,177.5,0,0,0,0,0,1,0,1,0,2,0,0,0,1,0,0,0,0,0,0,0,0,0,0,0,3,0,0,5,0,0,1,0,0,0.0,50689375.51,0.0,0,0,0,0,0
85917.5,1138001,7.85,8-Mar-91,Kelly Jason,25,177.5,0,0,0,0,0,0,0,0,0,2,0,0,0,0,0,0,0,0,0,0,0,0,0,0,0,0,0,0,1,1,0,0,0,0,0.0,0.0,0.0,0,0,0,0,0
285950.5,2298140,8.3,4-Nov-91,Vang Bee,25,165.0,0,0,0,0,0,0,0,0,1,2,0,0,0,0,0,0,0,0,0,0,0,0,0,0,0,0,0,0,2,0,0,0,0,0,0.0,18458854.5,0.0,0,0,0,0,0
21565.2,1174996,6.54,14-Oct-91,Kline Owen,25,175.0,0,0,0,0,0,2,0,0,0,2,0,0,0,0,0,0,0,0,0,0,0,0,0,0,0,0,0,0,1,0,0,0,0,0,9047127.496,19216407.72,0.0,0,0,0,0,0
10351.25,2059028,7.355,25-Jan-91,Simonian Rupert,25,172.5,0,0,0,0,0,2,0,0,2,4,0,0,0,0,0,0,0,0,0,0,0,0,1,0,0,0,0,0,5,0,0,1,0,0,0.0,0.0,0.0,0,0,0,0,0
671.6,595505,6.986666667000001,28-Apr-91,Dreizen Charlie,25,167.5,1,0,0,0,1,2,0,1,0,5,0,0,2,0,0,0,0,0,8,0,0,0,1,0,0,2,0,0,4,1,0,2,0,0,0.0,786350.2966,0.0,0,0,0,0,0
7820.4285709999995,1908785,6.717142857000001,3-Jul-91,Rosenmeyer Grant,25,172.5,0,0,1,0,0,10,0,0,1,4,0,0,2,0,0,0,0,0,1,0,1,0,1,0,1,1,0,0,7,0,0,1,0,0,0.0,60000.0,0.0,0,0,0,0,0
36.02325581,834870,7.3976744189999994,16-May-91,Graceffa Joey,25,177.5,2,0,1,0,0,3,0,0,0,0,0,0,0,0,0,0,0,0,1,0,1,0,1,1,0,0,5,0,6,0,0,0,0,0,0.0,23991.281430000003,0.0,0,0,0,0,0
131.0,1600993,6.2,9-Jan-91,Neuhoff Trevor,25,177.5,0,0,0,0,1,2,0,2,0,1,0,0,0,0,0,0,0,0,0,0,0,0,1,0,0,0,0,0,3,0,0,1,0,0,0.0,3657327.318,0.0,0,0,0,0,0
874.7142857000001,557837,6.971428571000001,15-Jun-91,Dezil Stefan,25,175.0,1,0,0,0,0,2,0,1,0,3,0,0,0,0,0,0,0,0,0,0,0,0,0,0,0,2,0,0,4,0,0,1,0,0,0.0,12613.30871,0.0,0,0,0,0,0
7107.4,720610,6.6,12-Jul-91,Fortune Christian,25,167.5,2,0,0,0,0,1,0,0,0,4,0,0,0,0,0,0,0,1,1,0,0,0,0,0,0,1,0,0,3,0,1,2,0,1,0.0,2431012.867,0.0,0,0,0,0,0
2571.652174,1062580,7.014492754,4-Sep-91,Jenkins Carter,25,180.0,2,0,1,2,0,10,0,0,3,7,0,0,2,2,0,0,0,0,3,0,0,0,0,0,0,2,5,0,11,0,0,4,0,0,28191402.32,13146359.21,0.0,0,0,0,0,0
7850.670520000001,2156875,7.804624277,12-Jul-91,Sullivan Erik Per,25,172.5,1,0,2,0,0,4,0,0,3,4,0,0,3,1,0,0,0,0,1,0,0,0,1,0,1,0,1,0,2,0,0,3,0,0,0.0,62369316.35,0.0,0,0,0,0,0
35.25,1847047,7.75,8-Aug-91,Renaud Bryan,25,175.0,0,0,0,0,0,4,0,0,0,0,0,0,0,0,0,0,0,0,0,0,0,0,0,0,0,0,0,0,3,0,0,0,0,0,0.0,11186.88152,0.0,0,0,0,0,0
58.0,2194673,8.4,8-Aug-91,Taylor Brandon Michael,25,180.0,0,0,0,0,0,0,0,0,0,2,0,0,0,0,0,0,0,0,1,0,0,0,1,0,0,1,0,0,3,0,0,1,0,0,0.0,4050.3423810000004,0.0,0,0,0,0,0
109.0,614166,7.9,15-Mar-91,Dworak Jason,25,172.5,0,0,0,0,0,0,0,0,0,2,0,0,2,0,0,0,0,0,0,0,0,0,0,0,0,0,0,0,2,2,0,0,0,0,0.0,0.0,0.0,0,0,0,0,0
17.51724138,910232,7.04137931,10-Jun-91,Harper Davis,25,177.5,1,0,1,0,0,0,0,0,0,4,0,0,0,0,0,0,0,1,0,0,0,0,0,0,0,1,1,0,3,0,0,0,0,0,0.0,0.0,0.0,0,0,0,0,0
479.4444444,2474923,5.655555556,24-Mar-91,Ziff Matthew,25,175.0,9,0,2,0,0,2,0,3,0,8,0,0,1,1,0,0,0,2,1,0,0,0,0,0,0,0,3,0,2,0,0,6,0,3,0.0,4068947.124,87500.0,0,0,0,0,0
37272.0,1381032,6.677777777999999,27-Sep-91,Mann Thomas,25,181.0,2,0,2,0,3,8,0,2,0,14,0,0,0,3,0,0,0,1,2,0,0,0,0,0,0,2,1,0,1,0,0,3,0,0,32020577.12,56434121.76,0.0,0,0,0,0,0
229.5,1052729,6.25,24-Sep-91,Jamora Edana Isobel,25,158.0,0,0,0,0,0,1,0,0,1,0,0,0,1,0,0,0,0,0,0,0,0,0,0,0,0,1,0,0,1,0,0,0,0,0,0.0,8000.0,0.0,0,0,0,0,0
16966.69231,1031419,6.315384615,1990,Irvine Jeremy,26,180.0,0,0,2,0,2,1,0,0,0,11,0,0,0,2,0,0,0,0,0,0,1,0,0,0,0,4,0,0,1,0,0,3,2,0,29972858.84,26091186.78,0.0,0,0,0,0,0
31102.94444,2413085,6.161111111,3-Aug-90,Wilson Myke,26,177.5,0,0,0,0,0,2,0,1,0,4,0,0,0,0,0,0,0,0,2,0,0,0,1,0,0,1,1,0,7,0,0,2,0,0,0.0,1431.654721,0.0,0,0,0,0,0
9577.032258,897439,7.75483871,10-Jun-90,Hampton Brandon K.,26,175.0,2,0,0,0,0,3,0,1,0,8,0,0,0,0,0,0,0,0,1,0,0,0,2,0,0,0,0,0,4,0,0,2,0,0,0.0,241275.2325,0.0,0,0,0,0,0
24.5,2455586,6.95,22-Jan-90,Young Joshua Lee,26,177.5,4,0,1,0,0,7,0,1,0,11,0,0,0,1,0,0,0,0,0,0,0,0,2,0,0,2,0,0,10,0,0,1,0,0,0.0,532224.3399,0.0,0,0,0,0,0
13328.037040000001,1634909,7.233333332999999,1-Aug-90,O'Connell Jack,26,170.0,5,0,0,0,4,2,0,4,4,14,0,0,0,2,0,0,0,2,1,0,4,0,0,0,0,1,0,0,9,1,0,6,7,0,59258490.87,47489489.52,0.0,0,0,0,0,0
40.33333333,670667,6.006666667,31-Aug-90,Faraj Conrad,26,172.5,0,0,0,0,0,0,0,0,0,2,0,0,0,0,0,0,0,0,3,0,0,0,0,0,0,0,0,0,4,0,0,3,0,0,0.0,11660.6476,0.0,0,0,0,0,0
59814.0,2253782,7.3,22-Oct-90,Troeller Kerim,26,185.0,0,0,1,0,1,0,0,0,0,3,0,0,0,0,0,0,0,0,0,0,0,0,0,0,0,1,0,0,2,0,0,1,0,0,0.0,1750000.0,0.0,0,0,0,0,0
898.4375,1473355,6.75,12-Mar-90,Mendez Dominic,26,170.0,1,0,1,0,0,7,0,0,2,9,0,0,0,2,0,0,0,0,10,0,0,1,0,0,0,0,8,0,15,0,0,1,0,0,0.0,4474882.039,0.0,0,0,0,0,0
3414.6875,704861,8.58125,25-Mar-90,Flanders Ian,26,175.0,0,0,0,0,0,2,0,0,0,1,0,0,0,0,0,0,0,0,0,0,1,0,0,0,0,0,0,0,7,0,0,4,0,0,0.0,5737.1304310000005,0.0,0,0,0,0,0
1469.190476,1512611,6.447619048,5-Apr-90,Miura Haruma,26,178.0,8,0,4,1,0,2,0,0,0,15,0,0,0,3,0,0,0,0,5,0,0,0,4,0,1,2,4,0,0,1,1,0,1,0,358249.7458,30377567.85,0.0,0,0,0,0,0
11.8,549181,7.46,13-Apr-90,Dent Adrian,26,172.5,1,0,0,0,0,0,0,1,0,0,0,0,0,0,0,0,0,0,2,0,0,0,5,0,0,0,0,0,0,0,0,1,0,0,0.0,7337.928488,0.0,0,0,0,0,0
1287.8,2101303,6.84,6-Dec-90,Sorvillo Justin,26,172.5,2,0,1,0,0,9,0,0,0,2,0,0,0,2,0,0,0,0,1,0,0,1,0,0,0,2,3,0,9,0,0,2,1,0,0.0,36437.32969,0.0,0,0,0,0,0
291.5,1088974,7.0,21-Apr-90,Jones Quinton,26,170.0,0,0,0,0,0,1,0,0,0,1,0,0,0,1,0,0,0,0,0,0,0,0,0,0,0,1,0,0,0,0,0,0,1,1,0.0,0.0,0.0,0,0,0,0,0
353.7,362015,7.36,23-Jul-90,Castro Ryan,26,180.0,0,0,0,0,0,1,0,1,0,6,0,0,0,0,0,0,0,0,0,0,0,0,0,0,0,2,0,0,6,0,0,2,0,0,0.0,93600.74911,0.0,0,0,0,0,0
972.0,2243693,6.8666666670000005,3-Feb-90,Totten Tyler,26,177.5,0,0,0,0,0,0,0,0,0,4,0,0,1,0,0,0,0,0,0,0,1,0,0,0,0,1,0,0,1,0,0,0,0,0,0.0,3542118.65,0.0,0,0,0,0,0
81199.21738999999,2198423,6.793478261000001,13-Jun-90,Taylor-Johnson Aaron,26,177.5,8,0,5,0,1,8,0,5,4,15,0,0,4,2,0,0,0,0,0,0,1,0,2,0,0,5,2,0,7,0,0,7,0,0,61662032.77,56244489.66,0.0,0,0,0,0,0
9042.270833,1305523,6.583333333,22-Oct-90,Lipnicki Jonathan,26,167.5,4,0,3,3,0,22,0,1,5,12,0,0,11,4,0,0,0,0,1,0,1,1,0,0,1,3,2,0,6,2,0,4,0,0,18893363.07,44283130.4,0.0,0,0,0,0,0
962.5,1257740,6.75,12-Jan-90,Lay Michael,26,182.5,0,0,0,0,0,0,0,0,0,0,0,0,0,0,0,0,0,0,0,0,0,0,0,0,0,1,0,0,0,0,0,0,1,0,0.0,10000.0,0.0,0,0,0,0,0
72.5,683449,8.7,25-Feb-90,Ferera Chris,26,185.0,0,0,0,0,0,0,0,0,1,8,0,0,1,1,0,0,0,0,0,0,1,0,0,0,0,0,1,0,9,0,0,1,0,0,0.0,1675072.394,0.0,0,0,0,0,0
103.1428571,1118211,6.714285714,23-Oct-90,Karales Jayme,26,177.5,0,0,0,2,0,5,0,0,1,1,0,0,0,0,0,0,0,1,2,0,0,0,0,0,0,0,0,0,4,0,3,3,0,0,0.0,35425.20397,0.0,0,0,0,0,0
275.3522727,374296,5.341477273,29-Jul-90,Chambers Munro,26,165.0,2,0,2,0,0,7,0,0,1,5,0,0,2,2,0,0,0,0,1,0,1,1,0,0,0,1,1,0,1,0,0,1,1,0,50629.279760000005,1000000.0,0.0,0,0,0,0,0
21627.820509999998,1262058,6.36025641,21-May-90,Leavenworth Scotty,26,167.5,0,0,0,1,0,3,0,0,1,4,0,0,2,2,0,0,0,0,0,0,2,1,0,0,0,2,0,0,1,0,0,0,0,0,0.0,36589497.46,0.0,0,0,0,0,0
473.0,431747,7.5,30-May-90,Collins Dean,26,170.0,0,0,0,0,0,3,0,0,0,3,0,0,3,2,0,0,0,0,0,0,0,0,1,0,0,2,0,0,2,0,0,1,0,0,0.0,18789861.93,0.0,0,0,0,0,0
772.6666667000001,730477,7.291666667,15-Jan-90,Franklin Sidney,26,175.0,2,0,1,0,0,7,0,1,0,9,0,0,2,0,0,0,0,0,1,0,2,1,0,0,0,2,0,0,13,0,0,1,0,0,0.0,5813.58666,0.0,0,0,0,0,0
5379.57377,1438404,7.193442622999999,11-Mar-90,McClendon Reiley,26,185.0,4,0,3,0,0,3,0,1,0,13,0,0,5,0,0,0,0,0,3,0,0,0,3,0,0,1,2,0,2,1,0,5,0,0,0.0,3087106.185,0.0,0,0,0,0,0
1893.888889,987783,6.777777778,11-Sep-90,Hopper Henry,26,172.0,1,0,0,0,3,0,0,0,1,4,0,0,0,0,0,0,0,0,0,0,1,0,0,0,0,2,0,0,4,0,0,0,0,0,174064.2574,16004338.95,0.0,0,0,0,0,0
12896.51111,1797086,7.522222222000001,28-Jun-90,Purcell Nicholas,26,170.0,0,0,0,0,1,3,0,1,0,5,0,0,1,1,0,0,0,0,0,0,2,0,1,0,2,2,0,0,2,1,0,1,0,0,0.0,15114493.33,0.0,0,0,0,0,0
1122.616883,205038,8.188961039,4-Nov-90,Bilodeau Jean-Luc,26,175.0,0,0,0,0,0,5,0,0,0,5,0,0,3,1,0,0,0,0,1,0,2,0,0,0,1,2,0,0,0,0,1,2,0,0,48607.542010000005,6075058.582,0.0,0,0,0,0,0
8999.125,2359297,6.63125,15-Jan-90,Warren Chris,26,180.0,1,0,0,0,0,4,0,0,2,5,0,0,5,0,0,0,0,0,0,0,5,4,0,0,0,4,0,0,2,1,0,1,0,0,0.0,13310137.62,0.0,0,0,0,0,0
2101.22449,233401,7.526530612,29-Nov-90,Boneta Diego,26,170.0,0,0,0,0,2,1,0,0,1,5,0,0,1,1,0,0,0,0,2,0,1,1,0,0,2,1,0,0,1,1,0,3,0,0,0.0,27960933.75,0.0,0,0,0,0,0
5470.606557,1690169,7.983606557000001,11-Jul-90,Paolo Connor,26,167.5,4,0,1,0,1,2,0,0,1,13,0,0,0,0,0,0,0,2,5,0,1,0,1,0,0,4,1,0,5,1,0,4,1,0,19705.609080000002,39389023.41,0.0,0,0,0,0,0
137.0,2148179,5.333333333,11-Mar-90,Strobel Zachary,26,175.0,20,0,11,53,0,60,0,0,0,9,0,0,13,1,0,0,0,0,5,0,2,2,0,0,0,0,10,0,51,0,0,0,0,0,0.0,3239.984814,0.0,0,0,0,0,0
543.0,382001,7.2,4-Jul-90,Charlton Adam,26,177.5,1,0,1,0,1,0,0,0,0,4,0,0,1,0,0,0,0,0,0,0,0,0,0,0,0,1,0,0,7,0,0,0,0,0,0.0,0.0,0.0,0,0,0,0,0
60.5982906,1413989,8.261538462,16-Jul-90,Maslow James,26,182.5,0,0,0,0,0,3,0,1,3,2,0,0,3,0,0,0,0,0,0,0,11,3,0,0,6,2,0,0,1,1,0,1,0,0,0.0,440456.5487,0.0,0,0,0,0,0
23.0,1793577,6.0,8-May-90,Psihos Spiros,26,180.0,0,0,1,0,0,0,0,0,0,4,0,0,1,0,0,0,0,0,0,0,0,0,0,0,0,0,0,0,3,0,0,2,0,0,0.0,350000.0,0.0,0,0,0,0,0
6549.5454549999995,536143,5.618181817999999,9-Dec-90,DeFilippi Adam,26,182.5,0,0,0,0,0,0,0,1,1,3,0,0,0,0,0,0,0,0,4,0,0,0,2,0,0,0,1,0,2,0,0,2,0,0,0.0,4169249.06,0.0,0,0,0,0,0
4107.904762,1790985,6.104761905,29-Jul-90,Prokop Matt,26,177.5,0,0,0,0,0,4,0,0,2,3,0,0,2,0,0,0,0,0,0,0,0,0,0,0,0,3,0,0,3,0,0,0,0,0,0.0,14874006.86,0.0,0,0,0,0,0
91.83333333,402033,6.8,29-Oct-90,Christianson Mikey,26,170.0,2,0,1,0,0,4,0,1,0,6,0,0,0,0,0,0,0,1,1,0,0,0,0,0,0,2,1,0,4,0,0,2,0,0,0.0,135869.6883,0.0,0,0,0,0,0
12647.53333,424740,7.243333333,13-Mar-90,Cohen Emory,26,167.5,0,0,0,0,0,2,0,2,1,14,0,0,0,0,0,0,0,0,0,0,0,0,1,0,0,6,0,0,5,0,0,5,0,1,28503.649639999996,6912690.61,0.0,0,0,0,0,0
523.6,841438,7.14,6-Sep-90,Graves O'Ryan,26,172.5,0,0,0,0,0,1,0,1,0,3,0,0,0,0,0,0,0,0,0,0,0,0,1,1,0,0,0,0,0,0,0,0,0,0,0.0,4132509.613,0.0,0,0,0,0,0
35228.342860000004,941454,7.35,13-Jan-90,Hemsworth Liam,26,187.5,3,0,5,0,0,1,0,1,6,6,0,0,1,1,0,0,0,0,0,0,2,0,2,0,1,2,5,0,5,0,2,8,1,1,55368160.89,69716056.4,0.0,0,0,0,0,0
42942.5625,1359501,5.45625,8-Feb-90,Madsen Christian,26,185.0,1,0,2,0,0,0,0,3,1,10,0,0,1,1,0,0,0,0,0,0,0,0,2,0,0,1,2,0,1,0,0,5,0,0,0.0,17061510.0,0.0,0,0,0,0,0
29676.2,836926,6.78,21-Dec-90,Graham Shane,26,167.5,2,0,0,0,0,5,0,1,0,7,0,0,1,0,0,0,0,0,0,0,2,0,0,0,0,1,0,0,10,0,0,0,0,0,0.0,9682.505753,0.0,0,0,0,0,0
67361.53846,1740398,6.461538462,10-Apr-90,Pettyfer Alex,26,181.0,2,0,2,0,1,2,0,0,1,5,0,0,1,1,0,0,0,1,1,0,0,0,0,0,0,2,1,0,1,0,0,3,0,0,37377141.61,31379110.04,266738.9826,0,0,0,0,0
25.69230769,291958,7.376923077000001,3-Dec-90,Buchanan Austin,26,162.5,4,0,4,0,0,7,0,0,0,4,0,0,2,1,0,0,0,1,2,0,0,0,0,0,0,1,0,0,10,0,0,0,0,6,0.0,172263.7437,0.0,0,0,0,0,0
176.21212119999998,2435951,7.263636364,12-Jun-90,Wu Kevin,26,177.5,1,0,0,1,0,13,0,1,1,4,0,0,0,0,0,0,0,0,0,0,1,0,0,0,2,0,1,0,7,0,0,0,0,0,0.0,1437268.96,0.0,0,0,0,0,0
145.33333330000002,2436624,5.8,26-Mar-90,Wunderlich David,26,185.0,0,0,0,0,0,5,0,1,0,4,0,0,0,0,0,0,0,0,1,0,0,0,0,0,0,1,0,0,7,0,0,1,0,0,0.0,2423.818223,0.0,0,0,0,0,0
287.6666667,177226,7.6333333329999995,8-Aug-90,Bendersky Dennis,26,175.0,0,0,0,0,0,1,0,1,0,1,0,0,0,0,0,0,0,0,0,0,0,0,0,0,0,0,0,0,1,0,0,0,0,0,0.0,1530721.966,0.0,0,0,0,0,0
47.95238095,1932501,6.977777777999999,5-Jul-90,Ryan Felix,26,167.5,3,0,2,0,0,3,0,1,0,6,0,0,0,0,0,0,0,0,1,0,0,0,1,1,0,2,0,0,5,1,0,1,1,0,0.0,1551511.6519999998,0.0,0,0,0,0,0
397.4130435,959479,7.723913043,6-Jun-90,Higa Ryan,26,170.0,1,0,0,0,0,11,0,0,2,0,0,0,0,0,0,0,0,0,3,0,0,1,1,0,3,0,1,0,13,0,0,1,0,0,0.0,567656.385,0.0,0,0,0,0,0
186.0,1543583,7.066666667000001,5-Jul-90,Morosini James,26,180.0,2,0,1,0,0,6,0,2,0,3,0,0,2,0,0,0,0,1,0,0,0,0,0,0,0,1,1,0,9,0,0,3,1,0,0.0,31082.72506,0.0,0,0,0,0,0
14999.46053,1704792,7.818421053,23-Apr-90,Patel Dev,26,187.0,3,0,2,1,1,3,0,1,8,9,0,0,1,1,0,0,0,0,0,0,1,0,0,0,2,1,1,0,10,0,0,1,0,0,95508717.93,34896494.74,0.0,0,0,0,0,0
244.5,66000,7.375,25-Aug-90,Andrews Kristos,26,180.0,0,0,1,0,0,1,0,0,4,4,0,0,1,0,0,0,0,0,0,0,0,0,0,0,1,0,0,0,1,3,0,1,0,0,0.0,519074.1854,0.0,0,0,0,0,0
864.8813559,1173884,7.879661017,18-May-90,Kleintank Luke,26,180.0,0,0,1,0,1,0,0,1,0,3,0,0,1,0,0,0,0,0,1,0,0,0,0,0,0,0,0,0,0,0,0,3,0,0,0.0,20251711.9,0.0,0,0,0,0,0
98.11111111,1415779,6.433333332999999,10-Sep-90,Massey Chandler,26,177.5,0,0,0,0,0,3,0,0,1,5,0,0,1,0,0,0,0,0,1,0,0,0,0,0,0,1,0,0,2,0,0,1,0,0,0.0,14416.838109999999,0.0,0,0,0,0,0
46858.25,845346,7.4625,29-Dec-90,Green J.J.,26,180.0,2,0,0,0,1,2,0,2,0,10,0,0,2,0,0,0,0,1,0,0,0,0,1,0,0,1,1,0,6,1,0,0,0,0,0.0,22662894.47,0.0,0,0,0,0,0
30670.652169999998,1464993,7.519565217,13-Mar-90,Medlock Alec,26,167.5,1,0,2,2,0,2,0,0,0,0,0,0,2,2,0,0,0,0,1,0,0,0,0,0,0,0,1,0,4,0,0,2,1,1,0.0,27608956.98,0.0,0,0,0,0,0
24993.25,658315,6.425,12-Sep-90,Evan Jared,26,182.5,0,0,0,0,0,4,0,0,0,3,0,0,0,0,0,0,0,0,0,0,1,0,0,0,0,1,0,0,2,0,0,0,0,0,0.0,3917323.215,0.0,0,0,0,0,0
13975.95,24002,6.8525,7-Jan-90,Aiken Liam,26,177.5,2,0,3,0,0,9,0,2,5,18,0,0,3,3,0,0,0,1,2,0,1,0,0,0,0,4,2,0,8,0,0,8,0,0,0.0,65799470.95,0.0,0,0,0,0,0
5906.304348,304337,7.817391304,28-Aug-90,Burns Cody,26,185.0,1,0,3,1,1,4,0,1,0,2,0,0,0,0,0,0,0,0,1,0,2,0,0,0,0,0,0,0,5,0,1,1,0,0,0.0,6790635.9520000005,27515.86748,0,0,0,0,0
17.0,1039856,6.6,25-Oct-90,Jacinto Jordan,26,167.5,0,0,0,0,1,0,0,3,0,6,0,0,0,0,0,0,0,0,0,0,0,0,0,0,0,1,0,0,5,0,0,1,0,0,0.0,10002898.98,0.0,0,0,0,0,0
101.6,1221889,7.286666667,5-Aug-90,Kyser Jack,26,175.0,0,0,0,1,0,3,0,0,0,5,0,0,0,1,0,0,0,0,0,0,0,0,0,0,0,2,1,0,5,0,0,0,0,0,0.0,119047.619,0.0,0,0,0,0,0
6128.5,508952,7.591666667,16-Nov-90,David Jordan,26,180.0,0,0,0,0,0,1,0,2,0,3,0,0,0,0,0,0,0,0,0,0,0,0,1,0,0,1,0,0,4,0,0,1,0,0,0.0,6759868.499,0.0,0,0,0,0,0
48637.415089999995,2226164,6.641509434,10-Aug-90,Till Lucas,26,175.0,3,0,1,1,0,5,0,0,2,12,0,0,2,0,0,0,0,0,5,0,4,0,1,1,0,2,4,0,6,0,1,10,0,0,0.0,19870220.0,0.0,0,0,0,0,0
3223.1632649999997,2069244,7.089795917999999,9-Aug-90,Skarsg_Îârd Bill,26,191.0,2,0,2,0,0,3,0,0,0,11,0,0,1,1,0,0,0,0,1,0,0,0,0,0,0,5,2,0,4,0,0,4,0,0,156912.4629,6100000.0,0.0,0,0,0,0,0
299.5,892509,5.65,21-Dec-90,Halsell Zeb,26,175.0,1,0,0,0,0,2,0,0,0,1,0,0,1,0,0,0,0,0,0,0,0,0,0,0,0,1,0,0,1,0,0,1,0,0,0.0,0.0,0.0,0,0,0,0,0
2429.374359,1442890,7.630769231,6-Apr-90,McDermott Charlie,26,175.0,1,0,2,0,0,9,0,1,0,10,0,0,1,2,0,0,0,0,0,0,0,0,0,0,0,2,1,0,5,0,0,0,0,0,0.0,7385751.826,0.0,0,0,0,0,0
79497.0,1704722,7.16,16-Jul-90,Patel Ankit,26,170.0,0,0,0,0,0,1,0,0,1,1,0,0,1,0,0,0,0,0,0,0,1,0,0,0,1,0,0,0,2,0,0,0,0,0,0.0,1322.992135,0.0,0,0,0,0,0
11214.66667,1893023,6.033333333,Jun-90,Roe Alex,26,180.0,1,0,0,0,0,1,0,0,1,3,0,0,0,0,0,0,0,0,2,0,0,0,0,0,0,1,0,0,2,0,0,2,1,0,0.0,33000000.0,0.0,0,0,0,0,0
31.0,1178285,7.8,3-Mar-89,Knight John,27,172.5,1,0,0,0,0,1,0,0,0,1,0,0,0,0,0,0,0,0,0,0,0,0,0,0,0,0,0,0,2,0,0,1,0,0,0.0,0.0,0.0,0,0,0,0,0
120403.0,1766664,4.2,8-Sep-89,Poletti Mark,27,172.5,4,0,2,0,0,2,0,0,0,2,0,0,0,2,0,0,0,0,0,0,0,0,0,0,0,0,0,0,5,0,0,0,0,0,0.0,6550.342381,0.0,0,0,0,0,0
253.0806452,2400308,8.270967742,11-Sep-89,Willett Michael J.,27,167.5,0,0,0,0,0,3,0,0,0,0,0,0,0,1,0,0,0,0,0,0,0,0,1,0,0,1,0,0,0,0,0,1,0,0,0.0,0.0,0.0,0,0,0,0,0
1174.75,987797,6.39375,5-Jan-89,Hopper Justin,27,172.5,2,0,0,0,0,2,0,1,0,1,0,0,0,0,0,0,0,0,1,0,0,0,1,0,0,0,0,0,2,0,0,2,0,0,0.0,8949505.214,0.0,0,0,0,0,0
50998.63291,993343,7.493670886,7-Dec-89,Hoult Nicholas,27,189.6,7,0,8,1,3,8,0,2,11,14,0,0,3,2,0,1,0,1,1,0,1,0,1,0,0,5,7,0,12,1,0,6,1,1,45172544.24,92230195.08,0.0,0,0,0,0,0
12555.18182,2297572,7.6363636360000005,4-May-89,VanderMey Ben,27,185.0,3,0,0,0,0,3,0,5,0,6,0,0,0,0,0,0,0,0,2,0,0,0,0,0,0,0,2,0,8,0,0,4,0,0,0.0,375017.9813,0.0,0,0,0,0,0
221037.125,1855286,7.6125,10-Oct-89,Rhodes Alexander,27,175.0,1,0,0,0,0,3,0,2,1,2,0,0,0,0,0,0,0,0,0,0,0,0,1,0,0,1,0,0,2,0,0,1,0,0,0.0,25467564.48,0.0,0,0,0,0,0
189.5,1152795,7.3125,14-Oct-89,Kho Edwin,27,170.0,0,0,0,0,0,4,0,0,0,6,0,0,0,0,0,0,0,0,0,0,0,0,0,0,0,2,0,0,5,0,0,0,0,0,0.0,279065.3608,0.0,0,0,0,0,0
49.84210526,852747,7.4052631579999995,16-Mar-89,Griffin Blake,27,200.0,0,0,0,0,0,12,0,0,1,0,0,0,0,0,0,0,0,0,0,0,0,0,0,0,0,0,0,0,10,5,1,0,0,0,0.0,0.0,0.0,0,0,0,0,0
406.6216216,1015805,7.2594594589999994,20-Dec-89,Hyde Allan,27,170.0,0,0,2,0,1,5,0,1,0,11,0,0,2,1,0,0,0,0,0,0,1,1,0,0,0,2,0,0,5,1,0,2,0,0,0.0,1438.227261,0.0,0,0,0,0,0
6.5,2375531,7.05,25-May-89,Weissman Spencer,27,192.5,0,0,0,0,0,0,0,0,0,1,0,0,0,0,0,0,0,0,0,0,0,0,0,0,0,0,0,0,1,0,0,0,0,0,0.0,0.0,0.0,0,0,0,0,0
1639.777778,1697323,7.933333332999999,12-Apr-89,Parker Micah,27,182.5,1,0,0,0,0,4,0,1,0,4,0,0,0,0,0,0,0,1,3,0,0,0,1,0,0,1,0,0,3,0,0,5,0,0,0.0,95000.0,0.0,0,0,0,0,0
8.0,253873,8.9,6-Dec-89,Braathen Peter,27,187.5,0,0,1,0,0,1,0,0,0,4,0,0,1,1,0,0,0,0,0,0,0,0,0,0,0,2,0,0,2,0,0,0,0,0,0.0,623290.9936,0.0,0,0,0,0,0
19.28,1859952,7.596,9-Jul-89,Richards Jozef K.,27,177.5,0,0,4,0,0,6,0,1,2,6,0,0,0,0,0,0,0,2,1,0,0,0,0,0,0,0,1,0,3,0,1,3,0,0,0.0,0.0,0.0,0,0,0,0,0
2168.942857,1251191,6.478571429,17-Aug-89,Lau Frederick,27,176.0,3,0,2,0,0,16,0,8,1,28,0,0,3,2,0,0,0,1,1,0,0,0,1,0,0,6,0,0,7,1,0,9,1,0,0.0,3000000.0,0.0,0,0,0,0,0
1153.333333,1228896,6.75,3-Jun-89,LaFleur Alfred,27,172.5,1,0,0,0,0,5,0,1,0,6,0,0,2,0,0,0,0,0,2,0,0,0,1,1,0,1,0,0,7,1,0,3,0,0,0.0,1437103.657,0.0,0,0,0,0,0
10214.18182,1862559,7.606060606000001,31-Jul-89,Richter Joey,27,188.0,1,0,2,3,0,14,0,0,2,3,0,0,1,2,0,0,0,0,0,0,0,9,1,0,0,2,1,0,3,0,0,0,0,2,0.0,3654740.9239999996,0.0,0,0,0,0,0
33.11224489999999,832314,9.710204082,26-Sep-89,Goulart Gustavo,27,182.5,1,0,1,0,0,7,0,4,2,11,0,0,1,0,0,0,0,1,2,0,3,2,3,3,4,4,0,0,10,0,1,4,0,1,18796410.95,12102998.59,0.0,0,0,0,0,0
64.01449275,156486,6.7,8-Aug-89,Baumann Ken,27,182.5,0,0,0,0,0,3,0,0,0,8,0,0,0,1,0,0,0,0,0,0,0,0,0,0,0,0,0,0,5,1,0,2,0,0,0.0,3618628.52,0.0,0,0,0,0,0
30726.875,1050757,6.84375,14-Sep-89,James Jesse,27,175.0,3,0,2,0,1,1,0,0,2,12,0,0,3,1,0,0,0,0,7,0,1,0,2,0,0,2,4,0,7,0,0,7,0,0,0.0,28371422.29,0.0,0,0,0,0,0
3275.52,219358,6.7856,21-Feb-89,Bleu Corbin,27,174.0,0,0,1,3,1,6,0,1,18,11,0,0,21,0,0,1,0,0,3,0,22,7,0,0,1,4,0,0,18,2,0,3,2,0,157720.4864,6112507.26,0.0,0,0,0,0,0
1942.011364,279406,6.331818182,5-May-89,Brown Chris,27,182.5,2,0,0,0,1,5,0,1,13,4,0,0,7,0,0,0,0,0,2,0,51,2,0,0,3,1,2,0,13,0,0,2,0,0,63555842.54,5461316.584,0.0,0,0,0,0,0
136.28571430000002,831942,5.957142857000001,25-Jul-89,Goucher Tyler,27,180.0,0,0,0,0,0,3,0,0,0,4,0,0,2,0,0,0,0,0,0,0,0,0,0,0,0,1,0,0,2,0,0,0,0,0,0.0,52380.95238,8004.446915,0,0,0,0,0
6.375,2359597,6.675,15-Dec-89,Warren Josiah David,27,180.0,1,0,0,0,0,3,0,0,0,11,0,0,1,0,0,0,0,0,0,0,0,0,0,0,0,0,0,0,0,0,0,0,0,0,0.0,874938.3509999999,0.0,0,0,0,0,0
4749.5,1772296,6.1,13-Jan-89,Popham Christian,27,172.5,0,0,0,0,0,0,0,0,0,0,0,0,0,0,0,0,0,0,1,0,0,0,0,0,0,0,0,0,1,0,0,0,0,0,0.0,8100.6847609999995,0.0,0,0,0,0,0
18327.0,255950,4.75,23-May-89,Bradly Nic,27,182.5,2,0,0,0,0,1,0,2,0,2,0,0,1,0,0,0,0,0,2,0,0,0,0,0,0,1,1,0,3,0,0,3,0,0,0.0,13388437.44,0.0,0,0,0,0,0
45.8,257151,7.16,17-Mar-89,Braham Noel,27,180.0,1,0,0,0,0,1,0,6,1,9,0,0,0,1,0,0,0,0,1,0,0,0,6,0,0,0,2,0,13,0,0,8,0,0,0.0,53194.68757,0.0,0,0,0,0,0
25670.67333,1809693,7.262666667,23-Jul-89,Radcliffe Daniel,27,162.5,3,0,14,0,5,10,0,2,45,17,0,0,11,14,0,0,0,3,3,0,3,1,8,2,2,3,1,0,25,0,1,9,1,0,158893704.0,74989294.43,15384281.41,0,0,0,0,0
4794.147540999999,1304232,6.706557377,20-Nov-89,Linley Cody,27,175.0,1,0,1,0,0,2,0,0,1,6,0,0,4,1,0,0,0,0,3,0,0,0,0,0,1,2,1,0,0,1,0,3,0,0,0.0,5268405.876,0.0,0,0,0,0,0
31646.07143,628811,7.271428571,22-Nov-89,Ehrenreich Alden,27,173.0,1,0,0,0,0,9,0,0,0,9,0,0,0,2,0,0,0,0,1,0,0,0,2,0,0,5,1,0,5,0,0,1,1,0,20033105.17,20398249.49,0.0,0,0,0,0,0
224.07692310000002,1534572,7.1,25-Jun-89,Morais Rafael,27,180.0,0,0,0,0,0,1,0,1,1,11,0,0,0,0,0,0,0,1,0,0,1,0,1,3,0,1,0,0,6,0,1,2,0,0,0.0,1012585.595,0.0,0,0,0,0,0
11036.27419,1304936,6.930645161,3-Jan-89,Linz Alex D.,27,170.0,3,0,4,6,0,8,0,2,2,10,0,0,16,4,0,0,0,0,1,0,1,1,1,0,0,4,2,0,5,2,0,2,0,0,34649631.71,62577047.49,0.0,0,0,0,0,0
8.0,587178,7.8,13-Jun-89,Dorris Blake,27,187.5,0,0,0,0,0,0,0,0,0,1,0,0,0,0,0,0,0,0,0,0,0,0,0,0,0,0,0,0,1,0,0,0,0,0,0.0,1650.952049,0.0,0,0,0,0,0
4367.467742,2159063,7.606451613,5-Feb-89,Sumpter Jeremy,27,180.0,3,0,2,0,2,3,0,1,5,11,0,0,5,2,0,0,0,0,3,0,1,0,1,0,0,2,0,0,1,2,1,6,0,1,0.0,53751046.05,0.0,0,0,0,0,0
19694.60606,479705,6.448484848,21-Jul-89,Culkin Rory,27,165.0,1,0,0,0,0,6,0,4,4,17,0,0,3,0,0,0,0,0,5,0,0,0,3,1,0,3,2,0,1,1,0,9,0,1,623789.1943,14683843.45,133407.4486,0,0,0,0,0
28351.20588,1505668,7.159558823999999,20-Jun-89,Mintz-Plasse Christopher,27,167.5,5,0,10,10,0,28,0,1,1,2,0,0,10,9,0,0,0,1,1,0,4,1,0,0,1,2,0,0,12,0,0,0,0,0,0.0,55297743.52,0.0,0,0,0,0,0
34316.17647,2223489,6.647058824,10-Aug-89,Thwaites Brenton,27,181.0,5,0,4,0,0,5,0,2,2,8,0,0,1,4,0,0,0,0,1,0,0,0,3,0,0,4,2,0,1,2,0,4,0,0,31153464.0,71390105.43,0.0,0,0,0,0,0
8.0,2145696,9.1,16-Jun-89,Stratton Anthony,27,172.5,0,0,0,0,0,2,0,0,0,5,0,0,0,0,0,0,0,0,1,0,0,0,1,0,0,1,1,0,7,0,0,4,0,0,0.0,360.58156660000003,0.0,0,0,0,0,0
24867.22222,371961,7.2,29-Mar-89,Chafin Bryan,27,180.0,0,0,0,0,0,0,0,0,0,2,0,0,0,0,0,0,0,0,0,0,0,0,0,0,0,0,0,0,1,0,0,0,0,0,0.0,119047.619,0.0,0,0,0,0,0
915.2096774,667379,8.283870967999999,20-Feb-89,Falahee Jack,27,175.0,1,0,0,0,0,2,0,2,0,7,0,0,0,0,0,0,0,0,0,0,0,0,1,0,0,0,1,0,1,1,0,1,0,0,0.0,1127029.41,0.0,0,0,0,0,0
43938.6,434541,6.0,27-Mar-89,Colton Kyle,27,172.5,1,0,0,0,0,5,0,0,0,9,0,0,1,1,0,0,0,0,2,0,0,0,2,0,0,2,1,0,10,0,0,2,0,0,0.0,14758.252569999999,0.0,0,0,0,0,0
24501.85714,1528315,6.271428571,4-Aug-89,Montiel Leo,27,180.0,1,0,1,0,0,3,0,1,0,5,0,0,2,1,0,0,0,0,2,0,1,0,0,0,0,0,1,0,6,0,0,1,0,0,0.0,8478155.89,0.0,0,0,0,0,0
43.54545455,1534527,7.627272727,25-Jun-89,Morais Edgar,27,181.0,0,0,0,0,0,2,0,1,0,16,0,0,0,0,0,0,0,1,0,0,0,0,2,2,0,0,0,0,7,0,1,0,0,0,0.0,1012585.595,0.0,0,0,0,0,0
128.0,1447328,3.7,16-May-89,McGee Ty,27,180.0,1,0,0,0,0,1,0,0,0,2,0,0,0,0,0,0,0,0,1,0,0,0,1,0,0,1,0,0,1,0,0,2,0,0,0.0,5000.0,0.0,0,0,0,0,0
11595.952379999999,21485,7.6857142860000005,18-Mar-89,Ahdout Jonathan,27,167.5,0,0,0,0,0,2,0,0,1,1,0,0,0,0,0,0,0,0,0,0,0,0,0,0,0,0,0,0,2,0,0,0,0,0,0.0,9535563.373,0.0,0,0,0,0,0
88.28571429,681206,6.485714286,10-Nov-89,Felizardo Tiago,27,181.0,0,0,0,0,0,2,0,0,0,3,0,0,2,0,0,2,0,0,1,0,0,0,0,2,0,2,2,0,2,0,4,2,0,0,0.0,0.0,0.0,0,0,0,0,0
32.45,699339,8.506666667000001,28-Jun-89,Fischbach Mark Edward,27,175.0,11,0,13,6,0,157,0,0,1,8,0,0,1,3,0,0,0,1,62,0,5,1,24,2,3,0,4,0,144,0,5,12,0,0,0.0,21982.62145,0.0,0,0,0,0,0
22813.26042,2448699,7.13125,11-Mar-89,Yelchin Anton,27,172.5,5,0,6,3,0,20,0,4,4,25,0,0,5,6,0,0,0,0,5,0,2,0,4,0,0,12,6,0,17,0,0,9,0,0,4481527.936000001,45466093.95,0.0,0,0,0,0,0
88.0,651163,7.405882352999999,21-Jan-89,Erwin Tristan,27,175.0,2,0,1,0,1,2,0,1,1,9,0,0,1,2,0,0,0,1,0,0,0,0,0,0,0,1,0,0,8,0,0,1,0,1,0.0,2317783.9869999997,0.0,0,0,0,0,0
376.6216216,383159,7.394594595,6-Sep-89,Chase Tylor,27,162.5,0,0,0,0,0,1,0,0,0,0,0,0,1,0,0,0,0,0,0,0,0,0,0,0,0,1,0,0,1,0,0,0,0,0,0.0,17000.0,0.0,0,0,0,0,0
84.0,2016494,5.4,14-Sep-89,Seragon Michael,27,177.5,0,0,0,0,0,0,0,0,0,2,0,0,0,0,0,0,0,0,4,0,0,0,1,0,0,0,0,0,2,0,0,2,0,0,0.0,10018.38335,0.0,0,0,0,0,0
59808.0,1415325,6.266666667000001,21-Nov-89,Massa Joseph,27,172.5,3,0,0,0,0,3,0,1,0,1,0,0,0,1,0,0,0,1,0,0,0,0,0,0,0,0,1,0,1,0,0,1,0,0,0.0,52335455.19,0.0,0,0,0,0,0
11.625,556397,7.1125,21-May-89,Devokees Will,27,175.0,0,0,2,0,0,4,0,1,1,0,0,0,1,0,0,0,0,0,1,0,0,0,1,0,0,0,1,0,2,0,0,0,0,0,0.0,11186.88152,0.0,0,0,0,0,0
14081.5,2020462,7.316666667000001,18-Dec-89,Severino Leonel,27,167.5,1,0,0,0,2,2,0,1,0,4,0,0,0,0,0,0,0,0,0,0,0,0,0,0,0,0,0,0,0,1,0,1,0,0,0.0,60755135.71,0.0,0,0,0,0,0
10.33333333,86462,6.3,13-Jul-89,Arnett Matthew,27,177.5,0,0,1,0,0,3,0,0,0,5,0,0,0,1,0,0,0,0,1,0,0,0,0,0,0,0,0,0,6,1,0,1,0,0,0.0,6557.648662,0.0,0,0,0,0,0
104.0,493851,6.9,18-Mar-89,Dahlhauser Travis,27,185.0,0,0,0,0,1,3,0,0,0,2,0,0,1,0,0,0,0,0,1,0,0,0,0,0,0,0,0,0,5,0,0,1,0,0,0.0,128811.7875,0.0,0,0,0,0,0
7422.810811,1289251,6.6189189189999995,20-Feb-89,Lewis Bubba,27,175.0,0,0,0,0,1,2,0,0,0,5,0,0,0,0,0,0,0,0,0,0,0,0,0,0,0,1,0,0,1,1,0,1,0,0,0.0,388963.6663,0.0,0,0,0,0,0
57300.0,1388536,7.1,14-Apr-89,Marcucci Nick,27,182.5,0,0,1,0,0,2,0,0,0,2,0,0,0,0,0,0,0,0,1,0,0,0,0,0,0,1,0,0,0,2,0,1,0,0,0.0,14535524.28,0.0,0,0,0,0,0
138.5384615,623982,7.6692307689999994,14-Feb-89,Edmonds Terrence,27,172.5,0,0,0,0,0,1,0,1,0,2,0,0,1,0,0,0,0,0,1,0,0,0,0,0,0,1,0,0,2,0,0,2,0,0,0.0,4037.756785,0.0,0,0,0,0,0
2603.3,1507024,7.670714286,13-Jan-89,Mirchoff Beau,27,182.5,2,0,1,0,0,7,0,1,0,7,0,0,1,1,0,0,0,0,3,0,1,0,2,0,0,1,1,0,1,0,0,5,0,0,0.0,11577424.02,0.0,0,0,0,0,0
2476.361446,1754986,6.931325301,8-Feb-88,Pinkston Ryan,28,160.0,0,0,0,0,0,10,0,0,1,5,0,0,0,0,0,0,0,0,3,0,1,0,0,0,0,1,1,0,3,1,0,2,0,0,13234.1534,1946211.125,0.0,0,0,0,0,0
68.22222222,226163,6.466666667,28-Jun-88,Boehm Matthew,28,172.5,1,0,0,0,0,6,0,0,0,6,0,0,0,0,0,0,0,0,1,0,0,1,0,0,0,3,1,0,4,0,0,0,0,0,0.0,28063.35638,0.0,0,0,0,0,0
291.75,1885786,7.575,9-May-88,Roche Chris,28,175.0,1,0,1,0,0,3,0,1,0,3,0,0,0,0,0,0,0,0,0,0,0,0,0,0,0,2,1,0,6,0,0,2,0,0,0.0,774632.2283,0.0,0,0,0,0,0
40950.8,1518443,7.18,25-Jun-88,Moir Cameron,28,177.5,2,0,1,0,0,2,0,1,0,8,0,0,0,2,0,0,0,0,1,0,0,0,0,0,0,2,1,0,8,0,0,2,0,0,0.0,12637.8751,0.0,0,0,0,0,0
335.7333333,1426291,8.766666667,19-May-88,Maurice Bryan,28,180.0,1,0,0,0,0,2,0,0,0,2,0,0,0,1,0,0,0,0,2,0,0,0,0,0,0,1,1,0,4,0,0,0,0,0,0.0,7984.988523999999,0.0,0,0,0,0,0
197.875,1348548,7.8125,30-Jun-88,Ma Anthony,28,167.5,0,0,0,0,0,5,0,0,0,5,0,0,2,2,0,0,0,0,1,0,0,0,0,0,1,0,0,0,4,0,0,0,0,0,0.0,10235.59267,0.0,0,0,0,0,0
2327.222222,1116679,7.244444444,30-Aug-88,Kaplan Steven,28,172.5,0,0,0,0,0,2,0,0,0,2,0,0,0,0,0,0,0,0,0,0,0,0,0,0,0,1,0,0,1,0,0,0,0,0,60140.675039999995,1129440.84,0.0,0,0,0,0,0
9780.29927,1762205,7.786131387,2-Apr-88,Plemons Jesse,28,175.0,0,0,1,0,2,8,0,3,0,11,0,0,2,1,0,0,0,0,0,0,0,0,1,0,0,3,2,0,7,2,0,1,0,1,36997.0,41144856.02,0.0,0,0,0,0,0
28386.25,1008775,8.0375,27-Aug-88,Hunt Brian Scott,28,170.0,0,0,0,0,0,1,0,0,0,3,0,0,0,0,0,0,0,0,1,0,1,0,0,0,0,0,1,0,3,0,0,2,0,0,0.0,4180454.765,0.0,0,0,0,0,0
1677.6,1622251,7.007999999999999,11-Mar-88,Nordella Nick,28,180.0,0,0,0,0,0,6,0,0,0,6,0,0,2,1,0,0,0,0,1,0,2,0,1,0,0,0,0,0,7,0,0,3,0,0,0.0,409122.369,0.0,0,0,0,0,0
950.2173912999999,2456083,7.376811593999999,16-Aug-88,Young Parker,28,177.5,1,0,1,0,0,8,0,0,1,1,0,0,1,1,0,0,0,0,3,0,0,0,1,0,0,1,2,0,2,0,0,3,1,0,0.0,8284672.038,0.0,0,0,0,0,0
62710.333329999994,1342092,6.533333333,2-Feb-88,Ly Amadou,28,180.0,0,0,0,0,0,0,0,0,0,4,0,0,0,0,0,0,0,0,0,0,0,0,0,0,0,0,0,0,3,0,0,0,0,0,0.0,0.0,0.0,0,0,0,0,0
40751.5,1960054,5.84,13-Oct-88,Sandler Andrew,28,172.5,0,0,0,0,0,0,0,0,1,0,0,0,0,0,0,0,0,0,0,0,1,0,0,0,0,0,0,0,0,0,0,0,0,0,0.0,0.0,0.0,0,0,0,0,0
2042.3472219999999,54371,7.551388889,21-Apr-88,Amell Robbie,28,180.0,3,0,4,1,0,7,0,3,0,5,0,0,3,3,0,0,0,0,2,0,1,0,3,0,1,1,2,0,8,0,0,3,0,0,0.0,12781875.77,0.0,0,0,0,0,0
92099.4,1514992,6.76,4-Apr-88,Mobraaten Derek,28,185.0,0,0,0,0,1,1,0,1,1,4,0,0,1,1,0,0,0,1,1,0,0,0,1,0,0,0,1,0,1,0,0,2,0,0,0.0,46516895.04,0.0,0,0,0,0,0
253.8666667,893092,7.053333332999999,28-Jun-88,Hamada Gaku,28,160.0,4,0,4,2,2,22,0,3,0,31,0,0,0,2,0,0,0,3,2,0,1,1,4,0,1,4,4,0,1,1,2,2,3,0,0.0,2012527.114,0.0,0,0,0,0,0
56.0,1570623,7.0,27-Feb-88,Mustain Mitch,28,187.5,0,0,0,0,0,0,0,0,1,0,0,0,0,0,0,0,0,0,0,0,0,0,0,0,0,0,0,0,0,1,0,0,0,0,0.0,51511.652369999996,0.0,0,0,0,0,0
15639.0,1365072,6.0,12-Jan-88,Mahoney Brian Adam,28,167.5,0,0,0,0,0,1,0,1,0,3,0,0,0,0,0,0,0,0,0,0,1,0,0,0,0,1,1,0,2,0,0,0,0,0,0.0,6083180.237000001,0.0,0,0,0,0,0
921.1176471000001,493509,6.711764706,24-Jun-88,Dahl Evan Lee,28,167.5,0,0,0,0,0,2,0,0,0,1,0,0,2,0,0,0,0,0,0,0,0,0,0,0,0,1,1,0,2,1,1,0,0,0,0.0,83936.32417,0.0,0,0,0,0,0
10993.85417,2219286,6.71875,22-Nov-88,Thompson Reece,28,170.0,5,0,2,7,0,10,0,3,0,9,0,0,3,0,0,0,0,0,3,0,0,0,3,0,0,6,3,0,3,0,0,4,0,1,0.0,16840653.83,0.0,0,0,0,0,0
297.0,301241,8.075,13-Nov-88,Burgos Sean,28,170.0,1,0,4,0,1,5,0,1,2,13,0,0,2,2,0,0,0,2,0,0,1,0,0,0,0,1,1,0,20,0,0,6,1,0,0.0,12305.58178,0.0,0,0,0,0,0
12416.10204,1910514,6.618367347,26-Aug-88,Ross Evan,28,182.5,3,0,0,0,1,2,0,3,2,17,0,0,4,1,0,0,0,0,1,0,3,0,0,0,0,2,1,0,0,0,0,4,0,0,352146.6709,7846958.542,0.0,0,0,0,0,0
266.3571429,1910266,6.521428571,6-Dec-88,Ross Connor,28,172.5,1,0,0,0,0,3,0,0,0,4,0,0,1,0,0,0,0,1,3,0,0,0,1,0,0,0,0,0,3,0,0,3,1,0,0.0,48518.31485,0.0,0,0,0,0,0
5.0,2081820,8.6,12-Jul-88,Smith Gray,28,175.0,0,0,0,0,0,2,0,0,0,1,0,0,0,0,0,0,0,0,0,0,0,0,0,0,0,0,0,0,2,0,0,0,0,0,0.0,0.0,0.0,0,0,0,0,0
11.0,2066895,5.5,15-May-88,Sisco Greg,28,190.0,1,0,0,0,0,2,0,1,0,0,0,0,0,1,0,0,0,0,0,0,0,0,0,0,0,0,0,0,0,0,0,0,0,0,0.0,5969.373165,0.0,0,0,0,0,0
35.0,1138857,7.2,26-Mar-88,Kelly Rook,28,167.5,0,0,0,0,0,1,0,0,0,1,0,0,0,0,0,0,0,0,0,0,0,0,0,0,0,1,0,0,0,1,0,0,0,0,0.0,200000.0,0.0,0,0,0,0,0
7778.434783,2391770,5.986956522000001,30-May-88,Whitney Brenden,28,172.5,5,0,0,0,0,4,0,1,0,8,0,0,1,0,0,0,0,1,2,0,1,0,1,0,0,1,1,0,11,0,0,1,2,0,0.0,1718299.521,0.0,0,0,0,0,0
382.2,610647,7.75,29-Sep-88,Durant Kevin,28,202.5,0,0,0,0,1,2,0,0,3,0,0,0,1,1,0,0,0,0,0,0,0,0,0,0,0,0,1,0,2,4,0,0,0,0,0.0,20251.7119,0.0,0,0,0,0,0
87883.0,839977,6.425,29-Jan-88,Grant Travis,28,185.0,1,0,2,0,0,3,0,0,0,9,0,0,1,0,0,0,0,1,2,0,2,1,1,0,0,1,2,0,10,0,0,1,0,2,0.0,9633682.042000001,0.0,0,0,0,0,0
15103.875,64567,6.0375,13-Dec-88,Andreas Charan,28,180.0,1,0,0,0,1,1,0,1,0,5,0,0,0,0,0,0,0,0,1,0,3,0,0,0,0,1,1,0,7,0,0,2,0,0,0.0,15284971.93,0.0,0,0,0,0,0
200.5,1580985,8.325,23-Nov-88,Naim Bashir,28,187.5,0,0,0,0,0,0,0,0,0,0,0,0,0,0,0,0,0,0,0,0,0,0,0,0,0,0,0,0,2,0,0,0,0,0,0.0,0.0,0.0,0,0,0,0,0
72321.0,291424,7.5375,1-Sep-88,Bubar Pablo,28,170.0,1,0,0,0,1,1,0,0,0,3,0,0,0,1,0,0,0,0,0,0,3,0,0,0,0,2,1,0,5,1,0,0,0,0,0.0,19574539.37,0.0,0,0,0,0,0
13712.8,2214153,7.07,7-Jul-88,Thomas Jabari,28,182.5,1,0,0,0,0,3,0,0,0,5,0,0,0,0,0,0,0,0,1,0,0,1,0,0,0,1,0,0,5,0,0,0,0,0,0.0,815.9658091,0.0,0,0,0,0,0
36.35294118,1180235,6.058823529,28-Feb-88,Knudsen Daniel,28,175.0,1,0,0,0,0,1,0,0,2,5,0,0,3,0,0,0,0,1,0,0,0,0,0,0,0,1,0,0,5,0,1,1,0,0,0.0,0.0,0.0,0,0,0,0,0
22705.5,1404920,7.828571429,6-Apr-88,Martin Will,28,165.0,2,0,1,0,0,2,0,0,0,0,0,0,0,0,0,0,0,0,0,0,0,0,0,0,0,0,0,0,1,0,0,0,0,0,0.0,348770.9665,0.0,0,0,0,0,0
187.5625,181211,6.43125,25-May-88,Bennett Zack,28,175.0,1,0,0,0,0,8,0,1,1,8,0,0,0,3,0,0,0,1,3,0,0,0,1,0,0,2,0,0,10,0,0,2,0,0,11006.34699,195249.0743,0.0,0,0,0,0,0
2515.716981,309414,7.2603773579999995,20-Oct-88,Butcher Adam,28,182.5,2,0,1,0,0,2,0,0,1,10,0,0,0,2,0,0,0,0,3,0,0,0,0,0,0,0,2,0,3,1,0,3,0,0,977113.3641,18226540.71,0.0,0,0,0,0,0
13.0,489630,2.8,10-May-88,D'Avignon Aleksander,28,180.0,0,0,0,0,0,3,0,0,0,2,0,0,0,0,0,0,0,0,2,0,0,0,1,0,0,0,0,0,4,0,0,1,0,0,0.0,26133.0871,0.0,0,0,0,0,0
40322.23077,2088577,7.953846154,5-Feb-88,Smoke Nick,28,175.0,0,0,1,0,0,4,0,0,0,5,0,0,1,0,0,0,0,0,0,0,0,0,0,0,0,1,0,0,2,0,0,0,0,0,0.0,0.0,0.0,0,0,0,0,0
45213.0,1750427,6.916666667,28-Dec-88,Pierre Perri,28,185.0,1,0,1,0,0,2,0,0,0,3,0,0,1,1,0,0,0,0,0,0,0,0,0,0,0,2,1,0,2,0,0,0,0,0,0.0,78434206.96,0.0,0,0,0,0,0
26742.07143,1366805,7.664285714,16-Sep-88,Mair Akeem,28,172.5,2,0,1,0,0,7,0,5,0,9,0,0,1,1,0,0,0,0,1,0,2,2,2,1,0,1,2,0,16,0,0,2,0,1,0.0,3554172.389,0.0,0,0,0,0,0
10465.70492,2211519,7.849180327999999,14-Oct-88,Thieriot Max,28,177.5,3,0,2,0,0,4,0,3,0,10,0,0,3,1,0,0,0,0,2,0,0,0,3,0,0,2,2,0,2,2,0,8,0,0,16110529.41,33854051.34,0.0,0,0,0,0,0
459.07692310000004,836970,6.6692307689999994,17-May-88,Graham Taylor M.,28,180.0,1,0,0,0,0,4,0,2,0,4,0,0,0,2,0,0,0,0,2,0,0,0,1,0,0,1,2,0,2,0,0,2,1,0,0.0,2020679.855,0.0,0,0,0,0,0
22.0,1875383,6.6,1-May-88,Roache Gavin,28,180.0,0,0,0,1,0,0,0,0,0,2,0,0,0,1,0,0,0,0,1,0,0,0,0,0,0,1,2,0,1,0,0,0,0,0,0.0,5526.6174200000005,0.0,0,0,0,0,0
9870.478261,1962862,5.756521739,29-Aug-88,Sanson Ryan,28,172.5,3,0,0,0,0,7,0,0,0,4,0,0,1,1,0,0,0,0,2,0,1,0,1,0,0,4,0,0,3,0,0,2,1,0,0.0,3760875.0289999996,7245.602709000001,0,0,0,0,0
15567.655169999998,2407895,7.7862068970000005,7-Jul-88,Williamson Chase,28,177.5,5,0,2,1,0,13,0,3,2,6,0,0,1,3,0,0,0,0,15,0,1,0,2,0,0,2,4,0,11,0,0,6,0,0,145579.1412,14835598.91,0.0,0,0,0,0,0
1200.2643679999999,1319978,8.14137931,4-Mar-88,Longo Cody,28,177.5,1,0,0,0,0,4,0,3,0,6,0,0,1,0,0,0,0,0,1,0,2,0,0,0,0,1,0,0,1,1,0,5,0,0,327514.1764,1648372.876,0.0,0,0,0,0,0
3063.151515,2108001,7.068181817999999,7-Apr-88,Speleers Ed,28,175.0,7,0,5,0,0,3,0,3,2,5,0,0,1,6,0,0,0,0,2,0,0,0,0,0,0,0,0,0,4,0,0,3,0,0,89311341.67,44484439.29,0.0,0,0,0,0,0
14857.71429,2033040,7.918367347,13-Jul-88,Sheffield Chris,28,177.5,1,0,0,0,0,1,0,0,0,1,0,0,1,1,0,0,0,0,0,0,1,0,1,0,0,2,1,0,1,0,0,1,0,0,0.0,17261387.67,0.0,0,0,0,0,0
13488.783330000002,261599,7.0,1-May-88,Braun Nicholas,28,195.0,2,0,3,0,2,18,0,1,2,14,0,0,2,1,0,0,0,1,3,0,3,0,0,0,0,6,3,0,5,1,0,3,1,0,0.0,16737518.53,0.0,0,0,0,0,0
106129.3,534855,7.41,20-Feb-88,DeCourville Alex,28,177.5,1,0,1,0,1,6,0,1,1,7,0,0,1,0,0,0,0,1,2,0,0,1,1,0,0,0,1,0,7,1,0,2,1,0,0.0,28385039.87,0.0,0,0,0,0,0
63.35714286,1980031,5.928571429,26-Jun-88,Scarpias Wes,28,177.5,1,0,0,1,0,2,0,1,0,3,0,0,1,0,0,0,0,0,2,0,1,0,0,0,0,0,0,0,6,0,0,2,0,0,0.0,952380.9524,0.0,0,0,0,0,0
32729.0,374252,5.6,6-Apr-88,Chambers Levi,28,180.0,0,0,0,0,0,3,0,0,0,1,0,0,0,0,0,0,0,0,0,0,0,1,0,0,0,2,0,0,4,0,0,0,0,0,0.0,25764.38809,0.0,0,0,0,0,0
714.25,2245566,6.4,15-Aug-88,Townsend Tripp,28,175.0,0,0,0,0,0,1,0,0,0,4,0,0,0,0,0,0,0,0,0,0,0,0,0,0,0,0,0,0,4,0,0,0,0,0,0.0,1204.453628,0.0,0,0,0,0,0
670.5809524,1255766,7.265714286000001,12-Jan-88,Lawrence Andrew,28,167.5,3,0,4,3,0,11,0,0,4,15,0,0,18,1,0,0,0,0,2,0,2,0,4,0,0,2,4,0,5,2,0,6,1,2,0.0,25109138.61,0.0,0,0,0,0,0
10540.21429,1257183,5.775,25-Nov-88,Lawson Jordan,28,172.5,11,0,5,0,1,6,0,6,3,17,0,0,0,1,0,0,0,1,6,0,2,0,2,0,0,2,6,0,12,0,0,5,1,0,0.0,26485693.73,0.0,0,0,0,0,0
11545.29787,1988393,7.391489362000001,16-Aug-88,Schmidt Kevin G.,28,172.5,0,0,1,0,0,5,0,0,1,5,0,0,2,0,0,0,0,0,0,0,1,0,0,0,0,2,1,0,3,1,0,2,0,0,0.0,22900831.1,0.0,0,0,0,0,0
700.4565217,682682,7.384782609,25-Sep-88,Fenske Raja,28,175.0,0,0,0,0,0,2,0,0,1,1,0,0,1,0,0,0,0,0,0,0,1,0,0,0,0,0,0,0,4,0,0,1,0,0,0.0,2445252.9069999997,0.0,0,0,0,0,0
326.3333333,517713,7.003030302999999,19-Jul-88,Dawson Shane,28,180.0,4,0,1,3,2,16,0,0,1,0,0,0,0,1,0,0,0,0,3,0,1,0,0,0,1,0,1,0,10,0,1,0,0,0,36180.04866,281185.3361,0.0,0,0,0,0,0
30089.33333,517671,7.266666667000001,24-Oct-88,Dawson Rick,28,185.0,1,0,0,0,0,4,0,2,1,7,0,0,0,1,0,0,0,0,2,0,0,1,1,0,0,2,0,0,6,2,0,2,0,0,0.0,2594462.0640000002,0.0,0,0,0,0,0
27486.818180000002,235718,7.536363636,22-Feb-88,Book Zach,28,162.5,0,0,0,0,0,5,0,0,0,1,0,0,0,0,0,0,0,0,0,0,0,0,0,0,0,1,0,0,5,0,0,0,0,0,0.0,18693.97552,0.0,0,0,0,0,0
8083.473281999999,368799,7.472519084,7-Jun-88,Cera Michael,28,170.0,5,0,5,6,2,43,0,1,7,17,0,0,5,6,0,0,0,1,0,0,5,1,1,2,0,9,0,0,17,1,1,2,0,0,20743904.87,23427600.98,0.0,0,0,0,0,0
247.06666669999998,1046403,6.6333333329999995,10-Apr-88,Jaeger Aaron,28,180.0,0,0,0,0,0,1,0,0,0,1,0,0,1,1,0,0,0,0,3,0,0,0,1,0,0,0,0,0,2,0,0,2,0,0,0.0,1066955.93,0.0,0,0,0,0,0
856.1935483999999,1790821,5.806451612999999,2-Jun-88,Prohaska Kyle,28,177.5,0,0,0,0,0,0,0,0,1,2,0,0,0,0,0,0,0,0,0,0,0,0,0,0,0,0,0,0,0,0,0,0,0,0,0.0,586859.9433,0.0,0,0,0,0,0
9.0,2118440,6.7,11-Dec-88,Stampone Zach,28,162.5,0,0,0,0,0,1,0,0,0,1,0,0,0,0,0,0,0,0,0,0,0,0,0,0,0,0,0,0,1,0,0,0,0,0,0.0,405.5150041,0.0,0,0,0,0,0
16555.64516,1668053,6.890967742000001,10-Apr-88,Osment Haley Joel,28,165.0,10,0,14,5,1,22,0,2,18,22,0,0,16,12,0,0,0,0,2,0,6,5,10,0,2,3,4,0,21,2,1,3,2,1,64601647.54,33117161.35,1440049.2680000002,0,0,0,1,20
7469.0,717376,7.966666667,16-Jun-88,Forde Peter,28,170.0,1,0,0,0,1,0,0,0,0,7,0,0,0,2,0,0,0,1,0,0,0,0,0,0,0,2,0,0,5,0,0,0,1,0,0.0,8519.715731,0.0,0,0,0,0,0
23.34375,1521419,7.5125,16-Mar-88,Molony Steven,28,172.5,3,0,5,0,0,8,0,6,0,18,0,0,0,3,0,0,0,1,3,0,0,0,2,0,0,1,4,0,17,0,0,9,1,3,0.0,48176.904760000005,0.0,0,0,0,0,0
11302.72727,448805,6.956818182,17-Aug-88,Corbet Brady,28,172.5,1,0,2,3,0,5,0,2,1,17,0,0,2,0,0,0,0,0,1,0,0,1,1,0,0,2,2,0,9,0,0,4,0,0,4310426.148,19553501.35,0.0,0,0,0,0,0
35978.85,1248890,6.875,24-Mar-88,Lashaway Nick,28,180.0,0,0,0,0,0,3,0,2,0,5,0,0,2,0,0,0,0,0,1,0,1,0,1,0,0,1,0,0,2,0,0,3,0,0,0.0,12852737.33,0.0,0,0,0,0,0
144.0,764468,7.9,5-Jul-88,Garcia Charles Martin,28,182.5,2,0,0,0,0,1,0,1,0,3,0,0,0,0,0,0,0,0,1,0,0,0,1,0,0,0,0,0,4,0,0,2,0,0,0.0,57564.4933,0.0,0,0,0,0,0
74.33333333,1732903,8.033333333,6-Dec-88,Perugini Alfonso,28,178.0,3,0,0,0,0,17,0,1,0,6,0,0,2,0,0,0,0,0,0,0,0,0,0,0,0,0,1,0,20,0,0,2,0,0,0.0,18777.619430000002,0.0,0,0,0,0,0
311.75,1240909,7.325,24-May-88,Langdon Paul Robert,28,167.5,0,0,0,0,1,1,0,0,1,1,0,0,1,0,0,0,0,0,0,0,0,0,0,0,0,0,0,0,1,0,0,0,0,1,0.0,139372.8223,0.0,0,0,0,0,0
95.94117647,333052,7.529411765,21-Apr-88,Canela Jencarlos,28,177.5,2,0,0,0,0,0,0,0,0,0,0,0,0,0,0,0,0,0,0,0,0,1,0,1,0,0,0,0,0,0,1,0,0,0,0.0,0.0,0.0,0,0,0,0,0
11578.95652,2343196,6.9,20-Nov-88,Wakefield Rhys,28,175.0,0,0,1,0,0,3,0,0,0,12,0,0,1,1,0,0,0,1,1,0,1,0,0,0,0,3,3,0,4,0,0,7,0,1,98031.88994,14542961.91,0.0,0,0,0,0,0
357.77777779999997,1697666,6.1444444439999995,17-Feb-88,Parker Shea,28,170.0,0,0,0,0,0,4,0,0,0,2,0,0,0,0,0,0,0,0,1,0,0,0,0,0,0,0,1,0,3,1,0,1,0,0,0.0,1641105.389,0.0,0,0,0,0,0
47.33333333,925458,7.033333333,19-Aug-88,Hauser Scotty,28,180.0,0,0,0,0,0,1,0,0,0,1,0,0,0,0,0,0,0,0,0,0,0,0,0,0,0,0,0,0,1,0,0,0,0,0,0.0,0.0,0.0,0,0,0,0,0
304.14285710000007,1330342,5.285714286,12-Dec-88,Lowrey Charlie,28,177.5,0,0,0,0,0,2,0,0,0,0,0,0,0,0,0,0,0,0,1,0,0,0,0,0,0,0,1,0,1,0,0,2,0,0,0.0,353356.1587,0.0,0,0,0,0,0
11438.0,1086215,8.331428571,24-Mar-88,Jones Finn,28,180.0,0,0,1,0,0,0,0,0,7,0,0,0,0,1,0,0,0,0,2,0,0,0,0,0,0,0,0,0,0,0,0,1,0,0,0.0,2027575.02,0.0,0,0,0,0,0
3655.5,1032006,8.23,5-Dec-88,Isaac Daniel K.,28,175.0,1,0,0,0,0,7,0,0,0,5,0,0,0,0,0,0,0,0,0,0,0,0,2,1,0,2,1,0,7,0,0,2,0,0,0.0,16800.0,0.0,0,0,0,0,0
77.25,1084165,5.875,28-Jun-88,Jones Andrew,28,177.5,0,0,0,0,0,1,0,0,0,2,0,0,0,0,0,0,0,0,1,0,0,0,2,0,0,0,0,0,0,0,0,1,0,0,0.0,476785.7143,0.0,0,0,0,0,0
524.1,1466109,8.05,24-Jun-88,Mega Curt,28,175.0,0,0,0,0,0,11,0,0,0,0,0,0,0,0,0,0,0,0,0,0,2,1,0,0,0,0,0,0,8,0,0,0,0,0,0.0,6836.396131999999,0.0,0,0,0,0,0
14.0,1697642,8.127272727000001,20-May-88,Parker Sean,28,175.0,4,0,0,0,0,7,0,1,0,2,0,0,0,0,0,0,0,0,0,0,0,0,0,0,0,0,0,0,7,0,0,0,0,0,0.0,15192.127859999999,0.0,0,0,0,0,0
3358.9610390000003,2032658,7.638961039,7-Jan-88,Sheehan Robert,28,180.0,3,0,3,1,0,7,0,0,2,12,0,0,4,4,0,1,0,0,4,0,2,0,2,0,0,2,1,0,10,0,0,6,0,0,0.0,52246110.02,0.0,0,0,0,0,0
23257.3125,2199761,6.84375,19-Aug-88,Tedford Travis,28,167.5,0,0,0,1,0,2,0,0,0,3,0,0,2,1,0,0,0,0,2,0,0,0,1,0,0,1,0,0,1,0,0,2,0,0,83829878.54,58173366.57,0.0,0,0,0,0,0
62.0,1437872,7.075,16-Dec-88,McClam Sean,28,172.5,0,0,1,0,0,2,0,0,0,6,0,0,1,0,0,0,0,1,0,0,0,0,0,0,0,1,1,0,4,0,0,2,0,0,0.0,0.0,0.0,0,0,0,0,0
102.92857140000001,1532808,7.585714286,20-Oct-87,Moore Robbie,29,175.0,0,0,1,0,0,4,0,0,0,2,0,0,1,1,0,0,0,0,1,0,0,0,0,0,0,1,1,0,9,0,0,1,0,0,0.0,149859.0762,0.0,0,0,0,0,0
114.75,2312151,5.65,16-Sep-87,Vergara Nick,29,177.5,0,0,0,0,0,3,0,0,1,5,0,0,0,0,0,0,0,1,1,0,0,0,0,0,0,0,0,0,4,0,0,2,0,0,0.0,253869.5021,0.0,0,0,0,0,0
553.84375,218328,7.45,16-Jun-87,Blatz Kelly,29,181.0,0,0,0,0,0,1,0,1,0,7,0,0,2,0,0,0,0,0,5,0,0,0,3,0,0,0,4,0,3,2,0,4,0,0,0.0,3984080.692,0.0,0,0,0,0,0
18803.04412,54277,7.404411765,20-Apr-87,Amedori John Patrick,29,177.5,0,0,0,0,0,6,0,2,1,7,0,0,1,1,0,0,0,0,2,0,1,0,0,0,0,2,2,0,3,1,0,3,0,0,0.0,8429003.91,0.0,0,0,0,0,0
12.0,256449,7.6,27-Jul-87,Brady Jake,29,175.0,0,0,0,0,0,0,0,0,0,2,0,0,0,0,0,0,0,0,0,0,0,0,0,0,0,0,1,0,2,0,0,0,0,0,0.0,3387.916431,0.0,0,0,0,0,0
3949.2195119999997,118474,7.358536585,17-Aug-87,Bailey Stephen Anthony,29,167.5,3,0,0,1,0,9,0,2,0,8,0,0,4,0,0,0,0,0,3,0,1,0,2,0,0,3,0,0,22,0,0,7,1,0,0.0,7442109.818,0.0,0,0,0,0,0
57999.0,2097939,6.7,3-Aug-87,Sommerville David Kenneth,29,182.5,4,0,0,0,0,2,0,2,1,7,0,0,0,0,0,0,0,0,0,0,1,0,0,0,0,2,0,0,8,0,0,4,1,0,0.0,299678.8612,0.0,0,0,0,0,0
62281.58824,1050955,5.8,20-Jul-87,James Kasey,29,170.0,2,0,0,0,1,6,0,1,0,7,0,0,1,0,0,0,0,1,3,0,2,0,1,0,0,2,1,0,8,0,0,1,1,1,0.0,26446398.17,0.0,0,0,0,0,0
10350.060609999999,2190534,6.451515152000001,2-Sep-87,Tarnol Brent,29,165.0,3,0,1,0,0,14,0,3,0,4,0,0,1,1,0,0,0,1,5,0,0,0,0,0,0,1,0,0,7,0,0,2,1,0,0.0,32619587.68,0.0,0,0,0,0,0
2575.2792210000002,973081,7.221428571000001,11-Sep-87,Hoechlin Tyler,29,180.0,2,0,1,0,0,5,0,1,1,9,0,0,4,1,0,0,0,1,4,0,1,0,1,0,0,1,0,0,4,1,0,5,0,0,138816472.3,30120942.48,91778.20268,0,0,0,0,0
58.2,1551975,6.74,9-Jul-87,Motsinger Jacob,29,177.5,0,0,0,0,0,2,0,1,0,2,0,0,0,0,0,0,0,0,1,0,1,0,0,0,0,0,0,0,3,1,0,2,0,0,0.0,1016584.2309999999,0.0,0,0,0,0,0
225.33333330000002,1143715,7.244444444,2-Nov-87,Kent Guy,29,185.0,1,0,0,0,1,1,0,1,0,9,0,0,0,1,0,0,0,0,0,0,1,0,2,0,0,1,0,0,7,0,0,2,0,0,0.0,308599.9181,0.0,0,0,0,0,0
140117.5,2120572,7.45,27-Sep-87,Stanton Kevin,29,185.0,0,0,0,0,1,1,0,1,1,6,0,0,0,0,0,0,0,1,0,0,0,0,0,0,0,0,0,0,6,2,0,0,0,0,0.0,13760433.74,0.0,0,0,0,0,0
46.96907216,862165,6.05257732,11-Nov-87,Guadagnino Vinny,29,167.5,0,0,0,0,0,3,0,0,0,0,0,0,0,0,0,0,0,0,0,0,5,0,0,0,2,0,0,0,4,0,0,0,0,0,0.0,0.0,0.0,0,0,0,0,0
7175.185184999999,1092119,7.787037037,9-Feb-87,Jordan Michael B.,29,177.5,5,0,3,2,1,1,0,3,7,12,0,0,3,3,0,0,0,0,0,0,1,0,0,0,1,4,6,0,3,3,0,2,0,0,63839107.88,22963002.7,0.0,0,0,0,0,0
46762.222219999996,2201562,6.6055555560000005,20-Feb-87,Teller Miles,29,180.0,4,0,5,1,2,13,0,2,9,13,0,0,0,0,0,0,0,0,0,0,6,0,2,0,2,8,5,0,14,2,0,2,1,0,29321878.21,35936856.32,0.0,0,0,0,0,0
37012.964289999996,199327,6.625,10-Jun-87,Bhatter Mayank,29,175.0,1,0,0,0,0,15,0,0,1,9,0,0,0,0,0,0,0,0,1,0,1,1,0,0,0,4,2,0,11,3,0,3,0,0,0.0,23171689.66,0.0,0,0,0,0,0
16217.87234,1734685,7.922695035,20-Jan-87,Peters Evan,29,177.5,5,0,2,0,1,6,0,2,3,10,0,0,0,0,0,0,0,1,1,0,1,0,1,0,0,1,3,0,12,2,0,3,0,0,0.0,49055425.72,0.0,0,0,0,0,0
8.75,969769,7.35,17-Aug-87,Hluch Alex,29,175.0,0,0,0,0,0,30,0,0,0,3,0,0,0,0,0,0,0,0,0,0,0,0,0,0,0,0,1,0,29,0,0,0,0,0,0.0,5462.896387,0.0,0,0,0,0,0
12108.68085,1549182,7.614893617000001,27-Apr-87,Moseley William,29,175.0,8,0,9,0,1,4,0,0,6,9,0,0,5,4,0,0,0,2,1,0,0,0,0,0,0,4,2,0,11,0,0,3,1,0,0.0,118626870.3,0.0,0,0,0,0,0
11481.523809999999,2204684,6.514285714,25-Jun-87,Terra Scott,29,160.0,4,0,1,1,0,4,0,1,0,6,0,0,1,0,0,0,0,0,1,0,0,0,1,0,0,1,2,0,3,0,0,3,0,0,0.0,41962080.38,0.0,0,0,0,0,0
89.17777778,450786,6.6,9-Jan-87,Corirossi Nick,29,180.0,1,0,1,0,0,48,0,1,0,2,0,0,0,0,0,0,0,1,0,0,1,0,0,0,0,1,2,0,48,0,0,0,1,0,0.0,456439.9421,0.0,0,0,0,0,0
6897.714286,1511397,5.4428571429999995,21-Dec-87,Mitchell Vernon,29,175.0,0,0,0,0,0,3,0,1,0,9,0,0,2,0,0,0,0,0,1,0,1,0,0,0,0,3,0,0,5,0,0,0,0,0,0.0,8914326.327,0.0,0,0,0,0,0
161.71428569999998,225494,7.164285714,1987,Bodenstab Riley,29,175.0,1,0,0,0,0,1,0,1,0,8,0,0,0,1,0,0,0,1,3,0,0,0,0,0,0,1,0,0,8,0,0,5,1,2,0.0,40968.72644,0.0,0,0,0,0,0
1790.62766,498327,8.164893617,24-Sep-87,Damon Grey,29,185.0,0,0,0,0,0,1,0,1,0,1,0,0,0,0,0,0,0,0,0,0,0,0,0,0,0,0,0,0,0,0,0,1,0,0,0.0,313597.0452,0.0,0,0,0,0,0
23521.77778,2094909,6.511111111,5-May-87,Solenberger Ben,29,185.0,5,0,4,0,0,16,0,5,0,10,0,0,0,0,0,1,0,0,4,0,0,1,1,0,1,5,0,0,12,0,0,6,0,0,0.0,37390681.36,0.0,0,0,0,0,0
780.5263158,2091048,7.260526316,9-Sep-87,Snyder Clayton,29,185.0,0,0,2,0,0,15,0,0,1,11,0,0,8,0,0,0,0,0,3,0,1,2,2,0,0,4,0,0,16,1,0,6,0,0,0.0,1816098.5119999999,0.0,0,0,0,0,0
824.5384615,905965,6.5138461539999994,13-Apr-87,Hardesty Brandon,29,180.0,0,0,0,0,0,12,0,2,1,3,0,0,0,0,0,0,0,0,0,0,4,0,0,0,4,0,0,0,2,0,4,1,0,0,0.0,3728967.264,0.0,0,0,0,0,0
143315.0833,972427,6.4,2-Mar-87,Hodges Jordon,29,172.5,2,0,0,0,0,3,0,3,0,9,0,0,0,0,0,0,0,0,2,0,0,0,0,0,0,1,1,0,2,0,0,5,1,0,0.0,29880649.12,0.0,0,0,0,0,0
56.0,48903,6.4,25-Feb-87,Altemus Erik,29,177.5,0,0,0,0,0,1,0,0,0,1,0,0,0,0,0,0,0,0,0,0,0,0,0,0,0,1,0,0,1,0,0,0,0,0,0.0,0.0,0.0,0,0,0,0,0
26256.47826,2332745,6.239130435,4-Dec-87,von Hoffmann Chris,29,160.0,1,0,0,0,0,4,0,0,0,2,0,0,0,0,0,0,0,0,0,0,0,0,0,0,0,1,1,0,7,0,0,2,0,0,0.0,5228520.717,0.0,0,0,0,0,0
134.77777780000002,1418182,6.811111111000001,30-Dec-87,Matchem Zach,29,180.0,0,0,0,0,0,0,0,0,0,3,0,0,0,0,0,0,0,0,1,0,0,0,1,0,0,0,0,0,5,0,0,1,0,0,0.0,400257.5583,0.0,0,0,0,0,0
2149.967033,1083593,6.7670329670000005,5-Nov-87,Jonas Kevin,29,172.5,0,0,1,0,2,2,0,0,23,1,0,0,4,0,0,0,0,0,0,0,22,1,0,1,4,1,0,0,7,0,1,0,1,0,21435589.76,35962.37337,0.0,0,0,0,0,0
17.904761899999997,2387796,6.457142857000001,29-Aug-87,White David J.,29,170.0,0,0,0,0,2,7,0,0,2,2,0,0,0,0,0,0,0,1,2,0,3,5,0,1,0,4,0,0,10,0,0,0,4,0,0.0,0.0,0.0,0,0,0,0,0
33.0,1880872,7.15,6-Oct-87,Robichaux Andreas,29,175.0,2,0,0,0,0,7,0,1,0,2,0,0,2,2,0,0,0,0,0,0,0,0,1,0,0,1,2,0,11,0,0,1,0,0,0.0,146802.9446,0.0,0,0,0,0,0
8245.664595999999,2376181,7.29378882,25-Jul-87,Welch Michael,29,175.0,2,0,7,1,0,6,0,3,3,20,0,0,5,5,0,0,0,0,8,0,1,0,2,0,0,7,1,0,3,1,0,12,1,1,20544.349140000002,25238804.18,0.0,0,0,0,0,0
512.1590909,2105835,7.212878787999999,2-Feb-87,Spanjers Martin,29,162.5,0,0,0,0,1,4,0,0,2,6,0,0,2,0,0,0,0,0,1,0,0,0,1,1,0,0,0,0,4,1,0,2,0,1,0.0,5036906.804,0.0,0,0,0,0,0
33283.16667,427435,6.45,1-Jun-87,Cole Dominic,29,187.5,1,0,0,0,0,3,0,3,0,3,0,0,0,0,0,0,0,0,1,0,0,0,1,0,0,1,1,0,3,0,0,3,0,0,0.0,22348223.55,0.0,0,0,0,0,0
9.0,1115146,6.0,7-Jan-87,Kano David,29,182.5,0,0,0,0,0,2,0,0,0,3,0,0,0,0,0,0,0,0,0,0,0,0,0,0,0,0,0,0,1,1,1,0,0,0,0.0,915010.8474,0.0,0,0,0,0,0
53.75,535784,8.15,15-Aug-87,Deering Craig,29,175.0,3,0,1,0,0,4,0,0,0,2,0,0,0,0,0,0,0,0,1,0,0,0,1,0,0,0,1,0,0,0,0,0,0,0,0.0,1942.503171,0.0,0,0,0,0,0
76.66666667,1111281,7.6333333329999995,6-May-87,Kamel Karim,29,185.0,4,0,0,0,0,1,0,1,0,5,0,0,0,1,0,0,0,0,0,0,0,0,0,0,0,1,0,0,4,0,0,0,1,0,0.0,27515.86748,0.0,0,0,0,0,0
68.0,40960,8.8,14-Aug-87,Aljandal Abdulrahman,29,170.0,1,0,0,0,0,0,0,0,0,3,0,0,0,0,0,0,0,0,0,0,0,0,1,0,0,0,0,0,4,1,0,0,0,0,0.0,5000.0,0.0,0,0,0,0,0
50.23076923,1408477,7.892307692,20-Apr-87,Martland Theodore,29,177.5,0,0,0,0,0,1,0,0,2,4,0,0,0,1,0,0,0,0,1,0,0,0,0,0,0,1,0,0,2,0,0,0,1,0,0.0,0.0,0.0,0,0,0,0,0
1698.310638,1437150,7.724255319,9-Apr-87,McCartney Jesse,29,175.0,12,0,16,10,0,11,0,0,8,12,0,0,18,13,0,0,0,0,2,0,28,1,7,1,3,2,2,0,9,1,0,3,0,0,0.0,41525044.39,0.0,0,0,0,0,0
2158.36,1449313,5.672000000000001,1-Jul-87,McGrath Tim,29,180.0,3,0,0,0,0,3,0,1,0,4,0,0,0,0,0,0,0,0,2,0,0,0,0,1,0,1,2,0,3,0,0,5,0,0,0.0,4114710.764,0.0,0,0,0,0,0
103.5,1134891,7.15,5-Oct-87,Keith Philip,29,180.0,1,0,2,0,0,0,0,2,0,3,0,0,0,2,0,0,0,0,0,0,0,0,1,0,0,2,0,0,3,0,0,1,0,0,0.0,927209.7426,0.0,0,0,0,0,0
8222.460784,67707,7.061764706,3-Dec-87,Angarano Michael,29,167.5,8,0,6,2,2,23,0,6,6,20,0,0,7,4,0,0,0,1,2,0,3,0,0,0,0,4,3,0,8,1,0,7,0,0,15984425.83,21808683.62,0.0,0,0,0,0,0
21613.952380000002,960035,6.628571429,16-Mar-87,Higgins Kristopher,29,182.5,1,0,0,0,1,8,0,1,0,8,0,0,2,0,0,0,0,0,1,0,0,0,0,0,0,2,1,0,6,0,0,3,0,0,0.0,14464321.73,0.0,0,0,0,0,0
18184.66667,930491,6.7,23-Sep-87,Haynes Jordan,29,167.5,0,0,1,0,0,1,0,2,0,1,0,0,0,0,0,0,0,0,0,0,0,0,0,0,0,0,0,0,4,0,0,2,0,0,0.0,20000000.0,0.0,0,0,0,0,0
1620.830357,538098,6.5375,28-Dec-87,Dekker Thomas,29,172.5,0,0,6,8,1,3,0,0,4,12,0,0,8,1,0,0,0,0,8,0,2,3,4,1,0,2,2,0,7,0,1,8,0,0,124276.8928,13444094.32,0.0,0,0,0,0,0
3667.666667,875170,7.3,21-Sep-87,Guzman Ryan,29,180.0,2,0,0,0,0,4,0,0,0,3,0,0,0,0,0,0,0,0,0,0,5,0,1,0,0,4,0,0,0,0,0,2,0,0,15102980.54,19319909.07,0.0,0,0,0,0,0
7674.787356,627145,6.770114942999999,18-Oct-87,Efron Zac,29,170.0,2,0,2,4,3,34,0,0,25,18,0,0,13,6,0,0,0,1,1,0,20,8,1,3,3,14,1,0,31,1,1,3,0,0,43375083.99,19456138.86,1526195.573,0,0,0,0,0
70.0,732874,3.457142857,12-Jan-87,Frazier Matt,29,180.0,0,0,0,0,0,2,0,0,0,0,0,0,0,0,0,0,0,0,0,0,0,0,0,0,0,0,0,0,2,0,0,0,0,0,0.0,1619.047619,0.0,0,0,0,0,0
939.2,471552,7.736000000000001,13-Jan-87,Croft Parker,29,182.5,1,0,0,0,0,1,0,0,1,4,0,0,0,0,0,0,0,0,1,0,0,0,0,0,0,2,1,0,1,0,0,0,1,0,32405.02801,1706313.751,0.0,0,0,0,0,0
82124.3617,679470,6.49787234,16-Feb-87,Fein Chase,29,177.5,2,0,0,1,0,7,0,2,0,3,0,0,0,0,0,0,0,0,0,0,0,1,0,0,0,0,2,0,8,0,0,0,0,0,0.0,12053.69397,0.0,0,0,0,0,0
59.0,1236417,4.2,13-Jul-87,Lamoureux Jordan,29,152.5,0,0,0,0,0,1,0,0,0,0,0,0,1,1,0,0,0,0,0,0,0,0,0,0,0,0,0,0,0,0,0,0,0,0,0.0,0.0,0.0,0,0,0,0,0
13.5,734427,6.85,19-Jun-87,Freeman Alexander,29,160.0,0,0,0,0,0,0,0,0,2,1,0,0,1,0,0,0,0,0,0,0,0,0,0,0,0,2,0,0,6,0,0,0,0,0,0.0,413.9886002,0.0,0,0,0,0,0
10313.625,83984,5.30625,1-Feb-87,Arleo Alex,29,175.0,2,0,1,0,0,3,0,1,0,2,0,0,0,1,0,0,0,0,3,0,0,0,0,0,0,0,1,0,1,0,0,2,0,0,0.0,385577.9275,0.0,0,0,0,0,0
3067.25,647109,7.475,4-Jun-87,Epstein Brett,29,165.0,2,0,0,0,0,10,0,0,0,3,0,0,0,0,0,0,0,0,0,0,1,0,1,0,0,1,0,0,4,0,0,2,0,0,0.0,1796973.5359999998,0.0,0,0,0,0,0
10377.75,741360,6.48125,17-Feb-87,Frost Alex,29,175.0,0,0,0,0,0,6,0,3,1,10,0,0,0,0,0,0,0,0,2,0,0,0,1,0,0,0,1,0,4,0,0,4,0,0,1600434.783,1716887.664,0.0,0,0,0,0,0
90.3125,1233935,6.83125,30-May-87,LaMantia Nick,29,180.0,1,0,0,0,0,6,0,1,1,5,0,0,0,0,0,0,0,1,6,0,0,0,0,0,0,0,2,0,6,0,0,2,0,0,0.0,37152.93628,0.0,0,0,0,0,0
116.44444440000001,1370887,7.377777778,2-Jul-87,Maldonado Matt,29,185.0,1,0,0,0,0,2,0,1,0,2,0,0,0,1,0,0,0,0,1,0,0,0,0,0,0,0,0,0,4,0,0,0,0,0,0.0,1142.482773,0.0,0,0,0,0,0
90.0,1195613,7.85,16-Apr-87,Kota Rushi,29,177.5,0,0,0,0,0,8,0,0,0,3,0,0,0,0,0,0,0,0,0,0,0,0,0,0,0,0,0,0,1,0,0,0,1,0,0.0,14860.0,0.0,0,0,0,0,0
2836.6,639661,7.9,28-Mar-87,Elonzae Brandon,29,180.0,0,0,0,0,1,1,0,1,0,6,0,0,2,0,0,0,0,0,1,0,0,0,0,0,0,1,1,0,7,0,0,2,0,0,0.0,5812.5855950000005,0.0,0,0,0,0,0
62.0,1309589,5.585714286,25-Jan-87,Lively Josh,29,180.0,0,0,0,0,0,6,0,0,0,1,0,0,0,0,0,0,0,0,6,0,0,0,0,0,0,1,0,0,0,0,0,0,0,0,0.0,1317.786776,0.0,0,0,0,0,0
32214.6,1638454,6.54,6-Jul-87,O'Leary Matt,29,184.0,3,0,1,0,1,7,0,7,2,14,0,0,3,1,0,0,0,1,4,0,0,0,4,2,0,2,3,0,2,0,0,9,0,1,50335.46173,24601438.82,0.0,0,0,0,0,0
6143.111111,2053063,4.433333333,5-Jan-87,Silva Carl,29,177.5,2,0,1,1,0,4,0,1,0,6,0,0,1,1,0,0,0,0,0,0,1,0,1,0,0,1,0,0,3,0,0,1,0,0,0.0,20132945.83,0.0,0,0,0,0,0
8603.0,983178,7.52739726,18-Jan-87,Holtz Zane,29,182.5,3,0,1,0,0,0,0,2,1,9,0,0,0,0,0,0,0,0,3,0,1,0,1,0,0,1,0,0,4,0,0,8,1,0,0.0,833743.5023,0.0,0,0,0,0,0
11.0,2427117,5.6,20-Sep-87,Wood James,29,175.0,2,0,0,0,0,0,0,1,0,2,0,0,0,0,0,0,0,0,0,0,0,0,0,0,0,0,0,0,3,0,0,2,0,0,0.0,6021.505376,0.0,0,0,0,0,0
97025.28571,2425868,7.0642857139999995,8-Jun-87,Wong Stanley,29,175.0,1,0,1,1,0,9,0,0,0,4,0,0,0,0,0,0,0,0,1,0,0,0,0,0,0,0,0,0,4,0,0,1,0,0,0.0,4155.150041,0.0,0,0,0,0,0
1108.0,249181,9.1,3-Aug-87,Bower Tristan James,29,177.5,0,0,0,0,0,1,0,0,0,0,0,0,0,0,0,0,0,0,0,0,0,0,0,0,0,1,0,0,3,0,0,0,0,1,0.0,4050.3423810000004,0.0,0,0,0,0,0
12.47058824,407307,7.058823529,7-Jun-87,Cihangir Emre,29,185.0,1,0,0,0,0,5,0,0,0,1,0,0,0,0,0,0,0,1,1,0,0,0,0,0,0,0,0,0,8,0,0,0,1,0,0.0,31359.70452,0.0,0,0,0,0,0
223.76923080000003,1215855,6.4,23-Sep-87,Kunz Lee Roy,29,175.0,0,0,0,0,0,2,0,1,0,2,0,0,0,0,0,0,0,0,0,0,0,0,1,0,0,0,0,0,3,0,0,1,0,0,0.0,0.0,0.0,0,0,0,0,0
47721.10256,412982,6.987179487000001,24-Sep-87,Clark Spencer Treat,29,180.0,1,0,2,1,0,2,0,1,1,11,0,0,1,0,0,0,0,0,1,0,0,0,2,0,0,3,1,0,2,0,0,6,0,0,0.0,32290815.97,0.0,0,0,0,0,0
64306.65385,672587,5.519230769,30-Oct-87,Farmer Timothy,29,170.0,1,0,0,0,0,1,0,0,0,1,0,0,0,1,0,0,0,0,0,0,1,0,0,0,0,0,1,0,1,0,0,1,0,0,0.0,19512022.88,0.0,0,0,0,0,0
84.71428571,1007637,7.328571429,12-Jun-87,Humphrey Luke,29,180.0,1,0,0,0,0,2,0,0,0,7,0,0,1,0,0,0,0,1,0,0,0,0,0,0,0,2,0,0,5,0,0,1,2,0,0.0,0.0,0.0,0,0,0,0,0
3075.0,849842,5.967213115,28-Dec-87,Gregory Adam,29,185.0,4,0,1,1,0,3,0,0,0,3,0,0,1,2,0,0,0,0,0,0,1,0,0,0,0,0,1,0,2,0,0,0,1,0,0.0,15674520.85,0.0,0,0,0,0,0
2997.976744,1462308,7.2622093020000005,19-Apr-87,Mead Courtland,29,170.0,0,0,1,5,0,8,0,1,0,4,0,0,6,3,0,0,0,0,1,0,0,0,1,0,0,3,2,0,1,0,0,0,0,0,0.0,14687736.96,0.0,0,0,0,0,0
640.5,2303817,8.15,13-Oct-87,Vaudo Zachary,29,170.0,3,0,2,0,0,3,0,0,0,1,0,0,0,1,0,0,0,0,0,0,0,0,0,0,0,0,0,0,2,0,0,2,0,0,0.0,2539531.703,0.0,0,0,0,0,0
59.25806452,781549,7.85483871,9-Feb-87,Gehring Kyle,29,175.0,0,0,0,0,0,3,0,0,2,2,0,0,0,0,0,0,0,0,1,0,0,0,0,0,0,0,0,0,2,0,0,0,0,0,0.0,1976.8457190000001,0.0,0,0,0,0,0
264.75,654726,7.6,10-Oct-87,Espy Brandon,29,185.0,0,0,0,0,0,5,0,0,0,5,0,0,1,0,0,0,0,0,0,0,0,0,0,1,0,0,0,0,6,0,0,1,0,0,0.0,1500000.0,0.0,0,0,0,0,0
76.26111111,2006331,7.573888889,15-Jan-87,Seater Michael,29,177.5,1,0,0,0,2,6,0,1,0,9,0,0,3,0,0,0,0,0,0,0,0,0,0,0,0,1,1,0,5,0,0,0,0,0,0.0,6521739.13,0.0,0,0,0,0,0
327.20588239999995,350846,6.15,7-Dec-87,Carter Aaron,29,180.0,1,0,0,0,1,4,0,0,8,2,0,0,9,0,0,2,0,0,1,0,13,0,0,1,1,2,0,0,2,1,0,0,0,0,0.0,320174.4084,0.0,0,0,0,0,0
2389.636364,1656322,5.972727272999999,25-May-87,Olson Tye,29,177.5,0,0,0,0,0,4,0,0,0,4,0,0,0,1,0,0,0,1,0,0,0,0,0,0,0,3,0,0,2,0,0,0,1,0,5880.691199,2080096.2780000002,0.0,0,0,0,0,0
20.0,997253,9.2,15-Sep-87,Howey Axel,29,195.0,0,0,0,0,0,0,0,0,0,0,0,0,0,1,0,0,0,0,0,0,0,0,0,0,0,0,0,0,1,0,0,0,0,0,0.0,0.0,0.0,0,0,0,0,0
678.5714286,848927,5.8,23-Jun-87,Greenwood Noah,29,170.0,0,0,0,0,0,3,0,1,0,3,0,0,0,0,0,0,0,0,0,0,0,0,0,0,0,2,0,0,3,0,0,0,0,0,0.0,1602171.4619999998,0.0,0,0,0,0,0
955.6149425000001,470477,7.9080459770000004,5-Feb-87,Criss Darren,29,170.0,1,0,1,2,2,11,0,0,8,4,0,0,0,2,0,0,0,0,0,0,12,5,0,1,2,1,0,0,13,0,2,0,0,0,0.0,3610466.659,0.0,0,0,0,0,0
10737.36508,1967423,7.676190476,14-Jul-87,Sapienza Stephen,29,185.0,1,0,2,0,0,7,0,1,0,7,0,0,0,1,0,0,0,0,0,0,0,0,1,0,0,5,1,0,4,0,0,3,0,0,0.0,30056912.23,0.0,0,0,0,0,0
168.41666669999998,609195,7.05,24-Feb-87,Duplessie Brenton,29,170.0,3,0,0,0,0,3,0,2,0,11,0,0,2,1,0,0,0,1,3,0,0,0,0,0,0,2,1,0,12,0,0,4,0,0,0.0,776293.4755,0.0,0,0,0,0,0
10515.66667,610606,7.4,23-Sep-87,Durant Pritchard Tom,29,190.0,0,0,0,0,0,2,0,0,0,3,0,0,0,0,0,0,0,0,1,0,0,0,0,0,0,1,1,0,1,0,0,2,0,0,0.0,0.0,0.0,0,0,0,0,0
14443.040819999998,96506,7.42244898,23-Sep-87,Astin Skylar,29,172.5,1,0,0,0,0,13,0,0,1,2,0,0,1,1,0,0,0,0,0,0,4,1,0,0,0,1,0,0,1,0,0,0,0,0,0.0,17640221.02,0.0,0,0,0,0,0
390.9090909,842827,5.581818182,28-May-87,Gray Ricardo,29,170.0,0,0,0,0,0,1,0,0,0,4,0,0,1,0,0,0,0,0,4,0,0,0,0,0,0,1,0,0,1,0,0,0,0,0,0.0,418504.2124,0.0,0,0,0,0,0
305.7692308,1381726,7.3,12-Apr-87,Manning Mike C.,29,172.5,1,0,1,0,0,6,0,1,0,8,0,0,1,2,0,0,0,0,6,0,1,0,0,0,0,2,0,0,6,2,1,3,0,0,0.0,337718.3834,0.0,0,0,0,0,0
276.25,2070145,8.25,31-Oct-87,Skinner Alex,29,175.0,0,0,0,0,0,2,0,0,0,3,0,0,1,2,0,0,0,0,1,0,1,1,0,0,0,0,0,0,5,0,0,1,0,0,0.0,238472.9204,0.0,0,0,0,0,0
