id_data,x_data,y_data,z_data,votes,rating,age,gross,salary,heightcm,budget,academy,golden,sample
1763071,-4.05834519359,-4.83353305852,Plowman David Michael,779071.3333,8.5,37,0.0,0.0,172.5,65635401.52,0,0,False
160469,-0.4231261034,-4.10689805546,Beam Greg,570541.3333,6.533333333,34,0.0,0.0,180.0,193496.1564,0,0,False
2287342,-2.40491437384,-3.46369455577,Valleti Ravi,513042.0,8.0,37,0.0,0.0,190.0,53361501.55,0,0,False
1208644,-1.45768015833,-3.21739739179,Kruse Brian,492178.0,7.35,32,0.0,0.0,175.0,2027.57502,0,0,False
2462665,0.19403740946,-3.11933039524,Zaideman Kevin,427871.75,6.15,30,0.0,0.0,175.0,103484654.0,0,0,False
2018718,0.885724892835,-2.84575579119,Serrone Christopher,372719.5,6.15,40,0.0,0.0,190.0,506920.429,0,0,False
1887102,0.0506348039389,-2.06119639686,Roda Andrew,312836.0,6.5,33,0.0,0.0,172.5,0.0,0,0,False
2298140,-3.08821538053,-1.23106684836,Vang Bee,285950.5,8.3,25,0.0,0.0,165.0,18458854.5,0,0,False
496026,-0.764167595801,-1.62011247716,Dallace Tommy,269029.0,7.16875,44,0.0,0.0,185.0,67849737.46,0,0,False
914248,0.864721414965,-1.43626936825,Harris Sam,232368.75,6.1,34,0.0,0.0,182.5,49819408.0,0,0,False
2150589,0.795577278303,0.631976223466,Stubbins John Michael,223514.3333,6.766666667,47,0.0,0.0,182.5,108793138.9,0,0,False
1855286,-1.50748561546,-1.23212130709,Rhodes Alexander,221037.125,7.6125,27,0.0,0.0,175.0,25467564.48,0,0,False
2159886,-0.535563129499,-0.975878366442,Sundgren Kyle,195338.0,7.0,32,0.0,0.0,172.5,21339639.59,0,0,False
780682,0.0935435068173,-1.00960837763,Geckles Joshua,179573.0,6.6,31,0.0,0.0,180.0,81009347.61,0,0,False
105368,1.08344685746,-0.377747020295,AvMen Michael,170595.6667,6.033333333,39,0.0,0.0,177.5,72682203.15,0,0,False
80966,2.04539631941,-1.27487282551,Ardine Dustin,169999.5,5.3,32,0.0,0.0,170.0,40558282.16,0,0,False
2090569,-0.0146147154083,1.62873470693,Snow Anthony,165763.7143,7.157142857,54,0.0,0.0,180.0,15600257.06,0,0,False
2409808,0.981589018104,-0.632033795771,Willshire Kyle,157424.0,6.1,36,0.0,0.0,182.5,81701228.88,0,0,False
2280706,-2.02514277108,0.491714595639,Uwais Iko,145102.5,7.366666667,33,3476593.881,0.0,162.5,6570633.209,0,0,False
972427,0.452160445568,-1.06430477937,Hodges Jordon,143315.0833,6.4,29,0.0,0.0,172.5,29880649.12,0,0,False
2120572,-1.09070583753,-1.03813277334,Stanton Kevin,140117.5,7.45,29,0.0,0.0,185.0,13760433.74,0,0,False
1749589,-0.0581791656349,-0.787594579068,Pierce Ernest,138868.0323,6.741935484,31,0.0,9418.431085,180.0,32502204.4,0,0,False
576669,0.220700151937,1.56310199118,Docter Pete,138699.8913,7.336956522,48,0.0,0.0,190.0,12288.78648,0,0,False
2462354,-0.905126321037,0.269556310919,Zaher Baktash,138565.5,7.5,40,0.0,0.0,182.5,3135256.75,0,0,False
1380838,-0.679483352387,-0.358521819773,Mann Nav,137261.0,7.275,35,0.0,0.0,182.5,70520083.92,0,0,False
1992176,-0.334726324601,2.39296611083,Schoneberg Andy,134337.0833,7.108333333,60,0.0,0.0,170.0,24466.68172,0,0,False
459901,1.2733970569,-1.25028524947,Coupe David,132339.5,5.983333333,30,0.0,0.0,167.5,114557267.0,0,0,False
1108425,-1.14943946065,-0.623200410341,Kalbfleisch Dan,130367.5,7.55,30,0.0,0.0,180.0,98408104.2,0,0,False
1885326,-0.0448644128505,-0.497646873913,Rocco Sam,126031.5,6.775,33,0.0,0.0,175.0,49852891.77,0,0,False
734430,-0.129310437258,1.99006214791,Freeman Alfonso,124834.9474,6.997368421,57,0.0,0.0,172.5,9715860.172,0,0,False
805937,0.623375930282,-0.849397045673,Gladen Jeremy,121242.375,6.3,31,0.0,0.0,172.5,81168.5361,0,0,False
38889,0.139461148909,-0.372611438425,Alfter Adam,120726.6667,6.733333333,36,0.0,0.0,182.5,0.0,0,0,False
1766664,3.42534722077,-1.85266275544,Poletti Mark,120403.0,4.2,27,0.0,0.0,172.5,6550.342381,0,0,False
221184,0.412829439204,2.20832987198,Blood Todd,118569.3929,7.310714286,57,0.0,0.0,187.5,79872678.5,0,0,False
1769814,-0.0537743571059,1.48218072882,Ponce-Bonano Alexander Xavier,117741.2667,7.113333333,53,0.0,0.0,177.5,0.0,0,0,False
2221056,1.27176590607,0.128927203518,Thornberry Michael,116898.0,6.133333333,43,0.0,0.0,185.0,59081443.92,0,0,False
1780578,-0.498514809021,0.535674469285,Powers Frank,112848.7273,7.213636364,41,0.0,0.0,172.5,62701064.35,0,0,False
1792868,0.424243201358,-1.35219004743,Pryce David James,112808.3333,6.366666667,25,0.0,0.0,175.0,6332794.749,0,0,False
923828,0.962713499066,0.0430073342641,Hatley Adam,110001.6667,6.188888889,42,0.0,0.0,180.0,10718418.31,0,0,False
1401709,-0.164352582832,0.545740304018,Martin Christian,109510.375,6.9,41,0.0,0.0,170.0,36684.34322,0,0,False
2448304,1.92248077491,0.239048844851,Yee Jason,107601.6154,5.538461538,46,18189.67395,0.0,175.0,70808181.62,0,0,False
534855,-1.06330481336,-0.700646412063,DeCourville Alex,106129.3,7.41,28,0.0,0.0,177.5,28385039.87,0,0,False
2011815,1.84314825909,-0.441001098675,Selenfriend Jeremy,104023.1667,5.5,38,0.0,0.0,172.5,0.0,0,0,False
510910,-0.153337447128,-1.36706180341,Davies Jonno,102780.0,6.7,24,0.0,0.0,180.0,82019433.21,0,0,False
499344,-0.456411098035,1.44571056935,Dane Michael,102574.1818,7.459090909,51,0.0,0.0,180.0,80152330.42,0,0,False
1339127,1.24564664534,-0.582173812171,Lundy Gary,101759.1667,5.866666667,35,0.0,0.0,175.0,4102165.185,0,0,False
754954,-0.336708708958,0.150228234517,Galatis William,101668.6667,7.033333333,37,0.0,0.0,172.5,16205790.92,0,0,False
1116083,0.915449467315,-0.806059221391,Kapcia Chris,101650.5,6.1,32,0.0,0.0,172.5,42252098.22,0,0,False
1042750,7.45856886186,5.7797274863,Jackson Peter,100967.9474,7.190526316,55,0.0,19064619.35,165.0,78202658.33,0,0,False
2342017,3.02551036218,1.2113756084,Wahlberg Robert,99409.33333,6.877777778,49,69543280.75,0.0,175.0,9064868.666,0,0,False
2425868,-0.589057466645,-0.712769290536,Wong Stanley,97025.28571,7.064285714,29,0.0,0.0,175.0,4155.150041,0,0,False
1439036,-0.811046635805,-0.412790299862,McCluskey Taylor,92913.27778,7.283333333,34,0.0,0.0,185.0,100978141.4,0,0,False
1122693,-0.857450776563,0.0214038927627,Kasche Edward,92844.0,7.4,35,0.0,0.0,175.0,52098408.1,0,0,False
1514992,-0.160558937494,-1.19569978935,Mobraaten Derek,92099.4,6.76,28,0.0,0.0,185.0,46516895.04,0,0,False
807724,-0.593917392594,-0.484482775475,Gleeson Domhnall,92041.59459,7.2,33,13792986.58,0.0,182.5,57047850.01,0,0,False
607426,-1.2838419585,0.215512159535,Dunlevy Stephen,91709.42857,7.521428571,38,0.0,0.0,187.5,0.0,0,0,False
1275285,-1.17417427709,0.757587250673,Leitch Matthew,89556.2,7.73,41,0.0,0.0,172.5,39242952.47,0,0,False
1565531,-1.24461143038,0.761423609935,Murphy Cillian,89410.97872,7.623404255,40,1053076.928,0.0,172.5,68715447.99,0,0,False
2368023,0.648442567032,1.86226213159,Weaving Hugo,88618.22628,7.016058394,56,5155039.848,0.0,185.0,80056045.53,0,0,False
839977,0.32361091531,-1.33005629152,Grant Travis,87883.0,6.425,28,0.0,0.0,185.0,9633682.042,0,0,False
606592,-0.00604787778777,0.606236899457,Duncan Ryan,87338.06667,6.853333333,43,0.0,0.0,172.5,14020639.47,0,0,False
907723,-0.0806973706345,0.194828971557,Hargitay Eddie,86845.31818,6.85,38,0.0,0.0,172.5,39719204.49,0,0,False
684148,-0.31162364884,-0.501695462229,Ferguson Patrick,86692.0,6.966666667,32,0.0,0.0,180.0,23541243.71,0,0,False
196089,1.04168922495,0.824370275231,Bettany Paul,86242.57895,6.855263158,45,18999701.5,0.0,187.5,69449529.54,0,0,False
1138001,-1.84256490357,-0.680835797184,Kelly Jason,85917.5,7.85,25,0.0,0.0,177.5,0.0,0,0,False
147123,0.0170143515224,0.339087156933,Barter Bryan,85850.16667,6.8,40,0.0,0.0,172.5,14678981.55,0,0,False
1068098,-2.37253336387,-0.469104445188,Jia Dave,85786.0,8.028571429,24,0.0,0.0,170.0,34345352.63,0,0,False
762779,-0.351070485709,1.04852389723,Ganyo Scott,85593.65,7.155,47,0.0,0.0,172.5,29758775.16,0,0,False
1465551,-0.972938977448,0.687245963684,Meehan Sean,85584.64286,7.685714286,42,0.0,0.0,177.5,77179719.69,0,0,False
2334782,-0.0165156829745,0.701919076552,Vos Marc,85261.0,6.871428571,44,0.0,0.0,172.5,20973092.04,0,0,False
1390680,-0.0140885088259,0.971151128127,Mariano Tom,83216.60714,6.903571429,47,0.0,0.0,172.5,39206871.88,0,0,False
2122965,0.918585685679,1.15595884048,Statham Jason,82368.52239,6.714925373,49,23928773.38,793756.1931,175.0,57800602.87,0,0,False
1082011,1.22873938782,2.63140250514,Johnston Joe,82259.94444,6.519444444,66,0.0,0.0,182.5,11000000.0,0,0,False
679470,0.270247783253,-0.845200636128,Fein Chase,82124.3617,6.49787234,29,0.0,0.0,177.5,12053.69397,0,0,False
1154518,-0.780512157511,0.0514977471761,Kidd Rhet,81864.6,7.4,36,0.0,0.0,177.5,32910451.02,0,0,False
2198423,2.06059764128,-2.32104287714,Taylor-Johnson Aaron,81199.21739,6.793478261,26,61662032.77,0.0,177.5,56244489.66,0,0,False
1866979,0.478208496928,-0.644540755437,Riley Benjamin,80866.15,6.38,32,0.0,0.0,180.0,19215102.32,0,0,False
834078,-1.33653828064,-0.223659716846,Goyos Rey,79568.0,7.70625,32,0.0,0.0,180.0,60152402.04,0,0,False
1704722,-1.389567371,-0.808093393357,Patel Ankit,79497.0,7.16,26,0.0,0.0,170.0,1322.992135,0,0,False
1876180,-0.556169087961,-0.076500484583,Robbins Jarrod,78756.7,7.22,36,0.0,0.0,180.0,55824263.51,0,0,False
2453966,-0.082907631863,-0.198004779879,Youcef Ben,77722.91667,6.954166667,37,0.0,0.0,185.0,45108596.66,0,0,False
1802634,-1.35624248207,1.81209935977,Quan Jonathan Ke,77685.85,6.9,45,0.0,0.0,160.0,53528378.37,0,0,False
659825,0.553715342453,0.176993291716,Evans Luke,76505.41026,6.969230769,37,28565320.99,0.0,180.0,55469259.87,0,0,False
658845,6.80010794666,-2.03081225942,Evans Chris,76134.55462,6.744537815,35,150033464.2,3160423.597,180.0,116236357.7,0,0,False
2475583,0.182145627795,2.14803765452,Zimmer Hans,74974.91241,6.901094891,59,0.0,0.0,175.0,1259842.52,0,0,False
170434,2.8418893756,1.42258976819,Belfort Jordan,74274.81818,5.0,54,0.0,0.0,167.5,0.0,0,0,False
1721628,-1.15852439359,-0.391674895403,Pence Josh,72852.53333,7.383333333,34,0.0,0.0,187.5,20876365.17,0,0,False
1918525,-3.84748691794,4.85637037235,Roy Deep,72659.78082,6.750684932,59,0.0,1228878.648,130.0,28888099.67,0,0,False
1210970,-2.86685250936,-0.106332770918,Kucsulain Justin,72523.25,8.475,32,0.0,0.0,190.0,103023459.3,0,0,False
291424,-1.73468086035,-0.26087592807,Bubar Pablo,72321.0,7.5375,28,0.0,0.0,170.0,19574539.37,0,0,False
2132655,0.740529814434,2.26345823907,Steven Joseph,71820.42105,6.973684211,60,0.0,0.0,185.0,54086038.89,0,0,False
1666029,1.41106050271,-0.899770965096,Orton Justin,71767.0,5.766666667,31,0.0,0.0,180.0,167803222.8,0,0,False
1059101,-0.60017420017,0.385042685774,Jay Baron,71671.29231,7.316923077,40,0.0,0.0,177.5,72776847.27,0,0,False
1355249,0.00753021457516,0.118767680387,Mackie Anthony,70562.47727,6.822727273,38,2963346.703,0.0,175.0,63907244.57,0,0,False
2025040,-1.34834887779,-0.0525036837978,Shalkoski Jr. James,70088.0,7.725,33,0.0,0.0,177.5,13763160.36,0,0,False
572123,-3.0668118595,1.14194860787,DiSparrow Lukas,70005.93878,7.93877551,32,0.0,0.0,155.0,141888248.6,0,0,False
1374154,0.680028133791,1.3531135002,Malone Robert,69533.8125,6.55,52,0.0,0.0,172.5,30838354.61,0,0,False
125330,1.40682652681,11.8318764465,Bale Christian,68960.42657,6.812587413,42,121073404.0,7480124.381,183.0,68258050.06,1,1,False
506616,-0.407808610463,-0.43918750938,Dastmalchian David,68781.97222,7.038888889,32,0.0,0.0,180.0,158817.0412,0,0,False
1203500,2.39041968963,-0.612130896526,Kreinbrink Justin,68622.09091,5.209090909,37,0.0,0.0,185.0,1829954.487,0,0,False
