id_data,x_data,y_data,z_data,votes,rating,gross,salary,age,heightcm,budget,academy,golden,sample
1238680,-0.4442231552,0.674151769701,Landon Michael,56.38220277,7.888986142,17081850.53,0.0,80,172.5,2662811.474,0,0,False
2348938,-0.808636396937,0.138864260408,Wallach Eli,7494.031746,7.136507937,25446066.5,302850.552,101,167.5,25807152.82,0,0,False
1274150,-0.587877921643,0.554401526734,Leibman Ron,3660.16,7.285333333,0.0,0.0,79,175.0,23139015.26,0,0,False
1246815,-0.286019363761,0.605051216369,Larroquette John,1771.313466,7.284988962,24510232.2,0.0,69,190.0,17480994.65,0,0,False
1272908,0.768312968363,0.332472478065,Leguizamo John,17520.77686,6.623553719,6310404.848,2990654.206,52,167.5,32444161.17,0,0,False
1309996,0.19702451106,0.841766703189,Livingston Ron,8615.735294,7.265882353,7894082.894,0.0,49,175.0,11014437.54,0,0,False
1311734,-0.728543163696,-0.38750404038,Lloyd Harold,1717.622093,6.526744186,18147207.45,1817193.016,123,167.5,7482730.317,0,0,False
1289823,-0.797050973719,-0.0616149332994,Lewis Geoffrey,3514.108225,6.712554113,0.0,0.0,81,172.5,21159690.71,0,0,False
1289477,-0.0785076706624,0.77013559839,Lewis Damian,2434.364162,7.83699422,616715.4842,0.0,45,185.5,26249668.34,0,0,False
167902,-0.298785755046,0.509445035234,Begley Jr. Ed,2125.873563,7.067980296,855985.9031,0.0,67,190.0,11656196.1,0,0,False
1258699,0.000751250239326,0.3508660305,Lazenby George,1039.761538,6.926923077,148934014.2,360192.0399,77,185.0,6915884.181,0,0,False
98295,0.24494295514,-0.264706738593,Atkins Christopher,751.8442623,6.080327869,13406416.87,0.0,55,175.0,7384323.566,0,0,False
1043932,-0.390081571243,0.729074931643,Jacobi Derek,9099.404332,7.532129964,9484645.3,0.0,78,175.0,29655569.09,0,0,False
2348658,0.373206013385,-0.547869185108,Wallace Paul,520.6666667,4.4,0.0,1100.634699,31,175.0,1732706.277,0,0,False
159863,0.201114031667,0.813551510297,Beach Adam,5088.308642,7.125308642,7385017.972,0.0,44,177.5,39356236.04,0,0,False
6510,-0.46594505733,0.675782810621,Abraham F. Murray,9785.894068,7.23940678,270750.2711,0.0,77,175.0,23946821.25,0,0,False
61595,0.361478198591,0.238466498719,Anderson Kevin,5039.577778,6.486666667,235497.7974,0.0,56,175.0,23860886.42,0,0,False
1067177,0.602025786499,0.46489230608,Jeter Michael,18465.25781,7.0375,34580844.86,0.0,64,160.0,44191734.45,0,0,False
12317,-0.660901473136,0.455382272669,Adams Don,209.040678,7.634915254,10383687.38,0.0,93,172.5,43689320.39,0,0,False
2361844,0.0612357919349,0.0951405596465,Wasson Craig,2516.831169,6.55974026,10183156.73,0.0,62,170.0,7918001.823,0,0,False
185808,-0.284243685991,0.060184609377,Berger Helmut,6362.865169,6.437078652,0.0,0.0,72,184.0,21828610.23,0,0,False
1290162,-0.717964419886,-0.115761728543,Lewis Jerry,1978.025424,6.616525424,39462686.9,0.0,90,175.0,14324021.57,0,0,False
1087019,-0.190976173689,0.68027204151,Jones Jeffrey,16756.85714,7.370588235,0.0,0.0,70,190.0,37137228.93,0,0,False
1032202,0.401790360772,0.795801143288,Isaacs Jason,23470.80531,7.465486726,42335915.65,0.0,53,177.5,57857348.26,0,0,False
1234178,-0.0466474646999,0.00271325349294,Lamas Lorenzo,328.8821023,6.206107955,3786241.386,0.0,58,187.0,2819539.212,0,0,False
1305181,0.463344546932,0.38372987326,Liotta Ray,18227.92021,6.586170213,9259822.637,2429149.798,62,180.0,23055584.95,0,0,False
2413209,0.80366259703,0.278010310094,Wilson Owen,47688.232,6.3072,86969718.17,7590780.429,48,175.0,72448265.56,0,0,False
2267556,0.541156406361,0.539739386744,Turturro John,24597.76966,6.778651685,7410329.861,0.0,59,180.0,56333849.42,0,0,False
1163655,-0.424770889321,0.527397605754,King Perry,2188.715909,6.903977273,0.0,0.0,68,180.0,7741658.7,0,0,False
2413223,0.564473186656,0.669977220822,Wilson Patrick,38239.03333,7.333333333,49639910.74,0.0,43,184.0,35787483.99,0,0,False
1085684,0.107633941158,0.215668975819,Jones Dean,1934.254386,6.744736842,204584404.8,0.0,85,180.0,8499010.161,0,0,False
2257001,-0.589053097437,0.222895322891,Tryon Tom,1889.086957,6.952173913,0.0,0.0,90,187.5,14311589.56,0,0,False
1167329,-0.0783726704418,0.7637992533,Kirk Justin,708.5936073,7.450228311,142750.7959,52266.1742,47,182.5,2877783.538,0,0,False
2417769,-0.796609284381,0.121454635021,Winters Jonathan,1573.431472,6.989847716,5468513.079,1019607.843,91,175.0,16904228.87,0,0,False
1032084,0.734562450324,0.480041050441,Isaac Oscar,48124.04762,7.06984127,6420549.137,0.0,37,170.0,65824071.52,0,0,False
2413696,-0.284136553492,0.751615650135,Wilson Scott,13467.73913,7.338405797,1498579.439,0.0,74,180.0,21063345.23,0,0,False
618345,0.326107070307,0.78392259536,Ealy Michael,6955.029197,7.58540146,95696443.29,0.0,43,175.0,19619211.05,0,0,False
1583869,-0.444954637663,0.310626576593,Namath Joe,915.1666667,6.8125,0.0,0.0,73,185.0,6354033.273,0,0,False
2140754,0.077757841035,0.847289259854,Stoltz Eric,9056.488372,7.271428571,10645966.1,0.0,55,177.5,13476534.67,0,0,False
502425,0.714922019055,0.440292039441,Dano Paul,54270.32813,6.8203125,2650601.564,0.0,32,182.5,31891583.17,0,0,False
2141792,-0.76499772627,0.252939057142,Stone Milburn,125.5316623,7.658707124,0.0,0.0,112,170.0,8031547.829,0,0,False
1915533,-0.273968722537,0.452316969559,Roundtree Richard,7157.189573,6.832701422,34845221.86,283153.9817,74,185.0,27365829.01,0,0,False
2034919,0.0102182313467,0.79860640067,Shenkman Ben,8441.197368,7.553289474,13531.70732,0.0,48,182.5,19687276.02,0,0,False
1897794,-0.766874459318,-0.254064516048,Roland Gilbert,615.7664234,6.63649635,0.0,0.0,111,175.0,15226677.36,0,0,False
1993261,0.0434216458999,0.774178732952,Schreiber Liev,8519.256757,7.445945946,31112723.34,0.0,49,187.5,33339161.5,0,0,False
1404589,-0.807397506956,0.130523504058,Martin Strother,4208.935897,7.167948718,0.0,0.0,97,167.5,15386889.82,0,0,False
656365,-0.623414512648,0.481629262159,Estrada Erik,548.2816092,6.850574713,0.0,0.0,67,172.5,4921732.73,0,0,False
1792879,0.300887166524,0.658944468875,Pryce Jonathan,22923.3625,6.950625,3930594.731,0.0,69,180.0,85449037.48,0,0,False
697108,-0.626858060233,0.42967454298,Finkel Fyvush,812.039801,7.57761194,0.0,0.0,94,182.5,1114127.237,0,0,False
2151179,0.269557799726,0.806954769841,Stuhlbarg Michael,18868.19149,7.915957447,10116050.84,0.0,48,165.0,44418951.94,0,0,False
279107,-0.330491068064,0.462330470663,Brown Bryan,3030.74026,6.814935065,18357736.04,0.0,69,182.5,26907718.42,0,0,False
462800,0.379074626316,0.702604967084,Cox Brian,25880.93309,7.237918216,173958.6168,0.0,70,167.5,47528458.99,0,0,False
515054,-0.683307946887,0.193243550564,Davis Ossie,2566.737557,7.072850679,0.0,0.0,99,185.0,16541855.25,0,0,False
785139,-0.679291506089,0.0150640347817,George Christopher,824.5121951,6.673170732,32987024.68,0.0,85,177.5,4877961.164,0,0,False
649977,0.506937052529,0.402639215231,Ermey R. Lee,35455.0625,6.747159091,0.0,0.0,72,180.0,28446300.82,0,0,False
1895715,-0.495200585863,0.473942427016,Rogers Wayne,779.5896226,7.356132075,0.0,0.0,83,187.5,10101196.17,0,0,False
400874,0.603705481857,0.620552397985,Christensen Hayden,18307.86316,6.887368421,19241442.29,0.0,35,180.0,34982949.85,0,0,False
1875388,0.196119112857,0.837196935293,Roache Linus,17501.54658,7.588819876,2582190.148,0.0,52,175.0,57326453.46,0,0,False
273403,0.696086843796,0.47767095469,Broderick Matthew,14074.39286,6.775,62275243.23,0.0,54,170.0,52593476.67,0,0,False
1453681,0.551548149747,0.438487854648,McKeon Doug,900.6666667,6.746666667,18922623.79,0.0,50,165.0,20625606.3,0,0,False
1929147,0.509179690724,0.691612462994,Russell Kurt,23963.25,7.034659091,54752507.68,12480084.62,65,177.5,54279301.84,0,0,False
847761,-0.740955158241,0.245792067788,Greene Lorne,100.0791738,7.274182444,10618201.87,0.0,101,180.0,18872004.14,0,0,False
439480,0.372442337231,0.75017342549,Connolly Kevin,3865.090592,7.344947735,32768703.68,0.0,42,162.5,20893023.14,0,0,False
485093,0.610677954829,0.386063136835,Cusack John,26359.75,6.542567568,29617663.1,0.0,50,185.0,37245776.7,0,0,False
267610,-0.623577727024,0.0779267867368,Brian David,646.2352941,6.841176471,0.0,0.0,102,190.0,11311839.84,0,0,False
1383584,-0.372961387599,0.586472735253,Mantegna Joe,2762.668561,6.950568182,15232550.57,0.0,69,181.0,18406101.31,0,0,False
1457228,-0.0825846903029,0.771861128436,McMahon Julian,4006.780488,7.7271777,0.0,0.0,48,185.0,63939779.14,0,0,False
568080,0.0462910052056,0.839606921857,Dillon Kevin,3601.085561,7.556149733,16732935.93,0.0,51,172.5,33301251.7,0,0,False
635629,-0.534573740514,0.600868638396,Elizondo Hector,2195.178082,7.521917808,0.0,0.0,80,175.0,32983196.21,0,0,False
402772,-0.0812102779921,0.828352778336,Christopher Dennis,9746.679739,7.30130719,522793.7551,0.0,61,177.5,24439319.71,0,0,False
855213,0.23744076726,0.444157423128,Grimes Gary,1003.384615,6.8,74827027.03,0.0,61,175.0,5925925.926,0,0,False
2105187,-0.086702753775,0.823072613675,Spader James,4495.348837,7.784593023,11906214.38,1619433.198,56,175.0,39386944.48,0,0,False
1901001,-0.683983410712,-0.0303615784627,Romero Cesar,460.4516129,6.760322581,0.0,0.0,109,187.5,12364944.28,0,0,False
1444911,-0.790242659891,0.1705932052,McDowall Roddy,2223.974478,6.923201856,31126994.65,0.0,88,172.5,17126940.45,0,0,False
1445042,-0.602402128691,0.553346672124,McDowell Malcolm,5221.3878,6.938562092,14429183.68,0.0,73,170.0,22472400.64,0,0,False
1839689,-0.151499238017,0.528585717676,Reeve Christopher,4308.555,6.944,38003881.65,1595398.211,64,190.0,59434116.29,0,0,False
543809,-0.678111505721,-0.130407248209,Delon Alain,1267.333333,6.536714976,8913313.283,0.0,81,177.0,26624111.21,0,0,False
680383,-0.802820122852,0.134846087835,Feldman Marty,3557.52381,6.90952381,5848980.583,0.0,82,167.5,11373834.9,0,0,False
1668053,0.768317882794,0.467906603695,Osment Haley Joel,16555.64516,6.890967742,64601647.54,1440049.268,28,165.0,33117161.35,0,0,False
856758,-0.311843725828,0.296834203187,Grodin Charles,6398.494253,6.76091954,61353651.97,0.0,81,180.0,32845043.97,0,0,False
480299,-0.656375925079,0.24817781144,Culp Robert,475.8567335,6.97965616,0.0,0.0,86,182.5,13058289.32,0,0,False
479701,0.621056790819,0.427934366948,Culkin Macaulay,8608.688679,6.968867925,166668508.4,6276625.773,36,167.5,27311481.2,0,0,False
1831157,-0.40263365913,-0.502248434122,Ray Aldo,763.5576923,5.6625,0.0,0.0,90,180.0,10452585.7,0,0,False
1674792,0.625955383823,0.656763792306,Oyelowo David,21726.78862,7.12601626,26365170.3,0.0,40,172.5,32366366.22,0,0,False
1435601,-0.618467520086,0.511700420398,McCallum David,610.2691131,7.53088685,2842295.945,0.0,83,167.5,16028468.92,0,0,False
2017445,0.738253661438,0.460209346331,Serkis Andy,59650.71585,7.244808743,199997699.0,0.0,52,170.0,132432929.2,0,0,False
316231,0.240914269981,0.795691552335,Caan Scott,7818.986364,7.779545455,3664114.428,0.0,40,162.5,29290507.76,0,0,False
337110,-0.548844284365,0.569908607292,Capote Truman,16378.34615,7.626923077,0.0,521739.1304,92,157.5,10565024.36,0,0,False
479699,0.776135620481,0.426771181307,Culkin Kieran,31837.8,6.945,6245473.708,0.0,34,162.5,29794746.64,0,0,False
1434207,0.64108129129,0.640733913797,McAvoy James,23635.1371,7.312096774,48296245.51,0.0,37,167.5,69428061.8,0,0,False
1603263,-0.44880465139,0.629854093124,Newman Barry,2655.42268,7.213402062,38163346.2,0.0,78,180.0,18185875.99,0,0,False
727925,-0.527413574987,0.445125476144,Franciscus James,598.1260504,7.050420168,63086338.76,0.0,82,175.0,17622209.61,0,0,False
1599322,-0.384347149479,-0.201044743379,Nero Franco,7034.638009,6.347511312,26234.48348,0.0,75,177.5,26278836.73,0,0,False
416616,-0.232696639625,0.71052197977,Cleese John,11949.54183,7.667861886,46149944.11,0.0,77,192.5,34400508.44,0,0,False
1597853,-0.529832069388,0.532450536016,Nelson Ricky,377.3513514,7.227567568,0.0,0.0,76,180.0,15463.91753,0,0,False
554995,0.00549941856443,0.812112767919,Devane William,11621.47321,7.2125,75660792.08,291262.1359,77,175.0,35112497.61,0,0,False
2132737,0.120970202887,-0.568337768213,Stevens Andrew,3455.712687,5.185074627,0.0,0.0,61,175.0,9216443.639,0,0,False
724914,-0.117060397987,0.778909293865,Fox Matthew,3768.436578,8.208259587,3446454.067,0.0,50,185.0,44551030.75,0,0,False
1597397,0.292361331276,-0.237318461399,Nelson Judd,3985.356725,6.081871345,14163437.07,0.0,57,175.0,5926433.704,0,0,False
561131,-0.150748558566,0.268174822945,Diamond Neil,1095.576271,6.706779661,78984466.02,0.0,75,180.0,16890065.83,0,0,False
1814244,-0.0833114959478,-0.510204619011,Railsback Steve,3407.020202,5.816161616,10848441.53,0.0,71,175.0,10268742.74,0,0,False
440389,-0.656031181178,0.465132154843,Conrad Robert,343.183908,7.334099617,0.0,101531.9558,81,170.0,29571485.92,0,0,False
364930,-0.143462315012,0.776491351442,Cavanagh Tom,998.1812298,7.634951456,51526.77627,0.0,53,180.0,16089374.4,0,0,False
454146,0.532721402088,0.556879265019,Cort Bud,15180.50575,6.811494253,44155709.96,0.0,68,172.5,32452042.45,0,0,False
1731749,-0.0227481135182,0.812307641238,Perry Matthew,1717.492218,7.813618677,27192080.72,8190132.1,47,180.0,26647402.56,0,0,False
1565531,0.683676242611,0.509928802638,Murphy Cillian,89410.97872,7.623404255,1053076.928,0.0,40,172.5,68715447.99,0,0,False
1551198,-0.779679235792,0.133909040741,Mostel Zero,1565.734375,7.14375,0.0,0.0,101,177.5,12937022.25,0,0,False
770775,0.0731135359155,0.671108068543,Garity Troy,7476.265957,7.076595745,21321.04455,0.0,43,187.96,23704945.86,0,0,False
1363315,0.725952999116,0.363457871094,Maguire Tobey,35589.11852,6.811851852,229506092.3,15310192.01,41,170.0,92123473.09,0,0,False
929919,0.0358068363018,0.820736161575,Hayes Sean,1324.888342,7.58817734,24656306.0,588957.0552,46,177.5,78408505.67,0,0,False
770369,-0.620232850528,0.523739049312,Garfunkel Art,1881.467742,7.151612903,0.0,0.0,75,172.5,32631659.23,0,0,False
2213393,-0.699003858222,0.382379399122,Thomas Danny,39.83454545,7.579272727,39191011.24,0.0,104,177.5,8066376.032,0,0,False
930902,-0.22324150913,0.657381168764,Haysbert Dennis,4896.519084,7.533842239,166445.3441,0.0,62,192.5,27570242.42,0,0,False
243900,0.0570345257839,-0.209103392224,Bottoms Timothy,2628.093525,6.137410072,32064790.7,0.0,65,177.5,11698128.61,0,0,False
1970619,0.599141289944,0.604715171868,Sarsgaard Peter,23360.69697,6.91010101,0.0,921658.9862,45,177.5,32795995.26,0,0,False
606473,0.205855946014,0.23723874354,Duncan Michael Clarke,23873.02793,6.401675978,0.0,0.0,59,196.0,51637114.66,0,0,False
511732,-0.798857840169,0.11041638775,Davis Jr. Sammy,793.952381,7.126406926,0.0,714369.2135,91,162.5,28172579.44,0,0,False
2215545,-0.374518882817,0.710262795772,Thomas Philip Michael,290.7112299,7.414438503,0.0,0.0,67,175.0,5080740.064,0,0,False
1356434,-0.558718408341,0.0525201003401,MacMurray Fred,905.6782609,6.713043478,81649067.22,0.0,108,187.5,17286698.95,0,0,False
1970478,-0.362236008311,-0.0888868378555,Sarrazin Michael,1282.366197,6.270422535,0.0,0.0,76,185.0,30804535.44,0,0,False
770250,0.715315466271,0.522488559664,Garfield Andrew,40757.19355,7.203225806,161207811.0,522661.742,33,175.0,81016756.36,0,0,False
608414,0.325514720279,0.714718426703,Dunne Griffin,8155.885135,6.906081081,3811772.457,5576.208178,61,167.5,7717993.549,0,0,False
236270,-0.689545824178,0.360603435338,Boone Richard,384.3877551,7.537026239,0.0,0.0,99,180.0,17837959.87,0,0,False
2068438,0.588732584496,0.0537761645298,Sizemore Tom,15045.80093,6.219907407,23233.99422,2787456.446,55,177.5,23674128.43,0,0,False
941426,-0.587630822706,0.542467269986,Hemsley Sherman,516.1125541,7.466883117,0.0,0.0,78,165.0,14244301.84,0,0,False
610716,-0.796978049192,-0.223822958783,Durante Jimmy,634.8285714,6.900952381,0.0,0.0,123,167.5,8248261.849,0,0,False
613153,0.0300562798689,0.840790870249,Dutton Charles S.,10651.45274,6.943781095,115247.9594,0.0,65,172.5,31781144.6,0,0,False
621908,0.707989338977,0.416812047889,Eckhart Aaron,56386.12195,6.758536585,18996410.99,0.0,48,183.0,55101088.01,0,0,False
1960051,0.693447331893,0.274571472515,Sandler Adam,15572.80169,6.464978903,103194472.3,16670085.9,50,172.5,53316270.0,0,0,False
1745161,-0.0402137815328,0.722252827957,Phillips Lou Diamond,1515.181132,7.077735849,28291820.07,0.0,54,182.5,15587469.72,0,0,False
1462947,-0.125572541955,0.824543004935,Meaney Colm,4427.229268,7.333170732,31651986.62,0.0,63,177.5,23744566.76,0,0,False
1367966,-0.546699101321,0.561014869602,Majors Lee,329.5542571,7.336227045,0.0,243407.7079,77,177.5,5641245.967,0,0,False
2211166,-0.380309833932,0.328237625358,Thicke Alan,732.643454,6.766852368,0.0,0.0,69,185.0,4456740.884,0,0,False
760601,-0.166422827727,0.788049062474,Gambon Michael,22509.75238,7.307619048,2584524.923,0.0,76,180.0,51231841.31,0,0,False
923268,-0.534225361896,0.5412434325,Hatch Richard,261.7444444,7.050555556,314225.5283,0.0,71,177.5,1220837.817,0,0,False
1636357,0.165762621508,0.836835354742,O'Donnell Chris,5126.34767,7.533333333,38597256.91,2873529.196,46,175.0,56929374.98,0,0,False
1761596,-0.103264479368,0.753056785754,Platt Oliver,9537.150376,7.539097744,2037210.011,0.0,56,187.5,48485573.88,0,0,False
1500168,-0.04987620397,0.797363704615,Miller Wentworth,5040.945946,8.124324324,0.0,0.0,44,182.5,21406295.1,0,0,False
1724228,0.752801206348,0.373396196049,Pepper Barry,42233.35366,6.596341463,15518514.73,0.0,46,178.0,51505441.51,0,0,False
918168,-0.419672265598,0.517954578856,Hartman David,71.64912281,7.521052632,0.0,0.0,81,192.5,20906.46968,0,0,False
21629,-0.667802415568,-0.18549236668,Aherne Brian,857.2553191,6.661702128,0.0,0.0,114,187.5,20151901.03,0,0,False
2333587,-0.716362208368,-0.416630731641,von Stroheim Erich,2324.966102,6.700847458,0.0,49792.53112,131,167.5,6841555.654,0,0,False
1776482,0.725746614447,0.239215970436,Postlethwaite Pete,35934.09016,6.767213115,1960727.864,0.0,70,172.5,36687935.91,0,0,False
1556814,-0.590876923594,-0.138222165937,Mueller-Stahl Armin,10352.90984,6.690983607,55784.04298,0.0,86,180.0,46561894.49,0,0,False
1637946,-0.747282811517,0.142596593997,O'Herlihy Dan,3000.736842,7.194736842,0.0,0.0,97,180.0,19245390.71,0,0,False
1933282,-0.624543910295,-0.0456436516817,Ryan Robert,2848.066667,6.81047619,5752604.623,0.0,107,190.0,6821249.39,0,0,False
100890,-0.596818638512,-0.364298383136,Auer Mischa,613.4771242,6.260784314,0.0,0.0,111,185.0,10227969.2,0,0,False
847564,0.35839597134,0.678396120628,Greene Graham,9783.346341,6.876585366,0.0,0.0,64,175.0,28839890.62,0,0,False
1567712,-0.578990854409,-0.0103500446728,Murray Don,756.6147541,6.764754098,0.0,0.0,87,185.0,9536151.582,0,0,False
2456328,-0.690281929033,-0.457724332446,Young Roland,1305.869565,6.637681159,0.0,0.0,129,165.0,8856686.126,0,0,False
147348,-0.782766187581,-0.254516460647,Barthelmess Richard,657.0147059,6.957352941,0.0,5172413.793,121,172.5,7306953.41,0,0,False
172828,-0.712184574313,-0.149715457463,Bellamy Ralph,3500.846154,6.819230769,0.0,0.0,112,185.0,14508310.86,0,0,False
1685539,0.230166166066,0.210935174681,Palminteri Chazz,14861.16071,6.630357143,2991031.74,0.0,64,185.0,30765842.68,0,0,False
1030533,-0.609494240284,-0.355052870846,Ireland John,1220.681081,6.383243243,2238805.97,0.0,102,182.5,23487796.21,0,0,False
379423,-0.687041343644,-0.439760372853,Chaplin Charles,8646.062366,6.852903226,23366594.02,0.0,127,162.5,13401343.68,0,0,False
1497745,-0.267738524073,-0.604583378787,Miller Jason,10128.88889,6.591666667,0.0,0.0,77,167.5,6690761.173,0,0,False
1002616,-0.445281242912,0.220992526864,Hudson Rock,903.826087,6.97826087,45417031.22,434004.8795,91,192.5,24970091.78,0,0,False
1511550,-0.701310404188,-0.143974740641,Mitchum Robert,3851.071111,6.759111111,16264499.84,1692549.543,99,182.5,22762043.79,0,0,False
2239904,-0.800687036947,-0.041722644914,Torn Rip,6785.931818,6.907467532,964380.5668,6741.573034,85,175.0,38010138.48,0,0,False
2237170,-0.705697808375,-0.398452825021,Tone Franchot,760.5698925,6.559139785,0.0,0.0,111,175.0,13965094.23,0,0,False
1282308,-0.32833113598,-0.588757669929,Lerner Michael,7062.585859,6.65,510038.0952,0.0,75,167.5,24235256.35,0,0,False
719561,-0.401441803994,-0.463127114744,Forster Robert,9193.797414,6.636637931,39335.44066,0.0,75,172.5,16375509.59,0,0,False
129539,-0.695796255001,-0.302766036949,Bancroft George,1445.90566,6.526415094,0.0,138129.4964,134,185.0,6662532.654,0,0,False
2116188,-0.743986806647,0.15103678483,Stack Robert,1382.080997,7.219314642,0.0,0.0,97,180.0,15996086.88,0,0,False
2224069,-0.713327558255,-0.278718957753,Tibbett Lawrence,64.0,6.6375,380338.6861,0.0,120,182.5,0.0,0,0,False
1475444,-0.745530915025,-0.333938344262,Menjou Adolphe,1902.571429,6.731932773,1545349.571,304039.5088,126,175.0,14219138.15,0,0,False
545021,-0.697955160014,-0.431148127203,Demarest William,942.5542169,6.506425703,0.0,0.0,124,172.5,9884564.298,0,0,False
957987,-0.509393106077,-0.576569055762,Hickey William,8521.357143,6.660714286,0.0,0.0,89,165.0,20527960.11,0,0,False
1046387,-0.806748942237,-0.0290168962827,Jaeckel Richard,994.2192308,7.081923077,0.0,1437125.749,90,167.5,17001309.89,0,0,False
357513,-0.554762118724,-0.570791938306,Cassel Seymour,4326.304721,6.512446352,0.0,0.0,81,172.0,10640465.98,0,0,False
807515,-0.695087516072,-0.444419682925,Gleason James,1493.901515,6.504545455,0.0,0.0,134,170.0,13217946.11,0,0,False
446339,-0.803347455739,-0.172018916016,Cooper Jackie,1422.561702,6.94212766,0.0,0.0,94,172.5,72031153.74,0,0,False
1836609,-0.641982135672,0.252135734932,Redgrave Michael,1627.302083,7.483333333,0.0,0.0,108,190.5,23331716.9,0,0,False
637138,-0.163092073045,0.163195897702,Elliott Denholm,10479.34437,6.848344371,107287229.1,0.0,94,181.5,20925293.58,0,0,False
1315888,-0.657386719109,-0.0804923977684,Loggia Robert,6994.426471,6.763602941,102566.3414,0.0,86,180.3,19156428.84,0,0,False
1651428,0.768248613276,0.372626031452,Oldman Gary,63445.66013,7.073856209,23605403.39,4048887.916,58,170.0,64811864.28,0,0,False
1698561,-0.69625962696,-0.406316629914,Parks Larry,244.9090909,6.552727273,0.0,0.0,102,175.0,8977698.323,0,0,False
927826,-0.577623110488,0.52379952464,Hawthorne Nigel,4804.393103,7.608275862,0.0,0.0,87,177.5,47333456.74,0,0,False
573025,-0.702671004039,-0.347460338358,Dix Richard,263.8181818,6.531168831,0.0,0.0,123,180.0,9332155.364,0,0,False
2146223,-0.743201621352,-0.281973254624,Strauss Robert,1453.774648,6.729577465,0.0,0.0,103,177.5,12287708.21,0,0,False
203598,-0.695906168913,0.0724757462229,Bikel Theodore,1438.965517,6.99862069,0.0,0.0,92,182.5,9445693.905,0,0,False
2391580,0.181037175006,0.0894961940612,Whitman Stuart,764.7020408,6.605714286,237037036.2,0.0,88,180.0,15988929.47,0,0,False
848634,-0.768860253708,-0.249471895332,Greenstreet Sydney,19440.35714,6.992857143,0.0,0.0,137,172.5,13133275.92,0,0,False
2409622,-0.685503256903,-0.236920673618,Wills Chill,1050.181818,6.621428571,0.0,0.0,114,185.0,22185248.28,0,0,False
651156,-0.735164729062,-0.37088986057,Erwin Stuart,198.4,6.701818182,0.0,0.0,113,172.5,13071782.39,0,0,False
2454514,-0.0586345686286,-0.704977045538,Young Burt,11391.0566,6.152830189,2389868.865,0.0,76,170.0,22330860.31,0,0,False
13188,-0.682686617978,0.372896112008,Adams Nick,1022.623288,7.414383562,0.0,0.0,85,167.5,14063793.95,0,0,False
907395,0.757941669799,0.450272470879,Hardy Tom,66253.32609,7.319565217,33611372.67,0.0,39,172.5,68340538.09,0,0,False
1641754,-0.738757489083,-0.309612147656,Oakie Jack,1663.552632,6.700877193,0.0,0.0,113,177.5,15682247.76,0,0,False
1046742,-0.815364144387,-0.0428405492727,Jaffe Sam,3711.956044,7.440659341,0.0,0.0,125,167.5,40176135.62,0,0,False
783762,-0.75825923951,-0.300356411559,Genn Leo,1629.368421,6.788157895,0.0,0.0,111,175.0,28616501.91,0,0,False
583726,-0.699163272177,-0.44059570589,Donlevy Brian,888.1327434,6.591150442,0.0,0.0,115,170.0,22344621.17,0,0,False
980464,0.490778599181,0.448377670392,Holm Ian,38011.91061,7.312849162,1819164.74,0.0,85,165.0,37151614.51,0,0,False
471923,-0.241154000788,0.496417541367,Cromwell James,13234.99051,7.246518987,683846.3818,0.0,76,195.0,52747914.37,0,0,False
376914,-0.519051700432,-0.135819798358,Chandler Jeff,401.0677966,6.493220339,16993986.44,1708185.053,98,190.0,8386353.506,0,0,False
2415637,-0.447096551064,0.545823295779,Winfield Paul,5734.14359,7.241538462,0.0,0.0,77,182.5,22688079.8,0,0,False
1415910,-0.694815920921,0.266380571009,Massey Raymond,1095.163043,7.799456522,0.0,0.0,120,187.5,27565725.86,0,0,False
976844,-0.675027131542,0.134321238737,Holbrook Hal,6721.639344,6.983606557,11013689.88,396039.604,91,182.5,28108936.65,0,0,False
529121,-0.720528224749,-0.365853681736,De Sica Vittorio,2353.297561,6.619512195,0.0,0.0,115,176.0,4806082.102,0,0,False
107699,-0.750634981367,-0.340528018255,Ayres Lew,1039.130719,6.764705882,0.0,0.0,108,172.5,10087574.33,0,0,False
2141670,-0.709481694044,-0.353801032168,Stone Lewis,600.5,6.523076923,0.0,0.0,137,180.0,10389380.77,0,0,False
2397021,-0.66599264051,-0.280498995418,Wilde Cornel,918.6067416,6.557303371,8921933.086,677549.2898,104,182.5,20948041.01,0,0,False
107294,0.150170230988,0.471479005998,Aykroyd Dan,6251.0625,6.863851351,45314697.22,290322.5806,64,182.5,38344159.5,0,0,False
1544340,-0.699133202211,-0.429391579167,Morris Chester,249.1386139,6.538613861,0.0,0.0,115,172.5,8812814.703,0,0,False
770420,-0.667732004337,-0.37671518057,Gargan William,340.6875,6.438541667,0.0,262773.7226,111,180.0,13701019.18,0,0,False
177332,-0.78066242534,-0.235890376062,Bendix William,840.6813187,6.904395604,0.0,0.0,110,175.0,11725230.35,0,0,False
340949,-0.626833075986,-0.471124796656,Carey Harry,887.7,5.98875,0.0,98731.59175,138,180.0,24328642.1,0,0,False
530816,-0.627985636706,0.4583717694,De Wilde Brandon,1553.625,7.1875,0.0,0.0,74,170.0,12388983.97,0,0,False
1261790,-0.0602232897683,0.712625551352,Leary Denis,6636.32287,7.574215247,5456235.053,1529636.711,59,185.0,56875825.09,0,0,False
1625660,-0.172400844421,0.667513542878,Noth Chris,2040.134177,7.488607595,0.0,0.0,62,182.5,31990397.81,0,0,False
1900016,0.306839419276,0.457432191628,Romano Ray,2450.722393,7.559509202,233924684.4,2753346.08,59,187.0,21849725.31,0,0,False
405296,0.47985516869,0.662769335795,Church Thomas Haden,9556.7251,7.132270916,43188803.84,0.0,56,181.0,70929180.33,0,0,False
1449552,0.828972270487,0.371103736198,McGregor Ewan,29033.43478,6.946859903,65688660.18,0.0,45,177.0,58090733.0,0,0,False
1898618,-0.144880905917,0.744139071522,Rollins Jr. Howard E.,144.0067114,7.862416107,45640557.46,0.0,66,180.0,13859480.27,0,0,False
155871,0.265731747927,-0.0750120178488,Bauer Steven,4541.596567,6.569957082,23942030.41,0.0,60,185.0,7385608.765,0,0,False
2069767,-0.454136230071,0.441903228907,Skerritt Tom,6287.141141,7.163363363,48542992.45,0.0,83,180.0,13567022.8,0,0,False
1202564,-0.0508676609101,0.742194242461,Krause Peter,2562.356707,7.943902439,63562.37337,0.0,51,182.5,28557418.44,0,0,False
1639662,-0.273784205162,0.674742751267,O'Neill Ed,1976.796902,7.707228916,8112650.22,0.0,70,182.5,59752450.76,0,0,False
382864,-0.167364091669,0.444997451011,Chase Chevy,3000.406103,7.19741784,54800957.04,7497054.266,73,193.0,32295365.28,0,0,False
1025908,0.280152070132,0.745185757787,Imperioli Michael,7152.08046,7.504980843,61477.29196,0.0,50,170.0,24557691.18,0,0,False
2105149,0.747217419056,-0.0216862261251,Spade David,2417.851312,6.77244898,64940282.85,0.0,52,167.5,48509918.0,0,0,False
1546353,0.16000173763,0.753143830522,Morrison Matthew,1897.089552,7.700497512,0.0,0.0,38,177.5,31512165.74,0,0,False
190030,-0.736990887665,0.130610846792,Bernardi Herschel,211.0988372,7.328488372,0.0,0.0,93,177.5,27487597.35,0,0,False
1241287,-0.215585759929,0.387196098459,Langella Frank,12402.32934,7.073053892,15034496.78,0.0,78,187.5,42670042.48,0,0,False
191097,0.0209854958597,-0.0559584317116,Bernsen Corbin,1044.85084,6.797689076,0.0,0.0,62,180.0,5872176.855,0,0,False
1126990,-0.292904858274,0.582719224152,Kaufman Andy,91.7025641,7.261025641,5688966.337,0.0,67,180.0,13202695.93,0,0,False
637503,0.0698952390985,0.695041310116,Elliott Sam,14281.58282,7.225766871,35975100.0,0.0,72,185.0,39245027.9,0,0,False
828662,0.58272838245,0.67079488751,Gordon-Levitt Joseph,19104.39601,7.506837607,19085200.03,0.0,35,176.0,49603627.97,0,0,False
2276020,0.235398514332,0.583584264802,Underwood Blair,1874.907051,7.035576923,1131352.561,0.0,52,177.5,10489520.86,0,0,False
1239833,0.783673103966,0.251848043736,Lane Nathan,11971.67742,7.051612903,28203458.89,0.0,60,167.5,56274267.95,0,0,False
441126,-0.737967815452,0.166553361561,Constantine Michael,1055.803279,7.373360656,0.0,0.0,89,167.5,11296670.39,0,0,False
781162,-0.714535023179,0.130976760569,Geer Will,438.0944882,7.555905512,0.0,0.0,114,185.0,17969771.09,0,0,False
1767843,-0.169868758814,-0.807635678314,Pollard Michael J.,4222.147826,6.457391304,0.0,0.0,77,165.0,20829911.27,0,0,False
1975063,0.166001567894,0.755789704551,Savage Fred,1277.26975,7.685549133,1536338.71,0.0,40,175.0,29158222.98,0,0,False
1365150,-0.350116859216,0.690628640689,Mahoney John,3428.258065,7.730645161,14453872.28,0.0,76,173.0,44593188.84,0,0,False
1318379,0.829056113002,-0.195308698909,Lone John,16438.34783,6.439130435,45314007.31,0.0,64,172.0,47394895.27,0,0,False
2214056,0.817594773635,0.247689755438,Thomas Henry,10846.21505,6.816129032,7487346.731,37305.69948,45,177.5,24768211.19,0,0,False
2215661,-0.0902259502777,0.725235791728,Thomas Richard,477.498452,7.719814241,32038834.95,0.0,65,170.0,6158288.196,0,0,False
1134741,0.360202085346,-0.570495443646,Keith David,4625.884892,6.335251799,15021174.75,0.0,62,177.5,18514970.35,0,0,False
212095,0.832418840215,0.200108879803,Black Jack,14585.84384,6.913213213,80663632.54,1770520.186,47,165.0,48673698.55,0,0,False
1562201,0.72035870071,0.308230925092,Muniz Frankie,1258.227941,7.176102941,50794186.27,5458892.444,31,162.5,17435474.57,0,0,False
1349764,0.392208830314,0.0621062129341,Mac Bernie,7162.046358,6.57384106,55607518.94,0.0,59,187.5,45794175.65,0,0,False
226933,-0.732958149403,-0.356181326962,Bogarde Dirk,1168.216981,7.038679245,1609782.047,577626.2943,95,170.0,20471857.27,0,0,False
197647,-0.427844177425,0.434075935554,Beymer Richard,2322.903226,7.348387097,274409.6386,0.0,78,185.0,26011516.21,0,0,False
1843540,0.582034297023,0.632925576147,Reilly John C.,22056.14286,7.272321429,60047217.77,0.0,51,185.0,58017912.96,0,0,False
1787889,0.765049585577,-0.17539351157,Priestley Jason,425.8274336,6.736283186,4154097.716,0.0,47,170.0,12366039.25,0,0,False
277032,0.337795683827,0.367334272733,Brosnan Pierce,7750.671196,6.930163043,71075755.04,14609067.28,63,185.0,50653600.88,0,0,False
689214,0.51718015409,0.166626331137,Ferrell Will,7404.132212,6.574399038,98494045.11,21087698.24,49,187.5,53623859.16,0,0,False
862692,-0.72245446191,-0.360745137945,Guardino Harry,2191.247619,6.921904762,0.0,0.0,91,175.0,27977760.4,0,0,False
329334,-0.53929970859,-0.280337010614,Campbell Glen,860.5802469,6.79382716,370122.3119,0.0,80,180.0,20768405.05,0,0,False
327327,0.632129139347,-0.475794967382,Cameron Kirk,527.3660377,6.212075472,10868177.12,1179009.541,46,175.0,2162007.829,0,0,False
2324008,0.206553925336,-0.420621404117,Vincent Jan-Michael,651.62,6.519333333,63648911.82,0.0,72,175.0,14542171.32,0,0,False
546737,0.147104863748,0.776752712442,Dempsey Patrick,3376.002653,7.624933687,15330070.09,384024.5776,50,175.0,40122558.44,0,0,False
1676488,0.414272462211,0.643848552255,Pace Lee,29216.26168,7.541121495,0.0,0.0,37,192.5,40953466.72,0,0,False
1515659,0.373498979266,0.320304560144,Modine Matthew,13293.53608,6.867525773,17882261.55,0.0,57,187.5,26995673.91,0,0,False
2311881,-0.246844357075,-0.52200669417,Vereen Ben,683.9705882,6.928676471,0.0,0.0,70,170.0,8764736.0,0,0,False
305348,-0.674431586625,0.290231611674,Burr Raymond,741.9472843,7.571405751,10881726.91,0.0,99,182.5,16131373.01,0,0,False
276233,0.0709318952694,-0.447354138902,Brooks Mel,11303.1963,6.688518519,75075406.92,0.0,90,162.5,18421390.9,0,0,False
2136188,0.299199652892,0.565036907321,Stewart Patrick,9077.790816,7.35170068,101036997.9,10131056.01,76,175.0,70650733.21,0,0,False
122117,0.125824462646,0.77784717352,Baker Simon,3680.625714,7.907142857,8498884.583,0.0,47,172.5,33478851.47,0,0,False
794988,0.789791861847,0.103871201976,Gibson Mel,25864.19048,6.458730159,109152998.5,18379080.29,60,177.0,59365173.83,0,0,False
1267309,0.464702033074,0.653460835461,Lee Jason,8946.556548,7.380952381,94997178.07,0.0,46,182.5,41976566.84,0,0,False
986783,-0.768583773367,-0.293487866473,Hope Bob,3288.089912,7.031359649,31226765.8,600317.3325,113,175.0,8016430.764,0,0,False
661279,0.356843149027,-0.0107465054893,Everett Rupert,14717.82051,6.446153846,3849395.222,5336297.943,57,190.0,41985882.32,0,0,False
661142,-0.414518202595,-0.234422344796,Everett Chad,2739.313433,6.720895522,0.0,0.0,79,182.5,17899900.8,0,0,False
1802465,0.564877812531,0.224549952907,Quaid Dennis,11260.52315,6.7875,47749459.72,88343.55828,62,183.0,40702719.31,0,0,False
1053253,0.848543818849,0.273673414883,Jane Thomas,15556.84507,6.802816901,19397043.6,0.0,47,177.5,25345968.54,0,0,False
2147625,-0.735368727642,-0.108364713506,Stricklyn Ray,451.5263158,7.194736842,0.0,0.0,88,162.5,10871845.4,0,0,False
182285,0.0946132279983,0.758379966655,Benson Robby,2082.21466,7.34973822,26335940.48,0.0,60,175.0,23768921.19,0,0,False
421169,-0.787109543544,-0.0165562790962,Cobb Lee J.,4312.508929,7.299553571,0.0,608108.1081,105,177.5,18129504.04,0,0,False
827680,-0.408310555371,0.0554559903167,Gordon Dexter,7064.785714,7.114285714,7109717.518,0.0,93,192.5,0.0,0,0,False
1137800,-0.587091785843,-0.56607160301,Kelly Gene,2927.086275,7.008235294,12814285.7,0.0,104,170.0,23056755.35,0,0,False
2031108,-0.438244414101,-0.597852348636,Shaw Robert,9919.5,7.005813953,44533128.66,2600390.151,89,178.0,17884091.43,0,0,False
2026628,0.503985802683,0.579844719123,Shannon Michael,24480.43046,7.41986755,1440358.046,0.0,42,187.5,35031187.73,0,0,False
132158,-0.465898770296,-0.10335531549,Bannen Ian,8893.116667,7.073333333,35710166.15,0.0,88,182.5,19166422.7,0,0,False
2362114,0.803934221091,0.315606621264,Watanabe Ken,57308.46154,7.049230769,53670887.19,0.0,57,184.0,102859304.0,0,0,False
480515,0.65173216174,0.617528800665,Cumberbatch Benedict,29426.94286,7.702285714,50306276.98,0.0,40,180.0,67418883.26,0,0,False
472347,-0.367149216789,-0.621622508774,Cronyn Hume,4030.12766,6.971276596,69603796.48,0.0,105,165.0,35314191.41,0,0,False
2396859,0.486667074097,-0.331778126584,Wild Jack,4614.435897,7.084615385,0.0,6539509.537,64,162.5,24447397.96,0,0,False
1543146,-0.583041194795,-0.526370611607,Morley Robert,2040.570175,6.655263158,0.0,0.0,108,180.0,24849437.23,0,0,False
2376853,-0.656363995968,-0.199806314194,Welles Orson,4541.241135,7.113475177,45267936.28,659046.7669,101,182.5,26129591.75,0,0,False
1968201,0.229857442374,-0.332663090585,Sarandon Chris,8514.284722,6.833333333,29819487.55,0.0,74,182.5,10617918.45,0,0,False
2035181,0.550821111635,-0.00596042322104,Shepard Sam,22503.34286,6.844761905,13156194.04,0.0,73,185.0,37081584.3,0,0,False
1913923,0.872778339404,0.0124235617547,Roth Tim,17807.47317,6.994146341,14670408.0,0.0,55,167.5,28979326.6,0,0,False
162036,-0.0943761976834,-0.803836042817,Beatty Ned,8582.411017,6.827966102,142652.2648,0.0,79,167.5,41388269.13,0,0,False
926756,0.650000122862,0.432597378875,Hawkes John,12086.09524,7.247619048,3685287.07,0.0,57,175.0,27470241.74,0,0,False
630409,0.903076096776,0.138918713578,Eisenberg Jesse,31867.08602,6.755913978,32379859.5,0.0,33,171.0,41250441.62,0,0,False
2145350,-0.302568199576,-0.377007486835,Strasberg Lee,29608.48276,7.4,0.0,0.0,115,162.5,13303820.26,0,0,False
568110,0.771644987625,-0.191807041668,Dillon Matt,10714.62308,6.634615385,10472296.44,0.0,52,180.0,21526070.28,0,0,False
322913,-0.637947534904,-0.435987362571,Calhern Louis,3024.753247,6.771428571,0.0,0.0,121,182.5,16304288.55,0,0,False
17351,0.851462893274,0.122803995396,Affleck Casey,59672.83333,6.619444444,4874689.81,0.0,41,175.0,24675172.03,0,0,False
1134645,0.751292516509,-0.290586536897,Keitel Harvey,31929.99095,6.605882353,5656267.967,0.0,77,167.5,28632183.07,0,0,False
1833639,0.470157499033,-0.657513317273,Rea Stephen,9776.240506,6.849367089,556789.7889,0.0,70,175.0,20387271.97,0,0,False
275449,0.840139438536,0.164998365964,Brooks Albert,29734.96703,7.031868132,19280850.92,4858299.595,69,175.0,49815933.47,0,0,False
928144,-0.603779440866,-0.566261310226,Hayakawa Sessue,3733.957447,6.785106383,0.0,2774566.474,127,167.5,8356043.812,0,0,False
307805,0.154152930568,-0.720771009844,Busey Gary,5003.757463,6.192537313,15611308.94,0.0,72,180.0,13656133.15,0,0,False
1638151,0.00306399528398,0.477046065342,O'Keefe Michael,3537.291667,7.246428571,1609820.607,0.0,61,182.5,12344161.14,0,0,False
299079,-0.258876831328,-0.100359321636,Buono Victor,1281.589744,6.921367521,0.0,0.0,78,187.5,34027038.3,0,0,False
357470,-0.356931649426,-0.469772569471,Cassavetes John,2833.900763,7.245801527,12448277.72,0.0,87,167.5,14753535.84,0,0,False
962670,0.889817776462,0.157062908324,Hill Jonah,53695.92857,6.605844156,102748812.7,0.0,33,167.5,59418589.13,0,0,False
23776,0.0934407809892,-0.38286409886,Aiello Danny,19617.75397,6.344444444,6337401.815,0.0,83,189.0,20866532.43,0,0,False
149282,0.0673148606069,0.380229408486,Baryshnikov Mikhail,1692.0,7.45974026,18216510.76,0.0,68,167.5,30853345.4,0,0,False
1165130,0.856379704271,-0.233862683629,Kinnear Greg,16271.5597,6.523880597,14975322.17,0.0,53,175.0,35471916.72,0,0,False
2437964,-0.717190982395,-0.341873471329,Wynn Ed,6603.985294,7.098529412,0.0,0.0,130,180.0,10791076.76,0,0,False
1746351,0.851296816285,0.257451183557,Phoenix River,20179.16667,7.095833333,6535709.005,0.0,46,175.0,38330555.01,0,0,False
2246380,-0.566380273942,-0.595869477463,Tracy Lee,374.0465116,6.474418605,0.0,0.0,118,175.0,6906521.331,0,0,False
987769,-0.164087333629,-0.826769353906,Hopper Dennis,4795.706751,6.671097046,5043175.939,0.0,80,172.5,9701071.788,0,0,False
832464,-0.082651625602,-0.106978380919,Gould Elliott,7835.316265,6.879216867,20208836.68,0.0,78,187.5,11704323.57,0,0,False
996037,0.815695570363,0.103084612621,Howard Terrence,11623.59839,6.902008032,17734916.55,771756.4468,47,180.0,29389646.21,0,0,False
919867,-0.0328658921002,-0.473262340318,Harvey Laurence,3236.114943,6.622988506,80792582.78,3047619.048,88,180.0,32470272.19,0,0,False
700474,0.600018370799,0.615639152523,Fishburne Laurence,15656.87376,7.342326733,27013241.25,180290.7833,55,180.0,43354946.89,0,0,False
995617,-0.616036793103,-0.527076828806,Howard Leslie,4508.225806,7.066129032,0.0,0.0,123,175.0,6913543.975,0,0,False
1540133,-0.516320550828,-0.637380030414,Morgan Frank,14295.21101,6.881651376,0.0,0.0,126,170.0,15102963.62,0,0,False
594297,0.147823364037,-0.215804927615,Drake Larry,2873.743961,6.948792271,14375081.4,0.0,67,187.5,12792659.02,0,0,False
130045,0.768666892218,-0.427981199502,Banderas Antonio,15235.60699,6.277292576,56049553.32,11190272.86,56,170.0,49960406.9,0,0,False
2430872,-0.602324386368,-0.552758392527,Woolley Monty,1100.969697,6.875757576,0.0,0.0,128,175.0,16920555.81,0,0,False
1595463,0.540775158253,0.11788446156,Neill Sam,8056.701068,7.215302491,98711260.6,0.0,69,182.0,39073470.64,0,0,False
468787,-0.437406658109,-0.191729658491,Crenna Richard,2830.665517,7.300689655,0.0,0.0,90,182.5,50028131.87,0,0,False
477307,0.681375858734,-0.254327601316,Crystal Billy,6509.052402,6.942358079,102348541.8,0.0,68,167.5,45556947.05,0,0,False
1528030,-0.474237205679,-0.62515532155,Montgomery Robert,711.7641509,6.556603774,19501345.29,0.0,112,182.5,9006921.391,0,0,False
2437511,0.160929215117,0.60066077919,Wyle Noah,2517.869663,7.696404494,0.0,0.0,45,182.5,12732945.69,0,0,False
531850,-0.239480794487,-0.745711930527,Dean James,1690.97561,6.996341463,0.0,137423.1782,85,170.0,2018518.232,0,0,False
2167549,0.769797376164,-0.436987858009,Swayze Patrick,10333.76224,6.796503497,42889304.16,0.0,64,175.0,19713429.21,0,0,False
1828272,-0.599303832572,-0.497694312551,Rathbone Basil,1876.642857,6.847619048,0.0,71856.28743,124,182.5,14989219.79,0,0,False
1262838,0.225430547944,0.567849873109,LeBlanc Matt,1890.516355,7.710046729,4823997.168,19847844.15,49,172.5,39704030.33,0,0,False
770293,-0.441734418775,-0.667622775927,Garfield John,1196.684211,7.050877193,0.0,0.0,103,167.5,18542162.95,0,0,False
1357256,0.613140767019,-0.233601163813,Macy William H.,9704.201681,7.267507003,5971583.103,759894.9136,66,173.0,33311978.71,0,0,False
944863,0.167410773709,-0.782927873026,Henriksen Lance,8390.870166,6.64558011,3720903.336,0.0,76,178.5,11976666.59,0,0,False
2391104,0.0838719607693,0.622520103803,Whitford Bradley,4200.265306,7.814540816,0.0,0.0,57,177.5,28881163.87,0,0,False
1861412,-0.670145341727,-0.257229721134,Richardson Ralph,2470.85,7.390833333,53046092.98,0.0,114,180.0,20115417.17,0,0,False
501071,0.586376296805,0.100667589874,Daniels Jeff,17176.70115,7.066666667,32306015.09,1214574.899,61,189.0,32823168.86,0,0,False
2357544,-0.385724745408,-0.718678303889,Warden Jack,5593.915493,6.905164319,3094663.145,0.0,96,175.0,24390055.25,0,0,False
256787,0.281421872453,0.665893487383,Braff Zach,3942.784722,7.8125,39899176.93,523364.486,41,182.25,53249931.79,0,0,False
2407447,0.565857495671,-0.268997467237,Williams Treat,7279.909091,7.234181818,7574874.332,0.0,65,175.0,31189220.43,0,0,False
633435,0.540394411833,0.57900948731,Elba Idris,21594.285,7.5685,44037902.44,0.0,44,190.0,55527586.92,0,0,False
619703,0.39048658149,0.206372513114,Eastwood Clint,19155.32055,7.19708589,94815867.68,10303635.13,86,190.0,32429283.96,0,0,False
1634806,-0.484948571631,-0.6644226919,O'Connell Arthur,4415.690265,6.798230088,0.0,0.0,108,175.0,23729818.58,0,0,False
1547078,0.144358919483,0.55072962329,Morrow Rob,1287.573913,7.647826087,381556.3173,0.0,54,175.0,18792020.51,0,0,False
502963,0.432059391471,-0.718607315091,Danza Tony,1332.758333,6.713958333,23353339.35,0.0,65,172.5,11097138.21,0,0,False
779982,-0.21051024058,-0.784782141239,Gazzara Ben,4784.911392,6.831223629,78472.47387,0.0,86,175.0,16129780.36,0,0,False
509004,-0.0213102916504,0.156050749486,David Larry,1091.444196,8.098214286,5935336.469,387096774.2,69,177.5,2333623.057,0,0,False
1748911,-0.542934128614,-0.512986586447,Pidgeon Walter,1443.196203,6.767088608,44753760.67,0.0,119,185.0,17819495.67,0,0,False
1785549,-0.295224687099,-0.74976185991,Preston Robert,1351.833333,6.98452381,19505016.52,1702.12766,98,175.0,27422440.02,0,0,False
441788,0.391951486207,-0.733250085653,Conti Tom,14744.45455,6.707954545,57187.12409,0.0,75,177.5,12728533.44,0,0,False
2145598,0.598861828902,-0.544842176197,Strathairn David,14043.29082,6.948469388,316036.1662,0.0,67,177.5,30319601.51,0,0,False
1547669,0.870050662997,-0.0768338261347,Mortensen Viggo,38692.45238,6.867857143,18795102.78,0.0,58,177.5,32996991.23,0,0,False
1712668,0.544054184721,-0.346335201195,Paymer David,5809.672241,7.397658863,192123.1409,0.0,62,167.5,44273209.09,0,0,False
422508,-0.122581659788,-0.788393560477,Coco James,1409.535714,6.8875,0.0,0.0,86,175.0,21629867.16,0,0,False
2397289,0.456048181539,-0.605212646176,Wilder Gene,7434.147727,7.010227273,80926462.32,71856.28743,83,175.0,13548820.44,0,0,False
764222,0.710284680858,-0.48980419718,Garcia Andy,14912.24309,6.722651934,13017762.84,0.0,60,178.0,26313978.84,0,0,False
44674,0.514799537314,-0.678683119166,Allen Woody,13176.28094,6.631103679,58275275.9,2218785.481,81,162.5,23706437.92,0,0,False
2342010,0.836348473686,0.14265539243,Wahlberg Mark,14330.5154,7.467556468,85868936.47,11494802.64,45,170.0,54451400.67,0,0,False
484871,-0.0721204489551,-0.841761446086,Curtis Tony,2882.154341,6.684565916,26159014.38,1597550.678,91,172.5,11693280.22,0,0,False
876295,0.902938811232,0.0333500757652,Gyllenhaal Jake,33074.51429,6.902142857,34041832.68,3343317.972,36,177.5,35971854.13,0,0,False
1639205,0.172004099959,-0.652648896433,O'Neal Ryan,2299.77931,6.937241379,21341400.05,3305785.124,75,182.5,14625216.73,0,0,False
718905,0.157023589481,-0.82944434933,Forrest Frederic,8312.897959,6.380612245,802094.9223,0.0,80,175.0,24850966.69,0,0,False
671047,0.0560754438817,-0.732942555033,Farentino James,645.2794118,7.043382353,570735.3135,0.0,78,177.5,14749755.18,0,1,False
1206029,0.195835549954,-0.807215096129,Kristofferson Kris,5036.100358,6.707885305,23203565.44,0.0,80,177.5,27814249.63,0,1,False
975730,0.608396703531,-0.40561815739,Hogan Paul,7043.568182,6.909090909,135839254.0,0.0,77,172.5,26911451.0,0,1,False
673438,0.880062997862,-0.179107548291,Farrell Colin,23636.04969,6.758385093,24056243.88,6507060.384,40,175.0,49070901.72,0,1,False
1854820,0.688455105382,-0.493456090279,Rhames Ving,23057.93939,6.351515152,0.0,0.0,57,180.0,44429813.99,0,1,False
1578542,-0.0765126852554,-0.777762166365,Nader George,313.9655172,6.175862069,8988764.045,0.0,95,182.5,797611.0942,0,1,False
1859844,-0.105398996446,-0.721374672007,Richards Jeff,1283.314286,6.554285714,0.0,0.0,92,185.0,10724536.47,0,1,False
196515,-0.315131087324,-0.273437787456,Betz Carl,47.81659389,7.676419214,0.0,0.0,95,180.0,7505617.978,0,1,False
1729472,0.462879863752,-0.197063947001,Perlman Ron,5588.271429,7.431111111,32374005.5,0.0,66,182.5,32060263.53,0,1,False
604797,0.219236968977,-0.750193845741,Dullea Keir,6091.642857,6.669642857,33855388.8,0.0,80,182.5,19480635.85,0,1,False
1243801,0.508733757095,-0.539343354773,LaPaglia Anthony,3017.514286,6.983809524,1486049.201,0.0,57,178.0,30369244.36,0,1,False
141822,0.815699202766,-0.0412824749238,Baron Cohen Sacha,19825.13966,6.936871508,70319746.32,0.0,45,187.5,91404177.91,0,1,False
243893,0.321260975415,-0.674965823743,Bottoms Joseph,384.527027,6.72027027,0.0,0.0,62,180.0,35698115.27,0,1,False
152877,0.837288499437,0.00323287363949,Bateman Jason,14642.21222,7.384565916,38437254.19,0.0,47,177.5,32655211.4,0,1,False
242830,0.121617350383,-0.305591064304,Bostwick Barry,886.1695402,7.13908046,14115479.38,0.0,71,190.0,5797052.669,0,1,False
1355708,0.335676101672,0.0717342914374,MacLachlan Kyle,3427.16568,7.681952663,8885839.428,0.0,57,181.0,39293783.63,0,1,False
498351,0.168297678187,-0.787070073222,Damon Mark,12808.9646,5.909734513,0.0,0.0,83,181.0,19167694.29,0,1,False
1863180,0.757955322792,0.0728441704185,Rickman Alan,49708.28346,7.337795276,362810.8731,0.0,70,185.0,59134745.35,0,1,False
1635418,-0.15869551938,-0.773559011013,O'Connor Donald,1700.71223,7.079856115,0.0,819923.4763,91,167.5,15979466.32,0,1,False
146113,-0.302052169707,-0.488986482355,Barry Gene,1311.786441,7.484745763,17267326.73,9056.603774,97,180.0,14317223.4,0,1,False
353178,0.459571952129,-0.419835206222,Caruso David,1714.616564,7.211656442,13154461.48,266814.8972,60,180.0,43003133.49,0,1,False
1784898,0.160535756898,-0.00928205743732,Presnell Harve,22780.6729,7.468224299,0.0,0.0,83,192.5,42863303.5,0,1,False
778540,0.0639688732038,-0.580136807395,Gavin John,10564.62264,6.771698113,0.0,0.0,85,190.0,6267949.069,0,1,False
1510863,-0.380174669523,-0.657042734098,Mitchell Millard,8163.029412,6.902941176,0.0,0.0,113,185.0,9032251.14,0,1,False
86165,0.33663690823,-0.658623560887,Arnaz Jr. Desi,111.3609023,6.926315789,0.0,145287.3563,63,177.5,4254338.786,0,1,False
2434128,0.882683077171,0.16408268919,Wright Jeffrey,25720.82353,7.459558824,69953965.02,0.0,51,177.5,46506862.67,0,1,False
1597022,-0.300261800063,-0.613847823864,Nelson Gene,326.4444444,7.288888889,0.0,0.0,96,180.0,21505421.62,0,1,False
313463,0.542435549635,-0.450945046709,Byrne Gabriel,8014.981343,7.297761194,8239903.809,0.0,66,175.0,32319046.71,0,1,False
1633259,-0.272115145272,-0.178978463366,O'Brian Hugh,473.1444759,7.721529745,0.0,0.0,91,180.0,8471704.439,0,1,False
2366951,0.112161111719,-0.727563042556,Wayne Patrick,2773.840909,6.720454545,0.0,99.58506224,77,182.5,26861471.09,0,1,False
2118795,-0.400821001062,-0.661040642707,Stander Lionel,1516.641434,7.073705179,0.0,0.0,108,180.0,19805439.31,0,1,False
892519,0.0330496220781,-0.719479943386,Halsey Brett,2333.624113,6.54893617,0.0,0.0,83,185.0,4739376.709,0,1,False
662177,-0.436890521563,-0.559737905791,Ewell Tom,833.5263158,7.335789474,0.0,0.0,107,180.0,14978161.93,0,1,False
567844,-0.00828136462397,-0.766776541421,Dillman Bradford,1070.911565,6.914285714,22085889.57,0.0,86,180.0,20252444.23,0,1,False
548203,0.147573682351,-0.697696339297,Dennehy Brian,6907.683036,6.658035714,964590.1973,0.0,78,185.0,24062484.99,0,1,False
186156,-0.0961177682888,-0.634815356285,Bergerac Jacques,567.4,6.742857143,0.0,0.0,89,187.5,5019744.424,0,1,False
1915655,0.639277412986,-0.589114270448,Rourke Mickey,22245.80142,6.25248227,15202983.47,2643034.429,64,177.5,32437936.16,0,1,False
502794,-0.0315450941341,-0.76936302137,Danton Ray,435.9589041,6.740410959,0.0,0.0,85,180.0,9229508.377,0,1,False
582346,0.143734146726,-0.742046187726,Donahue Troy,8231.672727,6.192727273,0.0,0.0,80,185.0,364209.9934,0,1,False
1092239,0.138386076997,-0.678178311856,Jordan Richard,7092.724138,6.801724138,3458233.577,0.0,79,185.0,35699686.99,0,1,False
1477750,-0.239167581414,-0.775797121278,Meredith Burgess,4784.658824,6.958823529,0.0,0.0,109,162.5,27692463.16,0,0,False
1712402,0.758700073391,-0.347909030361,Paxton Bill,20163.63158,7.043421053,12922246.82,0.0,61,180.0,39208424.66,0,0,False
2221454,0.691740638796,-0.550313500515,Thornton Billy Bob,14198.49246,6.717085427,31738067.25,0.0,61,175.0,38395844.77,0,0,False
1596708,0.424632451516,0.182380690433,Nelson Craig T.,4199.655109,7.755109489,239401663.4,0.0,72,187.5,43644389.71,0,0,False
1845231,0.509239309571,-0.517856126388,Reiser Paul,3334.95881,7.183295195,0.0,0.0,59,175.0,18271961.99,0,0,False
460293,0.21421807157,-0.665981527219,Courtenay Tom,4624.333333,7.312,48256.12648,0.0,79,170.0,44737150.61,0,0,False
1847950,0.889029677711,0.0508424239187,Renner Jeremy,61342.81967,6.996721311,39425285.33,3454000.474,45,175.0,91549097.85,0,0,False
492883,0.828548002692,-0.26029808379,Dafoe Willem,41890.31,6.719,5444284.268,0.0,61,172.5,38165867.32,0,0,False
909352,0.268608648045,-0.0144255229369,Harmon Mark,931.1657519,7.784632272,25447274.22,668478.2609,65,180.0,30315757.12,0,0,False
926651,0.820097010868,-0.295972684142,Hawke Ethan,23430.80952,6.648979592,18463466.12,8141129.141,46,180.0,29800835.69,0,0,False
993421,0.817851816497,-0.187540724163,Hounsou Djimon,41024.42,6.647,0.0,0.0,52,182.5,61505691.79,0,0,False
347260,0.172537136638,-0.782233782019,Carradine David,4131.104294,6.710633947,16465847.45,223048.3271,80,180.0,6207209.611,0,0,False
1043091,0.790023080135,-0.295130768288,Jackson Samuel L.,37682.62121,6.587662338,27455804.3,7956530.803,68,185.0,56631689.65,0,0,False
895724,0.321881888003,-0.693744806454,Hamlin Harry,479.4505929,6.884980237,1321675.586,0.0,65,177.5,7783693.063,0,0,False
913830,0.609619062675,-0.200894070402,Harris Neil Patrick,4079.388084,7.345249597,0.0,0.0,43,180.0,36230158.22,0,0,False
36669,0.592542495483,-0.278520111279,Alexander Jason,2198.48244,7.620887246,34562087.1,0.0,57,163.0,18825741.66,0,0,False
95858,0.333831836265,-0.778673300677,Assante Armand,4995.788462,6.222435897,4831048.42,0.0,67,175.0,17142788.67,0,0,False
1983047,0.237699490704,-0.828999370967,Scheider Roy,7992.028708,6.684688995,28544969.86,0.0,84,172.5,22996831.8,0,0,False
996111,-0.0306243150145,-0.803139535511,Howard Trevor,4570.488372,6.857364341,49205233.0,0.0,103,181.5,56323399.59,0,0,False
1594257,0.835174779448,-0.141416972487,Neeson Liam,37478.92419,6.958122744,59608720.75,9604454.351,64,190.0,58790546.65,0,0,False
1878093,0.411397612724,-0.743847023734,Roberts Eric,5165.090566,6.152075472,4634277.012,0.0,60,175.0,5098562.414,0,0,False
466672,0.588904179393,-0.318706987972,Cranston Bryan,8850.123711,7.621821306,11691252.67,0.0,60,175.0,54740106.73,0,0,False
807514,-0.190171305208,-0.618196322198,Gleason Jackie,1261.231638,7.714124294,14489183.13,1950275.518,100,172.5,15215139.02,0,0,False
1780117,-0.285112086984,-0.77650205821,Powell William,1256.424779,6.485840708,0.0,0.0,124,175.0,11334070.32,0,0,False
457725,0.775478498035,-0.401919612402,Costner Kevin,19980.58009,6.724242424,79565659.43,13975166.0,61,182.5,51335278.53,0,0,False
201192,-0.388512596681,-0.678539230259,Bickford Charles,685.86,7.041333333,0.0,0.0,125,182.5,30864968.89,0,0,False
391463,-0.101366229333,-0.687863245847,Chevalier Maurice,698.26,6.72,172811920.5,0.0,128,175.0,23813916.05,0,0,False
1076423,0.40777840867,-0.42784210701,Johnson Don,2826.338951,7.650561798,8597654.451,229445.5067,67,177.5,24011732.16,0,1,False
1176378,-0.0446854068514,-0.772654220755,Klugman Jack,1292.9,7.248974359,0.0,30747.33096,94,172.5,1759679.058,0,1,False
719009,-0.00722965453081,-0.649192867936,Forrest Steve,1412.242105,7.151052632,0.0,0.0,91,187.5,17930854.56,0,1,False
1612837,0.849472728142,-0.172698372059,Nighy Bill,29234.8324,7.183798883,97900387.31,0.0,67,185.0,78099022.85,0,1,False
31606,0.304706151472,-0.736188963668,Albert Edward,305.2,6.499512195,0.0,0.0,65,180.0,12585382.93,0,1,False
1131212,0.270059314072,-0.744040111898,Keach Stacy,4259.257642,6.926637555,0.0,0.0,75,177.5,13722352.61,0,1,False
512208,0.477930102696,-0.697590715569,Davis Brad,3586.111111,6.784444444,43825724.39,0.0,67,172.5,3945572.364,0,1,False
113260,0.63532195287,-0.574211201193,Bacon Kevin,13031.41844,6.854255319,18640328.9,2467997.422,58,175.0,27017921.81,0,1,False
924627,0.372024280783,-0.727229582477,Hauer Rutger,12342.36239,6.466972477,6585528.954,0.0,72,182.5,20127997.14,0,1,False
2029880,0.440412391726,-0.604437121374,Shatner William,1797.295529,7.112758997,122032752.1,0.0,85,172.5,15338975.37,0,1,False
258628,0.31360322427,-0.774425291107,Brandauer Klaus Maria,2629.742857,6.735714286,11166581.04,0.0,73,172.5,47556191.97,0,1,False
442795,0.355821814913,-0.702790796055,Conway Tim,415.4067797,7.141162228,64693761.49,0.0,83,165.0,6282477.376,0,1,False
251887,0.286032130519,-0.770461907897,Boyd Stephen,3740.745763,6.042372881,88888888.89,0.0,85,180.0,62354248.25,0,1,False
2027886,0.359338298926,-0.764216050578,Sharkey Ray,477.037037,6.502469136,1717412.0,0.0,64,170.0,17280406.94,0,1,False
1461399,0.545084952022,-0.561567127341,McShane Ian,9666.52,7.414333333,39237057.22,0.0,74,167.5,77417801.79,0,1,False
1998523,0.663572479434,-0.518891143294,Schwarzenegger Arnold,17470.84958,6.552367688,96876169.31,19240963.21,69,185.0,53645104.22,0,1,False
1977676,0.205488299912,-0.811050249319,Saxon John,2663.507042,6.570070423,12830546.43,0.0,81,175.0,10504362.49,0,1,False
995904,0.521998828775,-0.503725895788,Howard Ron,6481.764763,7.420329138,0.0,8214339.216,62,172.5,20618716.0,0,1,False
307524,0.733097654845,-0.37200231091,Buscemi Steve,23644.92105,7.276608187,587968.8862,0.0,59,172.5,39384758.44,0,1,False
2341943,0.393514821921,-0.413693494881,Wahl Ken,267.8292683,7.581707317,4225564.822,0.0,62,180.0,25429678.23,0,1,False
979340,0.0321839712144,-0.74090219038,Holliman Earl,781.572327,7.145283019,0.0,0.0,88,180.0,7061326.846,0,1,False
1541831,0.172824300181,-0.606872457564,Moriarty Michael,1147.557214,6.947263682,328726.0232,0.0,75,190.0,13797363.19,0,1,False
179273,0.436165894043,-0.576373008288,Benjamin Richard,2933.680412,6.405154639,150015073.6,0.0,78,185.0,24164811.58,0,1,False
789102,0.590769865846,-0.311188545171,Gervais Ricky,2351.15083,7.736048265,36256052.53,0.0,55,170.0,62263023.16,0,1,False
