id_data,x_data,y_data,z_data,votes,rating,gross,salary,age,heightcm,budget,academy,golden,sample
178552,-0.706705421447,-0.422876580836,Benhoff Robert,5.0,6.8,0.0,0.0,31,172.5,300.0,0,0,False
382944,0.517681154574,-0.766115659822,Chase Hal,5.0,4.6,0.0,0.0,133,180.0,0.0,0,0,False
417950,0.481599182521,-0.80542124183,Cleveland Grover,5.0,5.6,0.0,0.0,179,177.5,0.0,0,0,False
887574,-0.493867236941,-0.612440156207,Hale D.J.,5.0,6.2,0.0,0.0,23,165.0,207064.0124,0,0,False
1424416,-0.122890935555,-0.856862955581,Mattison Frank S.,5.0,7.6,0.0,0.0,126,180.0,0.0,0,0,False
1456780,0.169383021643,-0.882892865186,McLeod Tex,5.0,6.6,0.0,0.0,127,180.0,0.0,0,0,False
1907611,-0.82085295326,-0.0559271028423,Rosen Jason,5.0,7.8,0.0,0.0,23,170.0,362.9719598,0,0,False
2081820,-0.797757701641,-0.0278093158205,Smith Gray,5.0,8.6,0.0,0.0,28,175.0,0.0,0,0,False
2113785,0.392024902927,-0.51512965333,Squire Devin G.,5.0,3.6,0.0,0.0,17,175.0,10.12585595,0,0,False
2433816,-0.472719883066,-0.513853114042,Wright Eric,5.0,6.6,0.0,0.0,35,182.5,357.1428571,0,0,False
2218909,-0.0991829716642,-0.745771635069,Thompson Matthew D.,5.571428571,5.614285714,0.0,0.0,38,177.5,10308.90823,0,0,False
1013857,-0.609434887901,-0.267236119885,Hutcheson Scott,5.6,7.64,0.0,0.0,33,187.5,3200.867791,0,0,False
362980,-0.753561216923,-0.306966369395,Catelli Jay,6.0,7.2,0.0,0.0,34,175.0,14953.27103,0,0,False
676612,-0.752763339761,-0.145595785358,Favors Alexander,6.0,8.0,0.0,0.0,30,180.0,2342.558643,0,0,False
906225,0.486894554328,-0.807851648403,Hardin Neil,6.0,5.3,0.0,0.0,136,175.0,0.0,0,0,False
1312005,-0.763030112264,0.0024072834706,Lloyd Takaya,6.0,9.0,0.0,0.0,20,180.0,50629.27976,0,0,False
1388703,-0.811455918449,0.0837715724532,Marcus Dylan,6.0,8.8,0.0,0.0,25,167.5,7865.65793,0,0,False
1656013,-0.0264211908619,-0.883663187479,Olson Ivan,6.0,7.5,0.0,0.0,131,175.0,0.0,0,0,False
2044252,-0.720363008482,-0.352813009986,Short David,6.0,6.75,0.0,0.0,23,172.5,592.4886964,0,0,False
2197671,-0.610363485013,-0.500365888557,Taylor Ron,6.0,8.0,0.0,0.0,79,182.5,0.0,0,0,False
611586,0.2550749334,-0.767685111129,Durning Bernard J.,6.333333333,5.6,0.0,0.0,124,195.0,1005501.754,0,0,False
2359597,-0.564917926909,-0.426790052522,Warren Josiah David,6.375,6.675,0.0,0.0,27,180.0,874938.351,0,0,False
2375531,-0.434394405259,-0.337045009184,Weissman Spencer,6.5,7.05,0.0,0.0,27,192.5,0.0,0,0,False
457392,0.282044802324,-0.879212096109,Costello John,7.0,6.6,0.0,0.0,138,172.5,0.0,0,0,False
1988392,-0.660269814939,-0.519387276695,Schmidt Kevin,7.0,7.0,0.0,0.0,48,175.0,1014.370245,0,0,False
776583,-0.737377901063,-0.144030504121,Gatsby Nick,7.142857143,7.728571429,0.0,0.0,23,180.0,1518.878393,0,0,False
942642,-0.742393171962,-0.198246514478,Henderson Todd,7.433333333,7.776666667,0.0,0.0,35,180.0,2975.809607,0,0,False
666464,0.17427005879,-0.890511045821,Fairbanks William,7.5,6.65,0.0,0.0,122,177.5,834845.735,0,0,False
893843,-0.764595105553,-0.219586897457,Hameed Umair,7.666666667,7.2,0.0,0.0,25,175.0,0.0,0,0,False
253873,-0.702439350013,-0.0629544855935,Braathen Peter,8.0,8.9,0.0,0.0,27,187.5,623290.9936,0,0,False
259600,-0.710447453141,-0.200549355256,Brandt Steven,8.0,7.38,0.0,0.0,23,180.0,5673.826979,0,0,False
282538,-0.789664347333,-0.107472581934,Brown Michael,8.0,8.55,0.0,0.0,46,177.5,300158.6748,0,0,False
474510,-0.788600951983,0.0534205610878,Crowe Smith,8.0,9.4,0.0,0.0,30,175.0,0.0,0,0,False
587178,-0.630380757394,-0.194927611714,Dorris Blake,8.0,7.8,0.0,0.0,27,187.5,1650.952049,0,0,False
797915,-0.784859943052,-0.0025829436806,Gilchrist Benson,8.0,9.1,0.0,0.0,35,177.5,0.0,0,0,False
800455,-0.725014399676,-0.276465774104,Gillis Joe,8.0,7.625,0.0,0.0,43,180.0,0.0,0,0,False
1004046,-0.155497944745,-0.685644416804,Hughes Adam,8.0,5.766666667,0.0,0.0,36,180.0,688365.0683,0,0,False
1044834,-0.681105947699,-0.297909666571,Jacobs Tyler James,8.0,6.885714286,0.0,0.0,22,177.5,1527.649208,0,0,False
2121150,-0.490348277095,-0.398460282627,Star Ryan,8.0,7.066666667,0.0,0.0,38,187.5,5151.165237,0,0,False
2145696,-0.79731504737,0.0633701624647,Stratton Anthony,8.0,9.1,0.0,0.0,27,172.5,360.5815666,0,0,False
1388438,-0.776415202973,-0.178990515194,Marcotti Nick,8.333333333,7.866666667,0.0,0.0,39,177.5,45430.38345,0,0,False
1623271,-0.286491968438,-0.700973564151,Norman Justin L.,8.5,5.95,0.0,0.0,33,175.0,7181.205724,0,0,False
2134611,-0.59352599217,-0.542446129078,Steves Rick,8.606557377,7.291803279,1636.253041,0.0,61,180.0,273722.6277,0,0,False
165988,-0.770660683902,-0.261995378128,Bedell Brian,8.666666667,7.3,0.0,0.0,35,175.0,1374.26439,0,0,False
969769,-0.778256100631,-0.200105679866,Hluch Alex,8.75,7.35,0.0,0.0,29,175.0,5462.896387,0,0,False
909442,0.0408778182661,-0.781904182928,Harmon Winsor,8.857142857,5.632142857,0.0,0.0,53,180.0,101378.751,0,0,False
1351691,-0.322675659294,-0.65017225104,Macdowall Richard,8.857142857,6.414285714,0.0,0.0,48,182.5,454842.1736,0,0,False
2339912,-0.72603469835,-0.273861685683,Wade Tim,8.95,6.89,0.0,0.0,22,175.0,4324.926987,0,0,False
888784,-0.299122288797,-0.639853890021,Hall Bobby,8.966666667,6.106666667,0.0,0.0,36,180.0,0.0,0,0,False
169513,-0.586454945202,-0.305432905518,Bekker Isaac,9.0,7.6,0.0,0.0,42,187.5,58933.85136,0,0,False
794039,-0.374648768615,-0.661058305265,Gibbs Stuart Paul,9.0,6.1,0.0,0.0,32,175.0,0.0,0,0,False
1019608,-0.743270119383,-0.294975558913,Iba Takuya,9.0,7.4,0.0,0.0,41,177.5,2502575.583,0,0,False
1115146,-0.26667069026,-0.567926678953,Kano David,9.0,6.0,0.0,0.0,29,182.5,915010.8474,0,0,False
1508916,0.182839724668,-0.882875187568,Missimer Howard,9.0,7.2,0.0,0.0,149,175.0,0.0,0,0,False
2118440,-0.679467636566,-0.45387889453,Stampone Zach,9.0,6.7,0.0,0.0,28,162.5,405.5150041,0,0,False
2132148,0.393945971754,-0.57421971757,Sternglanz Weylin,9.0,3.9,0.0,0.0,42,182.5,584000.0,0,0,False
579896,-0.440126528132,-0.640615819464,Dollard Evan,9.230769231,6.246153846,0.0,0.0,34,175.0,6077.453928,0,0,False
987248,0.31266544926,-0.858268398544,Hopkins Jack,9.25,6.375,0.0,0.0,140,180.0,0.0,0,0,False
1076490,-0.545769930347,-0.442930739638,Johnson Douglas Rizzo,9.5,6.65,0.0,0.0,30,180.0,73209.73879,0,0,False
4752,-0.44258271187,-0.655599013052,Abedejos Eugene,10.0,6.4,0.0,0.0,33,162.5,9840.81042,0,0,False
673943,0.467954625293,-0.811832233128,Farrington Frank,10.0,5.65,0.0,0.0,143,177.5,8010921.343,0,0,False
793536,-0.541295936891,-0.66005144147,Gibbons David William,10.0,6.8,0.0,0.0,54,175.0,357910.9063,0,0,False
893268,-0.84257048197,0.0631485582472,Hamamura Hanzo,10.0,7.6,0.0,0.0,35,162.5,12288.78648,0,0,False
1273452,0.479146310369,-0.793488179817,Lehnberg John,10.0,5.3,0.0,0.0,133,180.0,0.0,0,0,False
1361804,-0.626534796767,-0.540722076955,Magid Michael,10.0,6.6,0.0,0.0,36,172.5,73078.02173,0,0,False
1371114,-0.808649214874,0.106088224477,Malek Josh,10.0,8.9,0.0,0.0,32,167.5,0.0,0,0,False
1396077,0.0768512850444,-0.84068685725,Marquard Rube,10.0,7.0,0.0,0.0,130,187.5,0.0,0,0,False
1821515,-0.788627966295,-0.270865577735,Ramsey John,10.0,7.2125,0.0,0.0,36,172.5,6347.623227,0,0,False
1866273,0.341109153426,-0.794241292866,Rightious Duke,10.0,5.2,0.0,0.0,55,170.0,2230483.271,0,0,False
86462,-0.466533892936,-0.530283679991,Arnett Matthew,10.33333333,6.3,0.0,0.0,27,177.5,6557.648662,0,0,False
836662,-0.463706661362,-0.659925386737,Graham Melia,10.5,6.55,0.0,0.0,47,177.5,71141.87073,0,0,False
865950,-0.683512387449,-0.499876973737,Guiala Leonardo,10.5,6.8,0.0,0.0,39,167.5,55934.40758,0,0,False
1279832,-0.275258501764,-0.805451910801,Leonard Benny,10.5,8.25,0.0,0.0,120,162.5,0.0,0,0,False
967469,-0.618749223515,-0.55210892594,Hirbour Jeff,10.63636364,6.6,0.0,0.0,37,172.5,12165.45012,0,0,False
304693,0.296881981541,-0.56173752622,Burns Keyghan,10.66666667,7.033333333,0.0,0.0,112,122.5,3500780.992,0,0,False
1787386,-0.596975655756,-0.323173381923,Price Thomas,10.85714286,7.028571429,0.0,0.0,30,182.5,13828.34091,0,0,False
323586,-0.20476268905,-0.732544284722,Call Richie,11.0,5.9,0.0,0.0,36,175.0,0.0,0,0,False
540519,-0.0750866462647,-0.872591920344,Delaney Bert,11.0,7.65,0.0,0.0,125,175.0,0.0,0,0,False
1203230,-0.804706826485,0.186172302376,Krebs Josh,11.0,7.9,0.0,0.0,33,160.0,30413.6253,0,0,False
1518756,0.324482882304,-0.853494691681,Mojica Jos’_Î©,11.0,6.1,0.0,0.0,120,180.0,0.0,0,0,False
1639733,0.483927512985,-0.812113363482,O'Neill James,11.0,6.0,0.0,0.0,153,170.0,0.0,0,0,False
2066895,-0.056798140412,-0.510483404925,Sisco Greg,11.0,5.5,0.0,0.0,28,190.0,5969.373165,0,0,False
2130500,-0.675315928894,-0.448416303828,Stephens Peter Ross,11.0,6.8,0.0,0.0,37,175.0,1986.540952,0,0,False
2427117,-0.0995179795978,-0.697072251099,Wood James,11.0,5.6,0.0,0.0,29,175.0,6021.505376,0,0,False
2475828,-0.792820281331,0.118443777756,Zimmerman Isaac,11.0,8.7,0.0,0.0,17,170.0,0.0,0,0,False
2002495,-0.348890288593,-0.475101392376,Scott James,11.15625,6.565625,0.0,0.0,37,187.5,62854.82563,0,0,False
1132049,-0.751663522111,-0.15413224368,Keating Josiah,11.16666667,7.066666667,0.0,0.0,17,175.0,8304.136253,0,0,False
453092,0.145649287038,-0.759623057136,Correa Franklin,11.25,5.325,0.0,0.0,38,172.5,142741.1708,0,0,False
401437,-0.595657719224,-0.33291417014,Christian Cooper,11.33333333,7.4,0.0,0.0,43,185.0,6669.10658,0,0,False
1906646,-0.450925603952,-0.628750447573,Rose Justin,11.33333333,6.2,0.0,0.0,30,172.5,25787.1223,0,0,False
1328050,-0.697862594358,-0.129474620904,Love Kevin,11.42857143,8.2,0.0,0.0,34,185.0,173661.3603,0,0,False
177719,0.636905334828,-0.72013101334,Benedict Kingsley,11.5,4.75,0.0,0.0,138,167.5,0.0,0,0,False
968836,0.0976352944158,-0.777634394765,Hitchcock Michael,11.5,5.525,0.0,0.0,37,167.5,26799.83681,0,0,False
2257792,-0.829918119031,-0.0684529650645,Tsao Perry,11.5,7.6,0.0,0.0,32,170.0,57400.4154,0,0,False
566592,-0.818743879166,-0.172094317661,DiGeorge Marco,11.53846154,7.746153846,0.0,0.0,45,172.5,10123.4279,0,0,False
1642169,-0.70880670798,-0.154854690508,Obando Jhonny,11.55555556,7.811111111,0.0,0.0,31,182.5,213031.3809,0,0,False
556397,-0.763192712316,-0.217633854458,Devokees Will,11.625,7.1125,0.0,0.0,27,175.0,11186.88152,0,0,False
1481258,-0.840212150309,-0.0478259824859,Messersmith Nick,11.66666667,7.45,0.0,0.0,31,167.5,5769.912479,0,0,False
800080,-0.792420184393,0.00166362435684,Gilliard Colin,11.75,8.2,0.0,0.0,25,175.0,23154.84805,0,0,False
549181,-0.808747603533,-0.0861019859561,Dent Adrian,11.8,7.46,0.0,0.0,26,172.5,7337.928488,0,0,False
140848,-0.771999266746,-0.223342829988,Barnes Zachary Wood,11.83333333,7.2,0.0,0.0,31,175.0,17761.33087,0,0,False
760828,-0.835176058513,-0.111578023663,Gami’_Î±o C’_Î©sar,11.93333333,7.74,0.0,0.0,42,170.0,19216.64204,0,0,False
256449,-0.793039610462,-0.106924376699,Brady Jake,12.0,7.6,0.0,0.0,29,175.0,3387.916431,0,0,False
882156,-0.757443632871,-0.281965147167,Haddock K.S.,12.0,7.6,0.0,0.0,49,177.5,0.0,0,0,False
1229851,-0.718946940368,-0.221088339017,Lagod Ryan,12.0,7.45,0.0,0.0,34,180.0,2020679.855,0,0,False
1238379,-0.604047586749,-0.335128067614,Landin Devin,12.0,7.1,0.0,0.0,35,182.5,632076.718,0,0,False
1291236,-0.434335249359,-0.486070514432,Lewis Sam,12.0,6.2,0.0,0.0,21,177.5,300971.1894,0,0,False
1528690,-0.567271478415,-0.623943310714,Montoya Gabriel,12.0,6.6,0.0,0.0,43,172.5,0.0,0,0,False
2116770,0.00771788252536,-0.883026319071,Stafford Jesse,12.0,7.5,0.0,0.0,124,170.0,0.0,0,0,False
2404375,-0.831765532828,-0.121238583186,Williams Johntrae,12.0,7.5,0.0,0.0,36,170.0,2457.757296,0,0,False
85345,0.0409853541646,-0.87010783142,Armstrong Henry,12.25,7.125,0.0,0.0,104,162.5,0.0,0,0,False
1762286,-0.67746650564,-0.493599281831,Plescia David J.,12.33333333,6.833333333,0.0,0.0,39,165.0,9323.948558,0,0,False
407307,-0.546200072777,-0.303900069956,Cihangir Emre,12.47058824,7.058823529,0.0,0.0,29,185.0,31359.70452,0,0,False
2256379,-0.777865456269,-0.118700033596,Truly Darius,12.5,7.85,0.0,0.0,35,177.5,0.0,0,0,False
2291858,-0.807690099522,-0.0122035504567,Van Doorne Taylor,12.66666667,7.733333333,0.0,0.0,24,172.5,7830.817062,0,0,False
304971,-0.68130496044,-0.344763017683,Burns Ronnie,12.83333333,8.471969697,0.0,0.0,81,182.5,0.0,0,0,False
1313112,-0.747317386091,-0.219927295724,Loboda Joey,12.875,6.975,0.0,0.0,24,175.0,3153.276104,0,0,False
1788846,-0.781950940241,-0.0796616092963,Prince Ryan,12.89864865,7.45,0.0,0.0,22,175.0,113.8858299,0,0,False
2088225,-0.766170886594,-0.33907565973,Smith-Gunn Eric,12.90909091,7.481818182,0.0,0.0,53,175.0,8280.114136,0,0,False
444935,-0.741004099251,0.323458033138,Cooley Adam,12.97368421,7.539473684,0.0,0.0,30,155.0,1366.0,0,0,False
1239040,-0.755343800803,0.00334013592232,Landry Travis,12.98958333,8.535416667,0.0,0.0,24,180.0,2499.505497,0,0,False
489630,0.534795421659,-0.433899691228,D'Avignon Aleksander,13.0,2.8,0.0,0.0,28,180.0,26133.0871,0,0,False
666548,-0.152497244428,-0.60935221348,Fairchild Shane,13.0,6.0,0.0,0.0,41,185.0,0.0,0,0,False
1054627,-0.802503974488,-0.00646680801867,Janowsky Austin,13.0,8.8,0.0,0.0,46,175.0,4938.375679,0,0,False
1127792,-0.780213826412,0.0171714098057,Kaurich Brian,13.0,8.8,0.0,0.0,33,177.5,0.0,0,0,False
1771204,-0.765778747233,-0.238190405501,Poole Rob,13.0,7.6,0.0,0.0,45,177.5,25196.85039,0,0,False
1797934,-0.768454050445,-0.0192687363071,Purvis Justin,13.0,8.9,0.0,0.0,40,180.0,1066.95593,0,0,False
2022456,0.38629313407,-0.662218679218,Shackelford Carter,13.0,4.8,0.0,0.0,41,172.5,0.0,0,0,False
2135466,-0.263544574862,-0.824964981687,Stewart Freddie,13.18181818,7.418181818,0.0,29875.51867,91,165.0,0.0,0,0,False
788008,-0.619680571888,-0.587001697885,Germano James,13.38461538,6.984615385,0.0,0.0,55,175.0,1244400.263,0,0,False
410676,-0.739975917705,-0.0407964287919,Clark IV Joseph M.,13.5,8.6,0.0,0.0,33,182.5,0.0,0,0,False
734427,-0.700790155762,-0.38786040712,Freeman Alexander,13.5,6.85,0.0,0.0,29,160.0,413.9886002,0,0,False
1434811,-0.758248573076,-0.366536931066,McCabe Gerard,13.5,6.9,0.0,0.0,36,170.0,0.0,0,0,False
1666931,-0.479531512264,-0.453422966252,Osborne Kevin,13.5,6.7,0.0,0.0,36,182.5,85000.0,0,0,False
2142862,-0.45743584664,-0.41665715888,Storey Robby,13.5,6.8,0.0,0.0,36,185.0,7917.250398,0,0,False
1248958,-0.0549784639476,-0.573637476153,Lashley Dan,13.66666667,5.733333333,0.0,0.0,39,187.5,0.0,0,0,False
1155219,0.226572924104,-0.872618233443,Kiepura Jan,13.75,6.50625,0.0,0.0,114,180.0,0.0,0,0,False
2431208,-0.706329294531,-0.251837601018,Wootton Curt,13.8,7.346666667,0.0,0.0,37,180.0,179166.6667,0,0,False
311443,-0.588246695048,-0.479519445808,Buttery David,14.0,6.5,0.0,0.0,30,175.0,20526.28597,0,0,False
1139220,-0.841361530225,-0.0617803555893,Kelly Troy B.,14.0,7.24,0.0,0.0,31,167.5,3994.030987,0,0,False
1170712,-0.732478346639,-0.167425547942,Kitzmiller James,14.0,8.3,0.0,0.0,52,182.5,0.0,0,0,False
1336828,-0.496176875318,-0.605099915516,Lukeman Noah,14.0,6.56,0.0,0.0,43,177.5,8293.83041,0,0,False
1697642,-0.793902292007,0.00312642828414,Parker Sean,14.0,8.127272727,0.0,0.0,28,175.0,15192.12786,0,0,False
104819,-0.577826720515,-0.222208320847,Avidan Dan,14.01694915,7.73559322,0.0,0.0,37,189.0,58473.0,0,0,False
1163966,-0.781257904164,-0.136182247175,King Sean,14.08,7.868,0.0,0.0,41,177.5,30149.92882,0,0,False
1314571,-0.688761119685,-0.437270567622,Lodin Greggory Bog’_Š—_v,14.25,6.7,0.0,0.0,31,165.0,28410.4063,0,0,False
1771599,-0.818482389365,0.0717022660768,Pop Alex,14.4375,8.532291667,0.0,0.0,42,169.0,1050.0,0,0,False
565610,0.584418158973,-0.519902306325,Diep Vinh,14.5,4.225,0.0,0.0,38,167.5,0.0,0,0,False
912719,0.502259130751,-0.625322452236,Harris Georgie,14.5,6.2125,0.0,0.0,118,142.5,0.0,0,0,False
1355131,-0.217617379822,-0.459828072899,Mackey Daniel,14.75,6.25,0.0,0.0,34,190.0,48006.34699,0,0,False
2068424,-0.132914575795,-0.750834596428,Sizemore Matt,14.75,6.125,0.0,0.0,51,180.0,0.0,0,0,False
769317,-0.394856744694,-0.651921901714,Gardner Blake,15.0,6.2,0.0,0.0,30,167.5,0.0,0,0,False
1063817,-0.694666473788,-0.171869688397,Jennings Jay,15.0,8.3,0.0,0.0,51,185.0,0.0,0,0,False
1193811,-0.770481244997,-0.0889640826519,Kosarko Andrew,15.0,7.7,0.0,0.0,30,177.5,231.5484805,0,0,False
1362945,-0.731316869144,-0.13387139533,Magrey Nicholas,15.0,7.6,0.0,0.0,30,180.0,7219.106646,0,0,False
1594733,-0.833064289544,0.0440584146293,Negrin Josh,15.0,7.525,0.0,0.0,31,167.5,38544.39167,0,0,False
1866352,-0.794853286781,0.0199416360729,Rigney Patrick,15.0,8.34,0.0,0.0,32,175.0,0.0,0,0,False
2135211,-0.800670360666,0.0879428668632,Stewart Coy,15.02,7.64,0.0,0.0,18,170.0,15188.78393,0,0,False
2107344,0.496793861329,-0.58819022893,Spease Matt,15.07936508,5.038095238,0.0,0.0,43,162.5,48339.02828,0,0,False
1084608,-0.820629392668,0.0928520145103,Jones Brad,15.08448928,8.08556116,0.0,0.0,35,167.5,146501.6934,0,0,False
799886,-0.839625030001,0.0149248925672,Gillette Shain,15.16666667,7.458333333,0.0,0.0,33,167.5,2268.653653,0,0,False
1159596,-0.77624900041,-0.350999698441,Kim Wes,15.3125,7.225,0.0,0.0,48,172.5,0.0,0,0,False
2029521,-0.709637333893,-0.246120266549,Sharpe Michael,15.33333333,7.373333333,0.0,0.0,39,180.0,3287.012487,0,0,False
2384309,-0.823105676412,0.0867885359291,Wexler Jonny,15.75,7.725,0.0,0.0,31,167.5,125000.0,0,0,False
755281,-0.648205666189,-0.495374635807,Gale Elan,15.7972028,6.562237762,0.0,0.0,33,170.0,595238.0952,0,0,False
961871,-0.780996436046,-0.151908395583,Hill Cedric,15.83333333,7.8,0.0,0.0,44,177.5,114285.7143,0,0,False
96555,-0.757940786245,-0.239158411116,Astolfi Michael T.,16.0,7.0,0.0,0.0,31,175.0,2936.058893,0,0,False
169344,-0.767178552186,-0.00898783191307,Bek Kris,16.0,8.9,0.0,0.0,44,180.0,27867.70273,0,0,False
1997542,-0.55097326387,-0.547773104709,Schwartz Brandon,16.0,6.4,0.0,0.0,31,172.5,307.2196621,0,0,False
12028,-0.110758266888,-0.80097864033,Adams Buck,16.04395604,6.310622711,0.0,220.8588957,61,180.0,401007.6687,0,0,False
1792675,-0.294375215711,-0.749846853235,Pruner Aaron,16.08333333,6.175,0.0,0.0,40,172.5,0.0,0,0,False
1509530,-0.792041446801,0.0354276830142,Mitchell Austin,16.16666667,8.333333333,0.0,0.0,31,175.0,10727.13276,0,0,False
293723,0.526566234616,-0.601472427391,Buckner Andre,16.21428571,4.492857143,0.0,0.0,52,175.0,55031.73497,0,0,False
2367469,-0.489692330076,-0.623543034984,Weathers Tripp,16.25,6.6,0.0,0.0,46,177.5,42397.37171,0,0,False
243867,0.621041371509,-0.733533934878,Bottomley Roland,16.33333333,5.2,0.0,0.0,136,170.0,0.0,0,0,False
2192746,-0.433147085319,-0.657213929407,Tatum Crosby,16.46666667,6.286666667,0.0,0.0,34,170.0,0.0,0,0,False
883945,0.570321494973,-0.760641181272,Hagen Walter,16.5,5.3,0.0,0.0,124,175.0,0.0,0,0,False
1355616,-0.772744332503,-0.265045210751,Mackner Mark,16.59090909,7.140909091,0.0,0.0,39,175.0,588.7679664,0,0,False
1966158,0.619495470495,-0.37150067586,Santos Keven,16.6,2.706666667,0.0,0.0,22,173.0,0.0,0,0,False
2478912,-0.755600261477,-0.242790311459,Zorn Lec,16.72727273,7.490909091,0.0,0.0,46,178.0,295418.2871,0,0,False
614097,-0.804148121495,-0.0413667345187,Dwight Eric,16.83333333,7.983333333,0.0,0.0,39,175.0,1920.122888,0,0,False
825608,-0.122566611964,-0.573453814802,Goodreau Mike,16.85714286,6.271428571,0.0,0.0,53,190.0,11427.77237,0,0,False
274432,-0.78203504568,-0.0482520332281,Bromley Grant Douglas,17.0,7.4,0.0,0.0,24,175.0,945.9745121,0,0,False
496957,0.526681477747,-0.79025408171,Daly Arnold,17.0,6.0,0.0,0.0,141,170.0,0.0,0,0,False
1039856,-0.703030257411,-0.371401117773,Jacinto Jordan,17.0,6.6,0.0,0.0,26,167.5,10002898.98,0,0,False
1115532,-0.713655654789,-0.0027462374826,Kantor Jake,17.0,8.2,0.0,0.0,21,182.5,0.0,0,0,False
1425496,0.632210346886,-0.724419544543,Maude Cyril,17.0,5.2,0.0,0.0,154,170.0,0.0,0,0,False
1767700,0.534395281804,-0.716897773385,Pollar Gene,17.0,4.8,0.0,0.0,124,185.0,0.0,0,0,False
1789517,-0.737136856142,-0.424366815154,Priskorn Jeff,17.13888889,6.961111111,0.0,0.0,45,172.5,11052.86401,0,0,False
228297,0.371921974368,-0.85617532488,Bohr Jos’_Î©,17.19354839,6.335483871,0.0,0.0,115,175.0,0.0,0,0,False
773927,-0.505754738735,-0.310942245964,Garvin Jonas,17.25,7.275,0.0,0.0,41,187.5,192669.6688,0,0,False
2074202,-0.256222961153,-0.607842987981,Sless Jeremy,17.5,5.95,0.0,0.0,24,170.0,21439.94765,0,0,False
2470369,-0.533823996302,-0.473312466277,Zentner F.J.,17.5,7.1,0.0,0.0,53,182.5,11099.0224,0,0,False
910232,-0.714405431604,-0.174248107684,Harper Davis,17.51724138,7.04137931,0.0,0.0,25,177.5,0.0,0,0,False
33482,-0.817611480447,-0.261886182031,Alcondez Alejandro,17.83333333,7.25,0.0,0.0,46,170.0,2766883.115,0,0,False
2387796,-0.611294905598,-0.480394763061,White David J.,17.9047619,6.457142857,0.0,0.0,29,170.0,0.0,0,0,False
1932985,-0.646776061666,-0.149460494039,Ryan Matt,18.0,7.72,0.0,0.0,34,185.0,60188.6169,0,0,False
1624446,-0.28736712955,-0.827498425683,North Peter,18.06295082,6.56,0.0,0.0,59,175.0,27235.32502,0,0,False
582680,-0.592794622747,-0.45953786861,Donaldson Matthew,18.06666667,6.693333333,0.0,0.0,38,177.5,204676.7158,0,0,False
341775,-0.820978781747,-0.104149778939,Carl Shay,18.2,7.335,0.0,0.0,36,172.5,180000.0,0,0,False
1436259,-0.659253529336,-0.103887259806,McCarron Jon Michael,18.25,8.35,0.0,0.0,41,187.5,3348.257404,0,0,False
2059681,0.316536436217,-0.852790515265,Simpson Allan,18.25,6.45,0.0,0.0,118,180.0,0.0,0,0,False
182878,0.0124088467097,-0.749860517736,Bentley Stuart,18.33333333,6.066666667,0.0,0.0,59,182.5,1500.0,0,0,False
443146,-0.779550623255,0.241294404056,Cook Bryan,18.33333333,8.35,0.0,0.0,32,162.5,300.0,0,0,False
2196103,-0.808173521135,0.0569439983285,Taylor Jef,18.5,8.458333333,0.0,0.0,43,172.5,9282.033869,0,0,False
345757,-0.728785786898,-0.120011331748,Carpenter Alex,18.66666667,7.566666667,0.0,0.0,33,180.0,22786.77027,0,0,False
1857944,-0.812630045211,0.130392776524,Rice Devin,18.75,7.55,0.0,0.0,30,167.5,98408.1042,0,0,False
171142,-0.413323956557,-0.601899343239,Bell Bevan,18.75862069,6.396551724,0.0,0.0,39,177.5,28867.76199,0,0,False
763367,0.411350861783,-0.842330831566,Garat Henri,18.86363636,6.259090909,0.0,0.0,114,175.0,0.0,0,0,False
650274,0.37711576406,-0.497663466134,Ernst Nick,19.0,4.6,0.0,0.0,33,180.0,0.0,0,0,False
1433761,-0.793209135938,0.200667979954,McAndrew Jimmy,19.0,8.2,0.0,0.0,34,165.0,1720.430108,0,0,False
1482004,-0.177755167351,-0.690619461118,Metcalf Jade,19.0,6.2,0.0,0.0,46,180.0,0.0,0,0,False
1774636,-0.737478671895,-0.342857057349,Porter Lucas,19.0,6.8,0.0,0.0,32,165.0,35000.0,0,0,False
1859952,-0.760548503593,-0.0363401367564,Richards Jozef K.,19.28,7.596,0.0,0.0,27,177.5,0.0,0,0,False
802775,-0.759701653951,-0.135354597388,Giordano Jeff M.,19.33333333,7.366666667,0.0,0.0,34,177.5,3409.3338,0,0,False
1450060,-0.80193889343,0.0134340739595,McGuire Brian James,19.4,8.4,0.0,0.0,46,175.0,10419.68162,0,0,False
1696196,-0.398750332876,-0.778854551289,Parker Al,19.45454545,6.909090909,0.0,0.0,64,170.0,0.0,0,0,False
459052,0.206553277982,-0.784797347867,Coudrain Chuck,19.5,5.85,0.0,0.0,48,167.5,0.0,0,0,False
1232828,-0.66505894038,-0.26756418818,Lalime Robert,19.5,7.1,0.0,0.0,37,180.0,0.0,0,0,False
1637778,0.00904976105427,-0.714151145163,O'Hara Scott,19.5,6.575,0.0,0.0,55,157.5,26872.32699,0,0,False
1162048,0.604337394412,-0.730071634453,King Carlton S.,19.66666667,5.15,0.0,0.0,135,177.5,0.0,0,0,False
1398571,-0.614729210843,-0.183582456257,Marshall Aaron,19.75,7.525,0.0,0.0,36,185.0,1736.613603,0,0,False
997253,-0.615634911639,-0.00484804776019,Howey Axel,20.0,9.2,0.0,0.0,29,195.0,0.0,0,0,False
1398690,0.504264107235,-0.799422504657,Marshall Boyd,20.0,6.066666667,0.0,0.0,132,175.0,0.0,0,0,False
1447101,0.338493543512,-0.469031132769,McGee Jake,20.0,4.45,0.0,0.0,38,187.5,5593.440758,0,0,False
1626351,-0.089539734621,-0.476461777123,Novak Cory,20.0,5.7,0.0,0.0,20,177.5,10389.36938,0,0,False
2315496,-0.731300769412,0.00133403523074,Vey Zachary Le,20.0,8.566666667,0.0,0.0,36,182.5,15941.30616,0,0,False
480214,-0.672437818096,-0.0966396429753,Cullum Shane,20.33333333,8.033333333,0.0,0.0,38,185.0,0.0,0,0,False
594408,-0.149475053605,-0.79121284961,Drake Steve,20.39466667,6.489066667,0.0,0.0,62,180.0,71073.4964,0,0,False
2349462,-0.249098500024,-0.784194508233,Wallice Marc,20.45390898,6.512368728,0.0,220.8588957,57,178.0,71585.87509,0,0,False
146501,0.560195821773,-0.715152053544,Barrymore William,20.5,5.0125,0.0,0.0,117,182.5,44776.1194,0,0,False
447807,-0.774730098638,0.217413610899,Copeland Will,20.5,8.4,0.0,0.0,22,167.5,0.0,0,0,False
888865,-0.723923010127,-0.0463887865974,Hall Bruce Michael,20.51428571,8.242857143,0.0,0.0,39,182.5,575758.9625,0,0,False
1625894,-0.503767097788,-0.597293368957,Nouah Ramsey,20.53846154,6.630769231,0.0,0.0,46,177.5,1374883.299,0,0,False
155457,0.460667677587,-0.811650998822,Bauer Arthur,20.57142857,6.285714286,0.0,0.0,138,177.5,0.0,0,0,False
1926119,-0.0905980293798,-0.418705838473,Rummel Chris,20.66666667,6.033333333,0.0,0.0,35,192.5,0.0,0,0,False
1355541,0.668605598336,-0.69376206834,Mackley Arthur,20.7,5.22,0.0,0.0,151,167.5,0.0,0,0,False
1821532,-0.797203722657,0.000443509488547,Ramsey Karl,20.77777778,7.733333333,0.0,0.0,34,175.0,67635.05287,0,0,False
1852777,-0.597447554823,-0.268040719848,Reyes Ryan,20.85714286,7.142857143,0.0,0.0,38,182.5,96420.70516,0,0,False
61206,-0.816928944312,0.0937330957861,Anderson Jeremy,21.0,7.9,0.0,0.0,39,170.0,48277.80915,0,0,False
451539,-0.446556483511,-0.498397972402,Cornelius Bill,21.0,6.409090909,0.0,0.0,33,177.5,32867.70273,0,0,False
1567839,0.329159896771,-0.798946378828,Murray Guillermo,21.13793103,5.944827586,0.0,0.0,89,182.5,1567985.226,0,0,False
1912036,-0.802340692591,0.0852516376125,Rossi Andy,21.25,8.05,0.0,0.0,35,172.5,50689.37551,0,0,False
2417115,-0.702155646448,-0.0639996142,Winston Paul,21.33333333,7.883333333,0.0,0.0,34,182.5,243880.0,0,0,False
1839960,-0.354666413308,-0.75031133734,Reeves Jim,21.5,7.6,0.0,0.0,93,180.0,0.0,0,0,False
285176,-0.639397065589,-0.0758327945006,Browngardt Peter,21.54681648,8.1917603,0.0,0.0,37,187.5,9130.434783,0,0,False
1817909,-0.44287455843,-0.753025794495,Rambone Dick,21.77272727,6.777272727,0.0,0.0,59,175.0,0.0,0,0,False
219443,0.427974435998,-0.591837069127,Blevins Paul,22.0,4.9,104.5323484,0.0,57,182.5,1567.985226,0,0,False
1875383,-0.487667427262,-0.322834025057,Roache Gavin,22.0,6.6,0.0,0.0,28,180.0,5526.61742,0,0,False
2144309,-0.669824407049,-0.177705110286,Stoyle Bryan Patrick,22.0,7.133333333,0.0,0.0,32,180.0,78407.67414,0,0,False
2366756,-0.152578552998,-0.80594084566,Wayne Anthony,22.0625,6.25,0.0,0.0,48,175.0,10953.28607,0,0,False
1295300,-0.301863877171,-0.406843996619,Lichenstein II C.K.,22.17391304,6.87826087,0.0,0.0,48,190.0,22294.16218,0,0,False
623909,-0.699152401487,-0.144892793327,Edmonds Guy,22.23076923,7.3,0.0,0.0,34,180.0,0.0,0,0,False
283695,-0.551125017072,-0.163485455755,Brown Sam,22.3956044,7.536263736,0.0,0.0,35,187.5,23564.67568,0,0,False
1077496,-0.585554352519,-0.368845454355,Johnson James J.,22.42857143,6.885714286,0.0,0.0,41,180.0,182921.4256,0,0,False
699136,0.218657548658,-0.833687426801,Firpo Luis,22.5,6.85,0.0,0.0,122,185.0,28070.17544,0,0,False
1613465,-0.270441949964,-0.654067289331,Nikitin John,22.6,6.28,0.0,0.0,41,177.5,231705.0691,0,0,False
799055,-0.671469497043,-0.0278219466623,Gill Sean,22.60416667,8.125,0.0,0.0,32,185.0,10007636.2,0,0,False
314032,-0.277272076656,-0.705717223739,Byron Tom,22.60926641,6.57019305,0.0,0.0,55,180.0,251123.0731,0,0,False
438691,-0.455774512565,-0.232914075564,Connell Jim,22.72727273,7.654545455,0.0,0.0,46,192.5,24597.22051,0,0,False
550019,-0.212303649066,-0.809785786371,Depew Joseph,22.82382134,7.657816377,0.0,0.0,104,180.0,0.0,0,0,False
31620,0.760921522925,-0.492785936762,Albert Frankie,23.0,2.4,0.0,0.0,96,172.5,0.0,0,0,False
619231,-0.0373709281988,-0.647785574255,East Noah,23.0,5.9,0.0,0.0,34,175.0,5503.173497,0,0,False
1009645,-0.134016009372,-0.511644402893,Hunter Jr. David,23.0,6.0,0.0,0.0,31,180.0,285119.2834,0,0,False
1793577,-0.164796011197,-0.446117283313,Psihos Spiros,23.0,6.0,0.0,0.0,26,180.0,350000.0,0,0,False
1691210,-0.404447884274,-0.480187999505,Papastefanou Christopher,23.2,6.74,0.0,0.0,46,182.5,0.0,0,0,False
924118,0.473754471363,-0.810856179046,Hatton Dick,23.33333333,6.466666667,0.0,0.0,128,172.5,2299401.198,0,0,False
2072202,-0.575115654383,0.553954913414,Skye Ari,23.33333333,7.655555556,0.0,0.0,18,145.0,174447.2946,0,0,False
1521419,-0.793687651155,0.100746506965,Molony Steven,23.34375,7.5125,0.0,0.0,28,172.5,48176.90476,0,0,False
1025798,-0.776087964881,0.205416368459,Imp Katherine,23.42857143,6.9,0.0,0.0,31,167.5,0.0,0,0,False
2433438,-0.822247093732,0.0871438874951,Wright Casey,23.6,7.24,0.0,0.0,35,170.0,73348.39074,0,0,False
50818,-0.750213872465,0.068193636273,Alvarez Joshy,23.66666667,8.766666667,0.0,0.0,39,180.0,0.0,0,0,False
1625536,-0.114920148026,-0.637464065116,Nos’_Î© Michael,23.66666667,6.011111111,0.0,0.0,34,175.0,0.0,0,0,False
2021197,-0.578063794127,-0.510562486062,Sexton John R.,23.77777778,7.188888889,0.0,0.0,61,180.0,123190.5931,0,0,False
1991366,-0.77104969401,-0.00276732135346,Schoenbach Joel,23.81481481,7.759259259,0.0,0.0,36,177.5,1129508.444,0,0,False
273746,-0.308892291602,-0.689352067148,Brody Dan,23.9,6.31,0.0,0.0,41,175.0,0.0,0,0,False
29299,-0.792832150978,0.12512313786,Alabastro Tasi,24.0,7.95,0.0,0.0,33,172.5,9605.386028,0,0,False
2390005,0.20428256343,-0.731542006733,White Tonny,24.0,5.9,0.0,0.0,43,170.0,2000000.0,0,0,False
2455586,-0.682903668017,-0.091881377882,Young Joshua Lee,24.5,6.95,0.0,0.0,26,177.5,532224.3399,0,0,False
733687,-0.178639422938,-0.481998975202,Fredianelli Michael,24.51724138,6.217241379,0.0,0.0,36,182.5,1050522.662,0,0,False
1672415,-0.231260765286,-0.360089904201,Ovechkin Alexander,24.8,6.35,0.0,0.0,31,185.0,98155.31707,0,0,False
377041,-0.228031299948,-0.489867681817,Chandler Richard,24.8490566,6.232075472,0.0,0.0,34,180.0,15791.07856,0,0,False
1744321,-0.560029521182,-0.236492427202,Phillips Charlie,25.0,7.4,0.0,0.0,46,185.0,0.0,0,0,False
985425,-0.838846155087,-0.0701005565647,Hood David,25.33333333,7.466666667,0.0,0.0,50,172.5,42916.70105,0,0,False
291958,-0.700936947577,0.387462629538,Buchanan Austin,25.69230769,7.376923077,0.0,0.0,26,162.5,172263.7437,0,0,False
1929675,0.477699514265,-0.760025594426,Russell William,25.76923077,5.988461538,0.0,0.0,132,185.0,8000.0,0,0,False
410731,-0.656180886804,-0.0251131857313,Clark Adam Christian,25.86111111,8.026851852,0.0,0.0,36,185.0,385222.1448,0,0,False
707354,0.547327936699,-0.745185363244,Fletcher Tex,26.0,5.7,0.0,0.0,106,180.0,0.0,0,0,False
1941926,-0.696681620119,0.0358179718233,Sage Damien,26.0,8.075,0.0,0.0,31,182.5,557.3540545,0,0,False
188368,-0.413986213574,-0.212065850831,Berliner Robert,26.25,7.05,0.0,0.0,34,187.5,0.0,0,0,False
718344,-0.839174086043,-0.149570196205,Forman Philip,26.5,7.45,0.0,0.0,56,172.5,0.0,0,0,False
1716577,-0.776057490714,0.127874025692,Pecoraro Charlie,26.53333333,8.206666667,0.0,0.0,36,175.0,206837.2238,0,0,False
190870,0.345764252624,-0.843854495802,Bernie Ben,26.8,7.0,0.0,0.0,125,175.0,138129.4964,0,0,False
347925,0.507581019923,-0.755655642798,Carrer Charles,27.0,6.6,0.0,0.0,118,165.0,0.0,0,0,False
900277,-0.640863918336,-0.37985002254,Hankins Andy,27.11111111,7.288888889,0.0,0.0,59,180.0,52853.2813,0,0,False
2135302,0.231253520023,-0.67577887705,Stewart David Lee,27.5,5.95,0.0,0.0,42,172.5,11904.7619,0,0,False
567660,0.51885153415,-0.357026071633,Dillehunt David,27.64705882,4.352941176,0.0,0.0,32,180.0,7271.472986,0,0,False
1726053,-0.679070175684,0.0262586845704,Pereira Warren,27.65517241,8.434482759,0.0,0.0,40,185.0,34407.72432,0,0,False
1212896,-0.747381541873,0.103087654688,Kulegian John,27.66666667,7.833333333,0.0,0.0,30,177.5,10959.52764,0,0,False
2367092,-0.738536521462,-0.0374029994001,Wazwaz Kareem,27.66666667,7.2,0.0,0.0,34,177.5,10302.33047,0,0,False
1898628,0.275978648122,-0.673128222546,Rollins Ben,27.71428571,5.857142857,0.0,0.0,54,180.0,115932.715,0,0,False
2123189,0.525938928481,-0.785238761053,Staub Ralph,27.73170732,6.426829268,0.0,0.0,117,172.5,96987.56786,0,0,False
989494,-0.013210669761,-0.637153900517,Horner Mike,27.78307692,6.420461538,0.0,220.8588957,61,185.0,74235.93736,0,0,False
1882604,-0.771943897212,0.0534427100287,Robinson Jeremy,27.83333333,8.1,0.0,0.0,45,177.5,50686.34347,0,0,False
400308,0.20355346609,-0.39819654586,Chrenen Aaron,28.0,5.5,0.0,0.0,32,182.5,9908.168371,0,0,False
1350472,0.185494014769,-0.463865277669,MacCannell Dan,28.0,5.6,0.0,0.0,45,187.5,4565.217391,0,0,False
1413988,0.713878759158,-0.340083289129,Maslow Brian,28.0,4.5,0.0,0.0,37,167.5,0.0,0,0,False
290146,-0.748378161746,0.144667698911,Bryant Richard,28.2295082,8.386885246,0.0,0.0,32,177.5,23076.06108,0,0,False
273248,-0.793346265686,0.076583144197,Brockway Stephen,28.33333333,7.8,0.0,0.0,43,175.0,39700.6952,0,0,False
737486,-0.728103859668,0.346209344077,Frey Philip R.,28.33333333,7.166666667,0.0,0.0,47,165.0,0.0,0,0,False
2234644,-0.780895153608,0.223373672291,Tolson Paco,28.85714286,7.528571429,0.0,0.0,37,170.0,16388.71855,0,0,False
1839402,0.121618786713,-0.313551880585,Reese Douglas,28.88888889,5.677777778,0.0,0.0,25,180.0,1367.086187,0,0,False
1454749,0.362593538763,-0.353153952467,McKnight Antoine,29.0,4.7,0.0,0.0,33,187.5,0.0,0,0,False
1452618,0.691658547069,-0.665817219935,McKee Raymond,29.06451613,5.770967742,0.0,0.0,124,167.5,4617543.86,0,0,False
1377513,0.237754571531,-0.416845247939,Mandel Mischa,29.25,5.7,0.0,0.0,33,177.5,32142.85714,0,0,False
124482,-0.782803326852,0.120122778977,Balderston Keith J.,29.28571429,8.157142857,0.0,0.0,46,175.0,36058.15666,0,0,False
92186,-0.6810158401,0.063006971881,Asau Tui,29.6,7.98,0.0,0.0,33,182.5,83767.23439,0,0,False
1904402,-0.00922621028506,-0.310373286661,Ropp Adam,29.88461538,6.023076923,0.0,0.0,32,187.5,40022.29188,0,0,False
405858,-0.69611987862,-0.1830316763,Ch’_’_vez Ricardo,29.92307692,7.353846154,0.0,0.0,51,180.0,0.0,0,0,False
1414572,0.341732288971,-0.815356258616,Mason John 'Spider Bruce',30.0,6.85,0.0,0.0,121,182.5,0.0,0,0,False
1254502,-0.717927943411,0.0122689769118,Lavin T.J.,30.03773585,7.654716981,0.0,0.0,40,180.0,411411.8998,0,0,False
548749,-0.810620361941,0.105489909574,Dennis Stefan,30.15434084,7.933762058,0.0,0.0,58,172.5,25000.0,0,0,False
1430,-0.264652671597,-0.388599149762,Aaron Mark,30.33333333,7.133333333,0.0,0.0,61,190.0,156942.4229,0,0,False
718835,0.591978972533,-0.738120403082,Forrest Allan,30.38461538,6.123076923,0.0,0.0,131,177.5,10526315.79,0,0,False
2334500,-0.589942055177,-0.0286969335036,Vorob Greg,30.5,7.640909091,0.0,0.0,37,185.0,4475.523428,0,0,False
1084859,0.504485797859,-0.762111963504,Jones Buck,30.59633028,6.299082569,0.0,0.0,125,182.0,16326530.61,0,0,False
975579,-0.618777099469,-0.533031969213,Hogan Jack,30.67391304,7.969021739,0.0,0.0,87,172.5,0.0,0,0,False
1140028,0.380777182194,-0.709842810882,Kemp Hal,30.75,6.125,0.0,0.0,111,190.0,172661.8705,0,0,False
502320,0.329227686087,-0.580557624102,Danno George,31.0,6.05,0.0,0.0,43,172.5,100000.0,0,0,False
648335,0.290198223894,-0.403418299331,Erha Kyle,31.0,5.85,0.0,0.0,35,175.0,64795.62056,0,0,False
1178285,-0.744394544001,0.254407201022,Knight John,31.0,7.8,0.0,0.0,27,172.5,0.0,0,0,False
1367195,-0.706857679356,0.0988652349697,Maiullo Jon,31.0,7.8,0.0,0.0,33,180.0,0.0,0,0,False
2037397,0.56180461097,-0.73307521328,Sherry J. Barney,31.17241379,6.1,0.0,0.0,142,182.5,297247.7064,0,0,False
180581,0.517628971956,-0.776568566294,Bennett Joseph,31.75,6.55,0.0,0.0,122,177.5,1034482.759,0,0,False
1862254,0.252527416375,-0.684151967167,Richmond Kevin,32.0,6.166666667,0.0,0.0,47,175.0,0.0,0,0,False
2017506,-0.776242758849,0.209593773474,Sermini Jorge,32.0,7.7,0.0,0.0,41,172.5,350000.0,0,0,False
2099244,-0.571927427127,-0.146904395083,Sonntag Michael,32.16666667,7.266666667,0.0,0.0,46,182.5,0.0,0,0,False
699339,-0.730714527486,0.246855446095,Fischbach Mark Edward,32.45,8.506666667,0.0,0.0,27,175.0,21982.62145,0,0,False
584895,-0.723484558628,-0.0354294330609,Donovan Rick,32.6,7.71,0.0,0.0,53,180.0,20573.69628,0,0,False
278919,-0.729538344248,0.212131360965,Brown Bill T,33.0,8.8,0.0,0.0,34,177.5,1114.708109,0,0,False
465890,-0.64853983268,0.107913680978,Cramer Hal,33.0,7.8,0.0,0.0,31,182.5,15526.27908,0,0,False
1880872,-0.716081598631,0.220651132478,Robichaux Andreas,33.0,7.15,0.0,0.0,29,175.0,146802.9446,0,0,False
832314,-0.633920430305,0.132892536986,Goulart Gustavo,33.1122449,9.710204082,18796410.95,0.0,27,182.5,12102998.59,0,0,False
349533,0.676799859965,-0.327133430988,Carroll John F.,33.33333333,4.09047619,0.0,0.0,43,177.5,1528048.092,0,0,False
640311,0.624881714063,-0.712968599704,Eltinge Julian,33.33333333,6.416666667,0.0,0.0,135,172.5,407904.1916,0,0,False
1567887,0.659426791286,-0.687826856142,Murray J. Harold,33.5,5.875,0.0,0.0,125,177.5,0.0,0,0,False
178482,0.682441287238,-0.668218775639,Benham Harry,33.85714286,5.676190476,0.0,0.0,132,177.5,8000.0,0,0,False
1093394,-0.479414486405,0.212605929872,Joseph Andr’_Î©,34.0,6.685714286,2411690.291,0.0,33,172.5,19862.27207,0,0,False
1394615,0.615422513804,-0.704977350121,Marks Willis,34.0,6.66,0.0,0.0,151,170.0,0.0,0,0,False
2276612,-0.71915765193,0.308515598696,Ungvary Elijah,34.0,7.3,0.0,0.0,30,172.5,10000.0,0,0,False
1216641,0.526718112482,-0.414278618263,Kurata Tetsuo,34.05882353,5.382352941,0.0,0.0,48,180.0,0.0,0,0,False
928800,0.406742139869,-0.705118194608,Hayden Russell,34.36036036,6.278378378,0.0,0.0,104,187.5,0.0,0,0,False
2214509,0.556217650831,-0.378575269665,Thomas John,34.5,6.257142857,0.0,0.0,50,167.5,400849.1811,0,0,False
997663,0.580283719185,-0.713850992039,Hoxie Jack,34.85714286,6.171428571,0.0,0.0,131,182.5,6671031.193,0,0,False
1138857,-0.633447297157,0.471232502927,Kelly Rook,35.0,7.2,0.0,0.0,28,167.5,200000.0,0,0,False
1051309,-0.56565354316,-0.352466486651,James Michael Wayne,35.23076923,7.192307692,0.0,0.0,61,180.0,1209141.108,0,0,False
606680,0.635838860913,-0.703998928567,Duncan William,35.23529412,6.370588235,0.0,0.0,137,175.0,0.0,0,0,False
1847047,-0.7028463296,0.2897944533,Renaud Bryan,35.25,7.75,0.0,0.0,25,175.0,11186.88152,0,0,False
1975077,0.144448725848,-0.506329890321,Savage Herschel,35.32579186,6.337405732,0.0,0.0,64,188.0,50137.50401,0,0,False
788646,-0.747644345289,0.0116486380536,Gersh Adam,35.33333333,7.166666667,0.0,0.0,46,177.5,0.0,0,0,False
2473259,0.00693132851582,-0.229252683136,Zhmutski Peter,35.33333333,6.257142857,0.0,0.0,36,180.0,563151.0429,0,0,False
2265162,-0.736024659853,0.160542451198,Turnage Jason,35.66666667,7.65,0.0,0.0,42,177.5,2211581.889,0,0,False
764344,-0.78413012365,0.154596445524,Garcia Billy,35.68181818,7.281818182,0.0,0.0,46,175.0,397602.6466,0,0,False
1321021,0.616842485264,-0.135043212329,Loper John,35.71428571,5.542857143,0.0,0.0,33,172.5,119089.7038,0,0,False
771588,0.0260337556792,-0.233976536873,Garnet Brian,35.75,6.2,0.0,0.0,37,187.5,0.0,0,0,False
1833607,-0.517218123273,0.0551326406201,Rea Kyle,36.02083333,7.465625,0.0,0.0,35,185.0,1307201.121,0,0,False
834870,-0.658386592359,0.263155235779,Graceffa Joey,36.02325581,7.397674419,0.0,0.0,25,177.5,23991.28143,0,0,False
1232696,-0.555988286089,0.173505897906,Lalanne Max,36.05882353,7.776470588,0.0,0.0,19,185.5,669837.297,0,0,False
1180235,0.193468470455,0.0567296674663,Knudsen Daniel,36.35294118,6.058823529,0.0,0.0,28,175.0,0.0,0,0,False
382918,0.549301765085,-0.227612807727,Chase Dustin,36.5,5.4,0.0,0.0,36,177.5,1045323.484,0,0,False
1871603,0.612201985136,-0.721627348956,Ritter Tex,36.69230769,6.287179487,0.0,40479.61631,111,177.5,472862.4535,0,0,False
505120,0.554216470361,-0.734227615716,Darrow Clarence,36.77777778,6.788888889,0.0,0.0,159,180.0,0.0,0,0,False
768839,0.585527752728,-0.703225482666,Gardel Carlos,36.78571429,6.907142857,0.0,0.0,126,170.0,0.0,0,0,False
160518,-0.705144590928,0.336760858615,Beaman Rusty,37.0,8.085714286,0.0,0.0,30,172.5,4143.567844,0,0,False
1712931,0.734188803725,-0.55324343955,Payne George,37.29787234,6.319858156,0.0,0.0,72,170.0,169435.4814,0,0,False
1921997,-0.450838283261,0.122084288134,Ruckdashel Brandon,37.34482759,6.872413793,0.0,0.0,33,180.0,295406.349,0,0,False
2351794,-0.346919567819,-0.0303650525125,Walter Mika,37.86363636,7.036363636,0.0,0.0,39,185.0,2786491.374,0,0,False
1482948,0.381616367632,-0.0374992379972,Metzger Ryan G.,38.28571429,6.214285714,0.0,0.0,39,175.0,31091.75747,0,0,False
1146277,0.0716700779771,-0.47108783563,Kerrigan J. Warren,38.45454545,5.872727273,107087719.3,0.0,137,182.5,6905263.158,0,0,False
956812,-0.538020367434,-0.102012399792,Hexum Jon-Erik,38.46875,7.4625,0.0,0.0,59,182.5,510490.8566,0,0,False
1374363,0.613481160629,-0.706936130469,Maloney Leo D.,38.53846154,6.6,0.0,0.0,128,177.5,0.0,0,0,False
451566,-0.435721589886,-0.175243804632,Cornelius Glade,38.6,6.72,0.0,0.0,47,177.5,1391473.226,0,0,False
1318149,-0.670388703091,0.348772372922,London Chris,38.75,7.85,0.0,0.0,24,175.0,5010.30233,0,0,False
2122411,-0.691983186825,0.37405120609,Starr Noah,38.8,7.66,0.0,0.0,36,172.5,5573.540545,0,0,False
1256556,-0.547377840934,0.139303694732,Lawrence Russell,38.98214286,7.335714286,0.0,0.0,38,182.0,5952.380952,0,0,False
418305,0.722665136944,-0.594549785884,Clifford Jack,39.0,5.05,0.0,0.0,136,182.5,0.0,0,0,False
2150302,-0.369548791893,0.0424564883258,Stuart Jack,39.0,7.6,0.0,0.0,30,193.0,457500.0,0,0,False
1894024,0.399501236802,-0.287373303224,Rogell Ron,39.33333333,6.316666667,0.0,0.0,47,177.5,19756.51275,0,0,False
1413928,0.182770158996,-0.850507551611,Masley Michael,39.5,6.8,0.0,0.0,64,177.5,100000.0,0,0,False
1882253,0.379455300558,-0.0791246347005,Robinson Frank 'Sugar Chile',39.5,7.125,0.0,0.0,78,132.5,0.0,0,0,False
222925,0.105623772266,0.454270016525,Blunt James,39.6,6.52,0.0,0.0,42,170.0,1013787.51,0,0,False
1447390,-0.0864452775984,-0.174224837088,McGennis Peter,39.625,6.6375,0.0,0.0,46,182.5,0.0,0,0,False
1726675,-0.640482055874,0.225640267076,Perez Alex,39.66666667,8.183333333,0.0,0.0,33,182.5,7806.474595,0,0,False
2213393,-0.0882483244718,-0.590451518894,Thomas Danny,39.83454545,7.579272727,39191011.24,0.0,104,177.5,8066376.032,0,0,False
676192,-0.654864910093,0.422359473661,Faust Ricky,39.92307692,7.5,0.0,0.0,32,172.5,6645.732286,0,0,False
670667,0.348515209349,0.343429758505,Faraj Conrad,40.33333333,6.006666667,0.0,0.0,26,172.5,11660.6476,0,0,False
1504314,-0.610727408277,0.522961875395,Ming Michael,40.33333333,7.733333333,0.0,0.0,51,165.0,1000000.0,0,0,False
665988,-0.53096790759,0.591813967981,Fahr Michael Kenneth,40.42857143,7.185714286,0.0,0.0,35,167.5,110063.4699,0,0,False
2377064,-0.601038202737,0.522225694273,Wellman Guy,40.5,7.0,0.0,0.0,45,172.5,17173.0329,0,0,False
1093036,-0.0909116172326,-0.0880190690247,Jorrin Alberto,40.55555556,6.655555556,0.0,0.0,35,192.5,67157.16544,0,0,False
978438,0.650542833813,-0.645605116565,Holland John,40.88888889,6.144444444,0.0,0.0,117,182.5,0.0,0,0,False
220509,-0.0405583314027,-0.447289035236,Blocker Dan,40.90946502,7.387242798,0.0,0.0,88,193.0,1146391.753,0,0,False
692536,0.441396459492,-0.271864722751,Field Ken,41.0,3.9,0.0,0.0,43,200.0,559344.0758,0,0,False
1792917,-0.58106993619,0.233838587059,Pryer Jeremy,41.0,7.7,0.0,0.0,33,182.5,11186.88152,0,0,False
1812718,0.559346887491,-0.175340374186,Ragland Phill,41.0,5.55,0.0,0.0,41,180.0,0.0,0,0,False
2464191,0.540559979969,-0.239213379198,Zambrano Ruben,41.0,5.4,0.0,0.0,45,182.5,0.0,0,0,False
1395213,-0.684237981088,0.302568377237,Marlow Nathan,41.16666667,8.272222222,0.0,0.0,37,177.5,33773.44769,0,0,False
2057980,-0.527494887681,0.493118981078,Simon Dan,41.64285714,6.971428571,0.0,0.0,33,175.0,104947.6698,0,0,False
983548,0.707741762154,-0.159460684436,Holzier James,41.66666667,4.166666667,0.0,0.0,35,177.5,1666666.0,0,0,False
451895,0.688222088368,-0.254826391049,Cornetta John J.,41.75,6.133333333,0.0,0.0,52,177.5,128235.2747,0,0,False
1906956,0.49584129667,-0.224438323844,Rose Rick,41.85714286,4.471428571,0.0,0.0,38,190.0,0.0,0,0,False
418483,0.686353326886,-0.129728436073,Clifton Conrad,42.0,5.0,0.0,0.0,38,177.5,23653.38137,0,0,False
1644698,0.0588038810587,0.498549586772,Odell Jr. Robert M.,42.0,6.4,0.0,0.0,32,175.0,8602.150538,0,0,False
1209124,-0.521966946017,0.232796462542,Krystalis Manos,42.1,7.5,0.0,0.0,34,183.0,543883.3276,0,0,False
2340586,-0.442370501584,-0.0967060606948,Waggoner Lyle,42.15737705,8.407868852,0.0,0.0,81,190.0,229729.7297,0,0,False
10034,-0.223264648797,-0.0852366571845,Acord Leon,42.16666667,6.866666667,0.0,0.0,53,180.0,40610.80877,0,0,False
1640838,0.737596744242,-0.611008482731,O'Shea Danny,42.28571429,6.1,0.0,0.0,115,177.5,0.0,0,0,False
1757821,-0.227554240189,0.0760157590832,Piscopo Joey,42.28571429,6.9,0.0,0.0,37,185.0,214263.0313,0,0,False
2019798,-0.550561557882,0.541981157058,Settani Dan,42.3,6.91,0.0,0.0,46,175.0,0.0,0,0,False
1117886,-0.0452152666525,-0.10110324977,Karageanes Steven,42.42857143,6.7,0.0,0.0,47,185.0,2452.35784,0,0,False
144618,-0.638349914707,0.474726633399,Barrie Max,42.64150943,8.51509434,0.0,0.0,34,165.0,3310.869565,0,0,False
242899,-0.470313145521,0.0228031520123,Boswell David,43.0,8.5,0.0,0.0,63,192.5,0.0,0,0,False
1179039,-0.355568395025,0.311080367506,Knittle II Jason F.,43.0,7.0,0.0,0.0,19,182.5,271807.7304,0,0,False
1868762,-0.624105025954,0.369833976848,Rini Adam,43.0,7.657142857,0.0,0.0,32,177.5,38226.23913,0,0,False
1210968,0.150957704024,-0.087082086142,Kucmierowski William,43.4,6.32,0.0,0.0,42,185.0,67113.48155,0,0,False
571463,0.378382012469,-0.0290970833785,Dirden III Charles,43.5,6.325,0.0,0.0,46,180.0,0.0,0,0,False
1534527,-0.558162834273,0.330368432274,Morais Edgar,43.54545455,7.627272727,0.0,0.0,27,181.0,1012585.595,0,0,False
1527952,-0.580773694669,0.513526455623,Montgomery Michael Brian,43.73333333,7.12,0.0,0.0,46,175.0,3340.508018,0,0,False
1736516,-0.628537461477,0.491779145625,Peterson Jon,43.75,7.75,0.0,0.0,54,170.0,8687.786116,0,0,False
1425309,0.0154253186948,-0.038193263273,Matzke Christian,43.80952381,6.50952381,0.0,0.0,39,187.5,33351.86215,0,0,False
1609150,-0.367518341661,0.264844082031,Nickerson Shane,43.81656805,6.979881657,0.0,0.0,45,180.0,0.0,0,0,False
563887,-0.154847450243,0.636089896683,Dickerson Stacy,44.0,6.633333333,0.0,0.0,34,175.0,9930.573099,0,0,False
1515926,-0.43550669556,0.123021512929,Moebius C.J.,44.0,8.3,0.0,0.0,34,195.0,3301.904098,0,0,False
2292088,-0.234588811671,-0.1663218815,Van Dyke Barry,44.03162055,7.209486166,0.0,0.0,65,182.5,1792412.158,0,0,False
701650,-0.432807859339,0.671487032727,Fisher Spencer,44.07692308,7.176923077,0.0,0.0,40,167.5,0.0,0,0,False
578440,-0.548269003728,0.549219700147,Doherty Jr. Bill,44.125,7.3,0.0,0.0,34,172.5,32224.91837,0,0,False
1842948,-0.293822599155,0.234374755731,Reid Wes,44.3,6.98,0.0,0.0,37,182.5,4716.340943,0,0,False
2122526,0.565999181337,-0.643999386567,Starrett Charles,44.38265306,6.61377551,0.0,0.0,113,185.0,5739451.095,0,0,False
263659,0.748150946849,-0.5951575825,Breeden John,44.5,6.283333333,0.0,0.0,112,177.5,0.0,0,0,False
946569,-0.6750987559,0.37475613704,Henson Mike,44.6,8.02,0.0,0.0,53,175.0,19354.83871,0,0,False
2396532,-0.425506082672,0.256247417667,Wilcox Ethan,44.66666667,7.266666667,0.0,0.0,40,182.5,27674.42251,0,0,False
1245728,-0.410449767985,0.688962941503,Larionov Igor,44.8,7.08,0.0,0.0,56,172.5,119047.619,0,0,False
1916974,0.0663485609241,-0.586428900513,Rowan Dan,44.99447514,7.498342541,0.0,0.0,94,185.0,0.0,0,0,False
1345169,0.678320456147,-0.54874157912,Lytle Hale,45.0,7.1,0.0,0.0,115,167.5,0.0,0,0,False
1805369,-0.603870410448,0.235025217194,Quinn Jeff,45.0,7.614285714,0.0,0.0,59,180.0,0.0,0,0,False
2178575,0.590616729427,-0.683789958094,Taft William Howard,45.0,7.246666667,0.0,0.0,159,177.5,0.0,0,0,False
2454890,0.459886906389,-0.0644302079799,Young Derek,45.0,5.313333333,0.0,0.0,32,185.0,131970.0859,0,0,False
571483,-0.572784937131,0.492960460978,Director Jason,45.5,7.45,0.0,0.0,36,175.0,9738.729713,0,0,False
1714033,0.787925953904,-0.446265572538,Peabody Eddie,45.5,6.525,0.0,0.0,114,162.5,18556701.03,0,0,False
518284,0.266747338014,0.591171627497,Day Mikey,45.57458564,6.419889503,0.0,0.0,36,175.0,1605287.824,0,0,False
257151,-0.41875361603,0.419691183,Braham Noel,45.8,7.16,0.0,0.0,27,180.0,53194.68757,0,0,False
1862095,0.828481603294,-0.469898334591,Richman Harry,45.8,4.44,0.0,0.0,121,177.5,5792298.614,0,0,False
379593,-0.142929382112,0.408933116842,Chapman Casey,46.4,6.74,0.0,0.0,34,180.0,89672.37301,0,0,False
2248468,0.721241311365,-0.604627274529,Travers Richard,46.58333333,6.325,0.0,0.0,131,180.0,5614035.088,0,0,False
1419554,0.583530688192,-0.65478749883,Mathewson Christy,46.6,6.84,0.0,0.0,136,185.0,0.0,0,0,False
2147902,0.642981567331,-0.104397843174,Stringer John Cory,46.69230769,4.646153846,0.0,0.0,37,182.5,49867.19352,0,0,False
1983645,0.814679274287,-0.52691204182,Schenck Joe,46.85714286,6.014285714,0.0,0.0,125,172.5,0.0,0,0,False
862165,0.479111115481,0.602258374926,Guadagnino Vinny,46.96907216,6.05257732,0.0,0.0,29,167.5,0.0,0,0,False
438475,0.155260236989,-0.659205100195,Conn Billy,47.0,7.633333333,0.0,0.0,99,180.0,0.0,0,0,False
1025078,0.35577321427,0.489084722569,Imai Masayuki,47.11111111,6.8,0.0,0.0,55,178.0,900317.3497,0,0,False
96876,0.878780204469,-0.256130230745,Astyr Bobby,47.28070175,6.070175439,0.0,0.0,79,165.0,274624.1522,0,0,False
925458,-0.333636508889,0.457674294597,Hauser Scotty,47.33333333,7.033333333,0.0,0.0,28,180.0,0.0,0,0,False
2377216,-0.349676701871,0.565676328386,Wells Ben,47.42857143,7.014285714,0.0,0.0,36,177.5,61309.73878,0,0,False
196515,-0.0187517889479,-0.397724215005,Betz Carl,47.81659389,7.676419214,0.0,0.0,95,180.0,7505617.978,0,1,False
1932501,-0.290406043494,0.73196890025,Ryan Felix,47.95238095,6.977777778,0.0,0.0,26,167.5,1551511.652,0,0,False
1438861,0.893313755378,0.0171364622359,McClure Jon,48.0,5.7,0.0,0.0,52,170.0,4474.752607,0,0,False
1621734,-0.598693004324,0.502212628317,Noor Fernando,48.0,8.3,0.0,0.0,30,170.0,57500.0,0,0,False
2413100,0.529123907995,0.0257228047404,Wilson Nathan,48.16666667,5.6,0.0,0.0,37,182.5,10226.61742,0,0,False
2386978,-0.340199241159,0.103747859472,White Jr. Jerry,48.625,8.1375,0.0,0.0,41,197.5,371410.246,0,0,False
1745348,0.745103067842,0.473881228028,Phillips Oz,48.66666667,6.7,0.0,0.0,57,172.5,119047.619,0,0,False
2345463,-0.438598460216,0.607465691941,Walker Doug,48.72980251,7.258438061,0.0,0.0,35,175.0,16508.44939,0,0,False
1853848,-0.478986809128,0.417253329879,Reynolds Marcellas,48.875,7.4421875,0.0,0.0,49,180.0,172581.4553,0,0,False
316764,0.543378416252,0.5739085748,Cabatit Joe,49.0,6.2,0.0,0.0,36,172.5,21428.57143,0,0,False
1696753,0.868776161358,-0.435012357395,Parker Frank,49.0,5.966666667,0.0,0.0,110,170.0,0.0,0,0,False
1898170,-0.496750288383,0.511867582204,Rolfe James,49.08094099,7.475757576,0.0,0.0,36,177.5,145943.5531,0,0,False
81392,-0.299834933784,0.751635423736,Arellano Raul,49.14285714,7.2,0.0,0.0,51,170.0,0.0,0,0,False
702857,-0.491877093764,0.286221934124,Fitzgerald Larry,49.16666667,8.158333333,0.0,0.0,33,187.5,128034.7116,0,0,False
76415,-0.481233870988,0.520784107597,Applegate Barrett,49.2,7.44,0.0,0.0,34,177.5,1211775.865,0,0,False
2341099,-0.210902625248,0.254734718193,Wagner Jack,49.24252492,7.195016611,0.0,0.0,57,182.0,0.0,0,0,False
1536405,0.827114352929,-0.507956431223,Morante Milburn,49.78571429,5.881547619,0.0,0.0,129,175.0,478130.3688,0,0,False
852747,-0.192759493521,0.0866311912169,Griffin Blake,49.84210526,7.405263158,0.0,0.0,27,200.0,0.0,0,0,False
192339,0.334291682136,-0.156397671962,Berry Ken,49.91397849,7.466129032,0.0,0.0,83,172.5,0.0,0,0,False
74151,-0.564180490072,0.472387481743,Antwiler Noah,49.97735849,7.920377358,0.0,0.0,36,177.0,18984.7651,0,0,False
1408477,-0.542976607698,0.477388092793,Martland Theodore,50.23076923,7.892307692,0.0,0.0,29,177.5,0.0,0,0,False
1197666,0.28726581097,0.778222174555,Kovach Jeremy,50.33333333,6.566666667,0.0,0.0,40,170.0,1268712.477,0,0,False
1009162,-0.339058726953,0.348574881704,Hunt Kaylon,50.375,7.3875,0.0,0.0,31,185.0,72722.196,0,0,False
1709423,0.286389125329,0.240484263011,Paul James,50.57142857,6.385714286,0.0,0.0,40,182.5,30876.61287,0,0,False
2020958,-0.286016514864,0.621227645726,Sewell Fred,50.71428571,7.071428571,0.0,0.0,35,177.5,1170634.921,0,0,False
1570187,-0.575025121347,0.48252132342,Musolino Mitchell,50.75,8.275,0.0,0.0,25,175.0,10000.0,0,0,False
951507,-0.587249265706,0.534749388367,Hern’_’_ndez Carlos,51.0,8.8,0.0,0.0,45,165.0,0.0,0,0,False
1286906,-0.173149938227,0.638541036167,Levine Chris,51.0,6.9,0.0,0.0,32,177.5,506.8937551,0,0,False
1735726,-0.279005555258,0.756309203744,Petersen Michael G.,51.0,7.266666667,0.0,0.0,32,160.0,9737.444033,0,0,False
1187802,-0.464704125797,0.556585798411,Komito Steven,51.05555556,7.483333333,0.0,0.0,47,177.5,76130.19383,0,0,False
1430332,0.696034120471,-0.605927282727,Maynard Ken,51.19230769,6.697435897,0.0,75853.03321,121,180.0,1852750.357,0,0,False
1530957,0.221649386346,-0.542522783083,Moore Clayton,51.28404669,7.673929961,0.0,0.0,102,182.5,1289201.059,0,0,False
2437200,-0.413159398036,0.553723603751,Wyatt Samuel,51.33333333,7.4,0.0,0.0,19,177.5,3936.324168,0,0,False
1711435,-0.419980414185,0.342455120601,Pavletic Ivan,51.84615385,7.756410256,0.0,0.0,42,185.0,80849.34717,0,0,False
1255879,0.86836978115,-0.443215815952,Lawrence Charles,52.0,5.925,0.0,0.0,120,172.5,0.0,0,0,False
275098,-0.000952280845047,0.291681051395,Brooke Joseph,52.14285714,6.771428571,0.0,0.0,37,185.0,55735.40545,0,0,False
782439,-0.268512301074,0.666448918046,Gelder Steve,52.14285714,7.185714286,0.0,0.0,47,177.5,20446.7582,0,0,False
706203,-0.0466804823845,-0.338546232676,Fleming Eric,52.18894009,8.031797235,0.0,1649484.536,91,190.0,0.0,0,0,False
2448024,-0.457053810389,0.623920366625,Yeargain Joseph C.,52.25,7.625,0.0,0.0,33,172.5,11501.00906,0,0,False
1510181,0.875950272394,-0.215789295642,Mitchell Guy,52.34285714,6.434285714,0.0,0.0,89,165.0,105882.3529,0,0,False
2131995,0.901990441913,0.0569076444515,Stern Wes,52.38461538,6.823076923,0.0,0.0,69,177.5,0.0,0,0,False
1751138,0.570946088701,0.627440469894,Pietrowiak Craig James,52.41666667,6.5,0.0,0.0,46,175.0,472030.8467,0,0,False
444383,0.816689534966,-0.509663353474,Cooke Al,52.42857143,6.242857143,0.0,0.0,136,175.0,0.0,0,0,False
1014376,0.82347141595,-0.504577595761,Hutchison Charles,52.44827586,6.110344828,0.0,0.0,137,175.0,7003244.313,0,0,False
1074884,-0.0324853998923,-0.286925181195,Johnson Ben,52.66666667,7.3,0.0,0.0,37,182.5,26195.64056,1,1,False
1216843,0.257547482572,-0.056163513969,Kureth Michael R.,52.69230769,5.7,0.0,0.0,36,197.5,0.0,0,0,False
126157,-0.262050892704,0.558785678229,Ball Daniel,52.8,7.18,0.0,0.0,39,180.0,31359.70452,0,0,False
1786685,0.859953575439,-0.324755161761,Price Georgie,53.0,6.225,0.0,0.0,115,160.0,0.0,0,0,False
1240505,-0.17392683236,0.106040245079,Lang Marty,53.22580645,7.483870968,0.0,0.0,39,197.5,493910.5068,0,0,False
346304,0.819638865622,-0.491213221594,Carpentier Georges,53.33333333,6.4,0.0,0.0,122,177.5,11929824.56,0,0,False
2373380,0.839016458903,0.336241614613,Weiner Mike,53.4,6.14,0.0,0.0,50,172.5,5467.676454,0,0,False
233196,0.763670988719,-0.532419608749,Bonelli Richard,53.5,6.65,0.0,0.0,127,180.0,0.0,0,0,False
2189324,0.625651782194,-0.391766553939,Tappert Horst,53.72554348,6.509782609,0.0,0.0,93,187.0,0.0,0,0,False
535784,-0.53052553329,0.532045421087,Deering Craig,53.75,8.15,0.0,0.0,29,175.0,1942.503171,0,0,False
625378,0.633417622001,-0.170339304327,Edwards Eric,53.75952381,6.306190476,0.0,0.0,71,185.0,314008.2647,0,0,False
1246462,-0.464370452653,0.603681620656,Larose Mike,53.8,7.72,0.0,0.0,42,175.0,30455.29223,0,0,False
675916,-0.24734299064,0.75452674237,Faunt Jason,54.12686567,7.250746269,0.0,0.0,42,172.5,771469.0911,0,0,False
1160370,-0.0813347155256,0.583276841604,Kimmel Andrew,54.35582822,6.86993865,0.0,0.0,30,180.0,0.0,0,0,False
405796,-0.540520593796,0.453706995644,Ch’_’_vez Christian,54.38461538,8.330769231,0.0,0.0,33,180.0,200000.0,0,0,False
1317031,0.756084424005,0.390060525983,Lolli Steven,54.5,5.816666667,0.0,0.0,40,162.5,76450.84547,0,0,False
971201,-0.499994512293,0.604028143276,Hobgood CJ,54.85714286,8.142857143,0.0,0.0,37,170.0,220684.4016,0,0,False
1436727,0.676034979079,0.334819159142,McCarthy Joshua,55.0,5.9,0.0,0.0,39,177.5,16073.92363,0,0,False
2192497,-0.112994561389,0.699045029396,Tatman Scott,55.0,7.02,0.0,0.0,37,177.5,30817.77158,0,0,False
1775089,0.554068605894,0.633833202253,Portilla Omar,55.33333333,6.1,0.0,0.0,36,162.5,288032.3487,0,0,False
1625583,0.358655426868,0.469100154085,Notarile Chris R.,55.36904762,6.319345238,0.0,0.0,34,180.0,70363.12813,0,0,False
1320421,0.802109682159,-0.514357948615,Lonsdale Harry,55.4,6.48,0.0,0.0,151,175.0,0.0,0,0,False
2261227,0.803585592685,-0.494691021088,Tucker George Loane,55.43478261,6.726086957,0.0,0.0,136,175.0,0.0,0,0,False
2215460,0.575798382009,-0.0563928138149,Thomas Paul,55.60401891,6.535579196,0.0,0.0,69,185.0,660611.5157,0,0,False
1175580,0.0382568320096,0.595658305822,Klitzner Sean,55.61538462,6.769230769,0.0,0.0,33,180.0,22872.57474,0,0,False
48903,0.278903468816,0.612206308182,Altemus Erik,56.0,6.4,0.0,0.0,29,177.5,0.0,0,0,False
1570623,-0.10399566153,0.350101914013,Mustain Mitch,56.0,7.0,0.0,0.0,28,187.5,51511.65237,0,0,False
1886378,0.88600317813,-0.30571322669,Rock Joe,56.1509434,5.739622642,0.0,0.0,123,157.5,0.0,0,0,False
1238680,-0.143808979018,-0.391599723238,Landon Michael,56.38220277,7.888986142,17081850.53,0.0,80,172.5,2662811.474,0,0,False
725447,0.158090243022,0.600841107727,Foxworth Jason,56.5,6.775,0.0,0.0,41,180.0,4233.870968,0,0,False
931603,0.00523121978962,0.289771604779,Hazelrig Darrell C.,56.6,6.94,0.0,0.0,41,187.5,2265.391373,0,0,False
1324680,0.790505985995,0.208694270008,Loretto John,56.66666667,5.2,0.0,0.0,38,175.0,567348.5228,0,0,False
2036674,0.580633041739,0.536481774678,Sherman Bobby,56.91891892,7.17027027,0.0,0.0,73,172.5,2014438.834,0,0,False
1941381,0.531524165338,0.635366045209,Saffer Scott,57.0,6.4,0.0,0.0,41,175.0,0.0,0,0,False
2005791,-0.139360854413,0.624328475384,Seamy Ryan,57.0,7.133333333,0.0,0.0,37,180.0,43129.69564,0,0,False
2123203,0.424269534653,-0.0614322956985,Staubach Roger,57.33333333,6.833333333,0.0,0.0,74,187.5,0.0,0,0,False
1252904,0.782150513286,0.072227120639,Lauria Joe,57.4,4.6,0.0,0.0,39,177.5,32008.67791,0,0,False
1708456,0.876150498954,-0.409345760052,Patton Bill,57.47524752,5.925742574,0.0,0.0,122,177.5,7719993.296,0,0,False
2003500,0.817168733335,-0.00758055173234,Scott Richard,57.47826087,3.77826087,0.0,0.0,40,175.0,228542.5461,0,0,False
702210,-0.36646095693,0.572304146479,Fitch Jon,57.57142857,7.657142857,0.0,0.0,38,180.0,0.0,0,0,False
2305316,0.760605091268,0.313015410465,Veale LaVar,57.75,5.575,0.0,0.0,38,175.0,189836.019,0,0,False
110822,0.695781379445,0.326308639296,Babcock Jesse,58.0,5.7,0.0,0.0,37,177.5,10975.89658,0,0,False
2194673,-0.500863880826,0.495783265759,Taylor Brandon Michael,58.0,8.4,0.0,0.0,25,180.0,4050.342381,0,0,False
2401290,0.106391681833,0.297803645032,Williams Beau Martin,58.0,6.7,123950.6027,0.0,37,187.5,405034.2381,0,0,False
992868,0.836476166825,-0.414814660201,Houdini Harry,58.2,6.748,0.0,0.0,142,167.5,138386.698,0,0,False
1551975,0.0736021134352,0.695283971263,Motsinger Jacob,58.2,6.74,0.0,0.0,29,177.5,1016584.231,0,0,False
515425,0.536226666443,0.0798995418868,Davis Roger,58.32121212,7.109090909,0.0,0.0,77,182.5,5385273.58,0,0,False
1236417,0.834071079175,0.191863950565,Lamoureux Jordan,59.0,4.2,0.0,0.0,29,152.5,0.0,0,0,False
1917967,0.753863352784,0.18915113914,Rowley Christopher,59.0,5.7,0.0,0.0,49,180.0,699978.1011,0,0,False
781549,-0.402677870953,0.633128571381,Gehring Kyle,59.25806452,7.85483871,0.0,0.0,29,175.0,1976.845719,0,0,False
985594,0.648072331639,0.0748300480041,Hood Sean,59.5,5.575,0.0,0.0,50,185.0,0.0,0,0,False
990784,0.224987771843,0.111740043275,Horton Robert,59.56916996,7.741897233,0.0,0.0,92,180.0,9846153.846,0,0,False
1744722,0.888577741189,-0.353256929085,Phillips Howard,59.72727273,6.581818182,0.0,0.0,117,175.0,0.0,0,0,False
365296,0.675204611124,0.372771153381,Cavender Justin,59.8,5.76,0.0,0.0,36,177.5,1304.347826,0,0,False
488199,0.216221816129,0.806356972863,D'Acosta Tobi-Wan,60.14285714,6.671428571,0.0,0.0,33,167.5,7172418.707,0,0,False
1239752,0.875629166075,-0.262479455895,Lane Lupino,60.26086957,6.263043478,0.0,0.0,124,157.5,6719414.684,0,0,False
415898,0.907129470635,-0.346913419856,Clayton Jr. William A.,60.33333333,6.166666667,0.0,0.0,119,175.0,0.0,0,0,False
2372801,0.587776089287,0.584066955769,Weiland Scott,60.41666667,6.5375,0.0,0.0,49,177.5,28943.56006,0,0,False
667675,0.758536216335,0.206533052269,Falcon Anthony,60.52631579,5.010526316,0.0,0.0,36,177.5,216111.3623,0,0,False
1419966,0.292230473446,0.682606754549,Mathis Johnny,60.56097561,7.5,0.0,0.0,81,167.5,1194424.674,0,0,False
1413989,-0.443525731783,0.50163010747,Maslow James,60.5982906,8.261538462,0.0,0.0,26,182.5,440456.5487,0,0,False
2117185,0.0350431236938,0.657615173958,Stahl Kenneth,60.83333333,6.933333333,0.0,0.0,34,180.0,0.0,0,0,False
618623,0.172389648474,-0.268177770101,Earle Jack,61.0,6.76,0.0,0.0,110,227.5,0.0,0,0,False
688327,-0.203512198454,0.731160696453,Ferraro John,61.0,7.25,0.0,0.0,17,172.5,0.0,0,0,False
2313607,0.861199996878,-0.199011969818,Vernon Bobby,61.65,6.445,0.0,0.0,119,155.0,71856.28743,0,0,False
1309589,0.602706369179,0.349287229317,Lively Josh,62.0,5.585714286,0.0,0.0,29,180.0,1317.786776,0,0,False
1437872,-0.0580997863129,0.783286167417,McClam Sean,62.0,7.075,0.0,0.0,28,172.5,0.0,0,0,False
2297720,-0.293576691683,0.694975409509,Vandervort Paul,62.22222222,7.644444444,0.0,0.0,31,175.0,1114181.294,0,0,False
2376915,0.045063527342,0.491979487112,Welling Mark,62.5,6.95,0.0,0.0,36,185.0,61308.946,0,0,False
2075971,-0.420305758803,0.604281870114,Small Brendon,62.51724138,8.172570533,0.0,0.0,41,177.5,30067.79034,0,0,False
395084,-0.236303123728,0.765122138264,Chinoy Adam,62.58333333,7.591666667,0.0,0.0,33,167.5,19656.70121,0,0,False
2245111,-0.182136747272,0.423859055438,Towne Tim,62.8,7.64,0.0,0.0,48,187.5,9177.902968,0,0,False
1703735,0.221819288836,0.785254166079,Pasternak Charles,63.0,6.725,0.0,0.0,33,172.5,33729.04332,0,0,False
2432713,0.819791575765,0.434879788042,Wrangler Jack,63.02777778,6.825,0.0,0.0,70,175.0,1807228.916,0,0,False
1923054,0.29512083663,0.521302887798,Rudolph Scott,63.1,6.66,0.0,0.0,41,182.5,430397.9452,0,0,False
1498595,0.173121681902,0.111551050532,Miller Marcel,63.16129032,6.409677419,0.0,304673.3119,36,179.0,2756654.034,0,0,False
1980031,0.535381132824,0.516349463475,Scarpias Wes,63.35714286,5.928571429,0.0,0.0,28,177.5,952380.9524,0,0,False
1000597,0.23496086127,0.770539620842,Hubbard Dustin,64.0,6.814285714,0.0,0.0,38,175.0,22052.24499,0,0,False
1980664,-0.355239003606,0.505748039388,Schackne Elliott,64.0,8.1,0.0,0.0,36,185.0,0.0,0,0,False
2224069,0.415512348409,-0.453839483001,Tibbett Lawrence,64.0,6.6375,380338.6861,0.0,120,182.5,0.0,0,0,False
156486,0.130522513809,0.573623468733,Baumann Ken,64.01449275,6.7,0.0,0.0,27,182.5,3618628.52,0,0,False
441853,0.432587151995,0.560139503855,Contini Jason,64.18181818,6.390909091,0.0,0.0,37,180.0,445816.5878,0,0,False
1161530,0.836063252857,-0.359340447947,King George Vnan,64.21212121,7.087878788,0.0,0.0,151,165.0,53333333.33,0,0,False
1271147,0.373681543542,0.375680118862,Leeshock Robert,64.35789474,6.783157895,0.0,0.0,55,185.0,240322.6488,0,0,False
442922,0.542064661015,-0.122816734542,Coogan Richard,64.40909091,7.518181818,0.0,0.0,102,185.0,0.0,0,0,False
1306897,-0.135590872198,0.774200754776,List Mitchell,64.5,7.25,0.0,0.0,20,170.0,167803.2228,0,0,False
466220,0.437545638138,0.459010417934,Crane Bob,64.50485437,7.604854369,0.0,0.0,88,175.0,0.0,0,0,False
1984095,-0.276089982408,0.753327728543,Scherl Daniel F.,64.8,7.92,0.0,0.0,45,167.5,1118.688152,0,0,False
2407024,0.442508429791,0.134438041624,Williams Steve,64.92857143,5.507142857,0.0,0.0,34,192.5,2978.883192,0,0,False
935881,-0.196986625183,0.605498146867,Hefti Mark,65.04761905,7.60952381,0.0,0.0,41,182.5,212433.8852,0,0,False
1213007,0.0593294094362,0.468455937063,Kulick Bruce,65.25,7.425,0.0,0.0,63,185.0,460150.6427,0,0,False
1079460,0.377339690793,0.226675025242,Johnson Nathan G.,65.5,6.207142857,0.0,0.0,42,190.0,48698.87507,0,0,False
210387,-0.206397404387,0.775960285791,Biver Jonathan,65.55555556,7.644444444,0.0,0.0,34,167.5,17607.79996,0,0,False
2221766,-0.155759934596,0.75004651433,Thornton Westley,65.6,7.46,0.0,0.0,33,175.0,227462.2765,0,0,False
67790,0.0732359052308,0.828446543104,Angel Buck,65.625,7.1875,0.0,0.0,44,170.0,1393385.136,0,0,False
1817887,0.628523888015,0.464285148542,Rambo Dack,65.84931507,7.153424658,754485.0803,0.0,75,180.0,830449.827,0,0,False
655888,0.269900392241,0.755821515446,Estes Rob,65.93353474,7.078851964,0.0,0.0,53,177.5,5149986.898,0,0,False
1304756,0.334375632211,0.43479140752,Linton Bo,66.0,6.669230769,0.0,0.0,46,185.0,1200000.0,0,0,False
233036,0.184513508616,0.74777628962,Bone Bizzy,66.25,6.95,0.0,0.0,40,177.5,275647.7831,0,0,False
1058326,0.630109636646,0.643113870491,Jauch Joseph Martin,66.75,6.575,0.0,0.0,54,170.0,95262.09712,0,0,False
773661,0.524292831654,0.324291837608,Garton Brian,67.08333333,5.908333333,0.0,0.0,37,185.0,1000.0,0,0,False
461527,-0.0422940986283,0.774092078533,Cover Terence Lee,67.20833333,7.270833333,0.0,0.0,33,175.0,1892.485294,0,0,False
432241,0.59954324191,0.364076597629,Collins Keith,67.32,5.92,0.0,0.0,40,182.5,440523.7362,0,0,False
1302129,-0.14050173047,0.693582406238,Lindland Matt,67.35,7.62,0.0,0.0,46,180.0,187147.0354,0,0,False
1568890,0.233017308702,0.687518673859,Murtadha Abdul-Khaliq,67.36363636,6.945454545,0.0,0.0,44,180.0,0.0,0,0,False
842224,0.630339940093,-0.282082381421,Gray Glen,67.4,6.82,0.0,0.0,116,192.5,0.0,0,0,False
2225953,0.526211083069,0.439476187182,Til Philippe,67.5,6.25,0.0,0.0,42,182.5,1278136.58,0,0,False
103467,0.731353386052,-0.319062127644,Autry Gene,67.54597701,6.736781609,10701570.13,62913.27447,109,172.5,1375394.1,0,0,False
830890,-0.32107222414,0.630018822633,Gossett Zachary,67.57142857,8.057142857,0.0,0.0,38,180.0,18057.33986,0,0,False
520911,-0.263102058732,0.685304710675,De Castro Mannie,67.66666667,7.826666667,0.0,0.0,33,177.5,255586.8108,0,0,False
1116425,0.610218124046,0.607244688758,Kaplan Gabe,67.67333333,7.102666667,0.0,0.0,71,177.5,136754.5421,0,0,False
1893246,0.305831138128,0.790314370098,Roebuck Phillip,67.91666667,6.916666667,0.0,0.0,45,172.5,145664.7952,0,0,False
40960,-0.443706874292,0.635170364498,Aljandal Abdulrahman,68.0,8.8,0.0,0.0,29,170.0,5000.0,0,0,False
782161,0.0308263675251,0.782800559065,Geist Joel,68.0,7.165,0.0,0.0,34,175.0,84745.70273,0,0,False
1135969,0.0973480757743,0.470566776063,Keller Michael,68.0,6.9625,0.0,0.0,36,187.5,39750.15397,0,0,False
2169331,0.15218650455,0.361774441445,Swinnerton Paul,68.0,6.9,0.0,0.0,42,190.0,0.0,0,0,False
1879149,0.777919383762,0.179091019203,Roberts Pernell,68.0846395,7.223824451,0.0,0.0,88,180.0,1146391.753,0,0,False
164291,0.223063223491,0.590668090861,Beck Scott,68.16666667,6.693333333,0.0,0.0,32,182.5,6670.372429,0,0,False
1229782,0.561913409423,0.666308580713,Lago David,68.2,6.212,0.0,0.0,37,167.5,112600.8691,0,0,False
226163,0.357089358023,0.737013819654,Boehm Matthew,68.22222222,6.466666667,0.0,0.0,28,172.5,28063.35638,0,0,False
810960,0.484172562136,0.382382725256,Goddard Daniel,68.51807229,6.327710843,0.0,0.0,45,185.0,4789760.456,0,0,False
2361737,0.475116083223,0.734971977487,Wasserman Marc,68.625,6.7046875,0.0,0.0,48,170.0,229765.3915,0,0,False
2106984,0.854878488142,0.286421217995,Speach Peter,68.66666667,5.966666667,0.0,0.0,61,177.5,674966.4967,0,0,False
1301703,0.887914928669,-0.186577284635,Linder Max,68.71830986,6.351408451,0.0,0.0,133,155.0,0.0,0,0,False
1720123,0.590622956256,0.645684240776,Pelletier Chadwick,68.72727273,6.354545455,0.0,0.0,43,172.5,1843317.972,0,0,False
2276152,0.273154337465,0.240802741173,Underwood Larry,68.85714286,6.678571429,0.0,0.0,50,192.5,19247.10293,0,0,False
501592,-0.0320725625153,0.810903138723,Danielson Bryan,68.8722467,7.340088106,0.0,0.0,35,170.0,106695.593,0,0,False
284716,-0.253425475187,0.735420017793,Brown Zach,69.4,7.92,0.0,0.0,34,172.5,1431.397031,0,0,False
518224,-0.232430788794,0.520939368023,Day Macleish,69.5,7.88,0.0,0.0,30,187.5,26638.21431,0,0,False
571981,0.624120026349,0.442519008846,Dishman Tommy,69.5,5.925,0.0,0.0,38,180.0,78080.8594,0,0,False
803403,0.0912277479394,0.701010538321,Gipson Sam,69.625,7.025,0.0,0.0,32,180.0,11186.88152,0,0,False
1250425,0.59579982634,0.278771559021,Latimer Tom,69.66666667,5.3,0.0,0.0,30,185.0,54481.58093,0,0,False
2384013,0.815628345025,0.320342689821,Wethern Clarence,69.66666667,4.933333333,0.0,0.0,36,170.0,217981.3101,0,0,False
1741370,0.499012796036,0.656698299159,Pe’_Î±a Walter,69.71428571,6.3,0.0,0.0,34,175.0,138555.9821,0,0,False
732874,0.766558700964,0.108545227664,Frazier Matt,70.0,3.457142857,0.0,0.0,29,180.0,1619.047619,0,0,False
1781969,0.0505673971506,0.552489889501,Praed Michael,70.14606742,7.452808989,0.0,0.0,56,185.5,0.0,0,0,False
829068,0.894614114561,0.25629310766,Gorgano Charles,70.21052632,6.278947368,0.0,0.0,72,177.5,292717.1327,0,0,False
1546544,-0.257418970008,0.721804862559,Morrison Seth,70.27272727,8.027272727,0.0,0.0,43,175.0,0.0,0,0,False
896388,0.486040787522,0.714279643499,Hammerly Rick,70.375,6.8125,0.0,0.0,52,175.0,78203.00966,0,0,False
1176536,0.184891807773,0.394167393789,Kluwe Chris,70.4,6.74,0.0,0.0,35,190.0,0.0,0,0,False
1454215,0.89434679724,-0.363858206628,McKinley William,70.54166667,5.941666667,0.0,0.0,173,167.5,1200.0,0,0,False
120454,0.936010009666,-0.133023396568,Baker Bob,70.66666667,6.154166667,0.0,0.0,106,180.0,0.0,0,0,False
2407143,0.352457235182,0.0616053048647,Williams Ted,70.7826087,7.643478261,0.0,0.0,98,190.0,912151.565,0,0,False
1015227,-0.0993899735425,0.809484340578,Huynh David,70.95238095,7.557142857,0.0,0.0,33,165.0,68828.10655,0,0,False
2013755,0.951811839599,-0.200024138056,Semon Larry,71.4025974,5.748701299,0.0,0.0,127,167.5,162619.9887,0,0,False
918168,0.0986388737789,-0.0603358636864,Hartman David,71.64912281,7.521052632,0.0,0.0,81,192.5,20906.46968,0,0,False
2452054,0.0313742312151,0.726967257473,Yonda Aaron,71.85185185,7.377777778,0.0,0.0,43,180.0,1025364.934,0,0,False
1355206,0.152347346196,0.818094376253,Mackey Nicholas Joseph,72.09090909,7.109090909,0.0,0.0,38,170.0,19244.76886,0,0,False
683449,-0.383827377338,0.542963421828,Ferera Chris,72.5,8.7,0.0,0.0,26,185.0,1675072.394,0,0,False
379350,0.624352900911,0.144632836917,Chapin Robert,72.84210526,5.447368421,0.0,0.0,52,190.0,2881152.461,0,0,False
1682865,-0.121737654804,0.797757964831,Palazzolo Matt,73.09090909,7.677272727,0.0,0.0,32,167.5,8691.428328,0,0,False
1057945,0.132688867813,0.231087632166,Jason Rick,73.10824742,7.97628866,0.0,0.0,93,190.0,14123196.79,0,0,False
286165,0.880146687104,-0.237302196168,Bruce Robert C.,73.5,6.75,0.0,0.0,129,182.5,0.0,0,0,False
1964979,0.180123983456,0.704312577971,Santo Ron,73.85714286,7.7,0.0,0.0,76,180.0,835290.8015,0,0,False
1630039,0.283388845366,0.792610122915,Nureyev Rudolf,73.93023256,7.627906977,0.0,0.0,78,173.0,19801980.2,0,0,False
770937,0.421123834878,0.725826090005,Garland Raymond,74.0,6.5,0.0,0.0,33,172.5,79931.4166,0,0,False
1732903,-0.24244303015,0.690885099639,Perugini Alfonso,74.33333333,8.033333333,0.0,0.0,28,178.0,18777.61943,0,0,False
305599,0.779657965282,0.447717445673,Burril Jimmyo,74.44827586,6.013793103,0.0,0.0,53,175.0,11160.94855,0,0,False
1966799,0.900147738335,-0.279453522433,Santschi Tom,74.59375,6.090625,0.0,0.0,138,182.5,0.0,0,0,False
1040579,0.664631745359,0.483390195984,Jackson Alix,75.0,5.766666667,0.0,0.0,36,177.5,0.0,0,0,False
2365705,-0.133620625513,0.66640734978,Watts Benjamin,75.14285714,7.778571429,0.0,0.0,35,182.5,1879056.861,0,0,False
186846,0.454546337703,0.53290107166,Bergman Peter,75.16666667,7.363333333,0.0,0.0,77,182.5,0.0,0,0,False
1131505,0.895917586751,-0.0282080903332,Keane Raymond,75.33333333,7.033333333,0.0,0.0,110,180.0,0.0,0,0,False
1339996,0.960159341899,-0.0938529302738,Lupino Wallace,75.83333333,6.206666667,0.0,0.0,118,170.0,0.0,0,0,False
2061019,0.663626195218,0.53140083834,Sims Stefan,75.83333333,6.166666667,0.0,0.0,46,177.5,425000.0,0,0,False
2296452,0.951759218609,-0.149250361161,Van Gus,75.88888889,6.122222222,0.0,0.0,129,167.5,0.0,0,0,False
1434041,0.145190080709,0.732748312255,McAtee Robert,76.0,7.265217391,0.0,0.0,44,180.0,137054.4577,0,0,False
2214519,0.917695679267,-0.228582106152,Thomas John Charles,76.0,2.4,0.0,0.0,126,175.0,112280.7018,0,0,False
474325,-0.052244925167,0.62963057853,Crowder Jordan,76.25,7.525,0.0,0.0,31,185.0,4814.827493,0,0,False
2006331,-0.0703507511565,0.745801402369,Seater Michael,76.26111111,7.573888889,0.0,0.0,29,177.5,6521739.13,0,0,False
2419750,0.456965356529,0.645866987864,Withrow Jared,76.33333333,6.3,0.0,0.0,30,177.5,1755.020077,0,0,False
2128964,0.560848011771,0.611722695621,Stemmler Wayne,76.4,6.36,0.0,0.0,42,177.5,0.0,0,0,False
1154107,0.747643066083,0.44051186947,Kiberd James,76.57142857,6.552380952,0.0,0.0,67,180.0,345015.7004,0,0,False
1111281,-0.0905629912647,0.628936006585,Kamel Karim,76.66666667,7.633333333,0.0,0.0,29,185.0,27515.86748,0,0,False
535582,0.295254836337,0.782354488192,Deen James,76.82872928,6.755248619,0.0,0.0,30,170.0,396795.0556,0,0,False
2008154,0.737188825629,0.306741749319,Seegmiller Scott,77.0,4.925,0.0,0.0,35,180.0,173396.6635,0,0,False
2054072,-0.0238202639254,0.728334926195,Silva Zack,77.05555556,7.555555556,0.0,0.0,36,180.0,4795747.211,0,0,False
340473,-0.00937903717806,0.799430331892,Carducci Mark,77.0625,7.51875,0.0,0.0,34,172.5,5594.054967,0,0,False
1084165,0.566007460637,0.56149730632,Jones Andrew,77.25,5.875,0.0,0.0,28,177.5,476785.7143,0,0,False
2359468,0.705417793806,0.063739797159,Warren Harry,77.90298507,8.135820896,0.0,0.0,123,165.0,452272.3078,0,0,False
1156534,0.898112115987,-0.273981205707,Kilgour Joseph,78.0,6.822222222,0.0,0.0,153,177.5,14035087.72,0,0,False
1280108,0.664119430207,0.549673821437,Leonard Lorenzo,78.0,5.971428571,0.0,0.0,40,175.0,106011.6252,0,0,False
249368,0.914356640928,-0.16508929326,Bowers John,78.11764706,6.770588235,0.0,0.0,131,180.0,0.0,0,0,False
761101,0.754294201008,0.480221213996,Gan Kwok-Leung,78.75,6.38125,0.0,0.0,62,177.5,0.0,0,0,False
1731921,0.442248610416,0.751476707554,Perry Rod,79.16666667,7.178571429,0.0,0.0,63,172.5,0.0,0,0,False
566145,0.851419766956,0.259116516079,Dietz David,79.69230769,4.561538462,0.0,0.0,46,172.5,13967.98444,0,0,False
2437914,0.817049099276,0.266568756263,Wynkoop Joel D.,79.78571429,5.279591837,0.0,0.0,56,180.0,51495.72898,0,0,False
1239288,0.881536965568,0.10036604715,Lane Allan,79.81343284,7.138059701,0.0,0.0,107,180.0,4094176.316,0,0,False
1259155,0.29149236412,0.736412710175,Le Billon Jonathan,80.0,6.905,0.0,0.0,36,177.5,385516.7299,0,0,False
1279940,0.907354149951,-0.208844970654,Leonard Eddie,80.0,6.95,0.0,0.0,146,177.5,421052.6316,0,0,False
1457589,0.252690886811,0.532941440156,McManus Michael,80.0,6.7,0.0,0.0,30,187.5,0.0,0,0,False
2047295,0.961216424421,-0.018846039744,Shy Gus,80.07142857,5.857142857,0.0,0.0,113,165.0,0.0,0,0,False
1537862,0.661989013533,0.341336960004,Morelli Sean,80.26086957,5.67826087,0.0,0.0,46,185.0,362385.469,0,0,False
325796,0.495323721089,0.623942443182,Calzaghe Joe,80.28571429,6.557142857,0.0,0.0,44,180.0,1006292.798,0,0,False
1004908,-0.15613189113,0.734205694945,Hughes Matt,80.5,8.05,0.0,0.0,34,177.5,25322.54679,0,0,False
733059,0.669241541687,0.560717212949,Freas Bill,80.57142857,5.842857143,0.0,0.0,37,172.5,0.0,0,0,False
2231159,0.197777288898,0.68299591317,Tobin Randy,80.66666667,7.145833333,0.0,0.0,40,182.5,110439.8607,0,0,False
2032312,0.536445546228,0.685911683346,Shears Jake,80.72,6.348,0.0,0.0,38,170.0,2102854.12,0,0,False
1238004,0.500726014499,0.370292722977,Lander Alan,80.88888889,7.222222222,0.0,0.0,80,187.5,26196.5061,0,0,False
605430,0.760763671225,0.414782687424,Dumond Matthew C.,80.92307692,5.346153846,0.0,0.0,40,175.0,0.0,0,0,False
1637253,0.0442152640541,0.466019776728,O'Gorman Hugh,81.0,7.626666667,0.0,0.0,51,192.5,20011.11729,0,0,False
1607559,0.397141509139,0.415050118783,Nicholas Patrick,81.66666667,6.45,0.0,0.0,42,190.0,238975.4421,0,0,False
1836849,0.830892709307,0.0724924037192,Redman Don,82.0,6.933333333,0.0,0.0,116,147.5,0.0,0,0,False
2225350,0.842148258956,0.257572902665,Tiffe Robert,82.0,5.446153846,0.0,0.0,64,180.0,58865.0683,0,0,False
1243110,0.599682499354,0.542884984274,Lansing Robert,82.38918919,7.466486486,0.0,0.0,88,180.0,5076463.024,0,0,False
1831229,0.955746554166,-0.0272425709795,Ray Bobby,82.5,5.51,0.0,0.0,117,160.0,0.0,0,0,False
1327104,0.7143427728,0.307558533343,Lounder Dave,82.71428571,5.6,0.0,0.0,53,185.0,19305.59575,0,0,False
1574600,0.880089926736,0.280696473394,M’_’_scaras Mil,83.28,5.88,0.0,0.0,74,177.5,530984.081,0,0,False
461770,0.340478789568,0.647807474817,Covitt Josh,83.66666667,6.811111111,0.0,0.0,38,182.5,68975.63402,0,0,False
2013527,0.461890987751,0.715482428022,Semerdjiev Stanislav,83.85714286,6.942857143,0.0,0.0,53,176.0,420000.0,0,0,False
2016494,0.654882389458,0.485241068022,Seragon Michael,84.0,5.4,0.0,0.0,27,177.5,10018.38335,0,0,False
1439201,-0.0751983253038,0.741857952565,McCollum Ethan,84.6,7.72,0.0,0.0,17,177.5,522661.742,0,0,False
1007637,0.0960293909062,0.736547374356,Humphrey Luke,84.71428571,7.328571429,0.0,0.0,29,180.0,0.0,0,0,False
2027860,0.852998806494,0.0866011804818,Sharkey Jonathon The Impaler,84.89285714,2.978571429,0.0,0.0,52,177.5,0.0,0,0,False
1846899,0.917350908913,0.0758218507594,Renaldo Duncan,84.90055249,6.803314917,0.0,0.0,112,180.0,8336462.795,0,0,False
841741,0.959089704217,-0.0487740421125,Gray Alexander,84.90909091,6.309090909,0.0,0.0,125,175.0,11929824.56,0,0,False
302446,0.170258997409,0.711341696705,Burke Timothy,85.25,7.55,0.0,0.0,54,182.5,0.0,0,0,False
2198342,0.909361379109,-0.143017631679,Taylor William Desmond,85.26315789,6.968421053,0.0,0.0,144,180.0,0.0,0,0,False
2236181,0.94391769719,-0.0210023028581,Tomlin Pinky,85.33333333,5.466666667,0.0,0.0,109,180.0,0.0,0,0,False
2052724,0.905491427609,-0.0980120370701,Sills Milton,85.625,6.825,0.0,0.0,134,182.5,0.0,0,0,False
38959,0.139848642359,0.740943377065,Algatt Trevor,85.88888889,7.333333333,0.0,0.0,35,180.0,8871.103163,0,0,False
912054,0.761563315159,0.249699885412,Harris Brock,86.0,4.3,0.0,0.0,38,182.5,0.0,0,0,False
1354391,-0.203310827461,0.781813496355,Mack Walter,86.0,8.5,0.0,0.0,24,157.5,80.02169477,0,0,False
1133338,0.887717421555,-0.215387713839,Keenan Frank,86.16666667,6.983333333,0.0,0.0,158,182.5,19205.20674,0,0,False
989424,0.200263227943,0.785680358525,Horner Adam,86.66666667,7.033333333,0.0,0.0,24,172.5,10669.5593,0,0,False
917388,0.901611469107,-0.203335631673,Hart William S.,87.22772277,6.427722772,0.0,13870.46962,152,185.0,574027.3004,0,0,False
2345065,-0.0114834982441,0.682119122665,Walker Butch,87.66666667,7.966666667,0.0,0.0,47,185.0,327467.5533,0,0,False
651163,0.0959302966779,0.783720630762,Erwin Tristan,88.0,7.405882353,0.0,0.0,27,175.0,2317783.987,0,0,False
2167183,0.108731276419,0.580291838432,Swant Andrew,88.23255814,7.460465116,0.0,0.0,40,190.0,0.0,0,0,False
298765,0.949282120788,-0.134679635294,Bunny John,88.27272727,6.263636364,0.0,0.0,153,167.5,0.0,0,0,False
681206,0.387196328645,0.649666463723,Felizardo Tiago,88.28571429,6.485714286,0.0,0.0,27,181.0,0.0,0,0,False
995702,0.328059300106,0.772248486278,Howard Michael,88.28571429,6.992857143,0.0,0.0,38,172.5,5387.726351,0,0,False
2231053,0.700464693777,0.481185656752,Tobin Jr. Richard,88.54545455,6.054545455,0.0,0.0,53,180.0,14316.26209,0,0,False
436689,0.314167041929,0.706573698719,Conant Sean,88.75,6.9,0.0,0.0,34,180.0,2001.111729,0,0,False
41559,0.714137709187,0.548778645576,Allan Isaac,88.875,6.0875,0.0,0.0,52,172.5,3000000.0,0,0,False
463995,0.819418865602,0.402254342123,Coy Johnny,89.0,6.963636364,0.0,0.0,96,162.5,1338289.963,0,0,False
450786,0.376710070087,0.674918269739,Corirossi Nick,89.17777778,6.6,0.0,0.0,29,180.0,456439.9421,0,0,False
321279,0.162589914242,0.800569802536,Calabro Thomas,89.24210526,7.74877193,0.0,0.0,57,175.0,2078970.952,0,0,False
2134442,0.670178480123,0.54031481707,Stevenson Parker,89.56216216,6.599459459,0.0,0.0,64,180.0,5053195.845,0,0,False
207759,0.938213784758,0.028042276717,Birmingham Alan,89.75,6.425,0.0,0.0,120,180.0,0.0,0,0,False
1195613,-0.0191792732473,0.763107022411,Kota Rushi,90.0,7.85,0.0,0.0,29,177.5,14860.0,0,0,False
892417,0.416268456647,0.737365299496,Halpin Brandan,90.14285714,6.714285714,0.0,0.0,36,172.5,60934.40758,0,0,False
113976,0.628026040734,0.567177585771,Badger Jereme,90.25,6.016666667,0.0,0.0,40,177.5,135093.2174,0,0,False
1233935,0.307423802486,0.704156907932,LaMantia Nick,90.3125,6.83125,0.0,0.0,29,180.0,37152.93628,0,0,False
1452894,0.0391652297141,0.777986451754,McKendry Cameron,90.4,7.54,0.0,0.0,20,175.0,453659.2125,0,0,False
2458641,0.447844867378,0.711968731675,Yudenko Staas,90.66666667,6.683333333,0.0,0.0,39,175.0,733.7703766,0,0,False
1895723,0.138781681569,-0.326831523781,Rogers Will,90.73417722,6.593670886,0.0,2196265.364,137,177.5,2709856.002,0,0,False
1197065,0.83137050611,0.358356661136,Kourkoulos Nikos,91.025,6.39,0.0,0.0,82,180.0,0.0,0,0,False
614747,-0.000200004230458,0.733468978983,Dye John,91.22608696,8.093478261,2090552.113,0.0,53,182.5,17621145.37,0,0,False
2191842,0.768964388956,0.514014021086,Tata Joe E.,91.23546512,6.7125,0.0,0.0,80,167.5,43217.28691,0,0,False
700158,0.721364162906,0.454164767308,Fischman Eric,91.28070175,5.080701754,0.0,0.0,31,175.0,0.0,0,0,False
1767773,0.960965623683,-0.0647006872526,Pollard Harry A.,91.28571429,6.085714286,0.0,0.0,137,175.0,0.0,0,0,False
780625,0.384829894344,0.774522951076,Gebrsellasie Haile,91.33333333,6.95,330076.3505,0.0,43,165.0,0.0,0,0,False
339898,0.618877284961,0.542894765586,Cardon Adam,91.51612903,5.996774194,0.0,0.0,40,180.0,784830.1521,0,0,False
1126990,0.17896227697,0.0469188717004,Kaufman Andy,91.7025641,7.261025641,5688966.337,0.0,67,180.0,13202695.93,0,0,False
2091071,0.262595713985,0.657127849748,Snyder Dana,91.71621622,7.153885135,6389485.384,0.0,43,182.5,274669.7709,0,0,False
696563,0.105324273557,0.690101454555,Fine Otis,91.8,7.64,0.0,0.0,42,185.0,8982.731371,0,0,False
402033,0.323713697285,0.771404411563,Christianson Mikey,91.83333333,6.8,0.0,0.0,26,170.0,135869.6883,0,0,False
2006640,0.637494626196,0.582573926352,Sebastian Bill,91.93023256,5.965116279,0.0,0.0,39,175.0,48038.68262,0,0,False
1355278,0.19990784451,0.798236314293,Mackie Greg,92.0,6.7,0.0,0.0,0,162.5,0.0,0,0,False
1699739,0.364783993257,0.783884962875,Parras Roy,92.0,7.1,0.0,0.0,47,165.0,0.0,0,0,False
965796,0.949825638889,0.0835961255211,Hines Johnny,92.40740741,6.5,0.0,0.0,121,172.5,26621276.6,0,0,False
1845263,0.679798169008,0.518742257863,Reisig Joel Paul,92.75,5.45,0.0,0.0,32,175.0,405227.4138,0,0,False
2091118,-0.114590841192,0.757340500658,Snyder Dylan Riley,92.93023256,8.202325581,0.0,0.0,19,175.0,290635.3019,0,0,False
532530,0.837947000532,0.252653727469,DeAngelis Jeff,93.0,3.55,0.0,0.0,38,172.5,22119.81567,0,0,False
1351701,0.928213712356,-0.153605340403,MacDowell Melbourne,93.1,6.57,0.0,0.0,160,180.0,0.0,0,0,False
1134761,0.919917340021,0.133319094644,Keith Donald,93.10526316,6.578947368,0.0,0.0,113,180.0,0.0,0,0,False
1479351,0.949223017313,-0.0225897290762,Merrill Frank,93.16666667,5.516666667,0.0,0.0,123,180.0,0.0,0,0,False
1540547,0.627078366445,0.380946096103,Morgan Kristoffer Aaron,93.33333333,5.433333333,0.0,0.0,38,187.5,9000.0,0,0,False
875609,0.900795334016,0.197684423207,Gu’__zar Tito,93.36,6.708,0.0,0.0,108,180.0,0.0,0,0,False
131877,0.921470556662,0.141258001215,Banks Monty,93.57575758,6.612121212,0.0,0.0,119,162.5,233486.9432,0,0,False
2097839,0.10803866666,0.810868645423,Sommerfield Matt,93.6,7.58,0.0,0.0,31,170.0,601750.0,0,0,False
2030243,0.912285124786,0.16916868528,Shaw Al,93.76470588,6.511764706,0.0,0.0,114,160.0,0.0,0,0,False
423685,0.143417639177,0.771504050874,Coffey Joe,93.88888889,7.496296296,0.0,0.0,34,177.5,104237.3129,0,0,False
407607,0.589464093534,0.366653179851,Cimino Nino,94.25,5.45,0.0,0.0,36,190.0,108591.6633,0,0,False
1879982,0.658016592985,0.180236584831,Robertson Dale,94.26,6.907333333,13382899.63,0.0,93,180.0,11423530.28,0,0,False
2131333,-0.00306325833561,0.774817757608,Sterlacci Mitch,94.28571429,8.128571429,0.0,0.0,44,177.5,26279.22146,0,0,False
903295,0.359600181921,0.687485478614,Hansis Van,94.68421053,6.844736842,0.0,0.0,35,181.0,160000.0,0,0,False
350524,0.522371945409,0.244854810265,Carson Sunset,94.82142857,7.271428571,0.0,0.0,96,195.0,1360390.909,0,0,False
207880,0.665532774592,0.613828731682,Birney David,94.89215686,7.000980392,0.0,0.0,77,172.5,0.0,0,0,False
1272887,0.937577132206,0.0874517527172,LeGuere George,95.22222222,6.788888889,0.0,0.0,129,170.0,15098507.46,0,0,False
330697,0.607691022056,0.633460722832,Campbell-Mac John,95.65384615,6.223076923,0.0,0.0,43,172.5,840460.3797,0,0,False
408485,0.245024220864,0.809132623502,Ciraldo Bobby,95.72727273,7.4,0.0,0.0,42,167.5,0.0,0,0,False
1374144,0.819573410948,0.295531993122,Malone Randal,95.85185185,4.853703704,0.0,0.0,57,180.0,317229.3263,0,0,False
416003,0.935729486652,0.165223389721,Clayton Eddie,95.85714286,6.535714286,0.0,0.0,115,172.5,0.0,0,0,False
333052,0.115746216701,0.769514307397,Canela Jencarlos,95.94117647,7.529411765,0.0,0.0,28,177.5,0.0,0,0,False
543933,0.544213730149,0.390660432496,DeLorean John,96.0,7.366666667,0.0,0.0,91,190.0,5000.0,0,0,False
1240883,0.957743503915,0.0386383618595,Langdon Harry,96.53061224,6.190816327,0.0,0.0,132,167.5,2102755.933,0,0,False
1856206,0.49757842711,0.712489494289,Riaznan,96.63333333,6.676666667,0.0,0.0,44,171.0,637500.0,0,0,False
165031,0.746391857933,0.523577948512,Becker Terry,96.79285714,7.228571429,0.0,0.0,95,172.5,48443.78347,0,0,False
1566692,0.322286005889,0.683497595287,Murphy Patrick,96.91666667,6.929166667,0.0,0.0,33,182.5,41349.02671,0,0,False
2414099,0.0643150966209,0.784575156469,Wilson Tres,97.0,7.7,0.0,0.0,25,175.0,481.1884928,0,0,False
1895485,0.889729289332,0.297078635573,Rogers Roy,97.4765625,6.758203125,0.0,0.0,105,175.0,2476574.74,0,0,False
2309087,0.29960179887,0.730567371774,Vena Shawn,97.5,7.25,0.0,0.0,43,180.0,28943.56006,0,0,False
443627,0.959812370141,0.0502504083972,Cook Joe,97.66666667,5.6,0.0,0.0,126,162.5,0.0,0,0,False
2124255,0.908599137889,0.227873051496,Stedman Lincoln,97.96551724,6.610344828,0.0,0.0,109,177.5,4009820.499,0,0,False
1415779,0.433129013559,0.683359533101,Massey Chandler,98.11111111,6.433333333,0.0,0.0,26,177.5,14416.83811,0,0,False
867500,0.771960569314,0.403825067874,Guinan Joe,98.11764706,5.147058824,0.0,0.0,47,177.5,666666.0,0,0,False
2266325,0.0802468952888,0.757787174298,Turner Kristopher,98.16541353,7.818045113,0.0,0.0,36,180.0,4638575.787,0,0,False
584728,0.931624496823,0.128744929821,Donovan Jack,98.25,6.625,0.0,0.0,122,177.5,0.0,0,0,False
859951,0.664569602653,0.507189184872,Grubbs Nathan,98.55555556,5.722222222,0.0,0.0,41,180.0,357142.8571,0,0,False
994942,0.430985685293,0.314188977211,Howard Brian,99.0,6.25,0.0,0.0,49,200.0,5153.374233,0,0,False
1137082,0.748193242283,0.395052815758,Kelly Alan Rowe,99.35294118,5.568627451,0.0,0.0,57,182.5,523815.3765,0,0,False
598479,0.480091594887,0.309278194895,Dryer Fred,99.7037037,6.776666667,7978605.634,0.0,70,195.0,1235673.888,0,0,False
1895086,0.209194212555,-0.108350246016,Rogers Kenny,99.78070175,6.914912281,50302977.82,0.0,78,175.0,965618.5205,0,0,False
2133412,0.48513093604,0.682434189748,Stevens Kiri,99.81818182,6.359090909,0.0,0.0,30,175.0,3547896.72,0,0,False
