id_data,x_data,y_data,z_data,votes,rating,age,gross,salary,heightcm,budget,academy,golden,sample
1555432,-1.23742562709,2.95086512405,Mraovich Sam,5094.545455,2.190909091,40,0.0,0.0,177.5,618133.2775,0,0,False
1884180,-3.11543315723,1.81624183933,Roblan Armando,309.0,2.2,85,0.0,0.0,172.5,58986.17512,0,0,False
462246,-2.34518041609,2.2181981811,Cowell Bill,787.5714286,2.338095238,51,0.0,0.0,167.5,0.0,0,0,False
2214519,-4.09517712282,-1.96425919666,Thomas John Charles,76.0,2.4,126,0.0,0.0,175.0,112280.7018,0,0,False
31620,-3.4752462071,1.03152673564,Albert Frankie,23.0,2.4,96,0.0,0.0,172.5,0.0,0,0,False
1966158,-1.17224686053,2.4249945068,Santos Keven,16.6,2.706666667,22,0.0,0.0,173.0,0.0,0,0,False
489630,-0.425033427616,2.37979512942,D'Avignon Aleksander,13.0,2.8,28,0.0,0.0,180.0,26133.0871,0,0,False
435796,-2.84985467195,0.981506819997,Comfort Ray,451.64,2.88,67,0.0,0.0,162.5,196850.3937,0,0,False
2027860,-0.956308384623,1.76924907947,Sharkey Jonathon The Impaler,84.89285714,2.978571429,52,0.0,0.0,177.5,0.0,0,0,False
1006268,-0.396430616445,1.98709702748,Hulbert Kris,179.0,3.0,38,0.0,0.0,180.0,5573.540545,0,0,False
408943,0.796743377643,2.7379436915,Ciskowski Doug,480.0,3.2,0,0.0,0.0,187.5,0.0,0,0,False
1125911,-0.522138577606,1.68095074135,Kattar Nicholas,110.0,3.2,35,0.0,0.0,177.5,269357.1429,0,0,False
732874,-0.105699089106,1.51091265925,Frazier Matt,70.0,3.457142857,29,0.0,0.0,180.0,1619.047619,0,0,False
532530,-0.928588098827,1.02937665608,DeAngelis Jeff,93.0,3.55,38,0.0,0.0,172.5,22119.81567,0,0,False
1928722,0.288908913188,1.21298844989,Russell Dean,730.0,3.6,64,0.0,0.0,182.5,0.0,0,0,False
244782,0.778788829947,1.47652652891,Boucvalt Benjamin,391.0,3.6,34,0.0,0.0,187.5,680220.2815,0,0,False
2113785,-0.599587792965,1.48249671701,Squire Devin G.,5.0,3.6,17,0.0,0.0,175.0,10.12585595,0,0,False
1902576,0.222669879159,1.32414825538,Ronan Nick,151.25,3.625,32,0.0,0.0,182.5,44017.46748,0,0,False
1447328,-0.018227582745,1.24410838944,McGee Ty,128.0,3.7,27,0.0,0.0,180.0,5000.0,0,0,False
1602251,2.29421813665,1.30816939438,Nevsky Alexander,3947.85,3.74,45,0.0,0.0,198.0,10353061.87,0,0,False
2003500,-0.547041725336,0.770658046167,Scott Richard,57.47826087,3.77826087,40,0.0,0.0,175.0,228542.5461,0,0,False
1317868,0.768793459386,-1.32479967043,Lommel Ulli,712.4634146,3.833739837,72,0.0,0.0,182.0,1201358.012,0,0,False
1634314,0.619766229703,-1.90901315428,O'Brien Seamus,2363.5,3.85,84,0.0,0.0,182.5,0.0,0,0,False
224034,1.75587851363,0.819743840419,Bobb Roger M.,366.2764977,3.888018433,49,0.0,0.0,192.5,0.0,0,0,False
692536,2.55459538758,1.14539831315,Field Ken,41.0,3.9,43,0.0,0.0,200.0,559344.0758,0,0,False
2132148,0.364610649879,0.801235565944,Sternglanz Weylin,9.0,3.9,42,0.0,0.0,182.5,584000.0,0,0,False
67871,0.684361993248,0.824368142361,Angel Jonathan,294.1285714,3.962857143,39,0.0,0.0,185.0,60175.3882,0,0,False
349533,-0.165722840459,0.368358301156,Carroll John F.,33.33333333,4.09047619,43,0.0,0.0,177.5,1528048.092,0,0,False
350504,0.487482622128,0.461003031116,Carson Scott,367.6923077,4.107692308,47,0.0,0.0,182.5,571521.2374,0,0,False
625634,-0.130372635931,0.260191445243,Edwards James L.,387.1481481,4.155555556,44,0.0,0.0,177.5,7078.342082,0,0,False
983548,-0.116041017412,0.455698219265,Holzier James,41.66666667,4.166666667,35,0.0,0.0,177.5,1666666.0,0,0,False
722345,1.77891813191,0.446146914827,Foster Vincent,168.0,4.190909091,47,0.0,0.0,192.5,1069247.467,0,0,False
798316,0.167264756475,0.305580699256,Giles Rhett,761.6730769,4.196153846,43,0.0,0.0,180.0,1185673.078,0,0,False
1236417,-3.18155989008,-0.364783564254,Lamoureux Jordan,59.0,4.2,29,0.0,0.0,152.5,0.0,0,0,False
1766664,0.975961893511,10.5558470975,Poletti Mark,120403.0,4.2,27,0.0,0.0,172.5,6550.342381,0,0,False
1339903,-0.705379905384,-1.26690940911,Lupetti Arthur,17678.2,4.22,54,0.0,0.0,177.5,32775513.87,0,0,False
849537,0.332713698595,-0.613327364964,Greggio Ezio,1671.404255,4.221276596,62,0.0,0.0,180.0,23252587.1,0,0,False
565610,-1.25770046205,0.0972959376762,Diep Vinh,14.5,4.225,38,0.0,0.0,167.5,0.0,0,0,False
2356261,-1.24475049606,-0.0492615028016,Ward Dave Oren,325.3333333,4.25,45,0.0,0.0,167.5,511593.6375,0,0,False
443290,9.03071984966,2.97031541881,Cook Dane,4769.246753,4.252597403,44,41547945.86,0.0,180.0,25139520.54,0,0,False
475292,-1.07210756748,0.445260564958,Cruikshank Lucas,179.8,4.281333333,23,0.0,0.0,170.0,0.0,0,0,False
912054,0.54037810571,0.357756104951,Harris Brock,86.0,4.3,38,0.0,0.0,182.5,0.0,0,0,False
1734928,0.230950914128,0.311884344568,Peters Ken,110.0,4.3,37,0.0,0.0,180.0,2572.982749,0,0,False
468480,-0.6304769989,0.0809783784494,Creepersin Creep,188.0792079,4.331683168,38,0.0,0.0,172.5,63127.18585,0,0,False
567660,0.261133792371,0.386492761042,Dillehunt David,27.64705882,4.352941176,32,0.0,0.0,180.0,7271.472986,0,0,False
2136458,0.863983869637,0.424411314257,Stewart Stephon,256.6,4.38,34,0.0,0.0,185.0,38924.74674,0,0,False
1708085,0.0846656553893,-1.21383895731,Patterson Rocky,285.0,4.392857143,71,0.0,0.0,177.5,0.0,0,0,False
2348658,-14.3679342959,6.35275437402,Wallace Paul,520.6666667,4.4,31,0.0,1100.634699,175.0,1732706.277,0,0,False
439225,0.294401552439,0.382400518794,Conners Roger,334.3333333,4.411111111,30,0.0,0.0,180.0,13857.79602,0,0,False
591905,0.611982867876,-0.0150026133404,Downey Thomas,1479.479167,4.422916667,47,0.0,0.0,182.5,5895643.013,0,0,False
2053063,-0.0447105753931,0.406143921736,Silva Carl,6143.111111,4.433333333,29,0.0,0.0,177.5,20132945.83,0,0,False
1862095,-0.248132006841,-3.34795299653,Richman Harry,45.8,4.44,121,0.0,0.0,177.5,5792298.614,0,0,False
2364075,-0.213773600206,-1.35663468511,Watson Bud,479.64,4.448,73,0.0,0.0,175.0,247465.2795,0,0,False
1447101,1.17480569754,0.31196245374,McGee Jake,20.0,4.45,38,0.0,0.0,187.5,5593.440758,0,0,False
1906956,1.4906534127,0.319979316949,Rose Rick,41.85714286,4.471428571,38,0.0,0.0,190.0,0.0,0,0,False
293723,-0.253743593505,-0.43484671066,Buckner Andre,16.21428571,4.492857143,52,0.0,0.0,175.0,55031.73497,0,0,False
1413988,-1.21218531822,-0.188301701287,Maslow Brian,28.0,4.5,37,0.0,0.0,167.5,0.0,0,0,False
9739,-0.891153113969,-0.168297987252,Ackerman Randy,271.0,4.5,39,0.0,0.0,170.0,139372.8223,0,0,False
2120733,-1.16384731063,-0.417327879206,Stanze Eric,969.7083333,4.508333333,45,0.0,0.0,167.5,10226.61742,0,0,False
2107026,2.48521749807,-1.88971319736,Speakman Jeff,1490.130435,4.513043478,58,12810447.15,0.0,180.0,17621145.37,0,0,False
2461978,1.02368147583,-0.454644672993,Zagarino Frank,316.3220339,4.513559322,57,0.0,0.0,185.0,0.0,0,0,False
566145,-0.550312866675,-0.339552187835,Dietz David,79.69230769,4.561538462,46,0.0,0.0,172.5,13967.98444,0,0,False
2113240,-1.20664815621,-0.257519935977,Spudic Eric,380.1025641,4.564102564,37,0.0,0.0,167.5,14586.8648,0,0,False
1909798,0.939301169517,0.0920052612444,Roso Emilio,2466.375,4.565,40,0.0,0.0,185.0,691813.8763,0,0,False
1626713,0.358323892076,0.151475042648,Novek Brett,705.8333333,4.583333333,32,0.0,0.0,180.0,585165.2581,0,0,False
1252904,0.0406066897205,-0.0990738669864,Lauria Joe,57.4,4.6,39,0.0,0.0,177.5,32008.67791,0,0,False
382944,-0.0437565484512,-3.88049135263,Chase Hal,5.0,4.6,133,0.0,0.0,180.0,0.0,0,0,False
650274,0.357883090891,0.110994792915,Ernst Nick,19.0,4.6,33,0.0,0.0,180.0,0.0,0,0,False
275672,-1.79566963346,-1.97094634324,Brooks Conrad,2462.191489,4.618085106,85,0.0,0.0,162.5,319060.6054,0,0,False
891974,-1.23338464169,-0.282617900791,Hallowell Brad,130.6666667,4.622222222,35,0.0,0.0,167.5,7395.627172,0,0,False
1849811,-0.524067974236,-0.469450841981,Resteghini Dale,297.72,4.628,48,0.0,0.0,172.5,654045.2179,0,0,False
1788956,2.45115004698,0.342277419591,Principe Nick,3238.367347,4.632653061,38,0.0,0.0,197.5,2014702.977,0,0,False
258853,0.344814250066,-0.0981618604935,Brandise Thomas,205.0,4.633333333,40,0.0,0.0,180.0,75279.62056,0,0,False
2147902,0.679880716398,0.0355472395442,Stringer John Cory,46.69230769,4.646153846,37,0.0,0.0,182.5,49867.19352,0,0,False
283753,1.25972634031,0.0808827446885,Brown Scott,264.75,4.65,39,0.0,0.0,187.5,34939.12123,0,0,False
1789410,-0.195498341905,-0.741240854646,Prior Ted,364.9473684,4.660526316,57,0.0,0.0,175.0,3573584.228,0,0,False
1835704,-0.189811404793,-0.790591084257,Rector Jeff,2192.238095,4.661904762,58,0.0,0.0,175.0,482565.2676,0,0,False
2323785,0.359662179127,-0.160260124671,Vincent Adam,300.0,4.675,41,0.0,0.0,180.0,494934.877,0,0,False
853882,0.77660611151,-1.18055630382,Griffith Tom,421.2,4.68,71,0.0,0.0,182.5,104455.9585,0,0,False
1310315,-1.05812053448,-2.29836503914,Lizard Sal,27939.75,4.68,61,0.0,0.0,175.0,15374407.26,0,0,False
860798,0.506966213022,-0.740802154174,Gruner Olivier,252.8235294,4.695294118,56,2421198.863,0.0,180.0,4234686.783,0,0,False
1221461,3.98786318952,0.244926720856,Kyle John,242.1818182,4.7,55,0.0,0.0,210.0,496990.55,0,0,False
1454749,1.3184460759,0.183639541859,McKnight Antoine,29.0,4.7,33,0.0,0.0,187.5,0.0,0,0,False
868312,-1.3076555313,-0.287060495118,Gulati Jason,130.0,4.7,31,0.0,0.0,167.5,550317.3497,0,0,False
1315708,0.380710497396,-0.261878506865,Logan Paul,544.2592593,4.72962963,43,0.0,0.0,180.0,2175275.041,0,0,False
836437,-1.27661234314,-0.367884036372,Graham Jeff Dylan,543.942029,4.733333333,33,0.0,0.0,167.5,1561786.237,0,0,False
1638244,1.350859488,-0.754775104262,O'Keeffe Miles,541.5869565,4.745652174,62,24052.8169,0.0,187.5,5190389.415,0,0,False
255950,1.42734541434,0.992386919031,Bradly Nic,18327.0,4.75,27,0.0,0.0,182.5,13388437.44,0,0,False
177719,-1.45963003298,-4.06420868548,Benedict Kingsley,11.5,4.75,138,0.0,0.0,167.5,0.0,0,0,False
1832949,0.432713701189,-0.0178560389335,Rayon Oliver,549.0833333,4.754166667,33,0.0,0.0,180.0,290054.1792,0,0,False
1596107,-0.850070062547,-0.527141094742,Nell Chad,434.3846154,4.769230769,43,0.0,0.0,170.0,224028.2095,0,0,False
1003171,1.93139261883,-0.473419999649,Hues Matthias,2309.309091,4.789090909,57,0.0,0.0,192.5,5414423.958,0,0,False
421717,-0.18046291974,-0.678513135493,Cocca John,283.6,4.8,52,0.0,0.0,175.0,240756.6759,0,0,False
628926,1.31297874238,1.56004069015,Ehrlich Clinton,153.0,4.8,0,0.0,0.0,182.5,63525.67496,0,0,False
2022456,-0.569954728651,-0.440523916398,Shackelford Carter,13.0,4.8,41,0.0,0.0,172.5,0.0,0,0,False
334951,0.725714375891,-0.448455632567,Canterbury Christian,181.0,4.8,49,0.0,0.0,182.5,7361.96319,0,0,False
1767700,0.694384824229,-3.56762657764,Pollar Gene,17.0,4.8,124,0.0,0.0,185.0,0.0,0,0,False
1978385,-0.298564634534,-0.172127550417,Sayys Jeremiah,179.5555556,4.811111111,33,0.0,0.0,175.0,144505.834,0,0,False
1709578,0.885791282338,0.0243457995124,Paul Lance,3894.153846,4.830769231,31,0.0,0.0,182.5,32008677.91,0,0,False
1712717,4.3501585287,-2.71989122277,Payne Allen,2141.96,4.836,48,21619523.46,0.0,175.0,45739296.2,0,0,False
529117,0.474769013951,-1.10557260707,De Sica Christian,3472.402174,4.841304348,65,0.0,0.0,180.0,59031734.97,0,0,False
1374144,0.460191437073,-0.814538952649,Malone Randal,95.85185185,4.853703704,57,0.0,0.0,180.0,317229.3263,0,0,False
1991565,-0.249045831842,-0.342313343668,Schoettlin Jeffrey T.,347.0,4.866666667,38,0.0,0.0,175.0,772674.7855,0,0,False
383131,-1.71139163185,-1.13031059376,Chase Steven,323.125,4.86875,54,0.0,0.0,162.5,1037325.916,0,0,False
167100,0.496725135146,-0.212549696958,Beemer Brandon,740.5625,4.879166667,36,94473.80952,0.0,180.0,508906.1063,0,0,False
561861,-0.853616359433,-0.667805945727,Diaz Reyes Johnny,749.0,4.88,44,0.0,0.0,170.0,730510.7527,0,0,False
1785561,-0.136430127813,-0.937749218689,Preston Ron,868.3636364,4.9,57,0.0,0.0,175.0,857804.5354,0,0,False
219443,0.791503704215,-0.790973683354,Blevins Paul,22.0,4.9,57,104.5323484,0.0,182.5,1567.985226,0,0,False
2335537,0.120159482113,-0.434382750435,Vox Dylan,794.847619,4.904761905,42,0.0,0.0,177.5,310070.114,0,0,False
1389758,0.846719740938,-0.520096037509,Margaritis Chris,5089.111111,4.922222222,47,0.0,0.0,182.5,11948116.27,0,0,False
2143991,0.214168216459,-1.39430355668,Stover George,621.8378378,4.922972973,70,0.0,0.0,177.5,64440.98474,0,0,False
2008154,0.543038179686,-0.228753761719,Seegmiller Scott,77.0,4.925,35,0.0,0.0,180.0,173396.6635,0,0,False
1212149,-1.84565139278,-0.777128847919,Kui Jonathan S.,150.7,4.925,37,0.0,0.0,162.5,557.3540545,0,0,False
929282,0.804959045094,-0.431703531443,Hayes David C.,1578.583333,4.929761905,45,0.0,0.0,182.5,246824.4814,0,0,False
2384013,-0.959773228081,-0.570839549401,Wethern Clarence,69.66666667,4.933333333,36,0.0,0.0,170.0,217981.3101,0,0,False
2460511,0.847140248215,-1.12160654599,Z'Dar Robert,1086.691667,4.946666667,66,0.0,0.0,182.5,1616390.306,0,0,False
144113,-0.0895102635733,-1.23480997012,Barrett John,908.173913,4.947826087,64,0.0,0.0,175.0,64446.79725,0,0,False
1894330,1.09458950115,-1.93319489261,Rogers Bill,251.75,4.95,86,0.0,0.0,185.0,467065.8683,0,0,False
500961,0.168766942479,-0.847981627015,Daniels Gary,4103.0,4.952873563,53,0.0,0.0,177.5,5828554.404,0,0,False
179022,-0.443936863617,-1.18387261957,Benjamin Andr_Î©,2800.605442,4.955782313,41,5096093.276,0.0,175.0,21861319.27,0,0,False
1401711,0.159641498922,-0.790013138387,Martin Christian,100.6666667,4.966666667,52,0.0,0.0,177.5,34000.0,0,0,False
2426455,-0.302561338256,-2.35462268953,Wood Jr. Edward D.,2169.790123,4.967901235,92,0.0,0.0,173.0,100566.8838,0,0,False
888520,0.865338917081,-1.44674669154,Hall Jr. Arch,951.25,4.9875,73,0.0,0.0,182.5,89433.08985,0,0,False
1745629,1.29610671373,-0.105705762227,Phillips Shawn C.,433.029703,4.996039604,31,0.0,0.0,185.0,245542.1457,0,0,False
