id_data,x_data,y_data,z_data,votes,rating,gross,salary,age,heightcm,budget,academy,golden,sample
2342794,-0.0891351255784,-0.83170570729,Waititi Taika,10907.84906,6.524528302,0.0,0.0,41,185.0,213391186.1,0,0,False
1694484,-0.285046000871,0.359035808681,Paris D.J.,54730.66667,7.15,0.0,0.0,43,175.0,202757502.0,0,0,False
1666029,0.386099046187,-0.789953072814,Orton Justin,71767.0,5.766666667,0.0,0.0,31,180.0,167803222.8,0,0,False
944330,-0.747104815583,-0.0494687256662,Henney Daniel,15994.36735,7.459183673,0.0,0.0,37,182.5,167539081.0,0,0,False
84839,-0.722448781275,0.187070763035,Armitage Richard,18382.83673,8.096598639,48258509.73,0.0,45,185.0,165613824.5,0,0,False
2236632,-0.710602960163,0.231299906842,Tomovic Branko,15777.72917,8.121875,0.0,0.0,36,182.5,165095204.9,0,0,False
417003,-0.720493218047,0.134192566986,Clement Jemaine,10517.73387,7.776612903,3374947.789,0.0,42,182.5,159872632.5,0,0,False
1594022,0.223627673511,-0.803588663982,Neeley Michael,47419.4,6.26,0.0,0.0,56,185.0,153310104.5,0,0,False
290483,0.573363137609,-0.616324434337,Bryggman Larry,18006.69231,5.934615385,0.0,0.0,78,180.0,148788219.7,0,0,False
572123,-0.0271845383869,0.803922452146,DiSparrow Lukas,70005.93878,7.93877551,0.0,0.0,32,155.0,141888248.6,0,0,False
254654,-0.735255840062,-0.134313341991,Braddock John David,29914.0,7.666666667,0.0,0.0,37,187.5,139756484.9,0,0,False
1483134,-0.708809752864,0.174445639718,Meunier David,10534.59167,8.084166667,0.0,0.0,43,184.0,137660344.6,0,0,False
474395,-0.227571716031,-0.276756314536,Crowe Cameron,30977.93056,7.163888889,485234.4858,0.0,59,180.0,136075597.6,0,0,False
2331594,0.50900175508,-0.234175884527,Volpe Lou,25456.44444,6.822222222,0.0,0.0,61,175.0,136049990.4,0,0,False
434480,-0.737399378906,-0.012292140428,Colter Mike,12062.30275,7.908256881,0.0,0.0,40,187.5,136032071.7,0,0,False
2017445,0.460570609187,0.638884191768,Serkis Andy,59650.71585,7.244808743,199997699.0,0.0,52,170.0,132432929.2,0,0,False
252057,-0.634346689294,0.458146204102,Boyega John,15306.37778,7.697777778,0.0,455663.5178,24,175.0,130976949.0,0,0,False
365478,-0.498824804185,0.271994170822,Cavill Henry,38519.43056,7.515277778,147729442.1,1481840.052,33,182.5,127614012.3,0,0,False
409921,-0.701034131943,0.290906066231,Claflin Sam,47929.58974,7.184615385,56154094.0,0.0,30,177.5,125563977.7,0,0,False
52510,0.796725131952,0.407466456733,Amalric Mathieu,10708.70543,6.620930233,1049697.657,0.0,51,165.0,124143154.8,0,0,False
465172,0.890665382349,0.23023954449,Craig Daniel,31467.52941,6.864052288,107478081.8,7957362.04,48,175.0,121766139.1,0,0,False
1549182,-0.626885221673,0.459226367856,Moseley William,12108.68085,7.614893617,0.0,0.0,29,175.0,118626870.3,0,0,False
658845,0.48697014143,-0.470993181386,Evans Chris,76134.55462,6.744537815,150033464.2,3160423.597,35,180.0,116236357.7,0,0,False
2063288,-0.726520893857,0.137656880877,Singh Gugun Deep,33874.0625,7.5375,0.0,0.0,37,180.0,115889570.2,0,0,False
459901,0.667777375203,-0.347325794351,Coupe David,132339.5,5.983333333,0.0,0.0,30,167.5,114557267.0,0,0,False
917691,-0.623555345927,-0.502925730055,Hartigan Dylan,19512.07692,6.938461538,0.0,0.0,20,182.5,114346214.9,0,0,False
344781,0.856255558843,0.000302592879309,Carnevale Michael J.,35177.11765,6.358823529,0.0,0.0,55,167.5,113882216.9,0,0,False
959105,-0.721558367999,-0.230353152602,Hiddleston Tom,30476.94382,7.516853933,985183.0,0.0,35,188.0,112670248.2,0,0,False
221417,0.63617502525,-0.299566360655,Bloom Orlando,51292.27211,6.904081633,16492707.65,8522048.624,39,177.5,111594821.3,0,0,False
761580,-0.746918654249,-0.0114346029406,Gandy David,6038.5,7.9,0.0,0.0,36,187.5,111470810.9,0,0,False
371088,0.695943022061,-0.495047602666,Chabat Alain,6148.336449,6.440186916,0.0,0.0,58,175.0,111062952.7,0,0,False
2150589,0.0169087308994,-0.557840424515,Stubbins John Michael,223514.3333,6.766666667,0.0,0.0,47,182.5,108793138.9,0,0,False
1040268,0.344745201587,-0.804451076387,Jackman Hugh,46906.72889,7.060888889,141214431.3,8927678.041,48,190.0,107145611.3,0,1,False
2113136,-0.741828697727,-0.2273455245,Spruell Sam,23633.67105,7.389473684,46917634.69,0.0,39,185.0,106563835.6,0,0,False
2432206,0.407972547287,0.540232087935,Worthington Sam,28517.35065,7.174025974,224727127.2,0.0,40,175.0,105219695.5,0,0,False
955071,0.271645870085,0.532647863086,Heslov Grant,17425.09701,7.041791045,0.0,0.0,53,172.5,104005155.1,0,0,False
2462665,0.215298095819,-0.462409247142,Zaideman Kevin,427871.75,6.15,0.0,0.0,30,175.0,103484654.0,0,0,False
941451,-0.380996622077,-0.730566863016,Hemsworth Chris,65665.37838,7.025675676,76022263.81,5144772.698,33,190.0,103380878.9,0,0,False
1210970,-0.737193210406,0.0784327979165,Kucsulain Justin,72523.25,8.475,0.0,0.0,32,190.0,103023459.3,0,0,False
2362114,-0.117123362791,-0.708471401907,Watanabe Ken,57308.46154,7.049230769,53670887.19,0.0,57,184.0,102859304.0,0,0,False
2118514,-0.744572913993,0.0237006336387,Stan Sebastian,59517.25974,7.627272727,14315043.47,0.0,34,183.0,102083837.1,0,0,False
1016239,-0.530254847876,-0.614269979342,Hyland Ian,13337.36364,6.809090909,0.0,0.0,21,182.5,101641079.9,0,0,False
1439036,-0.592095732069,-0.374027742207,McCluskey Taylor,92913.27778,7.283333333,0.0,0.0,34,185.0,100978141.4,0,0,False
311239,-0.767131573957,-0.229886976684,Butterfield Asa,30756.76,7.228,24603807.7,0.0,19,182.88,100153382.6,0,0,False
1108425,-0.566815758332,0.0807014132654,Kalbfleisch Dan,130367.5,7.55,0.0,0.0,30,180.0,98408104.2,0,0,False
744641,0.549753682918,-0.640445960907,Fujioka Hiroshi,369.9038462,6.103846154,0.0,0.0,70,180.0,97560975.61,0,0,False
1170428,-0.747287644087,0.241966941659,Kitsch Taylor,14466.48,7.593,72290129.53,0.0,35,181.0,96763567.69,0,0,False
2001326,-0.296776661913,0.708033617734,Scott Andrew,23515.42424,7.566666667,0.0,0.0,40,170.0,96458098.73,0,0,False
241806,-0.525254805642,-0.517156975097,Boseman Chadwick,16894.81132,7.058490566,60558314.67,0.0,40,180.0,95787725.25,0,0,False
1718435,-0.24232538179,0.576209035635,Pegg Simon,19138.5,7.071014493,10283574.57,0.0,46,175.0,94762954.49,0,0,False
1332962,0.262894512378,0.807727603231,Lucas Matt,5352.388693,7.109540636,0.0,0.0,42,165.0,94559571.64,0,0,False
434220,-0.58187876225,-0.321439872997,Colosimo Vince,8612.02381,7.217857143,0.0,0.0,50,182.5,93102018.8,0,0,False
993343,-0.731103707107,-0.289324350738,Hoult Nicholas,50998.63291,7.493670886,45172544.24,0.0,27,189.6,92230195.08,0,0,False
1363315,0.822078229296,0.420804917423,Maguire Tobey,35589.11852,6.811851852,229506092.3,15310192.01,41,170.0,92123473.09,0,0,False
1847950,0.793621212715,0.33073924837,Renner Jeremy,61342.81967,6.996721311,39425285.33,3454000.474,45,175.0,91549097.85,0,0,False
2353035,0.769249396811,0.171671572317,Waltz Christoph,22446.69343,6.560583942,173038.3212,0.0,60,167.5,91508709.18,2,2,False
141822,-0.251740138936,-0.775571851217,Baron Cohen Sacha,19825.13966,6.936871508,70319746.32,0.0,45,187.5,91404177.91,0,1,False
896143,-0.617222161301,-0.47810538593,Hammer Armie,33370.83333,7.218518519,0.0,0.0,30,192.5,91264127.47,0,0,False
579119,0.155729667235,0.0172337500646,Dolan Buddy,67555.42857,7.014285714,0.0,0.0,52,175.0,90788884.29,0,0,False
81600,0.206381361378,0.783765221897,Arenberg Lee,12045.75789,7.435263158,0.0,0.0,54,160.0,90656809.83,0,0,False
1452819,0.571854946218,0.323928257219,McKellen Ian,32612.37374,7.279461279,103654776.9,0.0,77,177.5,90351340.58,0,1,False
385892,0.416369181929,0.688006334174,Cheadle Don,15770.9717,7.187028302,8613794.711,628716.611,52,170.0,90074617.18,0,1,False
1816392,0.159241867185,-0.834062689581,Rakes Kwame,45283.77778,6.355555556,0.0,0.0,43,182.5,89375000.0,0,0,False
171196,-0.531922696776,0.555904980036,Bell Brandon P,3421.785714,8.422619048,0.0,0.0,31,172.5,89286714.29,0,0,False
14538,-0.200354433524,0.684137134108,Addy Mark,3645.110132,7.415418502,49102947.74,0.0,52,175.0,87515902.92,0,0,False
1918244,-0.397354503891,0.563192725884,Roxburgh Richard,6219.433735,7.720481928,12307855.31,0.0,54,175.0,86972426.44,0,0,False
1696087,-0.650886376125,-0.289802148045,Parke Evan,41249.54386,7.468421053,0.0,0.0,48,187.5,86907334.84,0,0,False
2386481,-0.572639617421,0.450260081528,Whishaw Ben,41911.84211,7.343421053,1279485.475,0.0,36,175.0,86883140.91,0,0,False
1927558,0.616096787531,0.090143391269,Rush Geoffrey,46476.82787,7.054098361,38119993.13,0.0,65,177.5,86554339.99,1,2,False
2134464,-0.671644318351,-0.222427349298,Stevenson Ray,27192.23158,7.681052632,5751980.265,0.0,52,190.0,86156348.55,0,0,False
348210,0.922016496495,-0.266487097749,Carrey Jim,17295.23844,6.564963504,148529548.1,18764681.5,54,185.0,85934242.91,0,2,False
1792879,0.25236768497,-0.416013676596,Pryce Jonathan,22923.3625,6.950625,3930594.731,0.0,69,180.0,85449037.48,0,0,False
146671,0.175125810932,0.832340683685,Barsky Brett,6503.826087,7.282608696,0.0,0.0,35,160.0,84871486.76,0,0,False
1565774,0.975053513714,0.124656960417,Murphy Eddie,12095.2975,6.629,140156051.7,16985271.61,55,172.5,84863148.58,0,1,False
683057,-0.0419037491627,-0.0382995265274,Feore Colm,12014.99149,7.12,2603531.626,0.0,58,177.5,84201728.9,0,0,False
1306079,0.17002659008,0.562211529345,Lipton James,961.8346457,7.689370079,0.0,0.0,90,167.5,83660995.3,0,0,False
433354,-0.693910313287,-0.237091971619,Collymore Stan,7886.75,7.5,6965700.0,0.0,45,187.5,83333333.33,0,0,False
460454,-0.738716982456,-0.0954331693905,Courtney Jai,58153.8125,7.421875,0.0,0.0,30,182.5,83322940.33,0,0,False
1838705,-0.152630767959,-0.80443513099,Reed Tanoai,33892.32432,6.559459459,0.0,0.0,42,187.5,82985054.01,0,0,False
1708507,-0.698707383315,-0.308813989899,Patton Donovan,6871.23913,7.084782609,0.0,0.0,38,180.0,82469544.81,0,0,False
898811,-0.340442867346,0.366208493152,Hancock Martin,9818.796296,7.159259259,58244790.17,0.0,43,177.5,82408576.12,0,0,False
510910,-0.154682787955,-0.659063731095,Davies Jonno,102780.0,6.7,0.0,0.0,24,180.0,82019433.21,0,0,False
171672,-0.256166933285,0.770424763485,Bell Jamie,23744.52439,7.629268293,18932576.58,0.0,30,167.5,81930545.92,0,0,False
2409808,0.183589952174,-0.750136545236,Willshire Kyle,157424.0,6.1,0.0,0.0,36,182.5,81701228.88,0,0,False
674758,-0.65251350829,-0.230830870449,Fassbender Michael,44200.30357,7.341964286,10459660.45,0.0,39,183.0,81396616.11,0,0,False
770250,0.310689651112,0.641009317896,Garfield Andrew,40757.19355,7.203225806,161207811.0,522661.742,33,175.0,81016756.36,0,0,False
780682,0.0237040758329,-0.618512520198,Geckles Joshua,179573.0,6.6,0.0,0.0,31,180.0,81009347.61,0,0,False
139974,-0.0797721747036,-0.236472801976,Barnes Ben,26011.82143,7.117857143,157866623.3,0.0,35,182.5,80162394.2,0,0,False
499344,-0.427987863744,0.0214553233842,Dane Michael,102574.1818,7.459090909,0.0,0.0,51,180.0,80152330.42,0,0,False
1854920,0.732297599292,-0.428983598022,Rhee Simon,47902.28,6.261333333,0.0,0.0,59,172.5,80106117.55,0,0,False
2368023,-0.218966555207,-0.611122375905,Weaving Hugo,88618.22628,7.016058394,5155039.848,0.0,56,185.0,80056045.53,0,0,False
2245488,-0.318429873319,-0.329295823897,Townsend Paul,34429.46667,7.14,0.0,0.0,55,180.0,80027197.94,0,0,False
221184,-0.389581370562,-0.452454107419,Blood Todd,118569.3929,7.310714286,0.0,0.0,57,187.5,79872678.5,0,0,False
1306904,-0.396509170095,-0.718670271205,List Spencer,19783.68182,6.65,0.0,0.0,18,180.0,79475759.53,0,0,False
1501066,0.694384512034,0.224913627021,Mills Bob Jay,21408.0,6.77,0.0,0.0,59,170.0,79419096.53,0,0,False
281618,-0.0806936751108,-0.836792971059,Brown Joshua David,16594.5,6.583333333,0.0,0.0,39,182.5,79231692.68,0,0,False
1140228,-0.466970783213,-0.637723888227,Kemp Will,6486.784314,6.888235294,0.0,0.0,39,177.5,79153961.13,0,0,False
446094,-0.328036421421,0.699558103688,Cooper Dominic,19948.84694,7.197959184,1447904.01,0.0,38,172.5,78613484.36,0,0,False
1750427,-0.517603908489,-0.59667518968,Pierre Perri,45213.0,6.916666667,0.0,0.0,28,185.0,78434206.96,0,0,False
929919,-0.579985208554,0.46715625641,Hayes Sean,1324.888342,7.58817734,24656306.0,588957.0552,46,177.5,78408505.67,0,0,False
734957,0.0211537433795,0.799436238371,Freeman Martin,16485.52586,7.449137931,270226.1905,0.0,45,165.0,78403106.78,0,0,False
1042750,0.638248822154,0.458419281711,Jackson Peter,100967.9474,7.190526316,0.0,19064619.35,55,165.0,78202658.33,0,0,False
1612837,0.148656077976,-0.509471072412,Nighy Bill,29234.8324,7.183798883,97900387.31,0.0,67,185.0,78099022.85,0,1,False
1848166,0.340822798049,-0.745478710019,Reno Jean,25349.11404,6.212280702,6378590.476,0.0,68,185.0,77472310.61,0,0,False
1461399,0.382527473432,0.666418539455,McShane Ian,9666.52,7.414333333,39237057.22,0.0,74,167.5,77417801.79,0,1,False
2088005,0.891807066568,-0.256294680203,Smith Will,14740.36723,6.807532957,168142383.1,14693957.66,48,185.0,77337355.74,0,0,False
1465551,-0.566815230064,0.344284219799,Meehan Sean,85584.64286,7.685714286,0.0,0.0,42,177.5,77179719.69,0,0,False
811082,-0.374237060528,-0.517163839055,Goddard Trevor,14256.76829,7.075609756,0.0,0.0,54,182.5,76890998.38,0,0,False
1876495,0.490264919735,-0.494570157289,Rober Richard,684.0,6.274193548,0.0,0.0,106,182.5,76868327.4,0,0,False
1051110,-0.439443816819,0.663973354956,James Liam,6104.782609,8.133043478,0.0,0.0,20,167.5,76777040.61,0,0,False
129254,-0.30016791622,-0.738269277156,Bana Eric,40125.09639,6.878313253,43344889.26,0.0,48,189.0,76597492.37,0,0,False
856984,-0.655704742489,0.391949716157,Groff Jonathan,12472.84286,7.99,56972.91775,0.0,31,177.5,76167432.75,0,0,False
264649,0.235999993432,0.571343652471,Bremner Ewen,27636.56075,6.959813084,115571.6687,0.0,44,173.0,75919089.94,0,0,False
2347807,-0.477354837338,0.500235605038,Wall Todd,55412.9,7.64,0.0,0.0,46,175.0,75645564.2,0,0,False
1753921,0.275921163097,0.143001842573,Pine Chris,23289.26042,7.084375,97104058.82,4095274.323,36,180.0,75121943.08,0,0,False
1809693,0.596556837218,0.677978176524,Radcliffe Daniel,25670.67333,7.262666667,158893704.0,15384281.41,27,162.5,74989294.43,0,0,False
691876,-0.603559717717,0.0598162977544,Fichtner William,29368.63084,7.791588785,0.0,0.0,60,184.0,74478100.53,0,0,False
550145,0.918534485094,0.191565103354,Depp Johnny,24312.12652,7.081751825,94994341.53,20877617.82,53,175.0,74335882.04,0,1,False
2277915,-0.702244117574,-0.0695343739935,Urban Karl,54559.46667,7.464444444,13274741.99,0.0,44,182.5,74300517.32,0,0,False
1448446,-0.0419467169271,-0.0452792006076,McGoohan Patrick,5281.812785,7.503196347,0.0,0.0,88,182.5,73951410.75,0,0,False
991521,-0.109031282824,0.717785280438,Hosford Steve,1003.666667,7.173333333,0.0,0.0,46,172.5,73469387.76,0,0,False
1499872,-0.743326777561,-0.144631162453,Miller T.J.,13027.14286,7.481385281,0.0,0.0,35,185.0,73457098.37,0,0,False
1806565,-0.735739835163,-0.105793181456,Quinto Zachary,6027.51145,7.546564885,0.0,0.0,39,185.0,73130686.09,0,0,False
272314,0.2831673181,-0.464961164322,Broadbent Jim,27691.83744,7.056157635,4156590.205,0.0,67,185.0,73092201.98,1,2,False
1829055,0.125211563213,0.486066600775,Ratzenberger John,18765.78958,7.341698842,2638.98535,0.0,69,172.5,73069790.94,0,0,False
1059101,-0.543573147747,0.155945814086,Jay Baron,71671.29231,7.316923077,0.0,0.0,40,177.5,72776847.27,0,0,False
105368,0.349517508985,-0.663320172627,AvMen Michael,170595.6667,6.033333333,0.0,0.0,39,177.5,72682203.15,0,0,False
591752,0.93271748287,0.28826674218,Downey Jr. Robert,34221.50847,6.687118644,242561776.5,17273914.98,51,170.0,72646630.99,0,2,False
2413209,0.937346925531,-0.267674754617,Wilson Owen,47688.232,6.3072,86969718.17,7590780.429,48,175.0,72448265.56,0,0,False
446339,0.509295697522,0.0531838797113,Cooper Jackie,1422.561702,6.94212766,0.0,0.0,94,172.5,72031153.74,0,0,False
1225670,0.524571083583,0.506849843503,LaBeouf Shia,20173.20856,7.01657754,188576662.8,4667649.787,30,176.0,71995560.41,0,0,False
2197225,-0.112855109854,0.741714335588,Taylor Noah,25843.02128,7.391489362,1283366.317,0.0,47,170.0,71934646.76,0,0,False
2148853,-0.538260714061,-0.426198827002,Strong Mark,23674.48705,7.238860104,12624137.37,0.0,53,185.0,71700349.46,0,0,False
2428764,-0.642575775278,0.382212766787,Woodlee Zachary,9311.584314,7.783921569,0.0,0.0,39,177.5,71644088.5,0,0,False
2223489,-0.187234893289,-0.816965822466,Thwaites Brenton,34316.17647,6.647058824,31153464.0,0.0,27,181.0,71390105.43,0,0,False
434593,-0.0609959520646,-0.496141148087,Coltrane Robbie,20780.70213,7.035744681,515033.5883,0.0,66,182.5,71326627.93,0,0,False
2077778,-0.389965988935,-0.729661072327,Smit-McPhee Kodi,33333.34286,6.668571429,24029667.28,0.0,20,185.0,71260795.89,0,0,False
1923711,0.76497025787,0.24572898784,Ruffalo Mark,51363.13816,6.731578947,10163297.93,0.0,49,170.0,71037828.59,0,0,False
2062431,-0.468549027575,0.529032399545,Singer Bryan,21746.97734,7.911898017,0.0,0.0,51,175.0,71028961.44,0,0,False
405296,-0.162430168441,-0.437911127405,Church Thomas Haden,9556.7251,7.132270916,43188803.84,0.0,56,181.0,70929180.33,0,0,False
2448304,0.601694495688,-0.640115337293,Yee Jason,107601.6154,5.538461538,18189.67395,0.0,46,175.0,70808181.62,0,0,False
2136188,0.727865708922,0.449158462728,Stewart Patrick,9077.790816,7.35170068,101036997.9,10131056.01,76,175.0,70650733.21,0,0,False
1380838,-0.431320014742,-0.317560166772,Mann Nav,137261.0,7.275,0.0,0.0,35,182.5,70520083.92,0,0,False
1709647,-0.491867577524,0.3503165596,Paul Michael,55389.83333,7.15,0.0,0.0,34,175.0,70427713.44,0,0,False
1199519,-0.713624790143,-0.185778605852,Kozlov Vladislav,32128.64286,7.321428571,0.0,0.0,40,182.5,70264746.54,0,0,False
832184,0.413408479107,-0.172254693087,Gough Michael,11502.41176,6.916470588,0.0,0.0,100,177.5,70156052.47,0,0,False
1031692,-0.236294303721,0.325567634159,Irwin Bill,10475.78261,7.547204969,0.0,0.0,66,177.5,70066745.26,0,0,False
86480,-0.495886220678,-0.157479015004,Arnett Will,7779.381395,7.436744186,117746813.3,0.0,46,185.0,69850666.35,0,0,False
1758718,0.966532241855,-0.203959023784,Pitt Brad,43676.98611,6.311944444,85481463.85,13594260.62,53,177.5,69734306.35,0,1,False
941454,-0.72780236327,-0.328103793799,Hemsworth Liam,35228.34286,7.35,55368160.89,0.0,26,187.5,69716056.4,0,0,False
196089,-0.275243463256,-0.714920835362,Bettany Paul,86242.57895,6.855263158,18999701.5,0.0,45,187.5,69449529.54,0,0,False
1434207,0.108758831457,0.847236001944,McAvoy James,23635.1371,7.312096774,48296245.51,0.0,37,167.5,69428061.8,0,0,False
1419130,-0.155507654288,0.769690273574,Matheson Hans,19902.90385,7.325,1967376.297,0.0,41,170.0,69309978.78,0,0,False
1937865,-0.53138311126,0.60600635704,Sabara Daryl,12877.24183,7.306535948,5152730.952,0.0,24,172.5,69070189.84,0,0,False
940223,-0.75351164823,-0.0280839863681,Helman Josh,42406.05263,7.694736842,0.0,0.0,30,185.0,68981618.2,0,0,False
413839,-0.646065530867,-0.186152560267,Clarke Jason,24218.94624,7.31827957,71322082.59,0.0,47,182.5,68903253.42,0,0,False
474500,0.952990123827,-0.121568658294,Crowe Russell,29768.42408,6.429842932,64830506.25,17380321.93,52,177.5,68846562.25,1,1,False
108243,-0.42910585986,0.474987501025,Azaria Hank,2617.708053,7.412392667,38284992.99,293548.3871,52,177.5,68761130.43,0,0,False
1565531,-0.343486645494,0.599614655027,Murphy Cillian,89410.97872,7.623404255,1053076.928,0.0,40,172.5,68715447.99,0,0,False
1090175,0.925711321094,-0.230393853459,Jones Tommy Lee,30003.10458,6.636601307,72264064.99,14735638.29,70,180.0,68707446.97,0,1,False
2417689,0.270580932856,-0.833402433736,Winters Chris,11846.1,6.23,0.0,0.0,46,182.5,68636351.31,0,0,False
1226667,0.0830629489409,-0.628777427329,Lacey Aaron Michael,52058.23288,6.850684932,0.0,163273.343,47,177.5,68519915.65,0,0,False
907395,-0.144698107901,0.73794875382,Hardy Tom,66253.32609,7.319565217,33611372.67,0.0,39,172.5,68340538.09,0,0,False
475352,0.986596823839,0.074395681177,Cruise Tom,29250.88089,6.073407202,150325470.3,22818323.78,54,167.5,68280976.74,0,3,False
125330,0.849406660206,-0.333034578122,Bale Christian,68960.42657,6.812587413,121073404.0,7480124.381,42,183.0,68258050.06,1,1,False
624907,0.155122730188,-0.624388060581,Edwards Bill,940.6212121,6.665151515,0.0,0.0,98,192.5,68251754.49,0,0,False
2225041,-0.362990479291,6.59036295176e-05,Tiernan Andrew,15110.34043,7.138297872,0.0,0.0,51,177.5,68237935.83,0,0,False
960519,-0.610876122089,0.519618576143,Highmore Freddie,12512.5,7.7,37198422.66,0.0,24,175.0,68079618.55,0,0,False
607978,-0.0990283533996,0.450158312077,Dunn Kevin,13590.9878,7.327642276,0.0,0.0,60,175.0,67939807.36,0,0,False
496026,-0.161197082019,-0.41272606659,Dallace Tommy,269029.0,7.16875,0.0,0.0,44,185.0,67849737.46,0,0,False
995610,-0.64122418408,0.453103400956,Howard Leo,2450.669643,7.903571429,11528.04784,0.0,19,175.0,67547579.1,0,0,False
480515,-0.690769815514,0.352047952034,Cumberbatch Benedict,29426.94286,7.702285714,50306276.98,0.0,40,180.0,67418883.26,0,0,False
565794,0.740040879809,-0.528760413229,Diesel Vin,52135.34454,6.637815126,122222812.3,8345738.505,49,182.0,67362144.42,0,0,False
972671,-0.0698342952659,0.772346790779,Hodgman John,4212.290123,7.286419753,0.0,0.0,45,170.0,67121289.1,0,0,False
440772,-0.498015814724,-0.287831825601,Considine Paddy,39150.48,7.046,9875002.777,0.0,42,177.5,66596340.72,0,0,False
1573233,0.874280015095,0.299249423326,Myers Mike,11443.92637,6.503087886,233026594.9,9442259.997,53,170.0,66303617.94,0,0,False
2032214,0.224728260761,0.672217502615,Shearer Harry,2535.666832,7.474708075,0.0,293548.3871,73,165.0,66181511.54,0,0,False
1032084,0.140295494312,0.74684958018,Isaac Oscar,48124.04762,7.06984127,6420549.137,0.0,37,170.0,65824071.52,0,0,False
24002,-0.570650259913,-0.554344969634,Aiken Liam,13975.95,6.8525,0.0,0.0,26,177.5,65799470.95,0,0,False
1371125,-0.499742036915,0.583326931661,Malek Rami,15959.54651,7.912790698,0.0,0.0,35,172.5,65699620.33,0,0,False
1763071,-0.06645699956,0.193063494249,Plowman David Michael,779071.3333,8.5,0.0,0.0,37,172.5,65635401.52,0,0,False
829455,-0.440729455688,0.611158212533,Gorman Burn,13952.59494,7.767721519,0.0,0.0,42,172.5,65614314.24,0,0,False
974144,0.790296554179,0.292278644195,Hoffman Dustin,14315.19149,6.965045593,135573724.0,6587366.397,79,167.0,65462254.21,2,5,False
1917396,-0.666477008217,-0.314944862927,Rowe Nicholas,6753.284091,7.525,44027509.29,0.0,50,190.0,65416232.96,0,0,False
1397967,0.113293566575,0.560934775442,Marsden James,36039.7973,7.012837838,29579872.45,0.0,43,175.0,65300783.52,0,0,False
350887,-0.610701002821,0.188370857706,Carter Alex,2158.218182,7.56,0.0,0.0,52,180.0,65217391.3,0,0,False
1973302,0.825571919087,0.0984613713969,Saucedo Michael,13608.76923,6.769230769,279140.1869,0.0,46,172.5,65047995.48,0,0,False
621059,-0.619136088531,0.231581228603,Eccleston Christopher,10520.53571,7.657142857,619723.1358,0.0,52,180.0,65044414.41,0,0,False
2417165,0.42909449375,-0.0671146945372,Winstone Ray,18981.03518,6.933165829,3268915.35,0.0,59,175.0,65040673.43,0,0,False
1934524,0.390853424794,0.720528632849,Rylance Mark,9213.82,7.274,34238305.35,0.0,56,170.0,65005407.86,1,0,False
935123,-0.0707029695007,-0.830542720458,Hedlund Garrett,51718.34615,6.403846154,0.0,0.0,32,185.0,64994558.23,0,0,False
964038,-0.703657484658,-0.29672088357,Hilliard Justin D.,12028.25,7.475,0.0,0.0,34,190.0,64963261.57,0,0,False
900439,0.873137211403,0.0882641199047,Hanks Tom,18368.42588,7.075471698,86323156.26,18301838.8,60,180.0,64852884.27,2,4,False
1939563,-0.402900285924,0.226141543533,Sachs Robin,11773.03659,7.680487805,0.0,0.0,65,180.0,64825930.37,0,0,False
1651428,0.629872821512,0.538896078116,Oldman Gary,63445.66013,7.073856209,23605403.39,4048887.916,58,170.0,64811864.28,0,0,False
26751,-0.437091718466,0.236879320669,Akinnuoye-Agbaje Adewale,20038.28472,7.788194444,167814643.4,0.0,49,185.0,64602752.05,0,0,False
837556,0.0103397477151,0.229905268147,Grammer Kelsey,1985.295176,7.603959683,39442604.97,0.0,61,182.5,64480442.06,0,2,False
1255048,0.941052804545,0.0223184599029,Law Jude,31505.61491,6.81552795,34259248.6,9237738.822,44,175.0,64304654.73,0,0,False
2032803,0.0921979308306,0.786933197264,Sheen Michael,16512.93897,7.542723005,51238507.11,8166423.507,47,175.0,64159820.46,0,0,False
1457228,-0.704276858572,0.00176949034409,McMahon Julian,4006.780488,7.7271777,0.0,0.0,48,185.0,63939779.14,0,0,False
1355249,0.143180863496,-0.424246054624,Mackie Anthony,70562.47727,6.822727273,2963346.703,0.0,38,175.0,63907244.57,0,0,False
834850,-0.746682218901,0.110242476305,Grace Topher,13385.71825,7.421428571,7387486.563,0.0,38,179.7,63781833.6,0,0,False
1654014,-0.650440032449,-0.352065100813,Oliveto Nils,7193.294118,7.076470588,0.0,0.0,42,180.0,63455405.17,0,0,False
927643,0.731739223047,0.0382391457696,Hawn Phil,42398.19658,6.62991453,0.0,0.0,59,170.0,63401710.33,0,0,False
442927,-0.356201403381,0.53231463696,Coogan Steve,6658.881356,7.381144068,1611815.589,0.0,51,175.0,63344686.64,0,0,False
888100,0.488435706727,0.722434172234,Haley Jackie Earle,23429.5,7.108333333,69405644.42,0.0,55,162.5,63258574.06,0,0,False
1854100,-0.721830594096,-0.334058464045,Reynolds Ryan,26058.81905,7.345714286,71716827.69,2000000.0,40,185.0,63257173.87,0,0,False
1437060,-0.394823977341,-0.0205550920595,McCarthy Tom,25941.5125,7.13875,0.0,0.0,50,177.5,63245380.12,0,0,False
85481,-0.707745983926,0.262399058268,Armstrong Jonas,4651.777778,7.826262626,1015189.965,0.0,35,180.0,63028942.13,0,0,False
725481,0.908005056228,0.280878074529,Foxx Jamie,7879.279438,6.927943761,65583154.48,8486849.728,49,172.5,62818368.99,1,1,False
501333,0.30274021499,0.752250032239,Daniels Phil,1576.142857,7.533082707,148841693.4,0.0,58,167.5,62717770.03,0,0,False
495316,-0.562500150961,0.493845780404,Dale James Badge,35117.72727,7.869318182,0.0,0.0,38,175.0,62707871.8,0,0,False
1780578,-0.0484296176058,0.432165308527,Powers Frank,112848.7273,7.213636364,0.0,0.0,41,172.5,62701064.35,0,0,False
499123,-0.547276688698,0.512005191421,Dancy Hugh,8493.526316,7.826315789,2214214.173,0.0,41,175.0,62656247.13,0,0,False
382812,-0.651355890879,0.328483559602,Chase Bailey,3166.385542,8.053614458,0.0,0.0,44,180.0,62639239.92,0,0,False
1304936,0.277356914088,0.812986137686,Linz Alex D.,11036.27419,6.930645161,34649631.71,0.0,27,170.0,62577047.49,0,0,False
693358,0.457384281201,-0.52102099748,Fiennes Ralph,44739.29861,6.977777778,50005607.72,0.0,54,180.5,62504704.09,0,0,False
1013811,0.358500501202,0.77132271727,Hutcherson Josh,31326.04301,6.889247312,37280477.08,0.0,24,167.5,62378238.62,0,0,False
2156875,-0.553501972223,0.559831470781,Sullivan Erik Per,7850.67052,7.804624277,0.0,0.0,25,172.5,62369316.35,0,0,False
251887,0.722868552755,-0.488333916573,Boyd Stephen,3740.745763,6.042372881,88888888.89,0.0,85,180.0,62354248.25,0,1,False
789102,-0.0296407591487,0.777362807614,Gervais Ricky,2351.15083,7.736048265,36256052.53,0.0,55,170.0,62263023.16,0,1,False
1999118,-0.230041630771,0.361459979448,Schwimmer David,4232.682382,7.92133995,7239337.63,13900134.95,50,182.5,62115562.45,0,0,False
1255117,-0.143582354527,0.758168926538,Law Maximilian,40524.35714,7.214285714,0.0,0.0,35,170.0,61756070.9,0,0,False
563215,0.916537859269,0.0423551823649,DiCaprio Leonardo,41242.78261,6.785507246,128505945.8,18773564.51,42,180.0,61657739.62,1,3,False
2459460,-0.614584548923,-0.335289445737,Yune Rick,17447.5,7.106521739,0.0,0.0,45,180.0,61513025.0,0,0,False
993421,0.19675884587,-0.780787663806,Hounsou Djimon,41024.42,6.647,0.0,0.0,52,182.5,61505691.79,0,0,False
860425,-0.630594100402,0.160624073014,Gruffudd Ioan,16720.64848,7.478181818,104107197.3,0.0,43,182.0,61381210.97,0,0,False
724948,0.728479525978,0.583751936131,Fox Michael J.,4624.430813,7.225820257,104573522.0,8097165.992,55,160.0,61292602.74,0,4,False
2333617,0.145998469923,-0.644224308733,von Sydow Max,21494.06091,6.811675127,47729568.23,0.0,87,190.0,61278453.63,0,0,False
1146168,-0.685389434984,-0.104795677862,Kerr Steve,8068.8,7.733333333,0.0,0.0,51,187.5,61210468.45,0,0,False
1521075,0.741790869345,-0.585955651752,Moll__ Jordi,14190.16842,6.109473684,18830072.36,0.0,48,175.0,60937279.54,0,0,False
987074,0.923716639745,0.124076554902,Hopkins Anthony,19622.75357,6.785714286,32817616.71,17621787.48,79,170.0,60866970.33,1,0,False
1132171,-0.475276631087,0.606317912428,Keaton Josh,1014.180095,7.716587678,0.0,0.0,37,172.5,60823319.88,0,0,False
816539,-0.618057783986,-0.11914600404,Goldwyn Tony,8469.763393,7.558035714,867159.462,0.0,56,185.0,60761078.03,0,0,False
2020462,-0.184761936823,0.799563060206,Severino Leonel,14081.5,7.316666667,0.0,0.0,27,167.5,60755135.71,0,0,False
1894039,0.486752650546,0.447756320837,Rogen Seth,38784.7751,7.053815261,101859130.6,5126868.928,34,177.5,60626756.29,0,0,False
2206093,-0.0986643007487,-0.802018208761,Tesen Todd,11025.65,6.64,0.0,0.0,48,185.0,60625945.28,0,0,False
634632,-0.450134094929,-0.666707356332,Elgort Ansel,48856.71429,6.761904762,0.0,0.0,22,187.5,60463303.75,0,0,False
1293140,0.940518617053,0.191292301683,Li Jet,24442.76344,6.587096774,36893243.26,7067384.411,53,168.0,60319776.49,0,0,False
795244,0.302727574012,-0.842883310186,Gibson Tyrese,30423.12222,6.275555556,32159453.36,0.0,38,181.0,60297358.25,0,0,False
345849,-0.233913795417,0.216070452994,Carpenter Cole,1272.833333,7.316666667,0.0,0.0,59,177.5,60223048.33,0,0,False
809342,0.0550714342689,0.135543432729,Glover Julian,14418.71101,7.65733945,169458874.7,0.0,81,185.0,60204367.89,0,0,False
834078,-0.691472221462,0.192509964467,Goyos Rey,79568.0,7.70625,0.0,0.0,32,180.0,60152402.04,0,0,False
459486,-0.401784209499,0.63595596699,Coulson Christian,36940.5,7.403333333,0.0,0.0,38,172.5,60107809.72,0,0,False
1051002,-0.200586666484,0.73531997462,James Kevin,4129.785992,7.66770428,91030388.53,736196.319,51,175.0,60035644.56,0,0,False
1021764,-0.145638113246,-0.778635229196,Ifans Rhys,26958.8172,6.724731183,2482250.994,0.0,49,185.0,60002391.57,0,0,False
1941855,0.14383679969,0.656703040098,Sagastizado I Tony,55016.26316,7.178947368,0.0,0.0,51,170.0,59798343.62,0,0,False
1639662,-0.363157835721,0.123586091751,O'Neill Ed,1976.796902,7.707228916,8112650.22,0.0,70,182.5,59752450.76,0,0,False
2331969,0.0519398834771,-0.344474486802,von Bargen Daniel,21857.07018,7.055263158,0.0,0.0,66,180.0,59718292.21,0,0,False
1839689,-0.135433246707,-0.738355429283,Reeve Christopher,4308.555,6.944,38003881.65,1595398.211,64,190.0,59434116.29,0,0,False
722177,0.0388602418669,0.0289087260996,Foster Ron,1356.638889,7.432407407,0.0,0.0,86,180.0,59431775.09,0,0,False
962670,0.738214006382,0.479452109361,Hill Jonah,53695.92857,6.605844156,102748812.7,0.0,33,167.5,59418589.13,0,0,False
794988,0.937800057755,-0.144607859653,Gibson Mel,25864.19048,6.458730159,109152998.5,18379080.29,60,177.0,59365173.83,0,0,False
1013579,-0.166200224929,-0.731485293648,Huston Danny,27681.13675,6.823076923,27884.34783,0.0,54,185.0,59225062.24,0,0,False
232143,-0.5813956456,-0.282742739915,Bonaventura Anthony,34684.56522,7.030434783,0.0,0.0,38,177.5,59220856.46,0,0,False
1863180,-0.216606137986,-0.365429515159,Rickman Alan,49708.28346,7.337795276,362810.8731,0.0,70,185.0,59134745.35,0,1,False
2221056,0.161024255526,-0.793659790542,Thornberry Michael,116898.0,6.133333333,0.0,0.0,43,185.0,59081443.92,0,0,False
529117,0.635777301197,-0.664018952524,De Sica Christian,3472.402174,4.841304348,0.0,0.0,65,180.0,59031734.97,0,0,False
2082375,0.723485924245,0.447705701909,Smith Jaden,18149.02128,6.540425532,128357363.4,3301904.098,18,170.0,58996491.74,0,0,False
2213424,-0.224294304066,0.559341876912,Thomas Dave,836.2663934,7.799795082,20653913.25,0.0,67,175.0,58912719.49,0,0,False
1821958,0.250815537699,-0.00991793506066,Ram__rez Edgar,31220.22222,6.891111111,16923036.77,0.0,39,175.0,58881851.4,0,0,False
1594257,0.361664962493,-0.791251507307,Neeson Liam,37478.92419,6.958122744,59608720.75,9604454.351,64,190.0,58790546.65,0,0,False
905401,-0.706646506246,-0.228628968545,Harbour David,23215.98148,7.628703704,23383.93843,0.0,41,190.0,58785756.45,0,0,False
160751,-0.186712695272,0.501800692149,Bean Sean,27912.92126,7.359448819,4768588.952,0.0,57,175.0,58754630.82,0,0,False
1673233,-0.347403835754,-0.615858541321,Owen Clive,18284.43636,7.117575758,16006697.63,0.0,52,185.0,58732469.19,0,1,False
1690369,-0.460466755104,0.652039987436,Papac Benjamin,13405.72222,7.688888889,0.0,0.0,23,170.0,58729964.52,0,0,False
1274852,-0.765707078824,-0.162533047547,Leinbach Jacob,19337.9,7.42,0.0,0.0,20,185.0,58698991.8,0,0,False
391477,0.152203434996,0.744006149995,Chevalier Peter J.,56053.5,7.34,0.0,0.0,51,165.0,58593421.71,0,0,False
895837,-0.704121817862,0.0565331219148,Hamm Jon,5440.712159,7.736228288,18410721.25,0.0,45,185.0,58425901.57,0,1,False
2151741,-0.73137057082,0.10936624754,Sturgess Jim,54173.85417,7.4375,30192148.41,0.0,38,180.0,58416328.51,0,0,False
2199761,0.526348556592,0.689320296309,Tedford Travis,23257.3125,6.84375,83829878.54,0.0,28,167.5,58173366.57,0,0,False
1282199,-0.340165003779,0.732066720962,Lerman Logan,46973.36364,7.378181818,62289390.69,0.0,24,172.5,58106688.06,0,0,False
727015,0.649836910905,-0.500695677547,Francis Alan,19959.18519,6.648148148,0.0,0.0,52,175.0,58095515.0,0,0,False
1449552,0.539531160637,0.13761496446,McGregor Ewan,29033.43478,6.946859903,65688660.18,0.0,45,177.0,58090733.0,0,0,False
1843540,-0.560017671754,-0.463402272196,Reilly John C.,22056.14286,7.272321429,60047217.77,0.0,51,185.0,58017912.96,0,0,False
1859547,0.277828703652,-0.784488886321,Richards Craig,20925.0,6.24,0.0,0.0,61,185.0,57995696.55,0,0,False
630924,0.392181521019,0.357365872188,Ejiofor Chiwetel,42928.64634,7.002439024,20373543.64,0.0,39,175.0,57915708.4,0,0,False
1572817,-0.751162000105,-0.0844098175748,Myers Christopher H.,7214.272727,7.072727273,0.0,0.0,38,177.5,57895642.97,0,0,False
1032202,-0.429582311977,0.516084155804,Isaacs Jason,23470.80531,7.465486726,42335915.65,0.0,53,177.5,57857348.26,0,0,False
2122965,0.524104778892,-0.431794478969,Statham Jason,82368.52239,6.714925373,23928773.38,793756.1931,49,175.0,57800602.87,0,0,False
2047331,0.790937739037,-0.169719159578,Shyamalan M. Night,65818.37037,6.691358025,0.0,12132359.11,46,175.0,57744502.55,0,0,False
1280691,0.814333954395,0.179683952905,Leong Al,24883.34667,6.445333333,0.0,0.0,64,165.0,57523982.7,0,0,False
449868,-0.117581717226,-0.3567297543,Cordero Ricardo,16755.23529,7.0,0.0,0.0,51,177.5,57507788.16,0,0,False
1783142,0.425027525571,0.488258562733,Pratt Chris,10254.22713,7.766876972,499125057.4,12000000.0,37,185.0,57482662.81,0,0,False
1875388,-0.391210032195,0.55629499688,Roache Linus,17501.54658,7.588819876,2582190.148,0.0,52,175.0,57326453.46,0,0,False
447991,-0.72108072624,-0.249940734779,Copley Sharlto,32971.98214,7.305357143,56807406.69,0.0,43,183.0,57293873.84,0,0,False
2424801,-0.0375781756117,0.773402495267,Wong BD,5312.376,8.050133333,50779.8773,0.0,56,160.0,57217166.61,0,0,False
2021031,-0.645141678112,-0.140551532401,Sewell Rufus,12746.69841,7.216666667,21110545.77,0.0,49,180.0,57169982.97,0,0,False
807724,-0.548669107708,-0.379704509233,Gleeson Domhnall,92041.59459,7.2,13792986.58,0.0,33,182.5,57047850.01,0,0,False
1165058,-0.768389554186,-0.0208901784931,Kinnaman Joel,15509.21739,7.642391304,39675844.55,0.0,37,185.0,57004123.24,0,0,False
1916334,-0.771261229484,0.129725276572,Routh Brandon,7118.91716,7.699408284,119882939.6,1190476.19,37,185.0,56969001.19,0,0,False
1882493,-0.32774277068,-0.489349725879,Robinson James,58298.53846,7.1,119070779.5,0.0,33,182.5,56946059.78,0,0,False
1636357,-0.276871123747,0.751310288363,O'Donnell Chris,5126.34767,7.533333333,38597256.91,2873529.196,46,175.0,56929374.98,0,0,False
1253496,0.655435802678,0.575109320538,Lautner Taylor,12922.14407,6.886440678,174132709.1,7938834.255,24,170.0,56926226.11,0,0,False
1261790,-0.570334163162,-0.104408991552,Leary Denis,6636.32287,7.574215247,5456235.053,1529636.711,59,185.0,56875825.09,0,0,False
2327512,0.805392765377,-0.00953105188094,Viterelli Joe,15276.21951,6.182926829,0.0,0.0,79,165.0,56755233.98,0,0,False
1043091,0.603760128133,-0.666109617061,Jackson Samuel L.,37682.62121,6.587662338,27455804.3,7956530.803,68,185.0,56631689.65,0,0,False
532033,-0.620100725963,0.271559702986,Dean Loren,19719.15909,7.329545455,6561203.842,0.0,47,177.5,56588934.27,0,0,False
2170213,0.796544047874,-0.262556059151,Sykes Eric,3689.893401,5.639086294,290013036.0,0.0,93,175.0,56434745.29,0,0,False
1381032,-0.252234587374,-0.793548953878,Mann Thomas,37272.0,6.677777778,32020577.12,0.0,25,181.0,56434121.76,0,0,False
2267556,0.278413068306,-0.668292881429,Turturro John,24597.76966,6.778651685,7410329.861,0.0,59,180.0,56333849.42,0,0,False
996111,0.500637795112,-0.287189843322,Howard Trevor,4570.488372,6.857364341,49205233.0,0.0,103,181.5,56323399.59,0,0,False
1239833,0.550303158191,0.629686188516,Lane Nathan,11971.67742,7.051612903,28203458.89,0.0,60,167.5,56274267.95,0,0,False
2198423,-0.00505489012272,-0.601273166144,Taylor-Johnson Aaron,81199.21739,6.793478261,61662032.77,0.0,26,177.5,56244489.66,0,0,False
1519809,-0.510333374281,-0.0489262980327,Molina Alfred,14410.36545,7.628571429,35619344.97,3811540.498,63,185.0,56015317.49,0,0,False
2339214,0.626511568958,-0.688176543528,Wada Tet,34643.14286,5.314285714,0.0,0.0,43,177.0,55948555.21,0,0,False
2210819,-0.298184885505,-0.694244266819,Thewlis David,37321.02564,6.897435897,2104670.65,0.0,53,189.0,55943435.02,0,0,False
2408692,0.932146618461,-0.164020458418,Willis Bruce,34449.95399,6.681288344,86986622.1,19124938.06,61,180.0,55923029.98,0,1,False
1876180,-0.545782321625,-0.20840700928,Robbins Jarrod,78756.7,7.22,0.0,0.0,36,180.0,55824263.51,0,0,False
1076538,0.066732522848,-0.842815053904,Johnson Dwayne,7271.184783,6.799347826,87451580.19,13674865.0,44,196.0,55815904.96,0,0,False
475215,0.706841057719,0.385304404674,Crudup Billy,45163.60938,6.8140625,6644256.867,1393728.223,48,170.0,55793117.78,0,0,False
882277,-0.574007378049,-0.444133142907,Hader Bill,9914.941606,7.184379562,88487355.22,0.0,38,182.5,55557039.49,0,0,False
274269,-0.372707390923,0.585259117963,Brolin Josh,23657.45545,7.291584158,14650218.41,0.0,48,175.0,55539646.69,0,0,False
633435,-0.70684357618,-0.285867518585,Elba Idris,21594.285,7.5685,44037902.44,0.0,44,190.0,55527586.92,0,0,False
659825,-0.352031204657,-0.576316797527,Evans Luke,76505.41026,6.969230769,28565320.99,0.0,37,180.0,55469259.87,0,0,False
848804,-0.436757167728,-0.10472108404,Greenwood Bruce,13429.17314,7.374558304,30981513.29,0.0,60,182.0,55301257.12,0,0,False
1505668,-0.0611598412506,0.814799413269,Mintz-Plasse Christopher,28351.20588,7.159558824,0.0,0.0,27,167.5,55297743.52,0,0,False
621908,-0.0437279953262,-0.790347989027,Eckhart Aaron,56386.12195,6.758536585,18996410.99,0.0,48,183.0,55101088.01,0,0,False
2177557,0.0611844157867,0.354705913203,Tabori Kristoffer,1401.769737,7.255921053,0.0,0.0,64,175.0,54946240.68,0,0,False
2027682,0.772474116995,-0.19492433595,Sharif Omar,4187.802326,6.619767442,47390998.57,1474548.44,84,177.5,54814480.47,0,3,False
1287238,-0.433789919205,0.409904646217,Levine Ted,14828.10189,7.709811321,0.0,0.0,59,177.5,54801267.43,0,0,False
466672,-0.1545103352,0.609756014918,Cranston Bryan,8850.123711,7.621821306,11691252.67,0.0,60,175.0,54740106.73,0,0,False
2429998,-0.78202664308,-0.0429289261666,Woods Zach,5981.488,7.852,128150608.0,0.0,32,190.0,54700547.03,0,0,False
1406929,0.705086643728,-0.570052327095,Martinez Olivier,11039.20455,6.436363636,359948.4663,0.0,50,175.0,54696670.3,0,0,False
1550922,-0.736321548919,-0.151685043867,Moss-Bachrach Ebon,6799.632184,7.329885057,50853.45622,0.0,38,182.5,54612422.31,0,0,False
1886319,0.126786670616,-0.284263055866,Rock Chris,5698.134003,7.031155779,31891942.23,988478.7139,51,178.0,54603701.91,0,0,False
483406,-0.609524478936,0.283114144193,Curran Tony,19816.58721,7.384883721,11886.06161,0.0,47,177.5,54529039.36,0,0,False
2414965,-0.742238294549,0.121737346532,Winchester Philip,3400.4,7.76,62945.29846,0.0,35,182.5,54491094.42,0,0,False
2342010,0.53938187827,0.724747203732,Wahlberg Mark,14330.5154,7.467556468,85868936.47,11494802.64,45,170.0,54451400.67,0,0,False
498354,0.970995870471,0.0886127878138,Damon Matt,37409.4078,6.736170213,94909053.35,9628841.176,46,175.0,54395111.88,0,1,False
1929147,0.852566170608,-0.033043565392,Russell Kurt,23963.25,7.034659091,54752507.68,12480084.62,65,177.5,54279301.84,0,0,False
449706,-0.0791782292716,0.831424577726,Corden James,2176.391941,7.234065934,16358141.73,0.0,38,170.0,54261793.65,0,0,False
716611,0.934341085264,-0.148219056217,Ford Harrison,28546.37884,6.739249147,168295256.9,21631576.66,74,182.5,54105500.49,0,0,False
2116525,-0.691375180449,0.136814695679,Stadulis Christopher,34762.07895,7.526315789,0.0,0.0,44,180.0,54096494.4,0,0,False
393504,0.491636882156,0.597364408954,Chiklis Michael,3412.413655,7.085341365,2107741.935,0.0,53,170.0,54095807.56,0,1,False
2132655,-0.16224767175,-0.630105055192,Steven Joseph,71820.42105,6.973684211,0.0,0.0,60,185.0,54086038.89,0,0,False
2137515,0.805074952866,0.491275324817,Stiller Ben,16325.27565,6.919315895,101863186.0,9456860.915,51,167.5,53952705.94,0,0,False
792390,0.589194367161,0.406786258422,Giamatti Paul,29864.10096,7.052403846,23803040.02,0.0,49,172.5,53847725.83,0,2,False
2159063,-0.752880498104,0.175643851828,Sumpter Jeremy,4367.467742,7.606451613,0.0,0.0,27,180.0,53751046.05,0,0,False
849418,-0.249055191857,0.633293863564,Gregg Clark,18777.97569,7.574652778,0.0,0.0,54,172.5,53737054.6,0,0,False
1998523,0.855526299405,-0.369699984062,Schwarzenegger Arnold,17470.84958,6.552367688,96876169.31,19240963.21,69,185.0,53645104.22,0,1,False
689214,0.756885291784,-0.462410877507,Ferrell Will,7404.132212,6.574399038,98494045.11,21087698.24,49,187.5,53623859.16,0,0,False
99456,0.630606042177,0.289125552433,Attenborough Richard,11374.10526,6.995906433,14955499.51,0.0,93,167.5,53608364.53,0,2,False
310229,-0.616989168825,-0.428349892498,Butler Gerard,31378.09701,7.252985075,48472857.93,0.0,47,185.0,53554321.76,0,0,False
1802634,0.468345945095,0.66535076276,Quan Jonathan Ke,77685.85,6.9,0.0,0.0,45,160.0,53528378.37,0,0,False
2192740,0.00167753987568,-0.832415067089,Tatum Channing,55628.37755,6.602040816,50681632.83,0.0,36,182.5,53490894.48,0,0,False
149102,-0.788198368334,-0.0987630729118,Baruchel Jay,18825.73057,7.333678756,90507180.79,0.0,34,182.7,53443633.33,0,0,False
835303,-0.497633901856,0.253483477106,Grady John,40203.76923,7.373076923,0.0,0.0,51,177.5,53401469.27,0,0,False
731668,0.415463579586,-0.796675600775,Fraser Brendan,16836.15504,6.480620155,67844077.85,8966124.806,48,187.5,53382734.09,0,0,False
2287342,-0.249009955238,-0.203111497626,Valleti Ravi,513042.0,8.0,0.0,0.0,37,190.0,53361501.55,0,0,False
2260805,0.695005318619,0.506686221449,Tucci Stanley,21334.15498,6.974907749,214810127.8,0.0,56,170.0,53355403.83,0,2,False
1930731,0.247273436681,-0.13940107222,Ruth Babe,5440.5,7.3078125,0.0,0.0,121,182.5,53347796.51,0,0,False
663151,0.565845861069,-0.23927177134,Eythe William,1748.333333,6.54,0.0,0.0,98,175.0,53333333.33,0,0,False
1161530,0.488985922163,0.18028318248,King George Vnan,64.21212121,7.087878788,0.0,0.0,151,165.0,53333333.33,0,0,False
1960051,0.954122833,-0.00312382220131,Sandler Adam,15572.80169,6.464978903,103194472.3,16670085.9,50,172.5,53316270.0,0,0,False
2360944,0.891655435289,-0.00651040232012,Washington Denzel,16147.28707,7.035015773,73890134.83,20543720.22,62,182.5,53255579.35,2,2,False
256787,-0.722830433247,0.25240838202,Braff Zach,3942.784722,7.8125,39899176.93,523364.486,41,182.25,53249931.79,0,0,False
537115,-0.52982633602,0.577418385235,DeHaan Dane,38427.25,7.1175,35511254.76,0.0,30,175.0,53242099.05,0,0,False
881636,0.698240727412,-0.241965453685,Hackman Gene,14705.06417,6.729411765,44741786.37,4006026.177,86,185.0,53161099.31,2,3,False
1249206,-0.648041679499,-0.416932935183,Lasky Matt,14010.83562,7.343835616,0.0,0.0,35,192.5,53137902.75,0,0,False
319490,0.90715770985,-0.311977175173,Cage Nicolas,33031.1448,6.446153846,51169353.29,10357770.38,52,180.0,53132192.13,1,1,False
1008513,-0.691325176516,0.33222326615,Hunnam Charlie,8238.753247,8.357792208,52434144.93,0.0,36,182.5,53122835.58,0,0,False
1285128,0.0661644817684,0.806547030076,Leung Ken,20660.62238,8.039160839,207833648.1,0.0,46,167.5,53111504.46,0,0,False
1763318,0.603384343423,-0.0398191148533,Plummer Christopher,17195.95769,6.889230769,6170254.622,110429.4479,87,175.0,52975064.95,0,1,False
974534,-0.387219363314,0.634009192032,Hoffman Rick,6180.5,7.787619048,0.0,0.0,46,172.0,52947064.04,0,0,False
1536330,0.307977817145,0.779099954704,Moranis Rick,9559.359649,7.585087719,97712304.75,0.0,63,160.0,52911070.8,0,0,False
992948,0.0959273169277,-0.807805753906,Hough Derek,1785.816327,6.723129252,123979.116,0.0,31,175.0,52898844.36,0,0,False
999155,0.147990829198,-0.780990058661,Hsu Art,45230.14286,6.657142857,0.0,0.0,41,178.0,52843101.43,0,0,False
1302318,-0.316643885011,-0.619060844889,Lindo Delroy,18681.1371,7.159677419,56870545.88,0.0,64,190.0,52811447.99,0,0,False
487208,-0.212028538743,0.628047872332,Czerny Henry,6063.81761,7.597484277,417343.838,0.0,57,172.5,52804764.72,0,0,False
471923,-0.297630909194,-0.570193518962,Cromwell James,13234.99051,7.246518987,683846.3818,0.0,76,195.0,52747914.37,0,0,False
1979727,-0.0263248047641,-0.832845467106,Scardino Hal,21803.33333,6.7,56090707.09,0.0,32,180.0,52629332.55,0,0,False
273403,0.8004929915,0.418327490003,Broderick Matthew,14074.39286,6.775,62275243.23,0.0,54,170.0,52593476.67,0,0,False
851284,-0.359914298002,0.529989052467,Gretsch Joel,6277.860465,7.492248062,0.0,0.0,53,175.0,52555679.93,0,0,False
698020,0.655020210164,0.262761585819,Finney Albert,25410.0614,7.228070175,24294464.44,2487046.632,80,172.5,52533237.27,0,3,False
320580,0.61687357491,-0.16462627573,Caine Michael,34222.2899,6.885016287,26002932.94,1851851.852,83,185.0,52518281.42,2,3,False
359000,0.356052231749,0.600052493929,Castellaneta Dan,2241.879652,7.449836779,212020110.0,293548.3871,59,175.0,52477105.83,0,0,False
891011,0.368188646367,-0.235546647281,Hallahan Charles,2920.688797,6.917427386,0.0,0.0,73,177.5,52348115.13,0,0,False
1415325,0.585591523724,-0.590157168094,Massa Joseph,59808.0,6.266666667,0.0,0.0,27,172.5,52335455.19,0,0,False
22688,-0.29089455873,0.742045314212,Ahmed Riz,14316.52381,7.385714286,414709.9573,0.0,34,170.0,52277657.96,0,0,False
2032658,-0.74740695842,0.190022575307,Sheehan Robert,3358.961039,7.638961039,0.0,0.0,28,180.0,52246110.02,0,0,False
2444633,-0.0766832879695,0.69790777901,Yang Joseph Steven,9884.866667,7.186666667,0.0,0.0,48,172.5,52237653.6,0,0,False
1635663,-0.42289535694,0.211056804196,O'Connor Kevin J.,14894.23301,7.295145631,0.0,0.0,53,177.5,52236955.8,0,0,False
1122693,-0.457319684591,0.389566091231,Kasche Edward,92844.0,7.4,0.0,0.0,35,175.0,52098408.1,0,0,False
825300,0.551217478247,-0.588570841806,Goodman John,10302.01377,7.056798623,80318935.44,3697909.027,64,185.0,52071151.55,0,1,False
1742445,0.304358857251,0.80625141043,Phan Dat,2611.6,7.108571429,0.0,0.0,41,162.5,52013190.21,0,0,False
1304312,0.00885046451157,0.713158063391,Linn-Baker Mark,967.9033816,7.617874396,0.0,0.0,62,167.5,52008281.77,0,0,False
2069247,0.10078958731,-0.77447898997,Skarsg_Îârd Stellan,39741.91358,6.609876543,10715708.24,1190476.19,65,187.5,51999249.24,0,0,False
889935,-0.266161413758,-0.748843310099,Hall Kevin Peter,14747.5098,6.564705882,51998493.65,0.0,61,215.0,51969370.27,0,0,False
215273,-0.417399120415,-0.509854548358,Blake Geoffrey,19849.448,7.132,32214885.95,0.0,54,182.5,51828352.8,0,0,False
2345505,-0.638594287924,0.245112616252,Walker Eamonn,3084.831373,8.076862745,74500.34843,0.0,54,182.5,51811145.92,0,0,False
967925,0.238172620445,0.13986120495,Hirsch Judd,4247.594937,7.486582278,0.0,0.0,81,180.0,51744825.09,0,1,False
2104996,-0.599615771723,0.45973529812,Space Gaku,20207.5625,7.3,0.0,0.0,37,175.0,51656743.33,0,0,False
606473,-0.0802830252511,-0.798636832065,Duncan Michael Clarke,23873.02793,6.401675978,0.0,0.0,59,196.0,51637114.66,0,0,False
1917166,-0.635282237655,0.500530877721,Rowe Charlie,14277.0,7.5,37163835.73,0.0,20,175.0,51620857.29,0,0,False
2304430,0.358754854371,-0.796023959597,Vaughn Vince,22313.56831,6.454098361,62302121.84,14949731.76,46,192.5,51599617.29,0,0,False
1724228,0.415564815479,-0.749501299191,Pepper Barry,42233.35366,6.596341463,15518514.73,0.0,46,178.0,51505441.51,0,0,False
270020,-0.651237649663,0.358054542252,Brimmer Nathan,30752.08696,7.691304348,0.0,0.0,38,177.5,51442823.59,0,0,False
915659,0.571122607366,-0.357797090339,Harrison Rex,1696.659091,6.835227273,41703359.08,2064395.651,108,185.5,51350028.9,1,1,False
2073513,0.820343002172,-0.501497653203,Slattery Ryan,8603.095238,6.285714286,0.0,0.0,34,172.5,51342488.21,0,0,False
457725,0.876013264812,-0.339941740477,Costner Kevin,19980.58009,6.724242424,79565659.43,13975166.0,61,182.5,51335278.53,0,0,False
760601,0.0292950825942,-0.0592359439775,Gambon Michael,22509.75238,7.307619048,2584524.923,0.0,76,180.0,51231841.31,0,0,False
2028696,-0.33151953421,0.741426839604,Sharma Suraj,41593.75,7.833333333,124987023.0,0.0,23,172.5,51114895.92,0,0,False
2406454,0.825809012417,0.298216113645,Williams Robin,9865.513135,6.871628722,93078532.86,6953453.062,65,167.5,51104904.12,1,4,False
2167253,0.712785358687,0.546326063646,Swardson Nick,14662.33333,6.785802469,1322772.504,0.0,40,170.0,51049689.73,0,0,False
1540462,-0.615827476729,0.437053304727,Morgan Joseph,3725.075472,8.493081761,0.0,0.0,35,177.5,51010847.39,0,0,False
1540348,-0.707587575774,-0.0788726264627,Morgan Jeffrey Dean,10691.45699,7.579569892,38651244.41,0.0,50,185.0,50972292.73,0,0,False
676677,0.384300934853,-0.586334434801,Favreau Jon,36633.63211,7.019397993,14895366.89,10669559.3,50,182.5,50966041.21,0,0,False
1404550,0.895666339075,-0.0946044886085,Martin Steve,5145.892308,6.994461538,71033743.97,14929978.39,71,180.0,50875695.48,0,0,False
1356602,-0.0247359052351,0.683543517446,MacNicol Peter,1815.986014,7.567599068,6357594.719,0.0,62,170.0,50871872.74,0,0,False
914045,0.598365836658,-0.407170129478,Harris Richard,21641.0,6.806837607,78335643.41,0.0,86,182.5,50850500.95,0,1,False
1349098,-0.256881363797,0.045318807106,Maar Pons,3970.92,7.395,0.0,0.0,65,180.0,50821533.24,0,0,False
1767636,0.225268746683,-0.224125870189,Pollack Sydney,13317.14286,7.08156682,0.0,0.0,82,180.0,50805590.08,0,0,False
1704056,0.405218287965,-0.435327399055,Pastorelli Robert,2743.421801,6.833175355,12140867.29,0.0,62,178.0,50716443.99,0,0,False
616274,0.282156107714,0.366984398875,Dzundza George,4199.841176,7.180588235,326635.3339,0.0,71,172.5,50715517.22,0,0,False
897635,-0.667652099434,-0.368436752156,Hampton Sean,35573.84211,7.147368421,0.0,0.0,35,182.5,50699349.01,0,0,False
408091,-0.621505867777,0.00112630676125,Cioffi Jon,66947.5,7.15,0.0,0.0,25,177.5,50689375.51,0,0,False
1626457,-0.774872077507,0.0285715754269,Novak Kayvan,2488.688525,7.478688525,51525364.96,0.0,38,182.5,50689375.51,0,0,False
277032,0.745702807842,-0.411636577858,Brosnan Pierce,7750.671196,6.930163043,71075755.04,14609067.28,63,185.0,50653600.88,0,0,False
2117865,0.969698888279,-0.0272382367992,Stallone Sylvester,21819.67961,6.402912621,82897946.97,19530638.16,70,172.5,50645364.23,0,1,False
991716,0.786330511005,0.361315594542,Hoskins Bob,12363.17722,6.742405063,47511193.22,0.0,74,165.0,50523555.76,0,1,False
419269,0.872306233369,0.0339120902951,Clooney George,15037.86581,6.734375,71410442.29,8815443.672,55,177.5,50473341.01,1,3,False
2024995,0.0115669117636,0.641313735603,Shalhoub Tony,5774.105263,7.644385965,28422996.56,0.0,63,175.0,50448531.74,0,1,False
794046,0.467284320896,-0.179555903203,Gibbs Timothy,8134.423077,6.888461538,0.0,0.0,49,175.0,50434455.37,0,0,False
489397,-0.661125882137,-0.358538943409,D'Arcy James,15875.04274,7.321367521,0.0,0.0,41,187.5,50350300.31,0,0,False
2142034,0.926391608139,0.20970222411,Stone Skyler,8621.6875,6.60875,0.0,0.0,37,170.0,50333720.98,0,0,False
333165,0.569745209031,-0.719924754189,Canet Guillaume,8010.838235,6.552941176,325565.1405,0.0,43,176.0,50269221.84,0,0,False
2205514,0.266812102494,-0.118152882862,Terry Nigel,7487.80597,7.059701493,5970058.581,0.0,71,177.5,50152235.29,0,0,False
2462499,0.163032861609,0.802884689111,Zahn Steve,12952.37838,7.278378378,16687875.15,2703533.026,49,171.0,50146323.33,0,0,False
187741,0.70602084374,-0.186731086515,Berkel Christian,17848.6729,6.663551402,0.0,0.0,59,173.0,50128255.04,0,0,False
1006277,0.624732417961,0.529109313915,Hulce Tom,20646.7,7.072,38924784.71,0.0,63,170.0,50066617.93,0,0,False
1372571,0.509260298207,-0.48288214176,Malkovich John,23298.58049,6.907804878,4097566.648,1660899.654,63,180.0,50045062.97,0,0,False
468787,0.151222780205,-0.160272550821,Crenna Richard,2830.665517,7.300689655,0.0,0.0,90,182.5,50028131.87,0,0,False
375608,0.877700332941,0.204952262183,Chan Jackie,8179.49892,6.835637149,38393643.91,12740372.08,62,170.0,49988082.59,0,0,False
130045,0.982780072401,-0.0369884511681,Banderas Antonio,15235.60699,6.277292576,56049553.32,11190272.86,56,170.0,49960406.9,0,0,False
908096,-0.464840884033,0.631754130063,Harington Kit,17650.41176,8.457647059,23511982.35,0.0,30,170.0,49887818.77,0,0,False
518501,0.787397718547,-0.186028426678,Day-Lewis Daniel,20369.47436,6.833333333,43133777.0,12237093.69,59,185.0,49878993.46,3,2,False
1885326,0.0998541995527,-0.405901597586,Rocco Sam,126031.5,6.775,0.0,0.0,33,175.0,49852891.77,0,0,False
283606,0.471036611319,-0.201751249874,Brown Russ,5796.0,6.727272727,0.0,0.0,124,177.5,49826989.62,0,0,False
914248,0.160845413681,-0.695975442593,Harris Sam,232368.75,6.1,0.0,0.0,34,182.5,49819408.0,0,0,False
275449,0.752992053288,0.0873799409025,Brooks Albert,29734.96703,7.031868132,19280850.92,4858299.595,69,175.0,49815933.47,0,0,False
737993,-0.582500083401,-0.199274150116,Friday Bryan,11574.9322,7.325423729,0.0,0.0,53,182.5,49803715.19,0,0,False
549629,0.230003713316,0.798037893274,Denzlinger Jeremy,13775.73913,7.091304348,0.0,0.0,43,167.5,49797023.77,0,0,False
214192,-0.645927013647,-0.418619944176,Blagrove Will,32355.925,7.225,0.0,0.0,35,187.5,49668714.82,0,0,False
806532,-0.0782086908966,0.201377924448,Glaser Paul Michael,1822.909091,7.450757576,0.0,0.0,73,178.0,49651420.38,0,0,False
1547208,-0.57915096722,-0.240537667744,Morse David,12094.35831,7.668403909,336784.141,0.0,63,190.0,49618667.98,0,0,False
1615496,-0.687979359416,-0.27759618005,Ninjanan,15030.91667,7.416666667,0.0,0.0,42,187.0,49616694.16,0,0,False
828662,-0.605230819205,0.498073528245,Gordon-Levitt Joseph,19104.39601,7.506837607,19085200.03,0.0,35,176.0,49603627.97,0,0,False
1319219,-0.307149713215,0.732282553858,Long Matt,3234.013333,7.828,134069575.7,0.0,36,175.0,49368455.31,0,0,False
465985,-0.223166426462,-0.693324833664,Cramer Rick,15958.5122,6.887804878,0.0,0.0,58,187.5,49367604.65,0,0,False
2376929,-0.750903013275,0.0492624165215,Welling Tom,1143.232836,8.226865672,36265575.42,0.0,39,190.0,49342149.2,0,0,False
1298951,0.653401948721,-0.577381584711,Lim Roger,23591.82759,6.582758621,0.0,0.0,48,175.0,49251424.52,0,0,False
381633,-0.488818077373,-0.493113785716,Charles Scott,35557.0,7.028571429,0.0,0.0,44,180.0,49225224.35,0,0,False
473121,0.0702514387861,0.803895105854,Cross David,7279.188797,7.525726141,79443848.83,0.0,52,170.0,49223680.42,0,0,False
689968,-0.259873106761,-0.641714596353,Ferrigno Lou,11071.9,7.023333333,12003845.21,0.0,65,190.0,49201098.28,0,0,False
673438,0.932358386751,-0.0664890707402,Farrell Colin,23636.04969,6.758385093,24056243.88,6507060.384,40,175.0,49070901.72,0,1,False
1734685,-0.666471929603,0.379505030012,Peters Evan,16217.87234,7.922695035,0.0,0.0,29,177.5,49055425.72,0,0,False
1132177,0.956154975038,0.200242082046,Keaton Michael,23948.35088,6.779532164,96223970.22,4838771.121,65,172.5,49021617.74,0,1,False
469634,-0.649581015619,-0.329531557617,Crews Terry,12079.5,7.514184397,0.0,0.0,48,191.0,48941298.89,0,0,False
1548155,0.0577226222024,0.529743445397,Morton Joe,7821.057576,7.430909091,1345059.904,0.0,69,172.5,48922632.89,0,0,False
124873,0.642646386737,0.141086044041,Baldwin Alec,6789.176218,7.249570201,41607942.51,4783003.075,58,180.0,48714027.32,0,3,False
212095,0.684404430386,0.633868847973,Black Jack,14585.84384,6.913213213,80663632.54,1770520.186,47,165.0,48673698.55,0,0,False
1256364,0.618389194962,0.596721058699,Lawrence Martin,1851.952575,7.377642276,60713713.87,18270548.26,51,167.5,48670788.93,0,0,False
340623,0.851707106443,0.412460320326,Carell Steve,10043.57666,7.201393728,108689441.2,8267843.811,54,175.0,48663898.02,0,1,False
266994,0.795785409817,-0.370572177448,Brewer Jim,1503.076923,5.684615385,0.0,0.0,79,170.0,48651316.04,0,0,False
2105149,0.780010502162,0.499366293028,Spade David,2417.851312,6.77244898,64940282.85,0.0,52,167.5,48509918.0,0,0,False
1761596,-0.615568576583,-0.238897977513,Platt Oliver,9537.150376,7.539097744,2037210.011,0.0,56,187.5,48485573.88,0,0,False
2137406,-0.479793034482,-0.537917467459,Stiles Ryan,296.113879,7.259786477,0.0,0.0,57,195.0,48481117.54,0,0,False
1269726,0.201143707895,0.0648874040381,Lee Stan,22407.66067,7.349138577,0.0,0.0,94,177.5,48466279.44,0,0,False
712514,0.499372977271,0.752659182144,Fogler Dan,11994.78481,6.94556962,38025227.21,0.0,40,167.5,48435730.89,0,0,False
604078,0.445255186113,-0.726587497767,Dujardin Jean,22432.26154,6.367692308,5240642.592,0.0,44,182.0,48425719.06,1,1,False
1407556,-0.698047023705,-0.134011848792,Martini Max,11470.62871,7.523762376,2613819.965,0.0,47,185.0,48412253.84,0,0,False
2355811,-0.592052699821,-0.318175770275,Warburton Patrick,2726.597786,7.317466175,154313.5889,0.0,52,185.0,48392646.22,0,0,False
162071,0.842377767319,-0.305627227543,Beatty Warren,4124.802469,6.669753086,114074263.2,6950208.91,79,185.0,48365986.43,0,2,False
996237,-0.268014850873,-0.756035194613,Howarth James,11038.6875,6.753125,0.0,0.0,43,185.0,48343523.54,0,0,False
603874,-0.624122182342,-0.423301170709,Duhamel Josh,8540.497512,7.248258706,8364051.19,0.0,44,187.5,48197291.64,0,0,False
1867523,-0.749335201087,-0.0918733543642,Riley Sam,22460.3913,7.243478261,836543.261,0.0,36,180.0,48162609.17,0,0,False
1620582,0.305302468242,-0.564352757965,Nolan Nathan,39063.2,6.792,0.0,0.0,41,175.0,48154148.34,0,0,False
496835,0.0802754778303,-0.17511111275,Dalton Timothy,8493.396739,7.464130435,56806539.24,8037537.839,70,185.0,48078405.06,0,0,False
2248803,0.887413020202,-0.298656348396,Travolta John,12322.78141,6.638693467,77036521.54,19700699.36,62,185.0,48039701.62,0,1,False
907583,-0.662724264294,0.197989994397,Harewood David,2946.118943,7.921145374,0.0,0.0,51,182.5,48019206.35,0,0,False
623428,-0.693079881592,-0.0103870332237,Edgerton Joel,28450.27523,7.122018349,8368778.253,0.0,42,177.5,47997378.25,0,0,False
799309,-0.496136880188,0.524619212635,Gillen Aidan,13584.46512,7.928488372,29114.77049,0.0,48,175.0,47964573.14,0,0,False
1164655,0.768554045055,0.177235248403,Kingsley Ben,24337.13303,6.722477064,36308955.2,0.0,73,170.0,47959790.48,1,1,False
1463132,-0.504988654125,-0.575562862374,Mears Derek,21062.48864,7.098863636,0.0,0.0,44,192.5,47863193.58,0,0,False
945709,-0.26026935836,-0.690720895347,Henry Lenny,3427.175676,6.902702703,8270019.383,0.0,58,189.5,47737282.89,0,0,False
771414,0.574748548747,-0.0938321136607,Garner Jerald,52695.17544,6.710526316,0.0,0.0,40,172.5,47639607.05,0,0,False
1150563,0.142917852973,-0.801078040072,Khan Irrfan,21861.14407,6.674576271,1053289.812,0.0,49,180.0,47635516.1,0,0,False
1063169,0.0751937062373,-0.539203285866,Jenkins Richard,29316.44138,6.970344828,10503250.21,0.0,69,182.5,47623497.69,0,0,False
258628,0.720323793672,0.0111659209695,Brandauer Klaus Maria,2629.742857,6.735714286,11166581.04,0.0,73,172.5,47556191.97,0,1,False
462800,0.331282024657,0.587166106082,Cox Brian,25880.93309,7.237918216,173958.6168,0.0,70,167.5,47528458.99,0,0,False
482634,-0.39013118578,0.426827186759,Curatola Vincent,3795.84,7.806666667,0.0,0.0,63,177.5,47522572.36,0,0,False
1835004,-0.238501736543,-0.56449974916,Rebhorn James,14868.26667,7.149444444,31747368.42,0.0,68,187.5,47499306.09,0,0,False
1634909,-0.0604264115775,0.84452531375,O'Connell Jack,13328.03704,7.233333333,59258490.87,0.0,26,170.0,47489489.52,0,0,False
1693872,0.038380704412,-0.827784523187,Parent Jean-Pierre,44817.04545,6.509090909,0.0,0.0,42,182.5,47460503.82,0,0,False
925359,-0.586963807512,-0.517036716417,Hauser Cole,17380.40984,7.05,19128989.65,0.0,41,182.5,47450952.53,0,0,False
1318379,0.872410079738,-0.14392396273,Lone John,16438.34783,6.439130435,45314007.31,0.0,64,172.0,47394895.27,0,0,False
1584979,-0.253784623988,-0.649905179171,Naor Igal,14298.61702,7.034042553,38549152.51,0.0,58,185.0,47358349.12,0,0,False
2382223,-0.685297858331,0.323186542944,West Shane,3234.253788,7.947348485,18541383.81,0.0,38,180.0,47337252.13,0,0,False
927826,0.0438883875989,0.270060560758,Hawthorne Nigel,4804.393103,7.608275862,0.0,0.0,87,177.5,47333456.74,0,0,False
