id_data,x_data,y_data,z_data,votes,rating,age,gross,salary,heightcm,budget,academy,golden,sample
300994,-0.303545471593,0.826278996742,Burghoff Gary,431.8215962,7.74741784,73,0.0,0.0,162.5,27515.86748,0,0,True
2026107,0.681576833287,0.206661586799,Shank Tatum,272.4444444,7.911111111,44,0.0,0.0,180.0,894056.0078,0,0,True
817161,0.581420628036,-0.410443001413,Golphin Robert X.,2440.545455,7.040909091,34,0.0,0.0,182.5,8474.653072,0,0,True
1077496,0.517656804842,-0.465032597126,Johnson James J.,22.42857143,6.885714286,41,0.0,0.0,180.0,182921.4256,0,0,True
2323785,-0.614769532732,-0.687749957433,Vincent Adam,300.0,4.675,41,0.0,0.0,180.0,494934.877,0,0,True
1284243,0.625840001531,-0.373356755365,Lesure James,960.3194444,7.476388889,46,0.0,0.0,185.0,443045.4316,0,0,True
1233935,0.536106333804,-0.319556910764,LaMantia Nick,90.3125,6.83125,29,0.0,0.0,180.0,37152.93628,0,0,True
1389971,-0.445922474576,-0.774946722365,Margold William,189.5833333,5.990972222,73,0.0,0.0,185.0,816730.9207,0,0,True
776844,0.0235261794495,-0.821406812104,Gattorno Francisco,1152.478261,6.691304348,52,0.0,0.0,182.0,924114.2315,0,0,True
1436727,-0.604179898735,-0.638844652298,McCarthy Joshua,55.0,5.9,39,0.0,0.0,177.5,16073.92363,0,0,True
1913322,-0.7013674333,-0.306533757867,Rote Kyle,121.0,6.666666667,88,0.0,0.0,180.0,96574.01422,0,0,True
1093580,0.692056197934,-0.1508780663,Joseph Ernie,538.9473684,7.547368421,43,0.0,0.0,182.5,8168.894986,0,0,True
383191,-0.167847790181,-0.0784506938441,Chasey Brian,54939.76923,7.307692308,35,0.0,0.0,187.5,50800.21695,0,0,True
1229782,-0.62995203894,0.634798206082,Lago David,68.2,6.212,37,0.0,0.0,167.5,112600.8691,0,0,True
920324,-0.905718666245,-0.013902054974,Harwell Bobby,11245.04,6.684,85,0.0,0.0,177.5,11904.7619,0,0,True
1510704,0.679004771476,-0.22708175607,Mitchell Marcus,100.3333333,8.02,41,0.0,0.0,187.5,447133.2436,0,0,True
443146,0.168501870961,0.80273672793,Cook Bryan,18.33333333,8.35,32,0.0,0.0,162.5,300.0,0,0,True
2423719,0.548808032307,-0.0469571384348,Wolk Jason,109.8,7.068888889,0,0.0,0.0,180.0,599299.0654,0,0,True
1163966,0.611561153269,0.389816202258,King Sean,14.08,7.868,41,0.0,0.0,177.5,30149.92882,0,0,True
910098,0.685633968803,-0.144148086265,Harper Ben,1428.305556,7.213888889,47,0.0,0.0,180.0,831962.8931,0,0,True
2390311,0.280419984461,0.736425096175,Whitehair Ben,231.3043478,7.673913043,31,0.0,0.0,170.0,92855.73471,0,0,True
950587,0.186123090861,-0.738852067067,Hernandez Luis R.,153.6,6.66,43,0.0,0.0,180.0,21401.73558,0,0,True
306350,0.394201805874,0.612718398027,Burt L. Michael,238.2307692,7.130769231,37,0.0,0.0,175.0,60425.43233,0,0,True
706816,0.69781059608,-0.164619345334,Fletcher Andrew,257.6875,8.6875,55,0.0,0.0,190.0,207239.6981,0,0,True
1405423,-0.0598497004204,0.306136443173,Martinez Jr. Andy,35569.4,7.695,39,0.0,0.0,180.0,676065.5392,0,0,True
1644698,-0.358655678035,0.135310248036,Odell Jr. Robert M.,42.0,6.4,32,0.0,0.0,175.0,8602.150538,0,0,True
1343652,0.595053171265,0.33199412785,Lynch Stephen,123.9333333,7.226666667,45,0.0,0.0,177.5,589457.0552,0,0,True
1444760,-0.438916984394,0.810074108957,McDougal Glen,5418.444444,7.233333333,64,0.0,0.0,165.0,57127.18309,0,0,True
1224117,-0.776660869124,-0.546097004248,La Bruce Bruce,294.6166667,5.966666667,52,0.0,0.0,177.5,165631.3834,0,0,True
18230,-0.612676181597,0.646751161724,Agata Toshiya,34876.28571,6.89047619,55,0.0,0.0,165.0,11068.93755,0,0,True
2002495,0.284591649494,-0.725560368031,Scott James,11.15625,6.565625,37,0.0,0.0,187.5,62854.82563,0,0,True
1952109,0.295528111702,-0.708115567127,Salvatore Chris,795.3333333,6.488888889,31,0.0,0.0,187.5,95137.15834,0,0,True
1138442,0.0395456853787,0.440126448018,Kelly Matthew Mark,253.5,6.65,32,0.0,0.0,175.0,578.8712012,0,0,True
2061019,-0.688365456626,-0.60624312127,Sims Stefan,75.83333333,6.166666667,46,0.0,0.0,177.5,425000.0,0,0,True
1276364,-0.144981921632,0.801530838704,Lemaire Martin,420.82,6.8,38,0.0,0.0,172.5,19670.72765,0,0,True
1724137,-0.252054475871,0.844446737734,Pepitone Eddie,2244.080292,7.33649635,58,0.0,0.0,170.0,264418.6178,0,0,True
2345065,0.696876769229,-0.142898283238,Walker Butch,87.66666667,7.966666667,47,0.0,0.0,185.0,327467.5533,0,0,True
1313112,0.41286394188,0.42461468653,Loboda Joey,12.875,6.975,24,0.0,0.0,175.0,3153.276104,0,0,True
1356308,0.682296632707,0.210174708102,Macmanus Patrick,497.75,7.959375,39,0.0,0.0,180.0,23254.69063,0,0,True
802775,0.628134933456,0.290093512196,Giordano Jeff M.,19.33333333,7.366666667,34,0.0,0.0,177.5,3409.3338,0,0,True
2461417,-0.280486772161,-0.71760700351,Zacherle John,639.9545455,6.695454545,98,0.0,0.0,190.0,487403.6854,0,0,True
2022832,-0.889523823686,-0.250526281186,Shady Mark,115.7222222,6.094444444,43,0.0,0.0,175.0,208952.6824,0,0,True
1440952,-0.212154993858,-0.834462062382,McCoy Ryan,1810.0,5.55,36,0.0,0.0,185.0,76437.81313,0,0,True
1495736,-0.175465280764,-0.782638567577,Miller Aaron,104.1428571,6.128571429,35,0.0,0.0,180.0,3246.261027,0,0,True
272750,0.360539626416,-0.635990701303,Brochu Jim,246.1818182,7.527272727,70,0.0,0.0,190.0,1030.233047,0,0,True
983178,0.692576105635,-0.0680559876945,Holtz Zane,8603.0,7.52739726,29,0.0,0.0,182.5,833743.5023,0,0,True
328817,-0.690773221736,0.439119833359,Campbell Bryan,349.2,6.3,36,0.0,0.0,172.5,9000.0,0,0,True
2029088,-0.649403879232,0.621713152333,Sharp Duane,26735.36842,6.721052632,52,0.0,0.0,167.5,83668.94955,0,0,True
2340586,0.50147618253,-0.327757011509,Waggoner Lyle,42.15737705,8.407868852,81,0.0,0.0,190.0,229729.7297,0,0,True
2005791,0.660336317605,-0.153214644867,Seamy Ryan,57.0,7.133333333,37,0.0,0.0,180.0,43129.69564,0,0,True
1393453,-0.656857265197,-0.32400989524,Markham Monte,331.6183575,6.753623188,81,0.0,0.0,180.0,329385.9993,0,0,True
507174,-0.0553511729273,0.864217019552,Daugherty Josh,6938.367347,7.142857143,41,0.0,0.0,172.5,942206.0855,0,0,True
443278,-0.68769806905,-0.654917843303,Cook Dale,113.4,5.3,58,0.0,0.0,180.0,792316.9268,0,0,True
1317031,-0.726445007229,0.57841508669,Lolli Steven,54.5,5.816666667,40,0.0,0.0,162.5,76450.84547,0,0,True
2170235,0.615293609961,0.391214309597,Sykes Jeremy,292.5384615,8.2,36,0.0,0.0,177.5,25000.0,0,0,True
2433438,0.0931878701332,0.805077664417,Wright Casey,23.6,7.24,35,0.0,0.0,170.0,73348.39074,0,0,True
721108,0.179592958878,-0.791011311483,Fossey Todd,587.8571429,6.542857143,46,0.0,0.0,187.5,200000.0,0,0,True
1822417,0.292750539852,0.419058356996,Ranaldo Lee,344.4871795,7.533333333,60,0.0,0.0,177.5,40717.64686,0,0,True
2432059,-0.767140060527,-0.550060030683,Worth Michael,290.03,6.075,51,0.0,0.0,177.5,561135.2989,0,0,True
2276060,0.584803408701,0.47590052671,Underwood Derek,9243.375,8.3625,33,0.0,0.0,177.5,23924.08561,0,0,True
896388,-0.608424067369,0.52900275823,Hammerly Rick,70.375,6.8125,52,0.0,0.0,175.0,78203.00966,0,0,True
2161732,0.574019331801,0.491531357017,Surratt Ryan,9613.473684,8.031578947,35,0.0,0.0,177.5,17375.1798,0,0,True
2473259,-0.0968598270569,-0.781467754377,Zhmutski Peter,35.33333333,6.257142857,36,0.0,0.0,180.0,563151.0429,0,0,True
2168576,0.431431147333,-0.642376950886,Swenson Will,5847.708333,7.05,44,908361.4146,0.0,185.0,706630.3272,0,0,True
2385967,0.530094460235,-0.540383653919,Wheir David,3826.764706,7.188235294,44,0.0,0.0,185.0,868542.024,0,0,True
1257740,0.467739991279,-0.489913225767,Lay Michael,962.5,6.75,26,0.0,0.0,182.5,10000.0,0,0,True
2420544,0.206954428683,-0.748351016022,Witty Nate,2650.166667,6.516666667,36,0.0,0.0,182.5,58712.59614,0,0,True
344568,-0.772699650399,0.367020706893,Carnegie Andrew,337.8,7.56,181,0.0,0.0,160.0,138929.0883,0,0,True
1578577,-0.139454081686,-0.725111681526,Nader Ralph,2498.796875,6.9609375,82,200023.1548,0.0,187.5,457344.6297,0,0,True
514033,0.227378398573,-0.759957686234,Davis Jon Michael,3548.551724,6.893103448,50,0.0,0.0,180.0,536655.4192,0,0,True
1875383,0.380371149177,-0.482271831009,Roache Gavin,22.0,6.6,28,0.0,0.0,180.0,5526.61742,0,0,True
196185,0.509848696097,0.527792491233,Better Wilson,1174.5,7.6,31,0.0,0.0,175.0,4120.932189,0,0,True
535784,0.54805030391,0.490974777541,Deering Craig,53.75,8.15,29,0.0,0.0,175.0,1942.503171,0,0,True
745803,-0.610281968647,-0.631028658414,Fuller Chris,235.0,5.4,34,0.0,0.0,177.5,33560.64455,0,0,True
1133338,-0.712726951531,-0.195243668321,Keenan Frank,86.16666667,6.983333333,158,0.0,0.0,182.5,19205.20674,0,0,True
225649,-0.490194135905,0.723931801906,Bodine Hunter,8277.142857,6.85,45,0.0,0.0,175.0,400457.1989,0,0,True
1185352,0.625779802256,0.363256979948,Kokich Jerry,147.9893617,9.004255319,58,0.0,0.0,180.0,19799.8891,0,0,True
350504,-0.599695688043,-0.712630165356,Carson Scott,367.6923077,4.107692308,47,0.0,0.0,182.5,571521.2374,0,0,True
584895,0.654376236875,0.158483065572,Donovan Rick,32.6,7.71,53,0.0,0.0,180.0,20573.69628,0,0,True
700672,0.557142251265,-0.374746914608,Fisher Brandon,348.0,6.885714286,36,0.0,0.0,180.0,370000.0,0,0,True
2355838,0.514992152855,0.549602060464,Warchol Allen,512.5714286,8.15,40,0.0,0.0,175.0,350466.2985,0,0,True
330697,-0.873399622626,0.293191595913,Campbell-Mac John,95.65384615,6.223076923,43,0.0,0.0,172.5,840460.3797,0,0,True
2460963,0.517840008524,-0.445661407926,Zabrecky Rob,531.8965517,7.013793103,48,0.0,0.0,180.0,99252.50986,0,0,True
713668,-0.380125386996,-0.789221744285,Folse Gabriel,16404.71429,6.5,61,0.0,0.0,185.0,279310.4089,0,0,True
497250,0.563461508302,-0.465571891998,Daly Sam,2230.272727,7.266666667,32,0.0,0.0,187.5,748431.5122,0,0,True
535582,-0.110910399198,0.781461288284,Deen James,76.82872928,6.755248619,30,0.0,0.0,170.0,396795.0556,0,0,True
287203,0.528309695051,-0.443307787138,Brun Jordan,162.1428571,6.871428571,39,0.0,0.0,180.0,592353.6109,0,0,True
2272522,0.0846502656676,0.643163319422,Uczkowski Dariusz M.,3616.470588,6.817647059,23,0.0,0.0,172.5,493300.4447,0,0,True
1696456,0.584486057092,-0.298495618731,Parker Chase,1143.333333,7.033333333,22,0.0,0.0,182.5,3056.606153,0,0,True
2115216,0.284206094643,0.696698829012,St. John Austin,112.4151786,7.079910714,42,0.0,0.0,175.0,140000.0,0,0,True
1794103,0.256916854161,0.70862147575,Pucillo Jeff,118.05,7.295,49,0.0,0.0,175.0,472061.9176,0,0,True
849992,0.621240812092,0.361163907782,Gregory David A.,2078.736842,7.742105263,31,0.0,0.0,177.5,8500.0,0,0,True
1882604,0.599044115473,0.417943203897,Robinson Jeremy,27.83333333,8.1,45,0.0,0.0,177.5,50686.34347,0,0,True
1009947,0.694669584591,0.130457184398,Hunter Dennis,236.5,8.35,53,0.0,0.0,182.5,10795.25975,0,0,True
1012891,0.624244714127,-0.338877142058,Huss Adam,278.375,7.204166667,39,0.0,0.0,182.5,503111.8243,0,0,True
625378,-0.34217851615,-0.791192660836,Edwards Eric,53.75952381,6.306190476,71,0.0,0.0,185.0,314008.2647,0,0,True
1015805,0.188293345941,0.754265371069,Hyde Allan,406.6216216,7.259459459,27,0.0,0.0,170.0,1438.227261,0,0,True
1716456,0.596784577742,0.431411542076,Peck Tyler,6031.1,7.69,33,0.0,0.0,177.5,6595.064715,0,0,True
1907611,0.351880696831,0.676799504351,Rosen Jason,5.0,7.8,23,0.0,0.0,170.0,362.9719598,0,0,True
1991565,-0.796184434532,-0.480740018394,Schoettlin Jeffrey T.,347.0,4.866666667,38,0.0,0.0,175.0,772674.7855,0,0,True
1888471,0.594581652112,0.413187826729,Rodrick Michael,1086.285714,7.485714286,46,20708.74022,0.0,177.5,184018.4138,0,0,True
1413989,0.695842183824,0.0985377420868,Maslow James,60.5982906,8.261538462,26,0.0,0.0,182.5,440456.5487,0,0,True
1642169,0.697951475127,-0.0104945882382,Obando Jhonny,11.55555556,7.811111111,31,0.0,0.0,182.5,213031.3809,0,0,True
2050002,0.442860975695,-0.6139523738,Sielaff Michael J.,314.5862069,7.155172414,31,0.0,0.0,197.5,177756.9681,0,0,True
863976,-0.186080365867,-0.846283520409,Guerette Philip,148.0714286,5.107142857,39,0.0,0.0,190.0,43821.7133,0,0,True
2455586,0.543244329507,0.0936034801056,Young Joshua Lee,24.5,6.95,26,0.0,0.0,177.5,532224.3399,0,0,True
1074395,-0.443833325636,-0.787005599826,Johnson Adam,2423.37931,6.044827586,43,0.0,0.0,180.0,898008.9201,0,0,True
235718,-0.181458498559,0.827014814246,Book Zach,27486.81818,7.536363636,28,0.0,0.0,162.5,18693.97552,0,0,True
2356261,-0.956988790254,-0.138344072704,Ward Dave Oren,325.3333333,4.25,45,0.0,0.0,167.5,511593.6375,0,0,True
1461128,0.69407468855,-0.039665588925,McRae Dartel,161.0,7.636363636,32,0.0,0.0,182.0,361834.2784,0,0,True
1697323,0.699620523179,0.0362210066735,Parker Micah,1639.777778,7.933333333,27,0.0,0.0,182.5,95000.0,0,0,True
623982,0.416936682111,0.619697750264,Edmonds Terrence,138.5384615,7.669230769,27,0.0,0.0,172.5,4037.756785,0,0,True
969764,-0.532418283866,-0.64409729004,Hlubik Jesse,2019.414634,6.702439024,45,0.0,0.0,177.5,630434.6044,0,0,True
169513,0.615430615548,-0.387621620974,Bekker Isaac,9.0,7.6,42,0.0,0.0,187.5,58933.85136,0,0,True
1432262,-0.757809694486,0.552974733593,Mazzei Tyler,172.2,6.36,112,0.0,0.0,152.5,93398.5854,0,0,True
182721,-0.317551946299,-0.829564875011,Bentley Fonzworth,2583.740741,5.833333333,42,0.0,0.0,182.5,401564.8921,0,0,True
1794423,-0.253024457191,0.848346496328,Puente Joseph L.,109.25,7.1375,42,0.0,0.0,160.0,195156.1388,0,0,True
1401709,-0.546901562449,0.361744661469,Martin Christian,109510.375,6.9,41,0.0,0.0,170.0,36684.34322,0,0,True
451895,-0.769851665924,-0.536093125481,Cornetta John J.,41.75,6.133333333,52,0.0,0.0,177.5,128235.2747,0,0,True
1641048,-0.234095020667,0.82807975072,O'Sullivan Billy,357.8529412,6.820588235,36,0.0,0.0,167.5,318373.9979,0,0,True
1987073,-0.84468898598,0.282434929658,Schloss Micki,266.2,6.66,73,0.0,0.0,172.5,25000.0,0,0,True
1885135,0.57866881594,-0.396244899852,Rocca Mo,968.030303,7.036363636,47,0.0,0.0,180.0,201779.5617,0,0,True
124472,0.028319412775,-0.833577359749,Balderson Steve,152.9047619,5.95,41,0.0,0.0,190.0,53347.79651,0,0,True
1891169,0.160631188546,0.76728687031,Rodriguez Rico,1471.536364,7.755909091,18,0.0,78308.17062,165.0,76099.85528,0,0,True
285176,0.693439608613,-0.161805446539,Browngardt Peter,21.54681648,8.1917603,37,0.0,0.0,187.5,9130.434783,0,0,True
1340836,-0.559779709726,0.745238531064,Lustig Aaron,16150.17037,7.116296296,60,0.0,0.0,170.0,68082.24825,0,0,True
1568485,0.706729721217,-0.0129268598983,Murray Sean,649.9661538,7.823076923,39,0.0,0.0,182.5,104.5323484,0,0,True
1893246,-0.211623018048,0.82367363386,Roebuck Phillip,67.91666667,6.916666667,45,0.0,0.0,172.5,145664.7952,0,0,True
1948056,0.578336783408,-0.436813692946,Sale Jonathan,508.4090909,7.131818182,43,0.0,0.0,182.5,83603.10818,0,0,True
1898170,0.627017269022,0.322458272422,Rolfe James,49.08094099,7.475757576,36,0.0,0.0,177.5,145943.5531,0,0,True
2194951,0.414200558914,0.661153501431,Taylor Christian,1050.202381,8.573809524,48,8381.577554,0.0,172.5,381154.0498,0,0,True
2384013,-0.928049739359,-0.127076933583,Wethern Clarence,69.66666667,4.933333333,36,0.0,0.0,170.0,217981.3101,0,0,True
838483,-0.445551881885,0.0584396600827,Grange Harold 'Red',2978.090909,6.663636364,113,0.0,4067796.61,180.0,125748.9356,0,0,True
162623,0.64252689194,-0.04722481604,Beaulieu Trace,330.9031414,7.806544503,58,1120082.117,0.0,182.5,4300.351907,0,0,True
346050,0.676292009184,-0.214246257836,Carpenter Josh,115.4444444,7.7,37,0.0,0.0,185.0,120838.0612,0,0,True
891974,-0.939033530695,-0.0460112933738,Hallowell Brad,130.6666667,4.622222222,35,0.0,0.0,167.5,7395.627172,0,0,True
1148679,-0.570249995422,-0.7537987735,Keyes Irwin,4777.330275,6.010091743,64,0.0,0.0,182.5,869011.7389,0,0,True
1954698,-0.932695776148,-0.196118372118,Sampson Roger,295.4285714,6.157142857,48,0.0,0.0,175.0,30340.77596,0,0,True
2377641,0.674049456918,-0.144051400662,Wells Kendall,268.6666667,7.453333333,30,0.0,0.0,182.5,22751.58675,0,0,True
432263,-0.12512570085,-0.635280048006,Collins Kerry,38636.4,6.54,44,0.0,0.0,192.5,35714.28571,0,0,True
1598013,0.157735390533,-0.804430152234,Nelson Sean,2595.8125,6.31875,43,0.0,0.0,192.5,801549.9545,0,0,True
305599,-0.929324532203,-0.247242650343,Burril Jimmyo,74.44827586,6.013793103,53,0.0,0.0,175.0,11160.94855,0,0,True
1452212,0.179680733096,-0.775181862075,McKay Lathan,628.0666667,6.426666667,38,0.0,0.0,185.0,236162.5989,0,0,True
687968,-0.00126797632826,0.750131493887,Ferrari Alex,260.56,6.856,42,0.0,0.0,175.0,89304.91551,0,0,True
383622,0.604584645884,-0.317422449675,Chatmon Pete,131.1818182,6.981818182,39,0.0,0.0,180.0,1355.166573,0,0,True
607700,0.694190926813,0.0977706478057,Dunn Colton,256.7633588,7.573282443,39,0.0,0.0,180.0,645975.7772,0,0,True
1600416,0.135824393391,-0.799539434539,Nett David,275.8,6.46,43,0.0,0.0,185.0,19017.69858,0,0,True
500189,0.607201520695,-0.114852829083,Daniel Dillon,283.0,7.066666667,23,0.0,0.0,180.0,1000.0,0,0,True
2228621,-0.135981331147,-0.246505629086,Tiny Timnan,922.8285714,7.568571429,84,0.0,0.0,182.5,57433.70822,0,0,True
2056002,-0.562757515787,0.362558137282,Simek Tim,22076.25,7.1125,56,0.0,0.0,177.5,56327.02801,0,0,True
1251760,-0.908004891062,-0.297991077126,Laue Aaron,357.7777778,5.938888889,47,0.0,0.0,175.0,58050.76396,0,0,True
489630,-0.636916719354,-0.655284356339,D'Avignon Aleksander,13.0,2.8,28,0.0,0.0,180.0,26133.0871,0,0,True
1830775,0.398632544408,0.629690430556,Rawley Danny,5279.0625,7.68125,21,0.0,0.0,172.5,202054.1717,0,0,True
12028,-0.593070985757,-0.660525095949,Adams Buck,16.04395604,6.310622711,61,0.0,220.8588957,180.0,401007.6687,0,0,True
2208680,0.0647343758233,0.761971231786,Thatcher Zach,2652.75,6.9875,24,0.0,0.0,170.0,112058.3224,0,0,True
1683119,-0.962774661862,0.132036292918,Palermo Joseph,159.8571429,5.771428571,58,0.0,0.0,170.0,1190.47619,0,0,True
163979,-0.24470091254,-0.850279657724,Beck Glenn,387.962963,5.937037037,52,0.0,0.0,185.0,582131.8298,0,0,True
679470,-0.51419530252,0.219957691908,Fein Chase,82124.3617,6.49787234,29,0.0,0.0,177.5,12053.69397,0,0,True
1902552,0.373087085805,-0.228993928934,Ronalds Dean Matthew,197.9672131,6.754098361,40,0.0,0.0,177.5,141779.9004,0,0,True
1258261,-0.75393223829,-0.588801781722,Lazar John,626.48,5.288,70,0.0,0.0,180.0,458772.4736,0,0,True
1250425,-0.210884795157,-0.818293894383,Latimer Tom,69.66666667,5.3,30,0.0,0.0,185.0,54481.58093,0,0,True
640425,0.454551190904,-0.588256242286,Elverman Bill,351.4615385,6.911538462,37,0.0,0.0,185.0,602998.3587,0,0,True
776583,0.670786537661,0.12597245714,Gatsby Nick,7.142857143,7.728571429,23,0.0,0.0,180.0,1518.878393,0,0,True
1486273,0.531254595517,-0.221220919686,Michael Blake,149.0,6.841860465,20,0.0,0.0,180.0,70889.24493,0,0,True
1814960,0.447179981162,0.619076611745,Rainwater Gregg,816.65,8.0125,50,0.0,0.0,175.0,622903.7927,0,0,True
1295300,0.320253622027,-0.715317798666,Lichenstein II C.K.,22.17391304,6.87826087,48,0.0,0.0,190.0,22294.16218,0,0,True
918790,0.708642670019,0.161316330653,Harts Frank,7749.392857,7.478571429,37,0.0,0.0,180.0,37178.88441,0,0,True
49464,-0.672332868406,-0.0703790720712,Altman Robert,3002.983471,6.90785124,91,0.0,463917.5258,180.0,860376.3239,0,0,True
162663,0.654076395838,-0.216145446132,Beaumon Sterling,5639.79661,7.505084746,21,0.0,0.0,185.0,771247.2644,0,0,True
96876,-0.874849000125,0.373754597278,Astyr Bobby,47.28070175,6.070175439,79,0.0,0.0,165.0,274624.1522,0,0,True
1878371,0.320353683466,-0.711764573939,Roberts Jake,239.962963,7.171296296,61,0.0,0.0,192.5,149229.5215,0,0,True
1979167,0.697364450674,0.116346525897,Scanavino Peter,1733.0,7.585185185,36,6356.923433,0.0,180.0,163764.603,0,0,True
2289446,0.620699612083,-0.288471689884,Van Dam Rob,238.7,7.091428571,46,0.0,0.0,180.0,600591.3924,0,0,True
1839402,-0.239605666956,-0.731403734589,Reese Douglas,28.88888889,5.677777778,25,0.0,0.0,180.0,1367.086187,0,0,True
681423,-0.64324610544,-0.31256286853,Fellini Federico,4050.44186,6.947674419,96,0.0,0.0,182.0,704973.2211,0,0,True
1766664,-0.691455949001,0.142803063459,Poletti Mark,120403.0,4.2,27,0.0,0.0,172.5,6550.342381,0,0,True
56868,-0.248257320473,-0.25483705621,Amram David,3045.37037,7.507407407,86,0.0,0.0,182.5,346760.6773,0,0,True
704861,0.55183169136,0.50308086732,Flanders Ian,3414.6875,8.58125,26,0.0,0.0,175.0,5737.130431,0,0,True
450786,0.372723576641,-0.499345492872,Corirossi Nick,89.17777778,6.6,29,0.0,0.0,180.0,456439.9421,0,0,True
2066895,-0.0115207309175,-0.821261473578,Sisco Greg,11.0,5.5,28,0.0,0.0,190.0,5969.373165,0,0,True
666464,-0.801184915387,-0.0960474819622,Fairbanks William,7.5,6.65,122,0.0,0.0,177.5,834845.735,0,0,True
2247163,0.529656525499,0.519510417943,Tran Andy T.,485.9666667,7.94,33,0.0,0.0,175.0,312125.3237,0,0,True
1914622,-0.804041657736,0.431345827254,Rotondi Todd,3439.0,6.55,42,0.0,0.0,175.0,16004.33895,0,0,True
1557591,0.210797366933,0.773087215935,Mui Tony,7861.25,7.375,32,0.0,0.0,172.5,418115.042,0,0,True
2008128,-0.0796574332749,-0.490532609749,Seeger Pete,430.5,7.589189189,97,0.0,0.0,187.5,273039.8091,0,0,True
1867931,0.249365387467,-0.722980365901,Rimpici Steve,1095.2,6.8,47,0.0,0.0,180.0,108680.6459,0,0,True
1203230,0.0199254515159,0.841942600816,Krebs Josh,11.0,7.9,33,0.0,0.0,160.0,30413.6253,0,0,True
946569,0.429569795372,0.621478318105,Henson Mike,44.6,8.02,53,0.0,0.0,175.0,19354.83871,0,0,True
2231159,0.598673009809,-0.389237785652,Tobin Randy,80.66666667,7.145833333,40,0.0,0.0,182.5,110439.8607,0,0,True
637738,0.104791958927,-0.691382736049,Ellis Bret Easton,1628.555556,6.877777778,52,0.0,0.0,180.0,20275.7502,0,0,True
823998,0.162289458282,0.806405520119,Gon__alves Khalid,1494.0,7.425,45,0.0,0.0,172.5,15060.53357,0,0,True
509916,0.0316443822925,-0.829964671853,Davidson Jim,196.5762712,6.537288136,53,0.0,0.0,185.0,10068.93755,0,0,True
592767,-0.6262166648,-0.0027763021262,Doyle Joe,126.9,6.3,35,0.0,0.0,175.0,26255.82618,0,0,True
219594,0.400639764613,-0.653113969114,Blieden Michael,325.2556391,6.996992481,45,0.0,0.0,187.5,55735.40545,0,0,True
1355206,-0.0195689080468,0.82989288717,Mackey Nicholas Joseph,72.09090909,7.109090909,38,0.0,0.0,170.0,19244.76886,0,0,True
1661618,0.709083305243,-0.0124312329438,Orendorff William,223.6896552,8.317241379,37,0.0,0.0,185.0,112336.4888,0,0,True
1559929,0.470501295923,-0.388414457662,Muller Bru,2136.28,6.7,0,0.0,0.0,185.0,569890.6226,0,0,True
2216885,0.647272165997,-0.302136751472,Thompson Ahmir-Khalib,455.5018051,7.333212996,45,0.0,0.0,182.5,762263.4103,0,0,True
2257792,0.255571227131,0.749209770686,Tsao Perry,11.5,7.6,32,0.0,0.0,170.0,57400.4154,0,0,True
2108825,0.0991619758761,0.824834806376,Spencer Lee,4650.837838,7.451351351,55,0.0,0.0,175.0,12705.13499,0,0,True
64789,-0.36173840096,0.764575515984,Andreev Sasha,688.8636364,6.572727273,35,0.0,0.0,170.0,94560.69775,0,0,True
2342548,0.531191229742,0.560659550344,Wainwright Rufus,7214.666667,7.333333333,43,0.0,0.0,177.5,300245.1319,0,0,True
1482948,-0.817555756065,-0.168728872473,Metzger Ryan G.,38.28571429,6.214285714,39,0.0,0.0,175.0,31091.75747,0,0,True
2386471,-0.515492201702,0.309202666135,Whisenhunt Brayden,34739.0,6.15,18,0.0,0.0,172.5,88050.77595,0,0,True
2469805,-0.226834580263,0.57676432966,Zeman Casey,341.5,6.65,38,0.0,0.0,175.0,2133.911861,0,0,True
1417656,-0.212182084486,0.801688847839,Mas__ Pau,156.8235294,6.7,30,0.0,0.0,167.5,3001.859556,0,0,True
1415779,0.150214351961,-0.332301941334,Massey Chandler,98.11111111,6.433333333,26,0.0,0.0,177.5,14416.83811,0,0,True
1450060,0.504566494933,0.56124829409,McGuire Brian James,19.4,8.4,46,0.0,0.0,175.0,10419.68162,0,0,True
2057000,0.0499472981458,-0.731608463399,Simmons Gene,1612.605263,7.006315789,67,0.0,0.0,185.0,976187.2781,0,0,True
144113,-0.894175127852,-0.394317461326,Barrett John,908.173913,4.947826087,64,0.0,0.0,175.0,64446.79725,0,0,True
90414,0.652186695342,-0.331439592328,Arthur Noel,3852.947368,7.481578947,40,12258.58477,0.0,185.0,452292.5242,0,0,True
1307004,-0.0741045969476,-0.18495154349,Lister Ralph,23537.91176,7.151470588,45,0.0,0.0,183.0,397052.1784,0,0,True
2107344,-0.901832809618,0.303865437004,Spease Matt,15.07936508,5.038095238,43,0.0,0.0,162.5,48339.02828,0,0,True
2413100,-0.297076137386,-0.812657234762,Wilson Nathan,48.16666667,5.6,37,0.0,0.0,182.5,10226.61742,0,0,True
517713,0.604213590581,-0.183580510653,Dawson Shane,326.3333333,7.003030303,28,36180.04866,0.0,180.0,281185.3361,0,0,True
1210968,0.0676319247055,-0.818809664288,Kucmierowski William,43.4,6.32,42,0.0,0.0,185.0,67113.48155,0,0,True
2214509,-0.750246359937,0.569442416613,Thomas John,34.5,6.257142857,50,0.0,0.0,167.5,400849.1811,0,0,True
1026890,-0.795131468824,-0.437046019167,Infante Kristoffer,920.3333333,5.4,36,0.0,0.0,175.0,560626.303,0,0,True
1152795,0.209781495371,0.747667230126,Kho Edwin,189.5,7.3125,27,0.0,0.0,170.0,279065.3608,0,0,True
773661,-0.0744132806047,-0.83214829535,Garton Brian,67.08333333,5.908333333,37,0.0,0.0,185.0,1000.0,0,0,True
408816,-0.0414330206964,-0.831074727019,Cirone Kevin,147.6153846,6.011538462,38,0.0,0.0,185.0,128280.114,0,0,True
474844,0.186564818706,0.585147201139,Crowley Steven,5529.1875,6.90625,30,0.0,0.0,175.0,18073.54055,0,0,True
79633,-0.895243105904,-0.347480685932,Arcangeli Domiziano,399.8,5.743,48,0.0,0.0,175.0,460674.9612,0,0,True
524030,0.695162578506,0.208413421836,de la Fuente Joel,2924.513158,7.75,47,1724.610121,0.0,180.0,448032.3292,0,0,True
253863,0.466150760678,-0.594304824178,Braaten Josh,1827.901639,7.060655738,39,0.0,0.0,187.5,877297.3013,0,0,True
1772296,-0.631138918692,0.311778693732,Popham Christian,4749.5,6.1,27,0.0,0.0,172.5,8100.684761,0,0,True
1071216,-0.100747631139,-0.361963116772,Jobs Steve,22852.55172,7.351724138,61,109012.6049,0.0,185.0,253381.8166,0,0,True
995702,0.0419939131469,0.799106867166,Howard Michael,88.28571429,6.992857143,38,0.0,0.0,172.5,5387.726351,0,0,True
1732903,0.63623002329,0.319947674884,Perugini Alfonso,74.33333333,8.033333333,28,0.0,0.0,178.0,18777.61943,0,0,True
844414,0.137379561959,0.818875771637,Green Adam,2020.84252,7.580314961,41,0.0,0.0,170.0,717141.874,0,0,True
1771204,0.60037106491,0.390103871991,Poole Rob,13.0,7.6,45,0.0,0.0,177.5,25196.85039,0,0,True
2213221,0.356824999503,-0.688184568716,Thomas Christopher,1439.692308,6.838461538,43,0.0,0.0,185.0,14140.90393,0,0,True
2008154,-0.544023477452,-0.711133038216,Seegmiller Scott,77.0,4.925,35,0.0,0.0,180.0,173396.6635,0,0,True
1452894,0.52786246961,0.440761353156,McKendry Cameron,90.4,7.54,20,0.0,0.0,175.0,453659.2125,0,0,True
481581,-0.645881456498,-0.495630717474,Cunning Patrick,449.1764706,6.252941176,111,0.0,0.0,185.0,177230.7692,0,0,True
2097939,-0.370836802897,0.0385572006881,Sommerville David Kenneth,57999.0,6.7,29,0.0,0.0,182.5,299678.8612,0,0,True
291958,-0.0140067288493,0.831388424108,Buchanan Austin,25.69230769,7.376923077,26,0.0,0.0,162.5,172263.7437,0,0,True
1921616,0.622510846151,0.35403706163,Rubio Manny,1088.076923,7.330769231,41,0.0,0.0,177.5,12293.54387,0,0,True
140739,-0.125060889654,-0.866647757001,Barnes Steve,11892.47059,6.0,49,0.0,0.0,190.0,511775.4629,0,0,True
1261338,0.633934958564,-0.392442779371,Leal Carlos,4696.322034,7.645762712,47,0.0,0.0,187.0,47651.16524,0,0,True
2017506,0.331148861561,0.711118929642,Sermini Jorge,32.0,7.7,41,0.0,0.0,172.5,350000.0,0,0,True
1145914,0.667051027006,-0.0090810677762,Kerr Edward,690.2941176,7.381176471,50,0.0,0.0,180.0,721374.7559,0,0,True
1304177,-0.724576485307,0.51025593443,Linklater Richard,24382.42105,6.778947368,56,1243564.47,0.0,172.5,148805.2368,0,0,True
2427117,-0.682068311877,-0.423572960519,Wood James,11.0,5.6,29,0.0,0.0,175.0,6021.505376,0,0,True
2407143,0.0206023671994,-0.565278619905,Williams Ted,70.7826087,7.643478261,98,0.0,0.0,190.0,912151.565,0,0,True
1682865,0.17019134853,0.792115333979,Palazzolo Matt,73.09090909,7.677272727,32,0.0,0.0,167.5,8691.428328,0,0,True
1594733,0.136178111392,0.799531079347,Negrin Josh,15.0,7.525,31,0.0,0.0,167.5,38544.39167,0,0,True
1361858,-0.580188999884,-0.711260733599,Magill Daniel,687.1818182,5.190909091,42,0.0,0.0,180.0,6670.372429,0,0,True
1181899,-0.283857444359,-0.692550110102,Koch Ed,2355.5375,6.85,92,240391.3584,0.0,188.0,450806.0961,0,0,True
842882,-0.904207924383,-0.355860329481,Gray Rodney,352.4375,5.525,56,0.0,0.0,175.0,77922.07792,0,0,True
2334500,0.668625137164,-0.238849640568,Vorob Greg,30.5,7.640909091,37,0.0,0.0,185.0,4475.523428,0,0,True
2366756,-0.932169913475,-0.136224633156,Wayne Anthony,22.0625,6.25,48,0.0,0.0,175.0,10953.28607,0,0,True
1238004,0.0371394711756,-0.661177951238,Lander Alan,80.88888889,7.222222222,80,0.0,0.0,187.5,26196.5061,0,0,True
2131333,0.601611985121,0.415916057918,Sterlacci Mitch,94.28571429,8.128571429,44,0.0,0.0,177.5,26279.22146,0,0,True
251871,-0.579972010643,0.238489951329,Boyd Sean,57845.14286,6.757142857,49,0.0,0.0,177.5,2668.078348,0,0,True
143871,0.509448611115,0.27338261674,Barrett Bo,5061.4,7.04,31,0.0,0.0,177.5,125623.3785,0,0,True
848633,-0.168244924565,0.803620593112,Greenstreet Steven,1442.372549,6.776470588,37,0.0,0.0,172.5,6732.737812,0,0,True
305024,-0.0754716211748,0.851333260873,Burns Steve,187.5,7.31,43,0.0,0.0,167.5,415688.2043,0,0,True
1054627,0.522426585418,0.543462072124,Janowsky Austin,13.0,8.8,46,0.0,0.0,175.0,4938.375679,0,0,True
450987,0.0676909536991,-0.814057489838,Corley Al,2877.164706,6.836470588,60,0.0,0.0,185.0,436893.2039,0,0,True
2113240,-0.945562440609,-0.0619452340387,Spudic Eric,380.1025641,4.564102564,37,0.0,0.0,167.5,14586.8648,0,0,True
2343207,0.510827339955,-0.535486641985,Wakefield Tim,232.6666667,7.255555556,50,0.0,0.0,185.0,381154.0498,0,0,True
2057082,-0.876762915195,-0.383156413738,Simmons Jason,780.9375,5.5828125,46,0.0,0.0,175.0,723449.857,0,0,True
955771,0.645554506222,-0.150781166179,Hetfield James,940.9620253,7.589873418,53,1553467.02,0.0,182.5,873658.4112,0,0,True
1226882,-0.0359936029402,-0.847087623503,LaChapelle David,619.84,6.428,53,0.0,0.0,185.0,5000.0,0,0,True
58954,-0.635862237649,0.656441971665,Andersen Curtis,8248.780488,6.43902439,39,0.0,0.0,170.0,5411.030008,0,0,True
1342702,0.193131120786,-0.783145253028,Lyle Nicholas,9252.0,6.55,38,0.0,0.0,187.5,6168.77864,0,0,True
2393586,-0.828809128753,0.403224808291,Wickson Casey,153.5625,5.78125,38,0.0,0.0,167.5,3091.637138,0,0,True
365030,-0.833528060478,-0.0138307200338,Cavanaugh William,103.8571429,6.614285714,142,0.0,0.0,175.0,6353.836222,0,0,True
1084165,-0.384784871443,-0.609555957099,Jones Andrew,77.25,5.875,28,0.0,0.0,177.5,476785.7143,0,0,True
2118440,-0.256892072298,0.817182523927,Stampone Zach,9.0,6.7,28,0.0,0.0,162.5,405.5150041,0,0,True
827026,-0.77962975616,0.415149479489,Gorcey Leo,807.3917526,6.886597938,99,0.0,198529.4118,167.64,934998.8025,0,0,True
1536405,-0.878918154661,-0.120254790007,Morante Milburn,49.78571429,5.881547619,129,0.0,0.0,175.0,478130.3688,0,0,True
450651,0.53610458608,-0.530819436704,Corgan Billy,2783.215686,7.41372549,49,0.0,0.0,187.5,555098.3385,0,0,True
1638809,0.218722238372,-0.706884622397,O'Malley Rob,299.8,6.6,39,0.0,0.0,180.0,220151.4116,0,0,True
929282,-0.528609726695,-0.754305915689,Hayes David C.,1578.583333,4.929761905,45,0.0,0.0,182.5,246824.4814,0,0,True
1492041,-0.336905053339,0.720514902087,Mike Dnan,557.4782609,6.947826087,51,192084.5238,0.0,175.0,999900.2248,0,0,True
1950861,0.275855098216,-0.266818914746,Salomon Alejandro,314.0322581,6.616129032,32,0.0,0.0,177.5,17046.56101,0,0,True
634818,-0.921843405833,0.176943717546,Eliasnan,170.0416667,5.683333333,41,0.0,0.0,170.0,3587.463292,0,0,True
587178,0.660755698049,-0.248476465913,Dorris Blake,8.0,7.8,27,0.0,0.0,187.5,1650.952049,0,0,True
1430148,0.620431310359,0.370552918206,Mayhew Steven,213.2,8.04,33,0.0,0.0,177.5,4915.514593,0,0,True
1093036,0.328908447842,-0.702476863993,Jorrin Alberto,40.55555556,6.655555556,35,0.0,0.0,192.5,67157.16544,0,0,True
2136458,-0.426471079022,-0.782076055378,Stewart Stephon,256.6,4.38,34,0.0,0.0,185.0,38924.74674,0,0,True
132849,-0.757040539296,0.504313640055,Banx Landyn,7276.375,6.158333333,37,0.0,0.0,170.0,614037.4957,0,0,True
189500,0.0919584946778,0.823046622861,Bernard Carlos,647.6342857,7.824,54,0.0,0.0,170.0,78145.06365,0,0,True
970561,-0.311167456084,-0.766100412528,Hoagland Sean,358.0,5.825,33,0.0,0.0,180.0,10647.28019,0,0,True
2358205,0.147995358751,0.679581655222,Waring Todd,152.852459,7.606557377,61,13647.57709,0.0,175.0,22012.69399,0,0,True
2408143,0.669251227497,-0.170827605192,Williamson Kit,146.0927835,7.409278351,31,0.0,0.0,182.5,317936.8148,0,0,True
572107,-0.798411190317,0.104378708807,Disney Walt,2159.449713,7.092241379,115,0.0,0.0,175.0,208198.8634,0,0,True
336700,0.0708202679001,0.75480965018,Caplan Barton,155.0,7.075,48,0.0,0.0,175.0,39061.86692,0,0,True
1853231,0.544433325799,-0.490625034946,Reynolds Andrew,773.7857143,7.135714286,38,0.0,0.0,185.0,42657.52714,0,0,True
178552,0.0259971600244,0.720170673272,Benhoff Robert,5.0,6.8,31,0.0,0.0,172.5,300.0,0,0,True
1929021,0.327622820105,-0.701930958788,Russell Joe,728.4117647,6.694117647,38,0.0,0.0,187.5,127977.6702,0,0,True
816215,0.665050472675,0.186571592258,Goldstein Jonathan,250.1531532,7.784684685,52,0.0,0.0,180.0,567737.2257,0,0,True
928754,0.658863076827,0.152915535771,Hayden Michael,608.6481481,7.67037037,53,0.0,0.0,180.0,360144.0576,0,0,True
1705352,-0.140420426943,-0.84454409453,Paternot Stephan,1434.0,6.175,42,0.0,0.0,182.5,81386.11116,0,0,True
2214519,-0.885035927147,-0.40689408871,Thomas John Charles,76.0,2.4,126,0.0,0.0,175.0,112280.7018,0,0,True
1083370,0.122923018199,-0.817708612453,Joly John,9388.444444,7.055555556,68,0.0,0.0,190.0,161036.8664,0,0,True
1217146,-0.256500584874,0.544026203794,Kurland Ben,38876.4,7.46,32,0.0,0.0,172.5,179821.3004,0,0,True
843178,0.204111408392,0.761099850832,Grayer Dalpre,105.3529412,7.376470588,30,0.0,0.0,170.0,857607.9843,0,0,True
1540547,-0.165853616778,-0.84276787394,Morgan Kristoffer Aaron,93.33333333,5.433333333,38,0.0,0.0,187.5,9000.0,0,0,True
365296,-0.577554643676,-0.640505064136,Cavender Justin,59.8,5.76,36,0.0,0.0,177.5,1304.347826,0,0,True
441853,0.00447315346562,-0.767767253773,Contini Jason,64.18181818,6.390909091,37,0.0,0.0,180.0,445816.5878,0,0,True
2057406,-0.783647437964,0.529217881614,Simmons Russell,1139.387324,6.518309859,59,0.0,0.0,170.0,436334.8036,0,0,True
230636,-0.580902758888,0.651594051613,Bolnick Chase,357.5555556,7.633333333,114,0.0,0.0,160.0,78790.57179,0,0,True
859951,-0.471347610265,-0.756932847192,Grubbs Nathan,98.55555556,5.722222222,41,0.0,0.0,180.0,357142.8571,0,0,True
2434966,-0.566247315714,0.725862577883,Wright Scott R.,188.6923077,6.669230769,53,0.0,0.0,167.5,12705.13499,0,0,True
1666931,0.376811044714,-0.63266448126,Osborne Kevin,13.5,6.7,36,0.0,0.0,182.5,85000.0,0,0,True
2334126,-0.119446658554,-0.582282680022,Vonnegut Jr. Kurt,1778.375,7.345833333,94,0.0,0.0,188.0,768779.3427,0,0,True
1385256,-0.28528868188,-0.81802842819,Mapp DeForest,116.875,6.379166667,47,0.0,0.0,180.0,58077.07986,0,0,True
1726053,0.710040356987,0.0117299219726,Pereira Warren,27.65517241,8.434482759,40,0.0,0.0,185.0,34407.72432,0,0,True
1847047,0.539078633168,0.472674892619,Renaud Bryan,35.25,7.75,25,0.0,0.0,175.0,11186.88152,0,0,True
2079187,0.541531506045,-0.506769019385,Smith Brian,1391.333333,7.276190476,39,0.0,0.0,187.5,374247.7562,0,0,True
1735726,-0.132966463695,0.849707888726,Petersen Michael G.,51.0,7.266666667,32,0.0,0.0,160.0,9737.444033,0,0,True
2475682,-0.384123248783,0.37547050658,Zimmerman III David,65893.26087,7.373913043,32,0.0,0.0,175.0,3749.088221,0,0,True
909442,-0.62281238615,-0.700226455279,Harmon Winsor,8.857142857,5.632142857,53,0.0,0.0,180.0,101378.751,0,0,True
1357929,-0.464438611207,-0.658554548333,Maddin Guy,623.029703,6.602970297,60,0.0,0.0,180.0,48387.09677,0,0,True
1989686,-0.643536363934,0.681859613736,Schnabel Julian,5291.243243,6.935135135,65,0.0,0.0,170.0,418015.5409,0,0,True
2142862,0.409802938042,-0.62463076616,Storey Robby,13.5,6.8,36,0.0,0.0,185.0,7917.250398,0,0,True
918168,-0.281687830552,0.00921193813171,Hartman David,71.64912281,7.521052632,81,0.0,0.0,192.5,20906.46968,0,0,True
2130500,0.123991514751,0.624555890385,Stephens Peter Ross,11.0,6.8,37,0.0,0.0,175.0,1986.540952,0,0,True
1213007,0.409236577312,-0.542905193033,Kulick Bruce,65.25,7.425,63,0.0,0.0,185.0,460150.6427,0,0,True
1673816,0.137817416153,-0.662958359659,Owens Colin,15143.91667,6.583333333,32,0.0,0.0,185.0,24343.29612,0,0,True
2335537,-0.716497291408,-0.600625345726,Vox Dylan,794.847619,4.904761905,42,0.0,0.0,177.5,310070.114,0,0,True
1823285,-0.538103430579,0.692071714652,Randi James,472.3870968,7.406451613,88,125592.0039,0.0,165.0,125000.0,0,0,True
1621734,0.387465892515,0.672168798846,Noor Fernando,48.0,8.3,30,0.0,0.0,170.0,57500.0,0,0,True
473763,0.701828454454,-0.0246214371639,Crosthwaite John,979.6923077,7.761538462,33,0.0,0.0,182.5,691267.6814,0,0,True
1350472,-0.178980013107,-0.851087289847,MacCannell Dan,28.0,5.6,45,0.0,0.0,187.5,4565.217391,0,0,True
2448024,0.378560921521,0.665809579232,Yeargain Joseph C.,52.25,7.625,33,0.0,0.0,172.5,11501.00906,0,0,True
1078012,0.555558308425,-0.469883011791,Johnson John Robert,2729.363636,7.109090909,33,0.0,0.0,185.0,23154.84805,0,0,True
1509530,0.549162885888,0.496886470876,Mitchell Austin,16.16666667,8.333333333,31,0.0,0.0,175.0,10727.13276,0,0,True
2359055,0.643607819062,-0.293545836835,Warnock Nick,220.1190476,7.271428571,39,0.0,0.0,182.5,47500.0,0,0,True
1118211,0.420592413597,-0.0740768519153,Karales Jayme,103.1428571,6.714285714,26,0.0,0.0,177.5,35425.20397,0,0,True
835523,-0.906987167224,0.131039530255,Graf David Alan,970.3355705,6.568456376,57,0.0,0.0,175.0,99696.24618,0,0,True
2229379,0.137539722565,-0.81570760035,Tisdale Wayman,2415.0,6.133333333,52,0.0,0.0,202.5,133819.7645,0,0,True
2376286,0.324207131979,0.225499508981,Welch Ted,27573.91667,7.908333333,37,0.0,0.0,182.5,46548.63869,0,0,True
734427,-0.236867825093,0.832339688218,Freeman Alexander,13.5,6.85,29,0.0,0.0,160.0,413.9886002,0,0,True
1257715,0.198247115006,0.793870387712,Lay Gregory,13215.4375,7.675,36,0.0,0.0,172.5,64886.90474,0,0,True
1726113,-0.864529500558,0.102073873561,Perella Marco,23318.59155,6.607042254,67,0.0,0.0,177.5,228997.3537,0,0,True
233036,0.593534286373,0.125137330499,Bone Bizzy,66.25,6.95,40,0.0,0.0,177.5,275647.7831,0,0,True
2315496,0.695587508695,0.158508785553,Vey Zachary Le,20.0,8.566666667,36,0.0,0.0,182.5,15941.30616,0,0,True
638860,0.435652199457,-0.569379547956,Ellison Michael,241.625,6.75,33,0.0,0.0,182.5,3657.742402,0,0,True
180909,-0.812761525448,0.0417513128666,Bennett Richard,1828.0,7.0,146,0.0,0.0,175.0,935539.4944,0,0,True
2365570,0.631729371491,-0.373434314251,Watterson Bill,2545.526316,7.442105263,43,0.0,0.0,185.0,20349.3957,0,0,True
1554458,-0.190200200955,0.855135732329,Moy Matthew,1180.967568,7.390810811,32,0.0,0.0,152.5,51000.0,0,0,True
770937,-0.346303045929,0.634904713279,Garland Raymond,74.0,6.5,33,0.0,0.0,172.5,79931.4166,0,0,True
55747,0.693422039912,0.123511517563,Amitrano Christopher,319.0967742,7.632258065,43,0.0,0.0,180.0,512990.19,0,0,True
1747615,0.39586679326,0.0166819660841,Piccirilli Michael,560.875,6.875,45,0.0,0.0,177.5,365158.6748,0,0,True
824739,-0.269936956485,0.751216390562,Goodeve Grant,327.0117647,7.370588235,64,0.0,0.0,172.5,436939.4784,0,0,True
2157631,0.691493797027,-0.148297513823,Sullivan Stephen,881.0416667,7.516666667,39,0.0,0.0,182.5,4227.303706,0,0,True
408571,-0.794552658889,-0.490194751996,Circus-Szalewskinan,728.8024691,6.340740741,53,0.0,0.0,177.5,957070.004,0,0,True
1004046,-0.381974711883,-0.763654671367,Hughes Adam,8.0,5.766666667,36,0.0,0.0,180.0,688365.0683,0,0,True
1906545,-0.185812602317,0.857340864922,Rose Jeff,1509.712121,7.225757576,51,0.0,0.0,170.0,802252.6189,0,0,True
146501,-0.786786833405,-0.485996919813,Barrymore William,20.5,5.0125,117,0.0,0.0,182.5,44776.1194,0,0,True
676192,0.359135803947,0.672740522948,Faust Ricky,39.92307692,7.5,32,0.0,0.0,172.5,6645.732286,0,0,True
60806,-0.81711187955,-0.292665436619,Anderson Gilbert M. 'Broncho Billy',567.369863,5.853424658,136,0.0,0.0,180.0,150.0,0,0,True
13957,0.619472374321,0.37817334245,Adamson Robert,905.1313131,8.165656566,31,0.0,0.0,177.5,488027.6273,0,0,True
2345211,0.233016826244,-0.689610398764,Walker Clint,1266.03125,7.62,89,0.0,1567.164179,195.0,165161.1474,0,0,True
1493661,-0.57508123701,-0.618143301379,Milburn Larry,187.0,6.48,45,0.0,0.0,177.5,25410.26998,0,0,True
2438076,-0.803004593803,0.440134453398,Wynne Brendan,1353.8,5.82,36,0.0,0.0,167.5,10167.32005,0,0,True
841835,0.646115614811,-0.31215723991,Gray Blaine,831.9032258,7.34516129,47,0.0,0.0,182.5,761503.8356,0,0,True
2437200,0.600742228527,0.234959912927,Wyatt Samuel,51.33333333,7.4,19,0.0,0.0,177.5,3936.324168,0,0,True
1286843,0.502829607764,-0.372715574684,Levine Adam,752.4516129,7.049853372,37,0.0,93358.6439,182.0,30413.6253,0,0,True
1064017,0.00111680144709,0.855092058559,Jennings Shooter,12808.0,7.58,37,0.0,0.0,169.0,467089.1352,0,0,True
1321021,-0.868253504322,-0.147580250532,Loper John,35.71428571,5.542857143,33,0.0,0.0,172.5,119089.7038,0,0,True
1879143,0.704825819184,-0.0756752862543,Roberts Paul D.,789.7380952,7.716666667,46,0.0,0.0,182.5,54117.89846,0,0,True
1077266,-0.841933276999,-0.267304651258,Johnson Hunter,587.2777778,5.188888889,30,0.0,0.0,172.5,5325.476666,0,0,True
903295,0.50687504802,-0.470639261504,Hansis Van,94.68421053,6.844736842,35,0.0,0.0,181.0,160000.0,0,0,True
118954,0.170213522766,0.790990513812,Bain John,250.5333333,7.653333333,31,0.0,0.0,167.5,281645.009,0,0,True
1146144,-0.911706334964,-0.268041118427,Kerr Ronnie,229.2222222,5.166666667,42,0.0,0.0,172.5,341794.8513,0,0,True
1902551,0.324712935247,-0.203104523662,Ronalds Brian,182.4565217,6.793478261,43,0.0,0.0,177.5,143660.7065,0,0,True
2466198,0.675887274364,0.230730979319,Zara Michael,117.0757576,8.13030303,36,0.0,0.0,180.0,268811.9921,0,0,True
795531,0.606308541518,0.426769088064,Giebenhain Todd,2430.752688,7.702150538,42,0.0,0.0,177.5,17857.14286,0,0,True
1775089,-0.589071097321,0.690868786844,Portilla Omar,55.33333333,6.1,36,0.0,0.0,162.5,288032.3487,0,0,True
1472206,0.51129036512,0.581259787582,Memonan,6672.0,8.8,41,0.0,0.0,175.0,6747.811248,0,0,True
2324909,0.643256024028,-0.300852558105,Vinneau Randy,279.6470588,7.458823529,34,0.0,0.0,185.0,15849.46327,0,0,True
1866760,-0.00362352579274,0.85637990388,Rikaart Greg,13035.5,7.55,39,0.0,0.0,170.0,5593.440758,0,0,True
67871,-0.499381366479,-0.760037253962,Angel Jonathan,294.1285714,3.962857143,39,0.0,0.0,185.0,60175.3882,0,0,True
2399731,0.704625124582,0.0835994705251,Will Joseph,1626.96,7.496,46,0.0,0.0,180.0,290484.786,0,0,True
1257429,0.474963848175,0.61211052873,Lawton Andrew,4646.428571,7.842857143,38,0.0,0.0,175.0,500.0,0,0,True
971201,0.331342469197,0.716823447618,Hobgood CJ,54.85714286,8.142857143,37,0.0,0.0,170.0,220684.4016,0,0,True
776474,-0.129882135369,0.642266886482,Gatlin Hardy,590.2,6.48,19,0.0,0.0,170.0,550.3173497,0,0,True
902374,-0.342627951263,-0.851772376773,Hansen Gunnar,10075.8,5.943636364,69,1553250.394,3894.523327,190.0,873579.4025,0,0,True
29299,0.427191446295,0.633312221927,Alabastro Tasi,24.0,7.95,33,0.0,0.0,172.5,9605.386028,0,0,True
610647,0.515581294217,-0.539557146402,Durant Kevin,382.2,7.75,28,0.0,0.0,202.5,20251.7119,0,0,True
710334,-0.177030852529,0.220887699057,Flower Ethan,24740.38889,7.338888889,48,0.0,0.0,180.0,222133.6934,0,0,True
169344,0.649862535889,0.326114703089,Bek Kris,16.0,8.9,44,0.0,0.0,180.0,27867.70273,0,0,True
237860,0.135284527879,-0.282123581939,Borders Theodore,18722.125,7.021875,34,0.0,0.0,182.5,518218.6235,0,0,True
1302595,0.355789337629,0.681732178176,Lindsay Chris,8295.3,7.39,34,0.0,0.0,175.0,5610.199728,0,0,True
1821532,0.516846275793,0.526705006562,Ramsey Karl,20.77777778,7.733333333,34,0.0,0.0,175.0,67635.05287,0,0,True
1906646,-0.597503033656,0.355519591801,Rose Justin,11.33333333,6.2,30,0.0,0.0,172.5,25787.1223,0,0,True
2297263,0.165539729881,-0.808891414554,Vander Ark Brian,3522.5,6.635714286,52,0.0,0.0,190.0,453563.5139,0,0,True
1871614,0.700771159406,0.0146704437728,Ritter Tyler,457.6944444,7.886111111,31,0.0,0.0,182.5,677902.3606,0,0,True
1921997,0.555445617237,-0.339395944048,Ruckdashel Brandon,37.34482759,6.872413793,33,0.0,0.0,180.0,295406.349,0,0,True
304761,0.613543110175,-0.39479852247,Burns Matt,2981.086957,7.660869565,32,0.0,0.0,190.0,41172.20815,0,0,True
670667,-0.6096074369,0.195016888896,Faraj Conrad,40.33333333,6.006666667,26,0.0,0.0,172.5,11660.6476,0,0,True
865950,-0.286513672567,0.824263306741,Guiala Leonardo,10.5,6.8,39,0.0,0.0,167.5,55934.40758,0,0,True
226702,-0.607930582141,0.6823176346,Boewe Christian,10889.75,5.45,22,0.0,0.0,150.0,238744.2386,0,0,True
1532894,-0.908404678702,-0.152703901229,Moore Rudy Ray,503.2926829,5.980487805,89,0.0,0.0,175.0,454710.9529,0,0,True
383672,0.1329532442,-0.823126478107,Chattam David,10557.29167,6.691666667,48,0.0,0.0,187.5,319425.3191,0,0,True
202992,-0.370943572393,0.832717154663,Biggins Sean Vincent,12659.9375,7.09375,47,0.0,0.0,170.0,4671.136762,0,0,True
467696,-0.896600420858,0.170535191416,Crawford Rick,422.9444444,6.038888889,40,0.0,0.0,172.5,315020.268,0,0,True
625634,-0.734481366159,-0.590950573923,Edwards James L.,387.1481481,4.155555556,44,0.0,0.0,177.5,7078.342082,0,0,True
498327,0.705906279282,-0.0371616190659,Damon Grey,1790.62766,8.164893617,29,0.0,0.0,185.0,313597.0452,0,0,True
1679779,0.695997335165,0.13259400484,Page Sam,878.59375,7.64609375,40,0.0,0.0,180.0,33019.04098,0,0,True
1672415,0.224042974429,-0.732656934123,Ovechkin Alexander,24.8,6.35,31,0.0,0.0,185.0,98155.31707,0,0,True
1118951,0.356391820187,0.652156789951,Karavites Kelly,342.3846154,7.919230769,57,0.0,0.0,175.0,699662.4715,0,0,True
283695,0.616771490967,-0.373039613482,Brown Sam,22.3956044,7.536263736,35,0.0,0.0,187.5,23564.67568,0,0,True
2123806,-0.760549665553,-0.567923894282,Steadman Jason,4284.153846,6.076923077,44,0.0,0.0,177.5,69419.71117,0,0,True
732874,-0.616171643225,-0.667629576669,Frazier Matt,70.0,3.457142857,29,0.0,0.0,180.0,1619.047619,0,0,True
892417,-0.175476305335,0.764503072505,Halpin Brandan,90.14285714,6.714285714,36,0.0,0.0,172.5,60934.40758,0,0,True
425542,-0.897497372813,0.106733881043,Cohen Sammy,132.8571429,6.228571429,114,0.0,0.0,170.0,384104.1349,0,0,True
1971466,0.489393792972,0.559416334318,Saslow Craig,101.0,7.585714286,37,0.0,0.0,175.0,11577.42402,0,0,True
2403437,-0.156453560676,-0.410308102874,Williams Guy,137.8914474,7.501644737,92,0.0,0.0,185.0,670148.1061,0,0,True
1869729,-0.849094984019,0.469081584185,Ripke Maurice,3440.222222,6.248148148,50,0.0,0.0,170.0,627158.8783,0,0,True
719939,-0.358012527732,0.575478132541,Forte Forrest,1036.0,6.25,22,0.0,0.0,170.0,633784.6067,0,0,True
436689,0.569964236812,-0.327934588819,Conant Sean,88.75,6.9,34,0.0,0.0,180.0,2001.111729,0,0,True
1984095,0.128119468334,0.817684178882,Scherl Daniel F.,64.8,7.92,45,0.0,0.0,167.5,1118.688152,0,0,True
1025840,0.688263337502,-0.185742304823,Impellizzeri Jack,367.4285714,7.816326531,42,0.0,0.0,185.0,53214.59438,0,0,True
2384767,0.0413590043476,0.543557716887,Whaley Russell,121.68,6.708,35,0.0,0.0,175.0,614291.1849,0,0,True
1084034,0.0223582206677,0.812056529492,Jones Alex,1687.940594,6.902970297,42,0.0,0.0,175.0,185749.2244,0,0,True
148692,0.620531868084,0.269481320831,Barton-Grimley Ryan,401.7777778,7.1,42,0.0,0.0,177.5,168285.6213,0,0,True
167100,-0.564931302695,-0.703950963817,Beemer Brandon,740.5625,4.879166667,36,94473.80952,0.0,180.0,508906.1063,0,0,True
2115206,-0.894572694993,0.09453329187,St. John Al,389.2689076,6.23487395,123,0.0,13333.33333,170.0,352495.4564,0,0,True
4233,-0.433306269134,-0.253892138425,Abdullah the Butcherman,151.0645161,7.083870968,75,0.0,0.0,180.0,65867.25137,0,0,True
476525,0.616828145959,0.221647094947,Cruz Jonny,285.8181818,7.122727273,34,0.0,0.0,177.5,921802.4385,0,0,True
1928585,-0.657940615192,-0.437024608416,Russell Charles,220.0,6.48,98,0.0,0.0,182.5,968609.8655,0,0,True
667523,0.13549859686,-0.742001686516,Falcheck Ryan,1141.857143,6.271428571,30,0.0,0.0,182.5,111.4708109,0,0,True
712786,-0.0834244404138,-0.77397162889,Folan Josh,298.3529412,6.252941176,35,0.0,0.0,180.0,219212.3792,0,0,True
405796,0.669954724523,0.251984385061,Ch__vez Christian,54.38461538,8.330769231,33,0.0,0.0,180.0,200000.0,0,0,True
1121096,0.6905498689,-0.215895752158,Karner Nick,8271.73913,7.634782609,34,0.0,0.0,185.0,12354.17383,0,0,True
667675,-0.660698892806,-0.621074952913,Falcon Anthony,60.52631579,5.010526316,36,0.0,0.0,177.5,216111.3623,0,0,True
1494074,-0.0698636834393,0.540264074604,Miles Dustin,45532.5,8.133333333,33,0.0,0.0,175.0,5745.614107,0,0,True
1601995,-0.81131741059,-0.148928080232,Neville Aaron,1493.977273,6.643181818,75,0.0,0.0,177.5,554530.1736,0,0,True
1242838,-0.827658004464,-0.133794019852,Lanning Frank,301.3428571,6.282857143,144,0.0,0.0,177.5,219991.8897,0,0,True
1341093,0.495260875456,0.548770842969,Luthman Joey,485.1460674,8.307865169,19,0.0,0.0,172.5,621448.1146,0,0,True
619231,-0.743073586219,-0.350562242277,East Noah,23.0,5.9,34,0.0,0.0,175.0,5503.173497,0,0,True
1426291,0.65994748622,0.287190266713,Maurice Bryan,335.7333333,8.766666667,28,0.0,0.0,180.0,7984.988524,0,0,True
1122787,-0.531280913843,0.707107623926,Kasem Casey,842.9394464,7.351211073,84,0.0,0.0,165.0,539379.3175,0,0,True
423685,0.627597085079,0.315817180088,Coffey Joe,93.88888889,7.496296296,34,0.0,0.0,177.5,104237.3129,0,0,True
64610,-0.268886800767,-0.799615045818,Andreas Vaz,1054.105263,6.115789474,38,0.0,0.0,180.0,437889.1883,0,0,True
2359468,-0.530910006284,0.613261057551,Warren Harry,77.90298507,8.135820896,123,0.0,0.0,165.0,452272.3078,0,0,True
900277,0.280062757325,-0.136053813258,Hankins Andy,27.11111111,7.288888889,59,0.0,0.0,180.0,52853.2813,0,0,True
49411,0.704511415387,-0.0191048682186,Altman Jason,534.5263158,7.8,37,0.0,0.0,182.5,38142.73365,0,0,True
435796,-0.9735407715,-0.142460550644,Comfort Ray,451.64,2.88,67,0.0,0.0,162.5,196850.3937,0,0,True
800847,0.604290719852,-0.414171506341,Gilmer Ryan J.,1570.067797,7.501694915,39,0.0,0.0,187.5,499710.3807,0,0,True
2100413,0.251645930189,0.740692150091,Sorg Dusty,9148.538462,7.280769231,37,0.0,0.0,175.0,226028.6415,0,0,True
1238482,0.472871865014,-0.578915407674,Landis Max,2404.0,7.054285714,31,0.0,0.0,190.0,15318.07351,0,0,True
1178683,0.268936463526,0.761205014281,Knight T.R.,923.8918919,8.048648649,43,0.0,0.0,170.0,712240.2055,0,0,True
2229671,0.718257153867,0.0242952712814,Titizian Hrach,4438.533333,7.853333333,37,0.0,0.0,182.5,132803.9698,0,0,True
474325,0.654845334308,-0.257971758803,Crowder Jordan,76.25,7.525,31,0.0,0.0,185.0,4814.827493,0,0,True
2016494,-0.512689933338,-0.629943312218,Seragon Michael,84.0,5.4,27,0.0,0.0,177.5,10018.38335,0,0,True
1589474,0.690058956055,0.0947376556974,Nauman Russell,490.1666667,7.566666667,34,0.0,0.0,180.0,29567.29359,0,0,True
309506,0.643669479943,0.238621348813,Butcher Kasan,2492.352941,6.894117647,43,0.0,0.0,177.5,205839.686,0,0,True
2264357,0.268692057273,0.521021350526,Turchin Jordan,1439.8,6.84,30,0.0,0.0,175.0,66160.58394,0,0,True
1880872,0.456982624192,0.49879230303,Robichaux Andreas,33.0,7.15,29,0.0,0.0,175.0,146802.9446,0,0,True
692536,-0.2103466193,-0.851632987323,Field Ken,41.0,3.9,43,0.0,0.0,200.0,559344.0758,0,0,True
1626351,-0.311737930432,-0.566398095282,Novak Cory,20.0,5.7,20,0.0,0.0,177.5,10389.36938,0,0,True
2249093,-0.717665529749,-0.549583023162,Treadway Ty,174.5789474,6.394736842,49,0.0,0.0,177.5,474308.3004,0,0,True
1738295,-0.771916958576,0.377217795136,Petrie Joel,151.7692308,5.946153846,33,0.0,0.0,170.0,10694.1015,0,0,True
1058326,-0.696237677829,0.612833892476,Jauch Joseph Martin,66.75,6.575,54,0.0,0.0,170.0,95262.09712,0,0,True
2149812,-0.517887918746,0.715249260426,Stryker Jeff,501.7575758,6.872727273,54,0.0,0.0,172.5,19354.83871,0,0,True
563887,-0.0483544196191,0.459168215024,Dickerson Stacy,44.0,6.633333333,34,0.0,0.0,175.0,9930.573099,0,0,True
2044096,0.198877863258,0.686186655765,Shores Del,111.3478261,7.661594203,59,0.0,39024.39024,175.0,206046.6095,0,0,True
1006268,-0.667540017856,-0.647354118158,Hulbert Kris,179.0,3.0,38,0.0,0.0,180.0,5573.540545,0,0,True
85110,-0.188223623647,0.872611271903,Armstrong Billie Joe,5689.970149,7.231343284,44,13440.47619,0.0,167.5,515393.8255,0,0,True
2091118,0.561330202694,0.451320214771,Snyder Dylan Riley,92.93023256,8.202325581,19,0.0,0.0,175.0,290635.3019,0,0,True
914628,0.618602661762,0.399201196764,Harris Walter,2919.666667,7.177777778,42,0.0,0.0,177.5,519821.8654,0,0,True
2359597,0.43749275223,-0.415603283865,Warren Josiah David,6.375,6.675,27,0.0,0.0,180.0,874938.351,0,0,True
1138285,0.686038113696,0.178742026171,Kelly Kevin G.,454.4285714,7.842857143,36,0.0,0.0,180.0,111470.8109,0,0,True
1585757,-0.388988361447,0.795203010051,Narasaki Ken,740.0967742,7.106451613,58,0.0,0.0,170.0,183015.1165,0,0,True
2082299,-0.538597398493,-0.465062603283,Smith Jack,2997.888889,6.848148148,103,0.0,0.0,185.0,737425.2486,0,0,True
1368736,0.156708757097,-0.76364361861,Makhloghi Macklen,751.2,6.42,36,0.0,0.0,182.5,9736.358041,0,0,True
514110,-0.434288907672,-0.406960690436,Davis Josh Adam,26304.46154,6.3,42,0.0,0.0,182.5,215343.0261,0,0,True
1997542,-0.401081605296,0.545368705925,Schwartz Brandon,16.0,6.4,31,0.0,0.0,172.5,307.2196621,0,0,True
2377064,-0.118736307619,0.831225318999,Wellman Guy,40.5,7.0,45,0.0,0.0,172.5,17173.0329,0,0,True
1453961,-0.408664045226,0.49836330161,McKiddy Michael,3406.222222,6.583333333,36,0.0,0.0,175.0,261353.8963,0,0,True
556543,0.184651799036,-0.188083795812,Devorzon Michael,164.5,6.81,45,0.0,0.0,177.5,14207.1412,0,0,True
1871603,-0.837972685445,-0.176971274526,Ritter Tex,36.69230769,6.287179487,111,0.0,40479.61631,177.5,472862.4535,0,0,True
449083,0.702976632741,0.0448043441234,Corbin Christopher,105.3571429,8.010714286,34,0.0,0.0,182.5,19703.67129,0,0,True
248647,0.547227087156,-0.502513088011,Bowen Andrew,1368.045872,7.224770642,44,0.0,0.0,185.0,794870.6988,0,0,True
1853581,0.319989908291,-0.706966060433,Reynolds Grant,161.6363636,6.781818182,44,0.0,0.0,185.0,60279.5619,0,0,True
96555,0.396373670274,0.52072694042,Astolfi Michael T.,16.0,7.0,31,0.0,0.0,175.0,2936.058893,0,0,True
546653,-0.737689522007,-0.177668584974,Dempsey Jack,504.3333333,6.827272727,121,0.0,0.0,180.0,28070.17544,0,0,True
1040496,-0.52147512788,0.753126881547,Jackson Aaron,1418.88,6.54,43,0.0,0.0,167.5,303690.932,0,0,True
2100264,0.581024716404,0.0852482670798,Sorensen Michael,149.36,6.916,38,0.0,0.0,177.5,159713.1655,0,0,True
2166640,-0.0631838438178,-0.839298407397,Swanberg Joe,3534.306667,5.778,35,9163.625304,0.0,187.5,326178.7223,0,0,True
2458641,-0.194896503576,0.616230481103,Yudenko Staas,90.66666667,6.683333333,39,0.0,0.0,175.0,733.7703766,0,0,True
967469,-0.349038311952,0.719074949256,Hirbour Jeff,10.63636364,6.6,37,0.0,0.0,172.5,12165.45012,0,0,True
954439,0.304488235484,0.11967575344,Hertzler J.G.,999.9646018,7.656637168,66,0.0,0.0,180.0,179365.3749,0,0,True
1442849,0.700318755994,0.182887514625,McDermitt Josh,4009.426829,7.684146341,38,0.0,0.0,180.0,14125.46285,0,0,True
65551,-0.24143805768,0.820007995766,Andrews Ben,953.6486486,6.805405405,41,0.0,0.0,172.5,17214.89166,0,0,True
1351691,-0.0691451900863,-0.840457466938,Macdowall Richard,8.857142857,6.414285714,48,0.0,0.0,182.5,454842.1736,0,0,True
2360474,-0.566435090663,-0.263587290206,Warzel Matthew,26923.32143,5.95,36,0.0,0.0,180.0,26925.20034,0,0,True
755718,0.697219521065,0.156443648089,Galfer Jeff,2365.583333,7.675,37,0.0,0.0,180.0,27178.41059,0,0,True
532349,-0.0925639920568,-0.804511067744,Dean Victor,141.125,6.375,40,0.0,0.0,180.0,845834.9408,0,0,True
869890,0.676714978183,0.323949614538,Gunn Sean,9499.248677,7.911111111,42,0.0,0.0,180.0,895761.1966,0,0,True
402983,0.378897441384,-0.671180248733,Christopher Scott,421.0,7.027659574,49,0.0,0.0,187.5,322922.2696,0,0,True
1052729,-0.411492802318,0.772866244284,Jamora Edana Isobel,229.5,6.25,25,0.0,0.0,158.0,8000.0,0,0,True
251481,-0.311777956723,0.368643281276,Boyd Dwayne,20087.95238,7.095238095,44,0.0,0.0,177.5,962345.0701,0,0,True
2191990,-0.352351042568,0.819731997924,Tataryn Sean,462.25,6.825,44,18416.32653,0.0,167.5,96518.60744,0,0,True
1396059,0.713326388753,-0.0335268544691,Marquand Ross,12912.3125,7.58125,35,0.0,0.0,182.5,192460.5918,0,0,True
506616,-0.407548550608,0.218424161785,Dastmalchian David,68781.97222,7.038888889,32,0.0,0.0,180.0,158817.0412,0,0,True
1904402,0.093228783076,-0.798589773736,Ropp Adam,29.88461538,6.023076923,32,0.0,0.0,187.5,40022.29188,0,0,True
1856206,-0.45550630566,0.763015751582,Riaznan,96.63333333,6.676666667,44,0.0,0.0,171.0,637500.0,0,0,True
2226426,0.10515637978,0.838719524458,Tillis Dexter,4139.25,7.9375,44,0.0,0.0,167.5,703365.1977,0,0,True
735257,0.0883983918453,-0.746798105734,Freeman Zach,12598.8,6.44,33,0.0,0.0,185.0,287936.9167,0,0,True
1762286,-0.294859064409,0.829523419412,Plescia David J.,12.33333333,6.833333333,39,0.0,0.0,165.0,9323.948558,0,0,True
1361804,-0.313836120384,0.715046781783,Magid Michael,10.0,6.6,36,0.0,0.0,172.5,73078.02173,0,0,True
2134611,0.190348064907,-0.140330901658,Steves Rick,8.606557377,7.291803279,61,1636.253041,0.0,180.0,273722.6277,0,0,True
523714,0.551108118346,0.452772075546,de la Celle Julian,245.3333333,7.925,20,0.0,0.0,175.0,25068.93755,0,0,True
299997,-0.663890874881,0.625729592248,Burdon Eric,1630.369565,6.936956522,75,0.0,0.0,167.5,355180.5064,0,0,True
2262844,-0.513489637069,-0.615821657591,Tully Justin,2535.6,6.02,34,0.0,0.0,177.5,85026.583,0,0,True
2113785,-0.679177061807,-0.554141501132,Squire Devin G.,5.0,3.6,17,0.0,0.0,175.0,10.12585595,0,0,True
2399587,-0.511130935114,0.773676784793,Wilkof Lee,4389.79646,7.057522124,65,0.0,0.0,165.0,530251.9862,0,0,True
1895086,-0.441116962025,0.132947602696,Rogers Kenny,99.78070175,6.914912281,78,50302977.82,0.0,175.0,965618.5205,0,0,True
235197,-0.351600935499,0.175005170697,Bonsall Brian,289.4,6.888,35,49518978.14,0.0,172.5,15000.0,0,0,True
1085909,-0.531278581653,-0.294636674681,Jones Duane,4253.043478,6.526086957,79,12543881.81,0.0,185.0,64970.51486,0,0,True
1083593,-0.33070464222,0.236593054782,Jonas Kevin,2149.967033,6.767032967,29,21435589.76,0.0,172.5,35962.37337,0,0,True
