id_data,x_data,y_data,z_data,votes,rating,gross,salary,age,heightcm,budget,academy,golden,sample
975577,0.403656974218,0.416683081999,Hogan Hulk,820.5537849,6.732868526,10685419.23,1001177.001,63,196.0,3759827.253,0,0,False
157148,0.620054583225,0.293645073152,Bautista Dave,6053.952607,7.01042654,0.0,1009723.716,47,190.0,36218501.09,0,0,False
2417769,0.0679572145025,0.834794058524,Winters Jonathan,1573.431472,6.989847716,5468513.079,1019607.843,91,175.0,16904228.87,0,0,False
1083329,-0.342941406281,0.777184763791,Jolson Al,9598.3375,6.9475,58695848.85,1034482.759,130,170.0,9997112.25,0,0,False
1743987,0.666127015138,-0.395010120018,Phillippe Ryan,14261.34951,6.811650485,18440989.04,1048947.656,42,172.5,23438762.73,0,0,False
955728,-0.366353329583,0.448193282536,Heston Charlton,5489.461538,6.725558313,123927656.3,1049170.486,93,185.0,35791086.7,1,0,False
1329011,0.0778513964918,0.505616370539,Lovitz Jon,3769.643629,6.643412527,32047842.45,1094890.511,59,176.0,27923449.84,0,0,False
1495318,-0.115153239455,0.729470271964,Milland Ray,1576.040404,6.673737374,23758015.63,1115241.636,111,185.5,10556522.39,1,1,False
830504,0.772663903082,-0.189779914776,Gosling Ryan,23234.89437,7.190140845,17804859.44,1157742.402,36,180.0,20575772.96,0,0,False
327327,-0.436122831282,-0.013534875348,Cameron Kirk,527.3660377,6.212075472,10868177.12,1179009.541,46,175.0,2162007.829,0,0,False
1237145,-0.42361608792,0.584039687643,Lancaster Burt,3054.571429,7.013333333,121572408.8,1184952.665,103,182.5,17575789.55,1,1,False
1635305,0.352094333096,0.736508985373,O'Connor Carroll,217.2907801,7.701276596,0.0,1185185.185,92,177.5,33088917.35,0,1,False
418445,0.195328276809,0.82015021502,Clift Montgomery,4311.777778,7.404444444,33885561.2,1186403.811,96,175.0,27203070.42,0,0,False
1916334,0.767177995128,0.0740046463309,Routh Brandon,7118.91716,7.699408284,119882939.6,1190476.19,37,185.0,56969001.19,0,0,False
2069247,0.310339077377,-0.164666163556,Skarsg_Îârd Stellan,39741.91358,6.609876543,10715708.24,1190476.19,65,187.5,51999249.24,0,0,False
716583,-0.185691565932,0.788129821472,Ford Glenn,2228.257143,6.726857143,16958873.05,1192052.98,100,177.5,28894584.23,0,1,False
824904,-0.21323046959,-0.240402884126,Gooding Jr. Cuba,14185.85354,6.517676768,31373919.34,1206591.467,48,175.0,32563637.33,1,0,False
501071,0.608689498301,0.30335188396,Daniels Jeff,17176.70115,7.066666667,32306015.09,1214574.899,61,189.0,32823168.86,0,0,False
1918525,-0.329461406929,-0.580139360113,Roy Deep,72659.78082,6.750684932,0.0,1228878.648,59,130.0,28888099.67,0,0,False
1654128,-0.288682469523,0.706754273893,Olivier Laurence,3626.840909,7.405909091,61301533.29,1230739.045,109,175.0,41216930.89,1,2,False
33670,0.332797471016,0.632416875445,Alda Alan,2013.127214,7.630595813,22839573.69,1263157.895,80,185.0,34131062.62,0,6,False
226960,-0.259150081468,0.830231856586,Bogart Humphrey,5748.855814,7.080465116,24071585.66,1279914.212,117,170.0,10392101.85,1,0,False
353961,-0.446167377216,0.678230514533,Carvey Dana,1660.611765,6.728,28952419.69,1285386.381,61,170.0,38134881.16,0,0,False
645149,-9.23644342229e-06,0.657263064053,Englund Robert,2324.235955,6.685955056,37818319.01,1304347.826,69,177.0,7541722.925,0,0,False
1243513,-0.265011426248,0.7864469558,Lanza Mario,535.6428571,6.621428571,0.0,1323529.412,95,172.0,15578093.31,0,0,False
1310721,0.680193379506,0.331968906676,LL Cool Jnan,1881.470998,7.160788863,14035650.97,1334074.486,48,182.5,27696953.39,0,0,False
901070,0.736335934765,0.342604260137,Hannah John,5878.909574,7.392021277,11715.67944,1355166.573,54,175.0,45915843.64,0,0,False
1252407,-0.357879764825,0.764218464665,Laurel Stan,690.5608856,6.634317343,14621965.32,1391377.409,126,170.0,10537084.45,0,0,False
475215,0.419128734834,-0.618741834682,Crudup Billy,45163.60938,6.8140625,6644256.867,1393728.223,48,170.0,55793117.78,0,0,False
1838491,0.399009949539,0.656240079252,Reed Oliver,7422.573964,7.224260355,86987580.07,1393728.223,78,177.5,39160247.91,0,0,False
1504053,-0.179296659555,0.83009745461,Mineo Sal,2420.227848,7.012658228,0.0,1394788.199,77,165.0,7907650.132,0,1,False
1716306,-0.208415858907,0.59189684215,Peck Gregory,5092.772321,6.992410714,75920183.45,1427586.26,100,187.5,28230308.06,1,3,False
335240,-0.144758490996,0.842609300769,Cantor Eddie,196.2258065,7.04516129,0.0,1437125.749,124,170.0,4095502.908,0,0,False
1046387,-0.00866552076149,0.858207983894,Jaeckel Richard,994.2192308,7.081923077,0.0,1437125.749,90,167.5,17001309.89,0,0,False
1668053,0.365033812214,-0.780672209959,Osment Haley Joel,16555.64516,6.890967742,64601647.54,1440049.268,28,165.0,33117161.35,0,0,False
1422875,-0.267044596019,0.602554138268,Matthau Walter,3365.631868,6.827472527,65635345.46,1452188.152,96,185.0,37475437.35,1,1,False
2027682,-0.499006920154,0.551894663338,Sharif Omar,4187.802326,6.619767442,47390998.57,1474548.44,84,177.5,54814480.47,0,3,False
365478,0.652412442298,-0.463486378338,Cavill Henry,38519.43056,7.515277778,147729442.1,1481840.052,33,182.5,127614012.3,0,0,False
319640,-0.445775659582,0.749398287975,Cagney James,1482.208589,7.093251534,47728975.82,1492750.602,117,165.0,10384996.5,1,0,False
693304,-0.221083377989,0.828317413343,Fields W.C.,552.0933333,7.04,0.0,1504962.497,136,167.5,7231975.554,0,0,False
627145,0.478597393613,-0.696402077308,Efron Zac,7674.787356,6.770114943,43375083.99,1526195.573,29,170.0,19456138.86,0,0,False
125290,0.497892882851,0.342757498369,Baldwin William,4362.872483,6.755704698,5651251.379,1526487.459,53,185.0,22154967.32,0,0,False
1261790,0.688442713456,0.379926429128,Leary Denis,6636.32287,7.574215247,5456235.053,1529636.711,59,185.0,56875825.09,0,0,False
146492,-0.119892982693,0.828300735931,Barrymore John,2197.764706,6.971568627,0.0,1573035.884,134,175.0,13108759.53,0,0,False
1020663,0.67511494632,0.438890721021,Ice-Tnan,1014.627713,7.44457429,12453462.35,1574803.15,58,177.5,7081887.962,0,0,False
1862553,-0.491748377199,-0.490793326273,Richter Jason James,6888.875,6.0625,60559156.92,1574803.15,36,172.5,15161170.16,0,0,False
1012233,0.486945200137,0.408440988658,Hurt William,17431.08065,7.080107527,33356025.79,1588141.874,66,185.0,38509963.75,1,0,False
1839689,0.479642301537,0.435369206269,Reeve Christopher,4308.555,6.944,38003881.65,1595398.211,64,190.0,59434116.29,0,0,False
484871,-0.373287120833,0.761092582518,Curtis Tony,2882.154341,6.684565916,26159014.38,1597550.678,91,172.5,11693280.22,0,0,False
2105187,0.746173240924,0.328753061147,Spader James,4495.348837,7.784593023,11906214.38,1619433.198,56,175.0,39386944.48,0,0,False
706203,0.563044538798,0.561460371021,Fleming Eric,52.18894009,8.031797235,0.0,1649484.536,91,190.0,0.0,0,0,False
1013605,-0.0672195042854,0.755458157074,Huston John,6365.755435,6.729347826,0.0,1653209.412,110,182.5,23067101.38,0,1,False
2426940,0.695439254697,-0.451953595996,Wood Elijah,22702.26462,7.233230769,12140685.5,1660899.654,35,165.0,28144870.51,0,0,False
1372571,0.58302393799,0.169437363095,Malkovich John,23298.58049,6.907804878,4097566.648,1660899.654,63,180.0,50045062.97,0,0,False
721253,0.723524949236,-0.392553336469,Foster Ben,31536.28736,7.273563218,74546.02236,1678032.228,36,172.5,41778922.13,0,0,False
549862,0.101685008197,0.50781162639,Depardieu G_Î©rard,4799.333333,6.555140187,9350511.905,1685889.571,68,180.0,29837407.21,0,0,False
1511550,0.01155376693,0.751512657701,Mitchum Robert,3851.071111,6.759111111,16264499.84,1692549.543,99,182.5,22762043.79,0,0,False
376914,0.0290853426922,0.596632502603,Chandler Jeff,401.0677966,6.493220339,16993986.44,1708185.053,98,190.0,8386353.506,0,0,False
2131670,0.677633068597,0.370835448577,Stern Daniel,4199.394737,7.652255639,12472162.2,1710620.1,59,190.0,25016038.47,0,0,False
1264639,0.502685871175,-0.350531663138,Ledger Heath,22217.03571,6.877142857,42228554.93,1735730.926,37,182.5,29519853.1,1,1,False
2298445,-0.182699529523,-0.0300364725356,Vanilla Icenan,2872.661538,6.261538462,0.0,1762114.537,49,177.5,12549994.4,0,0,False
212095,-0.41230839963,-0.585807410536,Black Jack,14585.84384,6.913213213,80663632.54,1770520.186,47,165.0,48673698.55,0,0,False
589737,-0.447313311619,0.730456968449,Douglas Kirk,4173.879377,6.790661479,36366910.6,1783168.725,100,172.5,15058636.08,0,1,False
1130006,0.0509934126224,0.849919831294,Kaye Danny,3595.97479,7.314285714,33497822.93,1811320.755,105,177.5,12188094.76,0,2,False
2246414,-0.595690077798,0.58324287808,Tracy Spencer,7080.138554,6.951807229,72138692.54,1813903.791,116,172.5,22268028.41,2,1,False
1311734,-0.48398683681,0.690657617557,Lloyd Harold,1717.622093,6.526744186,18147207.45,1817193.016,123,167.5,7482730.317,0,0,False
320580,-0.233383851645,0.184255401935,Caine Michael,34222.2899,6.885016287,26002932.94,1851851.852,83,185.0,52518281.42,2,3,False
1089011,0.290333925557,0.465177098545,Jones Randy,142.4142857,6.62,0.0,1893203.884,64,185.0,5374439.049,0,0,False
731670,0.630696990952,0.319095002148,Fraser Brent David,2265.611111,6.883333333,0.0,1905770.249,49,180.0,457014.2184,0,0,False
446189,-0.352567247215,0.617370888529,Cooper Gary,2083.028571,6.764761905,86997071.93,1920195.908,115,187.5,16627165.13,2,1,False
807514,0.322031664176,0.765196506521,Gleason Jackie,1261.231638,7.714124294,14489183.13,1950275.518,100,172.5,15215139.02,0,0,False
1854100,0.764588421077,-0.239512551766,Reynolds Ryan,26058.81905,7.345714286,71716827.69,2000000.0,40,185.0,63257173.87,0,0,False
666411,-0.09772878582,0.75487385727,Fairbanks Jr. Douglas,357.5350318,6.640127389,0.0,2020143.885,107,180.0,10872339.88,0,0,False
2135639,-0.0414570025419,0.741387705305,Stewart James,4950.860656,6.962295082,40052731.89,2036748.831,108,187.5,10388835.16,1,1,False
2366885,-0.203042622825,0.577889500687,Wayne John,2692.235294,6.535549872,59544825.08,2055923.276,109,190.0,17659981.11,1,1,False
1802474,0.0798953789421,0.235514409792,Quaid Randy,7986.38,6.3245,664068.0761,2058808.942,66,192.5,34967271.55,0,1,False
915659,-0.132375328463,0.737282490901,Harrison Rex,1696.659091,6.835227273,41703359.08,2064395.651,108,185.5,51350028.9,1,1,False
668256,-0.648768855472,0.528173258515,Falk Peter,3594.129151,7.118450185,48073287.02,2074074.074,89,165.0,18885863.57,0,1,False
61787,0.726700469067,0.372598313818,Anderson Louie,1856.874419,8.118604651,2338703.635,2160864.346,63,175.0,1217469.029,0,0,False
2290419,0.766151112924,0.118661504,Van Der Beek James,2117.918919,7.178716216,21498378.41,2176807.482,39,180.0,17928079.78,0,0,False
1895723,-0.238759476753,0.763300044257,Rogers Will,90.73417722,6.593670886,0.0,2196265.364,137,177.5,2709856.002,0,0,False
44674,-0.829653167956,0.129286037793,Allen Woody,13176.28094,6.631103679,58275275.9,2218785.481,81,162.5,23706437.92,0,0,False
2061597,-0.668061417162,0.539063907061,Sinatra Frank,2487.871585,6.855191257,71587355.88,2257414.104,101,167.5,16365993.55,1,2,False
212631,0.277931357527,-0.610986794989,Black Shane,48271.80556,6.633333333,0.0,2326650.288,55,175.0,32575677.9,0,0,False
332939,0.655399147909,0.40889178895,Candy John,7263.047393,7.354976303,31005844.82,2345514.224,66,185.0,37130410.3,0,0,False
711287,0.151809535041,0.726458775549,Flynn Errol,2452.214815,6.959259259,26315887.33,2356788.526,107,188.0,19613784.92,0,0,False
1746324,0.515132608587,-0.599988485032,Phoenix Joaquin,29856.6422,7.026605505,32070198.45,2423153.068,42,173.0,43372163.05,0,1,False
1305181,0.160825149186,-0.0915058877866,Liotta Ray,18227.92021,6.586170213,9259822.637,2429149.798,62,180.0,23055584.95,0,0,False
666437,-0.262397772884,0.810607283601,Fairbanks Douglas,410.1788079,6.990728477,0.0,2436390.377,133,167.5,6380081.622,0,0,False
113260,0.625178007535,0.0207767114391,Bacon Kevin,13031.41844,6.854255319,18640328.9,2467997.422,58,175.0,27017921.81,0,1,False
1722671,-0.69615016981,-0.186872985255,Penn Sean,18770.47727,6.589545455,25221918.87,2479469.85,56,170.0,26082625.66,1,1,False
698020,-0.339639943157,0.24682366828,Finney Albert,25410.0614,7.228070175,24294464.44,2487046.632,80,172.5,52533237.27,0,3,False
1789273,0.726186493364,-0.0268051422641,Prinze Jr. Freddie,2184.145923,7.069527897,67790613.88,2517208.726,40,180.0,30355742.73,0,0,False
290602,-0.57869507897,0.637531775838,Brynner Yul,2409.226804,6.748453608,52794565.72,2531643.072,96,170.0,30589072.01,1,0,False
1780409,-0.089507223055,0.810909200798,Power Tyrone,1395.128713,6.873267327,25714285.71,2562277.58,102,177.5,28410147.74,0,0,False
1277139,-0.709739519411,0.261246723501,Lemmon Jack,4156.442308,6.856923077,71141355.77,2567538.381,91,172.5,25602308.96,2,4,False
894327,-0.582191705492,-0.0974846161614,Hamill Mark,4596.849632,7.326077813,279397838.9,2574257.426,65,172.5,17419162.54,0,0,False
2031108,0.0659203619361,0.814961918707,Shaw Robert,9919.5,7.005813953,44533128.66,2600390.151,89,178.0,17884091.43,0,0,False
1915655,-0.295643196027,-0.263942070826,Rourke Mickey,22245.80142,6.25248227,15202983.47,2643034.429,64,177.5,32437936.16,0,1,False
1578567,0.52851799733,0.53146081978,Nader Michael,137.3712871,7.181188119,0.0,2696907.216,71,185.0,19182958.89,0,0,False
2462499,0.812961591782,-0.126615016684,Zahn Steve,12952.37838,7.278378378,16687875.15,2703533.026,49,171.0,50146323.33,0,0,False
433411,-0.472653649778,0.714863852429,Colman Ronald,919.3098592,6.915492958,81813849.6,2708333.333,125,175.0,18479716.59,1,1,False
1900016,0.271997524392,0.0659969959736,Romano Ray,2450.722393,7.559509202,233924684.4,2753346.08,59,187.0,21849725.31,0,0,False
928144,-0.385256801254,0.751977532889,Hayakawa Sessue,3733.957447,6.785106383,0.0,2774566.474,127,167.5,8356043.812,0,0,False
2068438,-0.210281569928,-0.304365683535,Sizemore Tom,15045.80093,6.219907407,23233.99422,2787456.446,55,177.5,23674128.43,0,0,False
750821,-0.357742873822,0.680327768079,Gable Clark,2670.864253,6.67239819,57079567.67,2855076.208,115,182.5,16775795.11,1,0,False
1636357,0.804809991627,0.0731697607481,O'Donnell Chris,5126.34767,7.533333333,38597256.91,2873529.196,46,175.0,56929374.98,0,0,False
2465072,-0.261960867042,-0.342496420781,Zane Billy,13248.14146,6.024390244,17647873.76,2881152.461,50,180.0,17499372.41,0,0,False
1338732,-0.0835534897219,-0.0723811740948,Lundgren Dolph,11644.63514,5.931756757,11347268.99,2972656.102,59,192.5,20454178.68,0,0,False
1888292,0.411943896388,0.265048222509,Rodman Dennis,789.3361345,6.679831933,420867.2269,2990654.206,55,197.5,10059366.58,0,0,False
1272908,-0.131968763757,-0.780611720971,Leguizamo John,17520.77686,6.623553719,6310404.848,2990654.206,52,167.5,32444161.17,0,0,False
1411664,-0.22344098985,0.819633263166,Marx Groucho,1275.699248,7.080451128,0.0,2991180.049,126,167.5,2906821.028,0,0,False
1411670,-0.393822480712,0.750220515195,Marx Harpo,2524.457627,6.988135593,0.0,2991180.049,128,162.5,3815991.592,0,0,False
977365,-0.204001642089,0.799599809304,Holden William,5686.607692,6.884615385,23061260.1,3029157.34,98,177.5,26330936.67,1,0,False
919867,-0.48097150462,0.430907724971,Harvey Laurence,3236.114943,6.622988506,80792582.78,3047619.048,88,180.0,32470272.19,0,0,False
1085158,-0.584525854097,0.47939033365,Jones Christopher,1035.636364,6.527272727,0.0,3092783.505,75,170.0,11288201.99,0,0,False
203062,0.715397166521,-0.365557791638,Biggs Jason,9620.908571,7.295428571,80063555.73,3125842.265,38,172.5,30201155.24,0,0,False
658845,0.210294122188,-0.801955664196,Evans Chris,76134.55462,6.744537815,150033464.2,3160423.597,35,180.0,116236357.7,0,0,False
306991,-0.673586833605,0.453313290402,Burton Richard,2410.95092,7.109202454,77859874.96,3212137.87,91,172.5,32227152.41,0,2,False
2289477,-0.237491522122,-0.488230828042,Van Damme Jean-Claude,14695.20779,6.380519481,33086475.31,3269052.26,56,177.0,22978085.72,0,0,False
2082375,-0.202899003831,-0.837614239154,Smith Jaden,18149.02128,6.540425532,128357363.4,3301904.098,18,170.0,58996491.74,0,0,False
1639205,0.306783226878,0.621027101799,O'Neal Ryan,2299.77931,6.937241379,21341400.05,3305785.124,75,182.5,14625216.73,0,0,False
876295,0.427155581655,-0.733535470162,Gyllenhaal Jake,33074.51429,6.902142857,34041832.68,3343317.972,36,177.5,35971854.13,0,0,False
1460928,-0.63978007604,0.210238920089,McQueen Steve,3099.837838,7.410810811,169171509.6,3366302.317,86,172.5,27509951.27,0,0,False
1847950,0.374268720256,-0.733010845064,Renner Jeremy,61342.81967,6.996721311,39425285.33,3454000.474,45,175.0,91549097.85,0,0,False
1565283,-0.594119211226,0.506670726076,Murphy Audie,390.9651163,6.476744186,11300423.56,3582089.552,92,170.0,7773334.733,0,0,False
797401,-0.0286610243179,0.828619849387,Gilbert John,613.15,7.215,55203973.34,3592814.371,117,177.5,2523800.599,0,0,False
258944,-0.694133368072,0.336856389169,Brando Marlon,14383.90052,7.327748691,75059601.63,3668291.533,92,172.5,44422708.47,2,2,False
1439380,0.259822368494,-0.736363966635,McConaughey Matthew,21476.85268,6.823660714,54327063.43,3684531.737,47,180.0,46477224.98,1,1,False
825300,0.478568193341,0.188920636926,Goodman John,10302.01377,7.056798623,80318935.44,3697909.027,64,185.0,52071151.55,0,1,False
1519809,0.773637754632,0.176628424909,Molina Alfred,14410.36545,7.628571429,35619344.97,3811540.498,63,185.0,56015317.49,0,0,False
380438,0.250787535006,-0.531345800727,Chappelle Dave,5247.912791,6.695348837,21601647.68,3913043.478,43,177.5,37217218.5,0,0,False
1784841,0.47084400629,0.582049425062,Presley Elvis,5713.861423,7.139325843,15570166.38,3940378.689,81,182.0,11121040.19,0,0,False
1608200,0.388370446551,0.615668369986,Nichols Mike,11445.0614,7.057894737,0.0,3979133.692,85,177.5,2901609.874,0,0,False
641880,-0.55083255136,-0.530439792932,Eminemnan,3987.643836,6.580136986,155718610.3,4002223.457,44,173.0,7973394.007,0,0,False
881636,-0.523079358155,0.225626238614,Hackman Gene,14705.06417,6.729411765,44741786.37,4006026.177,86,185.0,53161099.31,2,3,False
1651428,0.370088651438,-0.704907068927,Oldman Gary,63445.66013,7.073856209,23605403.39,4048887.916,58,170.0,64811864.28,0,0,False
2002242,-0.615237849915,0.386607468924,Scott George C.,5839.913043,7.032608696,114864772.6,4051932.432,89,180.0,24989106.08,0,2,False
838483,-0.143333960483,0.68823488841,Grange Harold 'Red',2978.090909,6.663636364,0.0,4067796.61,113,180.0,125748.9356,0,0,False
1753921,0.482366696208,-0.705570132329,Pine Chris,23289.26042,7.084375,97104058.82,4095274.323,36,180.0,75121943.08,0,0,False
274755,-0.465573418063,0.663654245962,Bronson Charles,3771.844221,6.952763819,33131056.66,4126281.793,95,170.0,15195007.5,0,0,False
2270562,0.732486456457,-0.170378729674,Tyson Mike,7556.502646,7.078306878,0.0,4417177.914,50,175.0,11026202.83,0,0,False
268429,-0.422707575204,-0.0751468880045,Bridges Jeff,17360.62896,6.763348416,41104026.22,4452685.527,67,182.5,42951071.91,1,2,False
656039,-0.458627338067,-0.773873536814,Estevez Emilio,15415.03704,6.611111111,45845597.49,4588910.134,54,165.0,24645170.72,0,0,False
2366626,0.378663821098,0.0682593403716,Wayans Damon,1300.166316,6.795789474,29451354.93,4588910.134,56,185.0,23290702.73,0,0,False
1706369,-0.227395685035,-0.70689029643,Patric Jason,10533.66667,6.438095238,23271264.26,4610160.722,50,175.0,36521622.68,0,0,False
1603765,-0.752871067612,0.247702414666,Newman Paul,6571.725869,7.001158301,78668238.81,4616979.761,91,172.5,36527297.09,1,2,False
1225670,-0.102499485376,-0.768660082638,LaBeouf Shia,20173.20856,7.01657754,188576662.8,4667649.787,30,176.0,71995560.41,0,0,False
124873,0.492980811266,0.0859003344286,Baldwin Alec,6789.176218,7.249570201,41607942.51,4783003.075,58,180.0,48714027.32,0,3,False
1446898,0.0770597920327,0.722851554556,McGavin Darren,1414.178138,6.978137652,0.0,4819277.108,94,175.0,10021950.85,0,0,False
1132177,-0.460190376174,-0.76042997697,Keaton Michael,23948.35088,6.779532164,96223970.22,4838771.121,65,172.5,49021617.74,0,1,False
275449,0.462822715256,-0.57120262093,Brooks Albert,29734.96703,7.031868132,19280850.92,4858299.595,69,175.0,49815933.47,0,0,False
839094,-0.304866495761,0.716028158072,Grant Cary,5161.85782,6.957819905,68652246.93,4868070.467,112,182.5,13116254.3,0,0,False
1793069,-0.676844206877,0.0462637804734,Pryor Richard,3488.829545,6.683522727,52593710.91,4872001.186,76,175.0,28440954.98,0,0,False
1733325,-0.688971441532,-0.491612519812,Pesci Joe,30486.27083,6.477083333,26921444.62,5042597.054,73,160.0,46003856.27,1,0,False
1284528,0.711868452823,-0.406655929045,Leto Jared,23397.22527,7.443406593,14206437.2,5070597.867,45,175.0,19118383.6,1,1,False
1894039,0.301296388906,-0.838023570334,Rogen Seth,38784.7751,7.053815261,101859130.6,5126868.928,34,177.5,60626756.29,0,0,False
941451,0.400995269164,-0.721802195365,Hemsworth Chris,65665.37838,7.025675676,76022263.81,5144772.698,33,190.0,103380878.9,0,0,False
147348,-0.259268387309,0.749741872265,Barthelmess Richard,657.0147059,6.957352941,0.0,5172413.793,121,172.5,7306953.41,0,0,False
2003692,0.081678552638,-0.806686311307,Scott Seann William,38518.51163,6.405813953,18790605.82,5226617.42,40,177.5,46953332.32,0,0,False
940419,0.720735908766,-0.242096646903,Helms Ed,6287.946548,7.237861915,33422184.19,5334779.651,42,180.0,46776860.82,0,0,False
755895,0.720026726653,-0.316797907413,Galifianakis Zach,13513.73723,7.454014599,0.0,5334779.651,47,167.5,47112150.95,0,0,False
661279,0.1183589435,-0.230779853748,Everett Rupert,14717.82051,6.446153846,3849395.222,5336297.943,57,190.0,41985882.32,0,0,False
728282,0.119341884309,-0.856601652584,Franco James,19286.77922,6.77987013,40086436.97,5440108.994,38,177.5,46401593.39,0,1,False
1562201,0.331750781629,-0.584471736495,Muniz Frankie,1258.227941,7.176102941,50794186.27,5458892.444,31,162.5,17435474.57,0,0,False
273731,0.142503685937,-0.720249015861,Brody Adrien,27372.4,6.596666667,11548760.46,5820243.611,43,182.5,29256981.88,1,0,False
445816,0.505594394718,-0.702266926587,Cooper Bradley,28511.82308,7.412692308,130982123.2,6008767.718,41,182.5,44500167.92,0,0,False
1677236,-0.753280588496,-0.174077153488,Pacino Al,31986.76166,6.98238342,45834065.75,6046899.693,76,167.5,35720416.58,1,4,False
1411518,-0.694906278695,0.0633201524452,Marvin Lee,1776.722488,6.967942584,180615022.2,6140568.166,92,182.5,26720228.23,1,1,False
479701,-0.427056713148,-0.730177013337,Culkin Macaulay,8608.688679,6.968867925,166668508.4,6276625.773,36,167.5,27311481.2,0,0,False
1180176,0.0748245879946,-0.643112406085,Knoxville Johnny,8270.460526,6.80745614,68568400.19,6352567.496,45,182.5,35071687.47,0,0,False
673438,0.0950961481891,-0.865593521474,Farrell Colin,23636.04969,6.758385093,24056243.88,6507060.384,40,175.0,49070901.72,0,1,False
575039,-0.470966986337,-0.420547644921,DMXnan,2687.3125,5.415625,10675449.34,6521739.13,46,177.5,9458681.524,0,0,False
2396859,-0.617744393552,-0.313705802045,Wild Jack,4614.435897,7.084615385,0.0,6539509.537,64,162.5,24447397.96,0,0,False
974144,-0.810720636437,-0.10653436217,Hoffman Dustin,14315.19149,6.965045593,135573724.0,6587366.397,79,167.0,65462254.21,2,5,False
44479,-0.559352538169,-0.361714412859,Allen Tim,3880.23538,7.282309942,101429563.2,6606193.16,63,175.0,44326894.43,0,1,False
2105026,0.558698139601,-0.440996014377,Spacey Kevin,19335.44862,7.322305764,32421752.33,6625766.871,57,178.0,38140204.44,2,0,False
809229,0.00995313230647,-0.178222649958,Glover Danny,9446.106061,6.566666667,41175129.84,6648701.336,70,190.0,29881257.65,0,0,False
88352,0.405414740285,-0.404850918369,Arquette David,3278.875706,6.954237288,10881464.39,6670372.429,45,178.0,17189517.68,0,0,False
1844264,0.683673178472,0.100057579538,Reiner Rob,10186.86946,7.386480186,191353.4063,6842480.399,69,185.0,17967289.81,0,0,False
162071,-0.684610236184,-0.0740743857472,Beatty Warren,4124.802469,6.669753086,114074263.2,6950208.91,79,185.0,48365986.43,0,2,False
2406454,-0.785884602811,-0.253015519401,Williams Robin,9865.513135,6.871628722,93078532.86,6953453.062,65,167.5,51104904.12,1,4,False
1293140,-0.228681516823,-0.849771225968,Li Jet,24442.76344,6.587096774,36893243.26,7067384.411,53,168.0,60319776.49,0,0,False
672051,-0.433699740984,-0.672930129925,Farley Chris,2168.346457,6.746850394,39183072.38,7099796.395,52,170.0,29557530.0,0,0,False
1621053,-0.412589393769,-0.523352914206,Nolte Nick,17869.69375,6.739375,43637715.83,7233401.766,75,180.0,37571187.09,0,1,False
1532854,-0.278292491334,0.0782014531437,Moore Roger,1679.943231,6.982532751,82134808.18,7351140.347,89,182.5,36597088.48,0,0,False
2110772,0.638562045032,-0.0494172846561,Spiner Brent,5591.958449,7.328531856,0.0,7361963.19,67,178.0,46346007.78,0,0,False
735015,-0.0950913342076,-0.450720323051,Freeman Morgan,24208.51327,7.082654867,56901942.86,7476635.514,79,185.0,47270285.52,1,1,False
125330,0.0781176540994,-0.873104367888,Bale Christian,68960.42657,6.812587413,121073404.0,7480124.381,42,183.0,68258050.06,1,1,False
382864,0.467868746888,0.133313576573,Chase Chevy,3000.406103,7.19741784,54800957.04,7497054.266,73,193.0,32295365.28,0,0,False
2001013,0.0369393849454,-0.475747318427,Scorsese Martin,21932.94821,7.256772908,0.0,7508742.555,74,160.0,30231263.69,0,0,False
1624827,0.18578852589,-0.831945229517,Norton Edward,47062.50993,6.89205298,32553008.65,7557564.083,47,180.0,44775123.24,0,1,False
2413209,-0.133392421232,-0.85511376062,Wilson Owen,47688.232,6.3072,86969718.17,7590780.429,48,175.0,72448265.56,0,0,False
556074,-0.75956317752,-0.348106517581,DeVito Danny,11615.12048,7.252409639,68519227.17,7648183.556,72,145.0,40409368.66,0,1,False
2346668,0.092844664972,-0.761330774777,Walker Paul,30141.04938,6.588888889,60545549.09,7791793.568,43,188.0,46301329.52,0,0,False
1253496,-0.290604633101,-0.817023656004,Lautner Taylor,12922.14407,6.886440678,174132709.1,7938834.255,24,170.0,56926226.11,0,0,False
1043091,0.0252194630078,-0.696289762671,Jackson Samuel L.,37682.62121,6.587662338,27455804.3,7956530.803,68,185.0,56631689.65,0,0,False
465172,-0.0665470270662,-0.89568966393,Craig Daniel,31467.52941,6.864052288,107478081.8,7957362.04,48,175.0,121766139.1,0,0,False
496835,0.668268357552,-0.0817785850014,Dalton Timothy,8493.396739,7.464130435,56806539.24,8037537.839,70,185.0,48078405.06,0,0,False
724948,-0.727085876572,-0.416096257459,Fox Michael J.,4624.430813,7.225820257,104573522.0,8097165.992,55,160.0,61292602.74,0,4,False
926651,0.0270613400471,-0.784511595885,Hawke Ethan,23430.80952,6.648979592,18463466.12,8141129.141,46,180.0,29800835.69,0,0,False
2032803,0.61644931019,-0.528642640081,Sheen Michael,16512.93897,7.542723005,51238507.11,8166423.507,47,175.0,64159820.46,0,0,False
1731749,0.737317023483,-0.109983997044,Perry Matthew,1717.492218,7.813618677,27192080.72,8190132.1,47,180.0,26647402.56,0,0,False
995904,0.572527776205,-0.210209455948,Howard Ron,6481.764763,7.420329138,0.0,8214339.216,62,172.5,20618716.0,0,1,False
340623,-0.413128835974,-0.711854572066,Carell Steve,10043.57666,7.201393728,108689441.2,8267843.811,54,175.0,48663898.02,0,1,False
565794,-0.0084156112914,-0.865504272415,Diesel Vin,52135.34454,6.637815126,122222812.3,8345738.505,49,182.0,67362144.42,0,0,False
725481,-0.450735507385,-0.699105002782,Foxx Jamie,7879.279438,6.927943761,65583154.48,8486849.728,49,172.5,62818368.99,1,1,False
221417,0.227646213122,-0.825698132524,Bloom Orlando,51292.27211,6.904081633,16492707.65,8522048.624,39,177.5,111594821.3,0,0,False
1853342,-0.701878373491,-0.216025825338,Reynolds Burt,2276.961694,6.785483871,61149816.68,8574116.97,80,177.5,26618720.89,0,2,False
911043,0.469235568609,-0.504035856984,Harrelson Woody,15445.01639,7.325526932,9668910.129,8661417.323,55,172.5,38884407.96,0,0,False
1708356,0.302805006659,-0.691908139886,Pattinson Robert,21264.36607,6.939285714,451347.1606,8685636.879,30,182.5,29683321.55,0,0,False
596363,-0.717249352787,-0.442327994426,Dreyfuss Richard,8668.707317,6.834146341,48182871.01,8810572.687,69,162.5,21517860.89,1,1,False
419269,-0.577872849766,-0.558107292309,Clooney George,15037.86581,6.734375,71410442.29,8815443.672,55,177.5,50473341.01,1,3,False
1836580,-0.628380284379,-0.480314454508,Redford Robert,9030.750842,6.872727273,81880661.59,8894160.586,80,175.0,41762634.02,0,1,False
1040268,0.153898423747,-0.851636933436,Jackman Hugh,46906.72889,7.060888889,141214431.3,8927678.041,48,190.0,107145611.3,0,1,False
731668,-0.0782418166685,-0.682545703056,Fraser Brendan,16836.15504,6.480620155,67844077.85,8966124.806,48,187.5,53382734.09,0,0,False
439257,-0.527346190033,-0.439855472944,Connery Sean,14270.52416,6.785873606,103367519.9,9147010.127,86,185.0,44208113.51,1,1,False
2032780,-0.166130141146,-0.678590146408,Sheen Charlie,5817.44717,7.070943396,48236233.01,9184107.092,51,175.0,26643764.92,0,1,False
1255048,0.00619624885796,-0.870802346596,Law Jude,31505.61491,6.81552795,34259248.6,9237738.822,44,175.0,64304654.73,0,0,False
1573233,-0.54484924074,-0.640618941942,Myers Mike,11443.92637,6.503087886,233026594.9,9442259.997,53,170.0,66303617.94,0,0,False
502595,0.444471212621,0.010142766892,Danson Ted,2257.332056,7.513920817,18620533.67,9447473.855,69,185.0,13564322.86,0,3,False
2137515,-0.326377380122,-0.81593727456,Stiller Ben,16325.27565,6.919315895,101863186.0,9456860.915,51,167.5,53952705.94,0,0,False
2090308,-0.340374086053,-0.732093713508,Snipes Wesley,19692.58065,6.137903226,56961090.97,9457455.122,54,175.0,43840912.28,0,0,False
1157128,-0.247441634911,-0.71553966924,Kilmer Val,18087.30636,6.377456647,69010877.6,9563370.177,57,182.0,35421181.58,0,0,False
1594257,0.163547753744,-0.741264861528,Neeson Liam,37478.92419,6.958122744,59608720.75,9604454.351,64,190.0,58790546.65,0,0,False
498354,-0.174038478825,-0.887555140914,Damon Matt,37409.4078,6.736170213,94909053.35,9628841.176,46,175.0,54395111.88,0,1,False
1608541,-0.733207773221,-0.148962271865,Nicholson Jack,18557.10332,6.647601476,64294010.61,9999583.943,79,177.0,38574815.53,3,6,False
