id_data,x_data,y_data,z_data,votes,rating,age,gross,salary,heightcm,budget,academy,golden,sample
1783142,-1.77748423325,-7.73115271056,Pratt Chris,10254.22713,7.766876972,37,499125057.4,12000000.0,185.0,57482662.81,0,0,False
316176,-1.69860524419,-5.47364617015,C.K. Louis,2544.752918,7.962451362,49,365802225.0,0.0,180.0,3718178.457,0,0,False
1955337,1.75097828093,-4.80416490746,Samuel Xavier,27814.23333,6.49,33,330775673.4,0.0,175.0,40853502.9,0,0,False
31603,-4.72114341807,-0.791850300421,Albert Eddie,755.4325581,6.954883721,110,310728476.8,0.0,177.5,26953564.24,0,0,False
926022,-3.29075461546,-3.17015356901,Havens Richie,2188.666667,7.053333333,75,309278350.5,0.0,187.5,2046874.692,0,0,False
262991,-4.77133708456,-1.10688142836,Brazzi Rossano,900.8035714,6.151785714,100,305605536.3,0.0,180.0,32671701.45,0,0,False
2170213,-5.04267313228,-0.125427409197,Sykes Eric,3689.893401,5.639086294,93,290013036.0,0.0,175.0,56434745.29,0,0,False
1565874,-4.64254647403,-0.488196227792,Murphy George,312.3296703,6.469230769,114,288987440.5,0.0,177.5,9543697.959,0,0,False
894327,-2.49052255885,-3.03604421949,Hamill Mark,4596.849632,7.326077813,65,279397838.9,2574257.426,172.5,17419162.54,0,0,False
1839017,-3.69844063007,-1.6608057279,Reems Harry,327.7790698,6.070348837,69,258373205.7,95560.89942,183.0,1361637.89,0,0,False
1286438,-1.01575963721,-3.91426643468,Levi Zachary,3046.625407,7.61237785,36,245678898.5,69464.54414,191.0,46676851.66,0,0,False
591752,3.28678603245,2.05703339277,Downey Jr. Robert,34221.50847,6.687118644,51,242561776.5,17273914.98,170.0,72646630.99,0,2,False
1596708,-2.05220873044,-3.07955794194,Nelson Craig T.,4199.655109,7.755109489,72,239401663.4,0.0,187.5,43644389.71,0,0,False
2391580,-3.27938742947,-0.831001768855,Whitman Stuart,764.7020408,6.605714286,88,237037036.2,0.0,180.0,15988929.47,0,0,False
1900016,-1.67083321185,-3.03754836339,Romano Ray,2450.722393,7.559509202,59,233924684.4,2753346.08,187.0,21849725.31,0,0,False
1573233,-2.44375636683,-2.18224557521,Myers Mike,11443.92637,6.503087886,53,233026594.9,9442259.997,170.0,66303617.94,0,0,False
1363315,3.54217684782,0.57096122103,Maguire Tobey,35589.11852,6.811851852,41,229506092.3,15310192.01,170.0,92123473.09,0,0,False
2432206,2.49353713328,-1.99002998106,Worthington Sam,28517.35065,7.174025974,40,224727127.2,0.0,175.0,105219695.5,0,0,False
1724186,-2.79992924775,-1.10263938218,Peppard George,1014.293194,7.00052356,88,219944880.0,0.0,180.0,18159261.54,0,0,False
2260805,2.20125238586,1.80259313028,Tucci Stanley,21334.15498,6.974907749,56,214810127.8,0.0,170.0,53355403.83,0,2,False
359000,-1.52516890053,-2.41882570277,Castellaneta Dan,2241.879652,7.449836779,59,212020110.0,293548.3871,175.0,52477105.83,0,0,False
1285128,2.74157017048,-2.39022832388,Leung Ken,20660.62238,8.039160839,46,207833648.1,0.0,167.5,53111504.46,0,0,False
1085684,-2.64165719151,-0.729030015269,Jones Dean,1934.254386,6.744736842,85,204584404.8,0.0,180.0,8499010.161,0,0,False
2017445,4.30586290035,-0.336180358098,Serkis Andy,59650.71585,7.244808743,52,199997699.0,0.0,170.0,132432929.2,0,0,False
888296,-3.56507598299,-0.544898303927,Halicki H.B.,2038.142857,5.714285714,76,194726166.3,0.0,180.0,1290028.267,0,0,False
1225670,2.12655647126,-1.32835432772,LaBeouf Shia,20173.20856,7.01657754,30,188576662.8,4667649.787,176.0,71995560.41,0,0,False
128141,-1.39372393705,2.24160272511,Balsam Martin,7115.356828,7.042290749,97,182772934.0,0.0,167.5,36226301.92,1,0,False
472704,-2.34941717182,2.34172031505,Crosby Bing,639.7915058,6.966795367,113,181407800.6,0.0,167.5,19232792.84,1,0,False
1411518,-2.62263231963,-0.0913353178343,Marvin Lee,1776.722488,6.967942584,92,180615022.2,6140568.166,182.5,26720228.23,1,1,False
1253496,2.46133529852,-0.0968875840489,Lautner Taylor,12922.14407,6.886440678,24,174132709.1,7938834.255,170.0,56926226.11,0,0,False
391463,-3.23689909901,1.18249397156,Chevalier Maurice,698.26,6.72,128,172811920.5,0.0,175.0,23813916.05,0,0,False
508989,-0.890732932298,-1.91395907167,David Keith,11514.02712,7.249005425,60,169855308.0,0.0,185.0,24147608.36,0,0,False
809342,-1.49047765691,-2.13783730846,Glover Julian,14418.71101,7.65733945,81,169458874.7,0.0,185.0,60204367.89,0,0,False
1460928,-1.57271828707,1.28537837336,McQueen Steve,3099.837838,7.410810811,86,169171509.6,3366302.317,172.5,27509951.27,0,0,False
70713,2.92074648614,0.267966029178,Ansari Aziz,4711.102041,7.778231293,33,168628890.7,0.0,165.0,42461135.52,0,0,False
716611,2.06545955661,0.825204726944,Ford Harrison,28546.37884,6.739249147,74,168295256.9,21631576.66,182.5,54105500.49,0,0,False
2088005,-1.18213858801,-1.88117335544,Smith Will,14740.36723,6.807532957,48,168142383.1,14693957.66,185.0,77337355.74,0,0,False
26751,0.20230996379,-2.7756009458,Akinnuoye-Agbaje Adewale,20038.28472,7.788194444,49,167814643.4,0.0,185.0,64602752.05,0,0,False
2292105,-2.23315008647,-1.30905617519,Van Dyke Dick,1030.693215,7.566814159,91,167152844.4,0.0,182.5,38125670.53,0,0,False
479701,2.09992737352,0.56023765586,Culkin Macaulay,8608.688679,6.968867925,36,166668508.4,6276625.773,167.5,27311481.2,0,0,False
210447,-2.04074682355,-0.289842012416,Bixby Bill,1198.587537,7.328486647,82,164400000.0,0.0,172.5,14254200.43,0,0,False
1040472,2.67618289714,-0.271061393292,Jackson Jr. O'Shea,18270.85714,6.171428571,25,162927133.5,0.0,177.5,28352396.66,0,0,False
1511310,-2.82060065476,1.27114398816,Mitchell Thomas,8918.0,6.97816092,124,162879570.1,207194.2446,175.0,20547438.27,1,0,False
770250,2.73517897413,-1.17186919563,Garfield Andrew,40757.19355,7.203225806,33,161207811.0,522661.742,175.0,81016756.36,0,0,False
1844205,-2.2125004402,-0.974454537083,Reiner Carl,2679.754455,7.425346535,94,160689733.3,0.0,182.5,13175070.18,0,0,False
1809693,3.08229562719,0.554417183074,Radcliffe Daniel,25670.67333,7.262666667,27,158893704.0,15384281.41,162.5,74989294.43,0,0,False
1281063,2.06219198812,0.318394957473,Leopardi Chauncey,6593.04878,7.129268293,35,157997155.9,0.0,167.5,24075800.22,0,0,False
139974,1.44815281806,-1.83700786836,Barnes Ben,26011.82143,7.117857143,35,157866623.3,0.0,182.5,80162394.2,0,0,False
641880,1.32041120498,0.736288391262,Eminemnan,3987.643836,6.580136986,44,155718610.3,4002223.457,173.0,7973394.007,0,0,False
30710,1.07505366174,1.17598530714,Alazraqui Carlos,3064.446855,7.028850325,54,151995828.5,0.0,167.5,23132512.61,0,0,False
475352,1.98619763625,3.23288411651,Cruise Tom,29250.88089,6.073407202,54,150325470.3,22818323.78,167.5,68280976.74,0,3,False
658845,4.74822864646,-1.65718111476,Evans Chris,76134.55462,6.744537815,35,150033464.2,3160423.597,180.0,116236357.7,0,0,False
179273,-2.20190037353,-0.431216114233,Benjamin Richard,2933.680412,6.405154639,78,150015073.6,0.0,185.0,24164811.58,0,1,False
1258699,-1.7451036362,-0.801786929666,Lazenby George,1039.761538,6.926923077,77,148934014.2,360192.0399,185.0,6915884.181,0,0,False
501333,1.46143154133,1.12033802073,Daniels Phil,1576.142857,7.533082707,58,148841693.4,0.0,167.5,62717770.03,0,0,False
348210,-1.85173742953,-1.28864367113,Carrey Jim,17295.23844,6.564963504,54,148529548.1,18764681.5,185.0,85934242.91,0,2,False
365478,2.10350824131,-2.177624114,Cavill Henry,38519.43056,7.515277778,33,147729442.1,1481840.052,182.5,127614012.3,0,0,False
894803,-1.96652572429,-0.181786995734,Hamilton George,2501.692308,6.46875,77,145074380.2,0.0,182.5,18249745.89,0,1,False
1040268,2.2763921625,-2.48353605654,Jackman Hugh,46906.72889,7.060888889,48,141214431.3,8927678.041,190.0,107145611.3,0,1,False
1565774,0.619714331851,1.48125060402,Murphy Eddie,12095.2975,6.629,55,140156051.7,16985271.61,172.5,84863148.58,0,1,False
973081,0.391188167081,-1.87293396779,Hoechlin Tyler,2575.279221,7.221428571,29,138816472.3,91778.20268,180.0,30120942.48,0,0,False
975730,-0.524466488477,0.927597560883,Hogan Paul,7043.568182,6.909090909,77,135839254.0,0.0,172.5,26911451.0,0,1,False
974144,-0.597608747656,5.63616986598,Hoffman Dustin,14315.19149,6.965045593,79,135573724.0,6587366.397,167.0,65462254.21,2,5,False
460464,0.698070057729,-2.38595069502,Courtney Joel,11131.81481,7.314814815,20,135507862.0,0.0,186.0,20449265.5,0,0,False
1319219,0.909774593404,-2.18987658439,Long Matt,3234.013333,7.828,36,134069575.7,0.0,175.0,49368455.31,0,0,False
1594027,3.67895898237,1.36308804645,Neeley Ted,56934.55556,6.683333333,73,132311432.4,0.0,165.0,4946296.296,0,0,False
1067153,-0.43918749792,-1.87754733495,Jeter Derek,6334.20339,7.079661017,42,131217644.6,0.0,187.5,27651623.2,0,0,False
445816,1.46992569065,-1.57234986366,Cooper Bradley,28511.82308,7.412692308,41,130982123.2,6008767.718,182.5,44500167.92,0,0,False
1698586,-0.694198586872,-0.787999619766,Parks Michael,26799.15432,6.932716049,76,129982688.9,0.0,180.0,15613557.75,0,0,False
1522120,1.29020519892,2.8484679761,Monahan Dan,4975.8125,5.73125,61,129507637.8,0.0,165.0,24846389.62,0,0,False
563215,2.9695478802,3.24132692645,DiCaprio Leonardo,41242.78261,6.785507246,42,128505945.8,18773564.51,180.0,61657739.62,1,3,False
2082375,2.41801447724,0.181073103888,Smith Jaden,18149.02128,6.540425532,18,128357363.4,3301904.098,170.0,58996491.74,0,0,False
2429998,0.00633425355403,-2.96365889187,Woods Zach,5981.488,7.852,32,128150608.0,0.0,190.0,54700547.03,0,0,False
2069243,-0.454136982679,-2.69670133624,Skarsg_Îârd Alexander,8154.56338,7.431690141,40,126585313.0,306544.73,194.0,44380323.18,0,0,False
2028696,2.96406582695,-1.80834552696,Sharma Suraj,41593.75,7.833333333,23,124987023.0,0.0,172.5,51114895.92,0,0,False
121279,-1.53433119051,-0.597816874897,Baker Joe Don,14594.2967,6.592307692,80,124324324.3,0.0,185.0,39009739.39,0,0,False
955728,-2.01816143169,0.110155797303,Heston Charlton,5489.461538,6.725558313,93,123927656.3,1049170.486,185.0,35791086.7,1,0,False
1424897,-2.75756530587,-0.0211377905905,Mature Victor,829.702381,6.26547619,103,123820951.0,771131.9822,185.0,23466988.44,0,0,False
565794,3.11079073856,-1.10462241391,Diesel Vin,52135.34454,6.637815126,49,122222812.3,8345738.505,182.0,67362144.42,0,0,False
2029880,-0.857444478668,0.992140229375,Shatner William,1797.295529,7.112758997,85,122032752.1,0.0,172.5,15338975.37,0,1,False
1367520,-1.34821267778,-1.08052294255,Majetich Daniel T.,215.0,6.9,66,121963426.4,0.0,187.5,0.0,0,0,False
1237145,-2.41096781532,1.39820089893,Lancaster Burt,3054.571429,7.013333333,103,121572408.8,1184952.665,182.5,17575789.55,1,1,False
125330,4.55929984258,-0.426827120952,Bale Christian,68960.42657,6.812587413,42,121073404.0,7480124.381,183.0,68258050.06,1,1,False
1916334,0.186709046688,-2.26205793604,Routh Brandon,7118.91716,7.699408284,37,119882939.6,1190476.19,185.0,56969001.19,0,0,False
1307634,-1.06629479057,-0.300267958207,Little Cleavon,2642.065574,7.050819672,77,119500000.0,0.0,180.0,6906715.639,0,0,False
1882493,3.34480881156,-1.83035630731,Robinson James,58298.53846,7.1,33,119070779.5,0.0,182.5,56946059.78,0,0,False
1983351,-1.60539825753,1.76833179184,Schell Maximilian,3113.774648,6.668309859,86,118485623.1,0.0,177.5,28532505.56,1,2,False
86480,-0.0597327939101,-1.73167058869,Arnett Will,7779.381395,7.436744186,46,117746813.3,0.0,185.0,69850666.35,0,0,False
1010179,-1.49518512491,0.00434817148579,Hunter Jeffrey,2324.965116,6.940697674,90,116254330.4,0.0,180.0,11553984.79,0,0,False
2002242,-1.45608645399,0.800063901825,Scott George C.,5839.913043,7.032608696,89,114864772.6,4051932.432,180.0,24989106.08,0,2,False
1279433,-1.06614687522,-1.24594471286,Leonnan,4449.910112,6.668539326,54,114363343.4,0.0,187.5,22312456.13,0,0,False
162071,-2.25136042315,1.39743325183,Beatty Warren,4124.802469,6.669753086,79,114074263.2,6950208.91,185.0,48365986.43,0,2,False
192697,-3.07483239986,-0.843626107296,Berryman Michael,11163.29897,5.568041237,68,113544201.1,0.0,185.0,3697861.138,0,0,False
100179,-0.972811234811,-0.536926589471,Auberjonois Rene,1902.660844,7.311499272,76,113180829.8,0.0,180.0,27294476.78,0,0,False
2261105,1.58743163254,-0.717631870028,Tucker Chris,23338.01299,6.367532468,44,111679995.2,10586285.96,182.5,45749063.1,0,0,False
1805193,0.320903902119,1.17595564755,Quinn Colin,2435.935849,6.488301887,57,111392779.4,0.0,170.0,4205196.851,0,0,False
1489845,-0.907240554995,-1.43131298573,Midkiff Dale,1100.314516,7.119354839,57,111230669.0,0.0,188.0,5625969.982,0,0,False
884293,-1.52529260161,-0.311550613554,Haggerty Dan,1985.045455,6.45,74,110788648.9,0.0,182.5,6298452.327,0,0,False
1315740,-1.51332084102,-0.811525423732,Logan Robert,258.5510204,6.865306122,75,109303539.1,0.0,187.5,0.0,0,0,False
794988,1.30775877536,0.559120466775,Gibson Mel,25864.19048,6.458730159,60,109152998.5,18379080.29,177.0,59365173.83,0,0,False
340623,0.239192449979,0.835869002726,Carell Steve,10043.57666,7.201393728,54,108689441.2,8267843.811,175.0,48663898.02,0,1,False
465172,1.72614987606,-0.243200996654,Craig Daniel,31467.52941,6.864052288,48,107478081.8,7957362.04,175.0,121766139.1,0,0,False
637138,-1.45763386333,0.112703676445,Elliott Denholm,10479.34437,6.848344371,94,107287229.1,0.0,181.5,20925293.58,0,0,False
1168758,-1.28520234575,-1.68772242727,Kirzinger Ken,11064.26984,6.647619048,57,107169543.9,0.0,192.5,14369699.37,0,0,False
1146277,-3.94658090257,1.09037048298,Kerrigan J. Warren,38.45454545,5.872727273,137,107087719.3,0.0,182.5,6905263.158,0,0,False
2197632,-1.45971185691,0.490824398034,Taylor Rod,9048.914894,6.324822695,86,106923518.9,0.0,178.0,20085439.84,0,0,False
95349,-0.47107708656,1.50871849856,Asner Edward,1435.045708,7.354069119,87,106491623.3,0.0,167.5,10955974.22,0,0,False
724948,0.958967467301,3.0283115534,Fox Michael J.,4624.430813,7.225820257,55,104573522.0,8097165.992,160.0,61292602.74,0,4,False
860425,0.623519734778,-1.45282220341,Gruffudd Ioan,16720.64848,7.478181818,43,104107197.3,0.0,182.0,61381210.97,0,0,False
1452819,1.47735537316,0.585200917935,McKellen Ian,32612.37374,7.279461279,77,103654776.9,0.0,177.5,90351340.58,0,1,False
713913,-2.29445556341,0.924875748921,Fonda Henry,4463.050562,7.128089888,111,103466298.4,646456.1191,182.5,16806819.17,1,1,False
439257,-1.60451817163,0.180965901098,Connery Sean,14270.52416,6.785873606,86,103367519.9,9147010.127,185.0,44208113.51,1,1,False
1960051,1.04837987037,0.731002935353,Sandler Adam,15572.80169,6.464978903,50,103194472.3,16670085.9,172.5,53316270.0,0,0,False
962670,3.66882193199,0.406047739449,Hill Jonah,53695.92857,6.605844156,33,102748812.7,0.0,167.5,59418589.13,0,0,False
566718,0.662576456424,-1.01009108103,Diggs Taye,2675.469595,7.569256757,45,102742424.3,108707.6601,175.0,20971085.5,0,0,False
477307,0.16698528188,1.10383722024,Crystal Billy,6509.052402,6.942358079,68,102348541.8,0.0,167.5,45556947.05,0,0,False
2137515,1.22729234266,0.598721903073,Stiller Ben,16325.27565,6.919315895,51,101863186.0,9456860.915,167.5,53952705.94,0,0,False
1894039,2.22913588742,-0.978910497459,Rogen Seth,38784.7751,7.053815261,34,101859130.6,5126868.928,177.5,60626756.29,0,0,False
44479,-0.144398179474,0.429917769235,Allen Tim,3880.23538,7.282309942,63,101429563.2,6606193.16,175.0,44326894.43,0,1,False
2136188,-0.280714440674,0.221659328039,Stewart Patrick,9077.790816,7.35170068,76,101036997.9,10131056.01,175.0,70650733.21,0,0,False
1595463,-0.574931600738,-0.490186880685,Neill Sam,8056.701068,7.215302491,69,98711260.6,0.0,182.0,39073470.64,0,0,False
689214,-1.06311480693,-1.40622716465,Ferrell Will,7404.132212,6.574399038,49,98494045.11,21087698.24,187.5,53623859.16,0,0,False
1612837,0.288699390943,-1.37304826507,Nighy Bill,29234.8324,7.183798883,67,97900387.31,0.0,185.0,78099022.85,0,1,False
1536330,1.67339890259,1.76381823545,Moranis Rick,9559.359649,7.585087719,63,97712304.75,0.0,160.0,52911070.8,0,0,False
1753921,1.14601260324,-1.00773782617,Pine Chris,23289.26042,7.084375,36,97104058.82,4095274.323,180.0,75121943.08,0,0,False
1998523,-1.21578768842,-0.515559130276,Schwarzenegger Arnold,17470.84958,6.552367688,69,96876169.31,19240963.21,185.0,53645104.22,0,1,False
1132177,0.66609314798,0.856296072908,Keaton Michael,23948.35088,6.779532164,65,96223970.22,4838771.121,172.5,49021617.74,0,1,False
618345,0.803107712422,-0.925394511593,Ealy Michael,6955.029197,7.58540146,43,95696443.29,0.0,175.0,19619211.05,0,0,False
1704792,0.800844230459,-2.56173121405,Patel Dev,14999.46053,7.818421053,26,95508717.93,0.0,187.0,34896494.74,0,0,False
1267309,0.17077369021,-1.18135084128,Lee Jason,8946.556548,7.380952381,46,94997178.07,0.0,182.5,41976566.84,0,0,False
550145,1.25816983999,1.88437744491,Depp Johnny,24312.12652,7.081751825,53,94994341.53,20877617.82,175.0,74335882.04,0,1,False
498354,2.29377330931,0.853299374528,Damon Matt,37409.4078,6.736170213,46,94909053.35,9628841.176,175.0,54395111.88,0,1,False
619703,-1.55303996559,-1.19303254855,Eastwood Clint,19155.32055,7.19708589,86,94815867.68,10303635.13,190.0,32429283.96,0,0,False
965963,-0.932239015386,0.644960093627,Hingle Pat,8547.235602,6.943979058,92,93428490.28,0.0,175.0,36640126.01,0,0,False
442910,-1.17534007802,1.71013065035,Coogan Jackie,702.2477064,6.891284404,102,93327630.45,13910.61453,167.5,11569288.53,0,0,False
1633639,1.20382322043,-3.31522105707,O'Brien Dylan,6988.7,8.49,25,93270654.26,0.0,178.0,31904597.33,0,0,False
2406454,-0.0566310952648,3.8648569229,Williams Robin,9865.513135,6.871628722,65,93078532.86,6953453.062,167.5,51104904.12,1,4,False
990269,-0.651586815559,-1.0885165734,Horsley Lee,11186.5913,6.983478261,61,91309492.23,0.0,187.5,1178227.381,0,0,False
1051002,0.602833770725,-0.97888277488,James Kevin,4129.785992,7.66770428,51,91030388.53,736196.319,175.0,60035644.56,0,0,False
149102,0.834233961315,-1.44848283697,Baruchel Jay,18825.73057,7.333678756,34,90507180.79,0.0,182.7,53443633.33,0,0,False
335077,-1.39704057984,1.4809375782,Cantinflasnan,438.4090909,6.88030303,105,89521328.56,0.0,170.0,14457831.33,0,0,False
2108001,1.00799475889,-0.586316771534,Speleers Ed,3063.151515,7.068181818,28,89311341.67,0.0,175.0,44484439.29,0,0,False
251887,-2.03825625499,0.656126063033,Boyd Stephen,3740.745763,6.042372881,85,88888888.89,0.0,180.0,62354248.25,0,1,False
882277,0.357218562699,-1.1768517024,Hader Bill,9914.941606,7.184379562,38,88487355.22,0.0,182.5,55557039.49,0,0,False
1542697,0.638255604815,3.06163771014,Morita Pat,2613.906667,6.230666667,84,87917549.58,0.0,157.5,19649270.06,0,0,False
1076538,-1.00184199129,-2.43004820645,Johnson Dwayne,7271.184783,6.799347826,44,87451580.19,13674865.0,196.0,55815904.96,0,0,False
446189,-3.00127822633,1.63282725333,Cooper Gary,2083.028571,6.764761905,115,86997071.93,1920195.908,187.5,16627165.13,2,1,False
1838491,-0.511025920092,-0.0219560393418,Reed Oliver,7422.573964,7.224260355,78,86987580.07,1393728.223,177.5,39160247.91,0,0,False
2408692,1.79736718527,0.317289112701,Willis Bruce,34449.95399,6.681288344,61,86986622.1,19124938.06,180.0,55923029.98,0,1,False
2413209,3.09075893983,0.200895144446,Wilson Owen,47688.232,6.3072,48,86969718.17,7590780.429,175.0,72448265.56,0,0,False
900439,-0.26558698187,4.09299225693,Hanks Tom,18368.42588,7.075471698,60,86323156.26,18301838.8,180.0,64852884.27,2,4,False
2342010,1.32728618938,-0.0484568332694,Wahlberg Mark,14330.5154,7.467556468,45,85868936.47,11494802.64,170.0,54451400.67,0,0,False
421607,-1.50748233504,-0.00382345013319,Coburn James,5985.911348,6.784751773,88,85673298.05,344827.5862,185.0,36683370.51,1,0,False
1146781,-0.57204013023,-0.637080587605,Kerwin Brian,4425.201613,7.179032258,67,85619229.46,0.0,182.5,26952357.74,0,0,False
1758718,2.68620556019,1.22551090546,Pitt Brad,43676.98611,6.311944444,53,85481463.85,13594260.62,177.5,69734306.35,0,1,False
841444,-1.78739745858,-0.348242764155,Graves Peter,1671.171806,7.133920705,90,85409252.67,55555.55556,187.5,12915961.2,0,1,False
2088034,-1.81638997826,-0.236300216897,Smith William,1440.140449,6.405337079,83,85013623.98,0.0,185.0,6448444.36,0,0,False
2416311,0.0773573464476,1.83453122133,Winkler Henry,1942.765318,7.239884393,71,84559909.53,243407.7079,165.0,13851512.48,0,2,False
2199761,2.08654463339,0.190645837929,Tedford Travis,23257.3125,6.84375,28,83829878.54,0.0,167.5,58173366.57,0,0,False
2117865,0.486889576988,1.64394496333,Stallone Sylvester,21819.67961,6.402912621,70,82897946.97,19530638.16,172.5,50645364.23,0,1,False
1765753,-2.14583277983,1.15592032818,Poitier Sidney,2206.820359,6.624550898,89,82691110.04,880670.9292,185.0,22347681.28,1,1,False
1092102,-0.876564904254,-2.27833321096,Jordan Michael,3736.765957,7.289361702,53,82164090.09,0.0,195.0,21065211.46,0,0,False
1532854,-1.39121522331,-0.0935697134269,Moore Roger,1679.943231,6.982532751,89,82134808.18,7351140.347,182.5,36597088.48,0,0,False
230050,-1.7399092903,1.02619851408,Bolger Ray,7823.433735,7.275903614,112,82019927.76,0.0,175.0,20281698.03,0,0,False
1836580,-0.524365906856,0.766006772863,Redford Robert,9030.750842,6.872727273,80,81880661.59,8894160.586,175.0,41762634.02,0,1,False
433411,-2.25659382479,1.89495653098,Colman Ronald,919.3098592,6.915492958,125,81813849.6,2708333.333,175.0,18479716.59,1,1,False
1356434,-2.44774804481,0.0119640390463,MacMurray Fred,905.6782609,6.713043478,108,81649067.22,0.0,187.5,17286698.95,0,0,False
2397289,-0.610035655994,0.584154878011,Wilder Gene,7434.147727,7.010227273,83,80926462.32,71856.28743,175.0,13548820.44,0,0,False
919867,-1.28198735354,0.38229193867,Harvey Laurence,3236.114943,6.622988506,88,80792582.78,3047619.048,180.0,32470272.19,0,0,False
212095,1.31318027778,0.899448754633,Black Jack,14585.84384,6.913213213,47,80663632.54,1770520.186,165.0,48673698.55,0,0,False
1042519,0.184208653497,0.223095433901,Jackson Michael,2395.898089,7.045859873,58,80371505.89,0.0,172.5,11216125.54,0,0,False
825300,-0.677651648001,-0.489371540136,Goodman John,10302.01377,7.056798623,64,80318935.44,3697909.027,185.0,52071151.55,0,1,False
814598,-0.889800351929,-1.23722831339,Goldblum Jeff,12004.56777,6.9,64,80184096.15,0.0,190.0,37250818.85,0,0,False
203062,1.03007646453,-0.368927615569,Biggs Jason,9620.908571,7.295428571,38,80063555.73,3125842.265,172.5,30201155.24,0,0,False
457725,-0.0809319007629,-0.232964297643,Costner Kevin,19980.58009,6.724242424,61,79565659.43,13975166.0,182.5,51335278.53,0,0,False
1567421,-0.830086539713,-0.401755097318,Murray Bill,12923.6211,7.007194245,66,79445631.34,15352956.42,185.0,37864782.62,0,1,False
473121,0.96786983441,-0.0977851210816,Cross David,7279.188797,7.525726141,52,79443848.83,0.0,170.0,49223680.42,0,0,False
561131,-0.947777408968,0.0895319818853,Diamond Neil,1095.576271,6.706779661,75,78984466.02,0.0,180.0,16890065.83,0,0,False
484046,-0.0580883196089,0.321863727454,Curry Tim,2306.351261,7.323193277,70,78826897.93,0.0,172.5,30795280.41,0,0,False
1603765,-1.34644668912,4.02014575162,Newman Paul,6571.725869,7.001158301,91,78668238.81,4616979.761,172.5,36527297.09,1,2,False
914045,-1.06924879955,0.446628014397,Harris Richard,21641.0,6.806837607,86,78335643.41,0.0,182.5,50850500.95,0,1,False
1252040,-1.61359365804,2.0315340666,Laughton Charles,3721.701031,7.118556701,117,78131386.86,39416.05839,170.0,22421029.53,1,0,False
306991,-1.18046068728,2.79162836215,Burton Richard,2410.95092,7.109202454,91,77859874.96,3212137.87,172.5,32227152.41,0,2,False
2012419,-1.49248985643,-1.22828531342,Selleck Tom,802.4527972,7.556468531,71,77098500.76,165095.2049,187.5,37141473.54,0,1,False
2248803,-1.34312816171,-0.190022075098,Travolta John,12322.78141,6.638693467,62,77036521.54,19700699.36,185.0,48039701.62,0,1,False
941451,3.63184928378,-2.56891583215,Hemsworth Chris,65665.37838,7.025675676,33,76022263.81,5144772.698,190.0,103380878.9,0,0,False
1716306,-2.81502690883,2.23654912404,Peck Gregory,5092.772321,6.992410714,100,75920183.45,1427586.26,187.5,28230308.06,1,3,False
1246862,0.799693300809,2.0445756462,Larry the Cable Guynan,4904.16092,5.817241379,53,75837638.49,0.0,175.0,31887839.41,0,0,False
554995,-0.205452612075,0.246587370405,Devane William,11621.47321,7.2125,77,75660792.08,291262.1359,175.0,35112497.61,0,0,False
499836,-1.19335224927,0.911184517529,Dangerfield Rodney,5558.514286,6.574285714,95,75438221.73,101941.7476,175.0,34430794.52,0,0,False
2010712,20.7371634424,6.59092154772,Seinfeld Jerry,1024.130159,7.803174603,62,75113946.45,435483871.0,177.5,21638947.16,0,1,False
276233,0.0814288308522,2.15922751657,Brooks Mel,11303.1963,6.688518519,90,75075406.92,0.0,162.5,18421390.9,0,0,False
258944,-1.03292709623,3.78788498119,Brando Marlon,14383.90052,7.327748691,92,75059601.63,3668291.533,172.5,44422708.47,2,2,False
855213,-0.166958726485,0.269474402694,Grimes Gary,1003.384615,6.8,61,74827027.03,0.0,175.0,5925925.926,0,0,False
584928,0.13445658634,-1.25711637017,Donovan Tate,4672.224913,7.624913495,53,74699379.01,0.0,180.0,41912200.6,0,0,False
1350604,0.471595305253,0.418490115207,Macchio Ralph,4740.360825,6.995876289,55,74514813.14,0.0,170.0,6760495.065,0,0,False
212341,1.40885257472,-0.902842988722,Black Lucas,11495.80769,7.633653846,34,74421922.62,0.0,172.5,39118785.78,0,0,False
331064,0.786163997657,-0.475472811934,Campo Bobby,2212.4,7.086666667,33,74321443.48,0.0,175.0,11437225.4,0,0,False
1848178,-1.12084392519,-0.492868818134,Reno Kelly,2748.25,6.2,50,74285977.68,0.0,180.0,8925619.835,0,0,False
854851,1.30641831743,-0.970808629118,Grillo Frank,22694.48966,7.677241379,51,74168611.23,0.0,175.0,25870380.41,0,0,False
2360944,-0.521801332256,3.44633151339,Washington Denzel,16147.28707,7.035015773,62,73890134.83,20543720.22,182.5,53255579.35,2,2,False
589811,-0.373458908997,1.70406809543,Douglas Michael,9953.971354,6.83203125,72,73836110.58,21282123.61,175.0,41165284.06,1,1,False
1547313,0.544823248692,2.38999685586,Morse Robert,678.0058824,7.714705882,85,73693037.62,0.0,162.5,3680581.673,0,0,False
1677713,0.134828644647,-3.79741714458,Padalecki Jared,2421.148438,8.405729167,34,72711584.11,0.0,193.0,25406058.56,0,0,False
1170428,0.798957079583,-1.53975040808,Kitsch Taylor,14466.48,7.593,35,72290129.53,0.0,181.0,96763567.69,0,0,False
1090175,0.784309597556,0.733316909006,Jones Tommy Lee,30003.10458,6.636601307,70,72264064.99,14735638.29,180.0,68707446.97,0,1,False
2246414,-1.92977958943,3.455544809,Tracy Spencer,7080.138554,6.951807229,116,72138692.54,1813903.791,172.5,22268028.41,2,1,False
54248,-1.71068713804,1.08408971006,Ameche Don,3696.121739,6.669565217,108,71773321.48,0.0,177.5,22968765.24,1,0,False
1854100,1.00548896559,-1.6008379483,Reynolds Ryan,26058.81905,7.345714286,40,71716827.69,2000000.0,185.0,63257173.87,0,0,False
786680,-1.24176300323,-0.135022371912,Gerard Gil,1699.576471,6.464705882,73,71640466.12,0.0,182.5,2882963.766,0,0,False
2061597,-1.07135134972,2.42831604163,Sinatra Frank,2487.871585,6.855191257,101,71587355.88,2257414.104,167.5,16365993.55,1,2,False
419269,-0.0174153636031,3.01849214845,Clooney George,15037.86581,6.734375,55,71410442.29,8815443.672,177.5,50473341.01,1,3,False
413839,0.818323781602,-1.24176063622,Clarke Jason,24218.94624,7.31827957,47,71322082.59,0.0,182.5,68903253.42,0,0,False
689374,-1.62852452445,0.675194944175,Ferrer Jos_Î©,2721.374194,6.824516129,104,71297487.14,397350.9934,178.0,28916665.6,0,0,False
1277139,-1.84599939424,6.24930103911,Lemmon Jack,4156.442308,6.856923077,91,71141355.77,2567538.381,172.5,25602308.96,2,4,False
277032,-0.647799531762,-0.656945626629,Brosnan Pierce,7750.671196,6.930163043,63,71075755.04,14609067.28,185.0,50653600.88,0,0,False
2044233,1.15956969758,-0.517427269166,Short Columbus,8490.287234,7.377659574,34,71034698.7,0.0,172.5,15097711.95,0,0,False
1404550,-0.603217144098,0.0885310913525,Martin Steve,5145.892308,6.994461538,71,71033743.97,14929978.39,180.0,50875695.48,0,0,False
141822,0.16484471919,-1.35816220216,Baron Cohen Sacha,19825.13966,6.936871508,45,70319746.32,0.0,187.5,91404177.91,0,1,False
172482,0.415622133284,0.582651012298,Bell Tobin,25304.75424,6.709322034,74,69969638.72,0.0,175.0,21579815.23,0,0,False
2434128,1.14156425663,-0.765415334384,Wright Jeffrey,25720.82353,7.459558824,51,69953965.02,0.0,177.5,46506862.67,0,1,False
472347,-0.918109761995,2.08320731364,Cronyn Hume,4030.12766,6.971276596,105,69603796.48,0.0,165.0,35314191.41,0,0,False
2342017,6.29724171046,-0.770630337892,Wahlberg Robert,99409.33333,6.877777778,49,69543280.75,0.0,175.0,9064868.666,0,0,False
888100,1.81881507685,1.03389168322,Haley Jackie Earle,23429.5,7.108333333,55,69405644.42,0.0,162.5,63258574.06,0,0,False
1157128,-0.0795607827236,-0.277189294823,Kilmer Val,18087.30636,6.377456647,57,69010877.6,9563370.177,182.0,35421181.58,0,0,False
96332,-1.70471867924,2.05624428654,Astaire Fred,5677.344828,7.244827586,117,68797479.38,0.0,172.5,22263518.85,0,2,False
839094,-2.07172110391,0.874463901429,Grant Cary,5161.85782,6.957819905,112,68652246.93,4868070.467,182.5,13116254.3,0,0,False
1180176,0.0116506101787,-0.738598410504,Knoxville Johnny,8270.460526,6.80745614,45,68568400.19,6352567.496,182.5,35071687.47,0,0,False
556074,1.96469476865,3.83052234421,DeVito Danny,11615.12048,7.252409639,72,68519227.17,7648183.556,145.0,40409368.66,0,1,False
731668,-0.564024503453,-1.44082913441,Fraser Brendan,16836.15504,6.480620155,48,67844077.85,8966124.806,187.5,53382734.09,0,0,False
1789273,0.219973596803,-0.814932761038,Prinze Jr. Freddie,2184.145923,7.069527897,40,67790613.88,2517208.726,180.0,30355742.73,0,0,False
1611275,-1.40735242575,0.074066678552,Nielsen Leslie,3505.545741,6.759621451,90,67690142.98,0.0,182.5,23759931.27,0,0,False
2167767,-0.0734787042944,-0.686078633488,Sweeney D.B.,3030.358491,7.271226415,55,67086954.13,0.0,180.0,28834567.1,0,0,False
2144712,0.452879227978,-2.04768393495,Strait Steven,6701.195122,7.607317073,30,66692706.95,0.0,185.0,31839410.31,0,0,False
1020628,0.955496315786,0.744747710527,Ice Cubenan,12058.09189,6.511891892,47,66400527.4,0.0,170.0,26464592.45,0,0,False
1218976,-1.74954882353,-0.551548604231,Kuter Kay E.,1073.834483,7.086206897,91,66371410.97,0.0,187.5,11004628.2,0,0,False
705658,-0.435500972641,-0.911635472538,Fleet James,2608.067114,7.39261745,64,66053959.46,0.0,182.5,17070295.79,0,0,False
273728,0.715972052148,-1.05174042234,Brody Adam,6927.459227,7.475107296,37,65925270.68,0.0,177.5,21061130.42,0,0,False
1449552,1.35572735279,-0.394411192568,McGregor Ewan,29033.43478,6.946859903,45,65688660.18,0.0,177.0,58090733.0,0,0,False
1422875,-2.26782003401,1.51822499629,Matthau Walter,3365.631868,6.827472527,96,65635345.46,1452188.152,185.0,37475437.35,1,1,False
725481,0.445282980297,1.15962825285,Foxx Jamie,7879.279438,6.927943761,49,65583154.48,8486849.728,172.5,62818368.99,1,1,False
2105149,0.611304799088,1.02967943096,Spade David,2417.851312,6.77244898,52,64940282.85,0.0,167.5,48509918.0,0,0,False
1732078,-3.9774259374,-2.19020692447,Perry Tyler,4559.241975,5.067407407,47,64887682.77,0.0,192.5,19163532.08,0,0,False
2012566,-0.67148338195,1.68315899409,Sellers Peter,8546.158192,6.872316384,91,64867892.56,0.0,170.0,19722920.52,0,1,False
474500,1.44817126322,2.0275740654,Crowe Russell,29768.42408,6.429842932,52,64830506.25,17380321.93,177.5,68846562.25,1,1,False
442795,-0.207060422159,1.76328520141,Conway Tim,415.4067797,7.141162228,83,64693761.49,0.0,165.0,6282477.376,0,1,False
1668053,1.99054698022,0.566849701304,Osment Haley Joel,16555.64516,6.890967742,28,64601647.54,1440049.268,165.0,33117161.35,0,0,False
1608541,-1.44841637708,7.56950378816,Nicholson Jack,18557.10332,6.647601476,79,64294010.61,9999583.943,177.0,38574815.53,3,6,False
2005340,-3.54140984444,-1.56990590336,Seagal Steven,4747.297778,5.413777778,64,63970002.74,0.0,193.0,24776938.47,0,0,False
1092119,0.980039835924,-1.84813287387,Jordan Michael B.,7175.185185,7.787037037,29,63839107.88,0.0,177.5,22963002.7,0,0,False
2079575,0.769901997014,1.70214434751,Smith Charles Martin,4910.865672,6.715671642,63,63683558.81,0.0,162.5,29203292.8,0,0,False
2324008,-0.61725610779,0.738397562574,Vincent Jan-Michael,651.62,6.519333333,72,63648911.82,0.0,175.0,14542171.32,0,0,False
117753,0.903764818453,1.75408254728,Bailey G.W.,1128.680597,7.897014925,72,63559156.8,0.0,167.5,26809114.42,0,0,False
279406,-0.529203432443,-1.92740251231,Brown Chris,1942.011364,6.331818182,27,63555842.54,0.0,182.5,5461316.584,0,0,False
727925,-0.711877044934,0.52082364201,Franciscus James,598.1260504,7.050420168,82,63086338.76,0.0,175.0,17622209.61,0,0,False
365458,0.450900002283,-2.70036211099,Caviezel Jim,11662.14371,8.178443114,48,62487501.96,0.0,185.0,34379491.2,0,0,False
2304430,-0.624484197018,-2.42217917945,Vaughn Vince,22313.56831,6.454098361,46,62302121.84,14949731.76,192.5,51599617.29,0,0,False
1282199,3.12182615771,-0.951950036036,Lerman Logan,46973.36364,7.378181818,24,62289390.69,0.0,172.5,58106688.06,0,0,False
273403,0.707075612724,0.555764400001,Broderick Matthew,14074.39286,6.775,54,62275243.23,0.0,170.0,52593476.67,0,0,False
1669494,1.9239398987,1.87160431588,Oswalt Patton,3882.329851,7.344179104,47,61733545.65,0.0,157.5,13654405.67,0,0,False
2198423,5.1404343111,-1.24141599536,Taylor-Johnson Aaron,81199.21739,6.793478261,26,61662032.77,0.0,177.5,56244489.66,0,0,False
2131758,-1.10404118518,-1.73979017974,Stern Howard,842.5848564,7.203655352,62,61604704.3,0.0,192.5,12333899.77,0,0,False
856758,-0.87433062685,0.194244548641,Grodin Charles,6398.494253,6.76091954,81,61353651.97,0.0,180.0,32845043.97,0,0,False
1654128,-2.02069356804,3.35504571957,Olivier Laurence,3626.840909,7.405909091,109,61301533.29,1230739.045,175.0,41216930.89,1,2,False
1853342,-1.0022005025,1.35543017524,Reynolds Burt,2276.961694,6.785483871,80,61149816.68,8574116.97,177.5,26618720.89,0,2,False
2218568,1.00058342532,0.334695023255,Thompson Kenan,677.627451,6.885294118,38,61132436.63,0.0,170.0,22195292.85,0,0,False
1256364,1.18266268759,0.757220979327,Lawrence Martin,1851.952575,7.377642276,51,60713713.87,18270548.26,167.5,48670788.93,0,0,False
1862553,1.47780820881,1.41696856064,Richter Jason James,6888.875,6.0625,36,60559156.92,1574803.15,172.5,15161170.16,0,0,False
771403,-2.49594302388,2.38364976773,Garner James,2224.64257,7.535341365,88,60558724.66,486815.4158,185.0,35331803.4,0,4,False
241806,0.667790808128,-0.778582967864,Boseman Chadwick,16894.81132,7.058490566,40,60558314.67,0.0,180.0,95787725.25,0,0,False
2456910,3.74991018436,0.286751791842,Youngblood Rudy,48170.4,5.86,34,60547486.9,0.0,177.5,13005727.37,0,0,False
2346668,1.38679325945,-1.69491184194,Walker Paul,30141.04938,6.588888889,43,60545549.09,7791793.568,188.0,46301329.52,0,0,False
1483578,1.67025525941,1.15573391336,Meyer Breckin,2547.775862,7.263793103,42,60510007.39,0.0,162.5,29034127.2,0,0,False
1539498,-0.869635749979,-2.04497565496,Morgado Diogo,402.6060606,6.560606061,35,60489242.7,0.0,190.0,11651662.61,0,0,False
1922295,0.924812662788,-0.417720649352,Rudd Paul,19580.88448,7.232129964,47,60345910.12,0.0,175.0,36447505.21,0,0,False
1843540,0.471677622202,-1.26991005421,Reilly John C.,22056.14286,7.272321429,51,60047217.77,0.0,185.0,58017912.96,0,0,False
1594257,1.40525919657,-2.02191297535,Neeson Liam,37478.92419,6.958122744,64,59608720.75,9604454.351,190.0,58790546.65,0,0,False
2366885,-2.83654068364,0.581314148343,Wayne John,2692.235294,6.535549872,109,59544825.08,2055923.276,190.0,17659981.11,1,1,False
1839989,1.07061425473,-1.16125384588,Reeves Keanu,27066.1005,6.599497487,52,59432409.45,12573334.69,185.5,36456780.95,0,0,False
2366632,-0.110837433697,-0.800747027954,Wayans Shawn,3288.625806,6.877419355,45,59307187.34,0.0,182.5,25830536.62,0,0,False
828654,1.73199683341,-0.321624922404,Gordon Zachary,10771.47541,6.875409836,18,59294942.04,0.0,172.5,15108551.55,0,0,False
1634909,1.66305538703,-0.299970717705,O'Connell Jack,13328.03704,7.233333333,26,59258490.87,0.0,170.0,47489489.52,0,0,False
2385243,0.394037787668,-0.0171513954975,Wheaton Wil,2684.987629,6.788041237,44,58879107.17,0.0,175.0,31127124.36,0,0,False
1083329,-2.05182531958,2.11619827523,Jolson Al,9598.3375,6.9475,130,58695848.85,1034482.759,170.0,9997112.25,0,0,False
347269,-0.36130903215,0.340626758137,Carradine Robert,5937.444915,6.417372881,62,58572139.95,0.0,177.5,9538335.831,0,0,False
2008774,-1.05866322483,0.92964848828,Segal George,2885.332506,7.018858561,82,58566186.63,0.0,179.0,28467955.43,0,2,False
44674,0.37899921189,2.06104656391,Allen Woody,13176.28094,6.631103679,81,58275275.9,2218785.481,162.5,23706437.92,0,0,False
248887,0.940488104192,0.563637402824,Bowen Michael,25511.65972,6.686805556,63,58265798.62,0.0,172.5,10975036.34,0,0,False
898811,0.521860597621,-0.562281877879,Hancock Martin,9818.796296,7.159259259,43,58244790.17,0.0,177.5,82408576.12,0,0,False
1177458,-0.0140188023299,-1.08832413491,Knell David,7326.901961,7.429411765,55,58004014.46,0.0,182.5,940841.0549,0,0,False
9883,0.362152853896,-3.17423353832,Ackles Jensen,1867.948187,8.310362694,38,57663845.77,215053.7634,185.5,7236984.838,0,0,False
2179662,-0.20333220414,0.11400521184,Taimaknan,528.85,6.465,52,57444499.63,0.0,177.5,2685706.493,0,0,False
750821,-2.3304197452,1.16833323469,Gable Clark,2670.864253,6.67239819,115,57079567.67,2855076.208,182.5,16775795.11,1,0,False
516317,-0.748519843709,-0.0819498439872,Davison Bruce,4315.293605,6.896802326,70,57078302.8,0.0,182.5,15244755.16,0,1,False
2090308,1.16154207989,1.14497559172,Snipes Wesley,19692.58065,6.137903226,54,56961090.97,9457455.122,175.0,43840912.28,0,0,False
735015,-0.704684108116,2.27700783574,Freeman Morgan,24208.51327,7.082654867,79,56901942.86,7476635.514,185.0,47270285.52,1,1,False
1302318,-0.46509190164,-1.58517658427,Lindo Delroy,18681.1371,7.159677419,64,56870545.88,0.0,190.0,52811447.99,0,0,False
447991,1.47019564801,-1.4476999938,Copley Sharlto,32971.98214,7.305357143,43,56807406.69,0.0,183.0,57293873.84,0,0,False
496835,-0.550044276003,-1.13848427074,Dalton Timothy,8493.396739,7.464130435,70,56806539.24,8037537.839,185.0,48078405.06,0,0,False
787236,-0.165439601248,1.25051335413,Gere Richard,11210.77059,6.348235294,67,56796240.61,15678051.25,175.0,34425417.56,0,1,False
1256214,1.06742471554,0.00802165227734,Lawrence Joey,310.6848739,7.297689076,40,56718582.79,27515.86748,170.0,4464115.899,0,0,False
934884,-0.602093262273,-1.60580861408,Heder Jon,4953.362963,6.625925926,39,56589885.87,0.0,188.0,44205133.49,0,0,False
950293,0.99448835111,-0.400554860445,Hernandez Jay,13809.23256,7.189534884,38,56282530.95,0.0,174.0,24173270.96,0,0,False
409921,2.84368380544,-1.19415773655,Claflin Sam,47929.58974,7.184615385,30,56154094.0,0.0,177.5,125563977.7,0,0,False
990764,-0.578081714198,-1.33735278886,Horton Peter,752.03125,7.504296875,63,56100232.28,0.0,185.0,1444949.432,0,0,False
1979727,1.3252439346,-0.70004496371,Scardino Hal,21803.33333,6.7,32,56090707.09,0.0,180.0,52629332.55,0,0,False
130045,0.857164097544,1.38725363264,Banderas Antonio,15235.60699,6.277292576,56,56049553.32,11190272.86,170.0,49960406.9,0,0,False
2384839,3.44361719888,0.118010952344,Whannell Leigh,52309.02381,6.602380952,39,55913831.1,0.0,170.0,5023010.617,0,0,False
1349764,-0.976577501263,-0.841450129736,Mac Bernie,7162.046358,6.57384106,59,55607518.94,0.0,187.5,45794175.65,0,0,False
874156,-0.00881704063815,1.38613596246,Guttenberg Steve,4190.346457,6.087401575,58,55478519.54,0.0,175.0,16175781.27,0,0,False
941454,1.74504145495,-2.21617864428,Hemsworth Liam,35228.34286,7.35,26,55368160.89,0.0,187.5,69716056.4,0,0,False
2431694,1.29908796242,0.05688083334,Wormald Kenny,12604.78261,6.5,32,55247551.02,0.0,175.0,8704755.119,0,0,False
797401,-2.24377557963,0.820161538694,Gilbert John,613.15,7.215,117,55203973.34,3592814.371,177.5,2523800.599,0,0,False
1607610,1.48016142393,0.656196324785,Nicholas Thomas Ian,13204.90789,6.475,36,54985937.98,0.0,170.0,14547014.55,0,0,False
2389182,0.243729962168,-0.728545232073,White Michael Jai,16405.39716,6.884397163,49,54816039.74,0.0,182.5,21069142.22,0,0,False
382864,-1.47768720853,-1.49151816338,Chase Chevy,3000.406103,7.19741784,73,54800957.04,7497054.266,193.0,32295365.28,0,0,False
1929147,0.553533805016,-0.0714164519055,Russell Kurt,23963.25,7.034659091,65,54752507.68,12480084.62,177.5,54279301.84,0,0,False
236969,-0.209962647278,-1.48713104743,Boothe Powers,14480.74586,7.59281768,68,54576691.45,0.0,185.0,29084547.88,0,0,False
1439380,0.736445844537,-0.0613065008244,McConaughey Matthew,21476.85268,6.823660714,47,54327063.43,3684531.737,180.0,46477224.98,1,1,False
2120998,0.327629695892,-1.62463666024,Stapleton Sullivan,4496.044118,7.561029412,39,54025584.99,0.0,182.5,43498473.94,0,0,False
1228897,-0.781312458424,-0.13565835017,LaFleur Art,6789.374101,6.702877698,73,53840696.47,0.0,182.0,9972398.805,0,0,False
2154328,-0.0371865307145,-0.883022335021,Sudeikis Jason,2884.551988,6.842201835,41,53835865.83,0.0,182.5,34439092.46,0,0,False
2044728,-1.13251612229,-0.717537296119,Shou Robin,14180.45283,6.160377358,56,53723223.93,0.0,182.88,21501572.57,0,0,False
2362114,3.17344608542,-1.43231320345,Watanabe Ken,57308.46154,7.049230769,57,53670887.19,0.0,184.0,102859304.0,0,0,False
1697807,0.405901067768,-2.58656357555,Parker Trey,2576.37543,8.171968829,47,53405685.31,0.0,180.0,26513029.56,0,0,False
201677,2.47402360377,1.78879870517,Bieber Justin,3608.778523,5.734899329,22,53362951.49,0.0,175.0,29219900.46,0,0,False
1265489,-0.1575647574,-0.59459464154,Lee Brandon,9749.84375,6.6875,51,53326335.51,638731.7911,182.88,22816693.62,0,0,False
1861412,-2.23395478342,0.653143589737,Richardson Ralph,2470.85,7.390833333,114,53046092.98,0.0,180.0,20115417.17,0,0,False
290602,-0.913867993853,1.592125179,Brynner Yul,2409.226804,6.748453608,96,52794565.72,2531643.072,170.0,30589072.01,1,0,False
1793069,-0.522151909604,0.604770057715,Pryor Richard,3488.829545,6.683522727,76,52593710.91,4872001.186,175.0,28440954.98,0,0,False
1008513,0.799254926365,-3.05172590047,Hunnam Charlie,8238.753247,8.357792208,36,52434144.93,0.0,182.5,53122835.58,0,0,False
2323792,1.77984806664,1.39043285494,Vincent Alex,6989.095238,6.642857143,35,52336535.58,0.0,162.5,7340047.3,0,0,False
539554,2.43193561836,-0.90056517872,Del Toro Benicio,42533.06034,6.662068966,49,52274807.43,0.0,185.0,36505377.68,1,0,False
1202407,0.324368203858,-0.597872597422,Krause Brian,474.2875,7.310416667,47,52216273.13,0.0,177.0,3830645.817,0,0,False
1447642,-0.501613879933,-1.51738245816,McGill Everett,8378.833333,7.658333333,71,52127465.29,0.0,185.0,30051112.4,0,0,False
889935,-2.54060385322,-4.23327931383,Hall Kevin Peter,14747.5098,6.564705882,61,51998493.65,0.0,215.0,51969370.27,0,0,False
527289,0.484048393442,3.71628309327,De Niro Robert,32962.68056,6.816944444,73,51796626.24,13434255.15,177.0,42057824.71,2,1,False
1626457,0.265049543814,-1.57516181547,Novak Kayvan,2488.688525,7.478688525,38,51525364.96,0.0,182.5,50689375.51,0,0,False
2032803,1.03878326756,-0.721983159579,Sheen Michael,16512.93897,7.542723005,47,51238507.11,8166423.507,175.0,64159820.46,0,0,False
319490,1.84148753718,1.48202307948,Cage Nicolas,33031.1448,6.446153846,52,51169353.29,10357770.38,180.0,53132192.13,1,1,False
258553,0.135095138647,-0.729131259088,Brand Russell,10937.07407,6.496296296,41,51140309.07,0.0,182.5,44716942.48,0,0,False
828093,0.819138869956,0.112762129596,Gordon Keith,3236.227273,7.527272727,55,51084337.35,0.0,170.0,16889543.15,0,0,False
1562201,1.93983624477,1.21100413857,Muniz Frankie,1258.227941,7.176102941,31,50794186.27,5458892.444,162.5,17435474.57,0,0,False
2192740,3.42350232076,-1.16963173196,Tatum Channing,55628.37755,6.602040816,36,50681632.83,0.0,182.5,53490894.48,0,0,False
480515,1.59191231189,-1.53444313935,Cumberbatch Benedict,29426.94286,7.702285714,40,50306276.98,0.0,180.0,67418883.26,0,0,False
1895086,-0.625099197819,0.51290523756,Rogers Kenny,99.78070175,6.914912281,78,50302977.82,0.0,175.0,965618.5205,0,0,False
693358,2.48149834327,-0.568645176631,Fiennes Ralph,44739.29861,6.977777778,54,50005607.72,0.0,180.5,62504704.09,0,0,False
946527,-1.19112885136,-1.73939306193,Henson Jim,494.1957314,7.878084331,80,49798880.82,0.0,182.5,20419998.94,0,0,False
2009118,0.34366350688,-2.74540035386,Segel Jason,10604.46906,7.899348534,36,49771811.68,0.0,190.0,31873813.58,0,0,False
2413223,1.82205453923,-1.63855923768,Wilson Patrick,38239.03333,7.333333333,43,49639910.74,0.0,184.0,35787483.99,0,0,False
235197,0.931658176594,0.0658606170776,Bonsall Brian,289.4,6.888,35,49518978.14,0.0,172.5,15000.0,0,0,False
996111,-1.69056190616,0.633769210286,Howard Trevor,4570.488372,6.857364341,103,49205233.0,0.0,181.5,56323399.59,0,0,False
14538,0.438372986626,-0.411923384686,Addy Mark,3645.110132,7.415418502,52,49102947.74,0.0,175.0,87515902.92,0,0,False
2069767,-0.794443234862,0.0934849145108,Skerritt Tom,6287.141141,7.163363363,83,48542992.45,0.0,180.0,13567022.8,0,0,False
310229,1.24334814152,-1.55538741636,Butler Gerard,31378.09701,7.252985075,47,48472857.93,0.0,185.0,53554321.76,0,0,False
1703028,0.657078047441,-2.50389234196,Pasquale Steven,771.7602339,8.100584795,40,48390235.6,0.0,177.5,46309696.09,0,0,False
1434207,1.93870846772,0.0123028488079,McAvoy James,23635.1371,7.312096774,37,48296245.51,0.0,167.5,69428061.8,0,0,False
84839,0.819737348337,-2.59104479997,Armitage Richard,18382.83673,8.096598639,45,48258509.73,0.0,185.0,165613824.5,0,0,False
2032780,0.300737414861,0.164481870593,Sheen Charlie,5817.44717,7.070943396,51,48236233.01,9184107.092,175.0,26643764.92,0,1,False
596363,0.391761989309,2.38561066284,Dreyfuss Richard,8668.707317,6.834146341,69,48182871.01,8810572.687,162.5,21517860.89,1,1,False
668256,-0.469705416098,2.59831582724,Falk Peter,3594.129151,7.118450185,89,48073287.02,2074074.074,165.0,18885863.57,0,1,False
1802465,-0.358630254762,-0.364358368956,Quaid Dennis,11260.52315,6.7875,62,47749459.72,88343.55828,183.0,40702719.31,0,0,False
2333617,-1.68471343802,-1.03781836959,von Sydow Max,21494.06091,6.811675127,87,47729568.23,0.0,190.0,61278453.63,0,0,False
319640,-1.42522259383,2.54999757422,Cagney James,1482.208589,7.093251534,117,47728975.82,1492750.602,165.0,10384996.5,1,0,False
991716,0.267312568068,1.78060042796,Hoskins Bob,12363.17722,6.742405063,74,47511193.22,0.0,165.0,50523555.76,0,1,False
726448,0.538984721985,0.869024953866,Frampton Peter,10496.14634,7.134146341,66,47484662.58,0.0,167.5,20706518.53,0,0,False
2027682,-1.07878718776,1.37092960034,Sharif Omar,4187.802326,6.619767442,84,47390998.57,1474548.44,177.5,54814480.47,0,3,False
316227,-0.316592615182,0.53768236467,Caan James,11465.70755,7.012578616,76,47158702.17,149536.604,176.0,32672387.83,0,0,False
695862,0.416339069175,-2.36994415017,Fimmel Travis,3402.633333,7.93,37,46978995.0,0.0,183.0,34124410.26,0,0,False
2113136,0.939452445963,-1.64056277816,Spruell Sam,23633.67105,7.389473684,39,46917634.69,0.0,185.0,106563835.6,0,0,False
455450,-1.27301421651,0.485387738586,Cosby Bill,292.7755102,7.04649512,79,46705357.39,0.0,182.5,18865518.83,0,2,False
1218942,-0.384910781087,-1.30465526076,Kutcher Ashton,3382.594074,6.576148148,38,46699650.97,934782.6087,185.0,32994038.81,0,0,False
1369932,0.360812591837,-1.34164786216,Malambri Rick,11059.8,6.96,34,46650974.06,0.0,185.0,9095964.568,0,0,False
982838,-1.33187052672,1.07913422261,Holt Tim,1889.409091,6.564772727,97,46543352.6,86330.93525,175.0,4551458.649,0,0,False
2065282,0.356581471884,0.46606199912,Sinise Gary,6968.974359,7.51996337,61,46499758.29,0.0,172.5,27887610.08,0,1,False
1081215,-1.94222253242,0.331397746931,Johnson Van,796.5714286,6.635428571,100,46419480.43,0.0,182.5,21599509.37,0,0,False
1602998,-0.624209029227,1.70258380159,Newhart Bob,1631.555315,7.37505423,87,46176285.82,0.0,170.0,45070025.76,0,1,False
416616,-1.05050552499,-2.22577684851,Cleese John,11949.54183,7.667861886,77,46149944.11,0.0,192.5,34400508.44,0,0,False
656039,1.20671029991,1.30654064458,Estevez Emilio,15415.03704,6.611111111,54,45845597.49,4588910.134,165.0,24645170.72,0,0,False
2418753,-0.003410273345,0.435501149077,Wise Ray,3948.32853,7.157060519,69,45839128.7,0.0,172.5,7519230.905,0,0,False
1677236,0.529278083761,5.52390050492,Pacino Al,31986.76166,6.98238342,76,45834065.75,6046899.693,167.5,35720416.58,1,4,False
1898618,-0.335558918924,-1.74178381262,Rollins Jr. Howard E.,144.0067114,7.862416107,66,45640557.46,0.0,180.0,13859480.27,0,0,False
1531257,0.449671036146,3.35287960053,Moore Dudley,1065.164063,6.553125,81,45544879.65,0.0,155.0,20369308.92,0,2,False
1002616,-2.16935363646,-0.84117045074,Hudson Rock,903.826087,6.97826087,91,45417031.22,434004.8795,192.5,24970091.78,0,0,False
107294,-0.477675101652,-0.328487516863,Aykroyd Dan,6251.0625,6.863851351,64,45314697.22,290322.5806,182.5,38344159.5,0,0,False
1318379,0.426751637416,1.03656086782,Lone John,16438.34783,6.439130435,64,45314007.31,0.0,172.0,47394895.27,0,0,False
2376853,-1.68875467641,0.314967972967,Welles Orson,4541.241135,7.113475177,101,45267936.28,659046.7669,182.5,26129591.75,0,0,False
993343,2.62977679047,-2.78675057149,Hoult Nicholas,50998.63291,7.493670886,27,45172544.24,0.0,189.6,92230195.08,0,0,False
664090,0.0650036659023,-1.27022188466,Fabian Patrick,1131.493213,7.580995475,52,45163829.48,0.0,180.0,3350956.986,0,0,False
637063,0.182958896567,-2.11174567854,Elliott Chris,4566.729412,7.991470588,56,44783186.6,0.0,180.0,22132654.26,0,0,False
1748911,-2.62377441857,0.595872576329,Pidgeon Walter,1443.196203,6.767088608,119,44753760.67,0.0,185.0,17819495.67,0,0,False
881636,-1.71305582047,3.57751846796,Hackman Gene,14705.06417,6.729411765,86,44741786.37,4006026.177,185.0,53161099.31,2,3,False
2044035,1.57455188311,2.94754047316,Shore Pauly,1435.253731,5.539552239,48,44691998.89,0.0,167.5,4207249.77,0,0,False
102820,1.82744235546,-0.436879271444,Austin Jake T.,1891.230047,7.331924883,22,44675740.8,0.0,170.0,36419755.46,0,0,False
2031108,-0.838094866131,0.492082902333,Shaw Robert,9919.5,7.005813953,89,44533128.66,2600390.151,178.0,17884091.43,0,0,False
1903722,-0.00464715776793,3.66121620621,Rooney Mickey,1786.195745,6.599361702,96,44395488.22,296204.6766,155.0,12550514.36,0,2,False
839375,0.843847048418,0.428136535494,Grant Hugh,24628.03425,6.656164384,56,44257606.04,12761524.84,177.5,34213678.77,0,1,False
324693,0.456125014794,0.932226706119,Callow Simon,9086.598639,7.09047619,67,44206655.45,0.0,167.5,25578079.49,0,0,False
454146,0.228226345604,0.591375507218,Cort Bud,15180.50575,6.811494253,68,44155709.96,0.0,172.5,32452042.45,0,0,False
2368222,-2.26562763922,1.95373934123,Webb Clifton,2061.2,6.723333333,127,44089887.64,0.0,175.0,10736078.53,0,1,False
633435,0.519254197525,-2.22498623037,Elba Idris,21594.285,7.5685,44,44037902.44,0.0,190.0,55527586.92,0,0,False
1917396,-0.233186151826,-2.06632602323,Rowe Nicholas,6753.284091,7.525,50,44027509.29,0.0,190.0,65416232.96,0,0,False
512208,-0.156967937614,0.819312763334,Davis Brad,3586.111111,6.784444444,67,43825724.39,0.0,172.5,3945572.364,0,1,False
1621053,-0.458498542033,0.871196987347,Nolte Nick,17869.69375,6.739375,75,43637715.83,7233401.766,180.0,37571187.09,0,1,False
1227918,-0.950127690165,1.93497390604,Ladd Alan,6826.520661,6.59338843,103,43590999.99,851677.6942,168.0,13927571.79,0,0,False
627145,1.49806023156,0.273635619972,Efron Zac,7674.787356,6.770114943,29,43375083.99,1526195.573,170.0,19456138.86,0,0,False
129254,1.85973417465,-1.98391511471,Bana Eric,40125.09639,6.878313253,48,43344889.26,0.0,189.0,76597492.37,0,0,False
1352173,0.205666985494,-1.06026419284,MacFarlane Seth,1470.446094,7.315473715,43,43203249.19,72028.81152,180.6,25498322.69,0,0,False
405296,-0.000677002579685,-0.507397036895,Church Thomas Haden,9556.7251,7.132270916,56,43188803.84,0.0,181.0,70929180.33,0,0,False
518501,-0.474455582165,3.80363224256,Day-Lewis Daniel,20369.47436,6.833333333,59,43133777.0,12237093.69,185.0,49878993.46,3,2,False
71739,2.30888959355,4.17336164741,Anthony Emjay,33122.66667,7.25,113,43128582.34,0.0,147.5,15446815.51,0,0,False
2167549,0.0279665743982,0.401868129173,Swayze Patrick,10333.76224,6.796503497,64,42889304.16,0.0,175.0,19713429.21,0,0,False
712979,0.740996792656,0.204322763126,Foley Dave,3039.693694,7.374234234,53,42655492.84,0.0,170.0,42293523.5,0,0,False
1814393,0.500976654885,-1.1531684353,Rainnan,10208.2,7.086666667,34,42627698.16,0.0,182.5,24482978.7,0,0,False
1363294,0.824869336378,-1.7795197307,Maguire Sean,794.2905028,7.818994413,40,42619388.68,0.0,175.0,12811287.36,0,0,False
2330359,-1.42403142297,3.0589337062,Voight Jon,13106.28716,6.856418919,78,42480669.07,111171.6621,185.0,40392688.49,1,3,False
1032202,1.03455572783,-0.81085040934,Isaacs Jason,23470.80531,7.465486726,53,42335915.65,0.0,177.5,57857348.26,0,0,False
1264639,1.44938382526,-0.498476388961,Ledger Heath,22217.03571,6.877142857,37,42228554.93,1735730.926,182.5,29519853.1,1,1,False
1482323,-0.328493959146,-1.36063717759,Method Mannan,5677.6,6.915,45,42220804.07,0.0,187.5,5246853.934,0,0,False
2122449,0.375253508463,1.78391973668,Starr Ringo,961.1547988,7.49876161,76,42154254.79,344827.5862,165.0,3784355.816,0,0,False
83835,-0.298945295258,2.39851444523,Arkin Alan,18520.04487,6.727564103,82,41993107.67,275439.9388,172.5,32981163.54,1,1,False
2454231,-1.34594454011,0.885859416405,Young Alan,653.0963115,7.444057377,97,41933851.19,0.0,175.0,10834939.81,0,0,False
809324,-0.542682498518,-1.28188076612,Glover John,2836.189441,7.732608696,72,41885831.37,0.0,180.0,39527927.99,0,0,False
915659,-2.43775690287,1.12991411151,Harrison Rex,1696.659091,6.835227273,108,41703359.08,2064395.651,185.5,51350028.9,1,1,False
2197574,-1.68965764038,0.844058317979,Taylor Robert,840.4863636,6.864090909,105,41623437.99,870.8922541,177.5,24457639.54,0,0,False
124873,-0.352479488005,1.95422433314,Baldwin Alec,6789.176218,7.249570201,58,41607942.51,4783003.075,180.0,48714027.32,0,3,False
2301325,-0.821674562449,-0.196104224372,Varney Jim,12831.23711,6.394845361,67,41589424.64,0.0,182.5,20632341.28,0,0,False
443290,-5.76443737184,0.981186922373,Cook Dane,4769.246753,4.252597403,44,41547945.86,0.0,180.0,25139520.54,0,0,False
1419527,-0.915882707861,0.097045118175,Mathews Thom,4529.5,6.226190476,58,41527793.43,0.0,180.0,4056926.668,0,0,False
1788897,-2.05972815169,0.0886059448498,Prince William,2225.642276,6.921138211,103,41522491.35,0.0,185.0,21952065.4,0,0,False
1864901,0.26915172218,1.05296713948,Riegert Peter,5432.928058,7.052517986,69,41520204.41,0.0,167.5,13390958.67,0,0,False
2231944,-1.08929835082,1.43426655862,Todd Richard,1089.04878,6.812195122,97,41461132.08,0.0,172.5,13923163.36,0,1,False
557443,-3.23243067278,0.858714044161,Dexter Elliott,246.0526316,7.031578947,137,41426835.47,0.0,183.0,1324446.235,0,0,False
1990580,0.928074254844,1.4653696346,Schneider Rob,7891.770235,6.353785901,53,41252795.17,0.0,167.5,35963849.3,0,0,False
872769,-0.491993842315,-0.611118323529,Guthrie Arlo,601.775,7.415,69,41198910.08,0.0,180.0,786750.3931,0,0,False
809229,-1.44738284979,-0.991725819013,Glover Danny,9446.106061,6.566666667,70,41175129.84,6648701.336,190.0,29881257.65,0,0,False
268429,-0.536723196127,2.56535566537,Bridges Jeff,17360.62896,6.763348416,67,41104026.22,4452685.527,182.5,42951071.91,1,2,False
2367425,-0.400541908997,-0.420867055735,Weathers Carl,10604.30519,6.988311688,68,41096196.11,0.0,182.5,25115277.81,0,0,False
2061634,-1.40946113134,-1.55661105451,Sinbadnan,1249.038462,6.763186813,60,40965397.74,0.0,192.5,18449435.5,0,0,False
1483359,0.111464054539,-0.513772192742,Mewes Jason,6382.567839,6.56281407,42,40735475.1,0.0,181.0,3550501.068,0,0,False
1259877,-0.519545960171,1.20917172038,Le Mat Paul,11039.66667,6.332098765,71,40661950.02,0.0,177.5,7204148.108,0,2,False
1589360,-0.0811164141052,0.10965335226,Naughton David,976.1196581,7.171794872,65,40516264.1,0.0,175.0,4307184.519,0,0,False
1332853,0.55299976194,-0.305164034198,Lucas Josh,13488.16463,6.873170732,45,40497362.36,0.0,177.5,40601174.78,0,0,False
2245549,0.316075302612,-0.321477464493,Townsend Stuart,4014.45283,6.906603774,44,40471550.86,0.0,177.5,35787847.26,0,0,False
1786491,2.05520695367,-0.159905669963,Price Connor,7146.447368,7.343421053,22,40434481.04,0.0,167.5,30929667.22,0,0,False
1077419,0.933822855651,-0.824882032031,Johnson Jake,11134.59788,7.434920635,38,40423817.16,0.0,176.0,28400150.58,0,0,False
1728700,-1.35399507631,0.0985943336602,Perkins Anthony,5103.436508,6.788095238,84,40142827.97,324324.3243,185.0,26230917.07,0,1,False
728282,1.11901751794,-0.0150854737527,Franco James,19286.77922,6.77987013,38,40086436.97,5440108.994,177.5,46401593.39,0,1,False
1481606,0.00149917557685,-0.653157739649,Messner Johnny,9047.151899,6.679746835,46,40054707.89,0.0,182.5,13335146.21,0,0,False
2135639,-2.64682723554,1.396958933,Stewart James,4950.860656,6.962295082,108,40052731.89,2036748.831,187.5,10388835.16,1,1,False
256787,0.342555647962,-1.99742689913,Braff Zach,3942.784722,7.8125,41,39899176.93,523364.486,182.25,53249931.79,0,0,False
2949,-2.09302738944,2.05741902726,Abbott Bud,601.2578616,7.523899371,121,39834024.9,744167.6337,170.0,6478485.192,0,0,False
2146204,-0.420090309402,0.160730597482,Strauss Peter,1272.585714,7.252857143,69,39706662.65,0.0,177.5,23670882.59,0,0,False
1165058,0.684645797672,-1.94594428642,Kinnaman Joel,15509.21739,7.642391304,37,39675844.55,0.0,185.0,57004123.24,0,0,False
1290162,-1.04120730436,0.987856153784,Lewis Jerry,1978.025424,6.616525424,90,39462686.9,0.0,175.0,14324021.57,0,0,False
837556,-1.3187362233,-1.18826908444,Grammer Kelsey,1985.295176,7.603959683,61,39442604.97,0.0,182.5,64480442.06,0,2,False
713923,-1.74132937216,0.573113277798,Fonda Peter,5318.257895,6.412631579,76,39431317.73,74074.07407,185.0,12366123.85,0,2,False
1847950,3.7620466099,-0.432905608089,Renner Jeremy,61342.81967,6.996721311,45,39425285.33,3454000.474,175.0,91549097.85,0,0,False
1332599,-2.72400951519,-1.94537397195,Lucas Csaba,13434.94444,5.522222222,42,39316852.84,0.0,185.0,52282.70796,0,0,False
1461399,0.278813270415,1.36116687896,McShane Ian,9666.52,7.414333333,74,39237057.22,0.0,167.5,77417801.79,0,1,False
2213393,-2.08585757753,0.526912971812,Thomas Danny,39.83454545,7.579272727,104,39191011.24,0.0,177.5,8066376.032,0,0,False
672051,0.532000163623,0.77871027189,Farley Chris,2168.346457,6.746850394,52,39183072.38,7099796.395,170.0,29557530.0,0,0,False
1006277,0.745855934725,0.842407825705,Hulce Tom,20646.7,7.072,63,38924784.71,0.0,170.0,50066617.93,0,0,False
439284,-0.337133831105,-0.574829105211,Connick Jr. Harry,5552.594444,6.498888889,49,38746255.93,0.0,182.5,22818265.45,0,0,False
1540348,0.163615395267,-1.66508533293,Morgan Jeffrey Dean,10691.45699,7.579569892,50,38651244.41,0.0,185.0,50972292.73,0,0,False
1636357,0.723106199129,-0.655189473421,O'Donnell Chris,5126.34767,7.533333333,46,38597256.91,2873529.196,175.0,56929374.98,0,0,False
1584979,-0.163929989721,-0.926270531524,Naor Igal,14298.61702,7.034042553,58,38549152.51,0.0,185.0,47358349.12,0,0,False
1871534,-0.499698899582,0.462276170029,Ritter John,799.9433962,7.10754717,68,38468827.84,155475.9479,177.5,8907338.396,0,1,False
152877,0.68709936287,-0.57643563462,Bateman Jason,14642.21222,7.384565916,47,38437254.19,0.0,177.5,32655211.4,0,1,False
375608,0.410699334177,0.803776890451,Chan Jackie,8179.49892,6.835637149,62,38393643.91,12740372.08,170.0,49988082.59,0,0,False
108243,0.297268122403,-0.658859806959,Azaria Hank,2617.708053,7.412392667,52,38284992.99,293548.3871,177.5,68761130.43,0,0,False
1603263,-0.722178390417,-0.0638390204645,Newman Barry,2655.42268,7.213402062,78,38163346.2,0.0,180.0,18185875.99,0,0,False
1927558,2.47283376256,2.36599121775,Rush Geoffrey,46476.82787,7.054098361,65,38119993.13,0.0,177.5,86554339.99,1,2,False
712514,1.39285021354,0.444525009757,Fogler Dan,11994.78481,6.94556962,40,38025227.21,0.0,167.5,48435730.89,0,0,False
1839689,-1.05236393435,-1.18283063738,Reeve Christopher,4308.555,6.944,64,38003881.65,1595398.211,190.0,59434116.29,0,0,False
1031901,1.09072891198,-1.31336058529,Irwin Steve,5906.9,7.733333333,54,37886637.47,24933078.39,175.0,17342968.32,0,0,False
645149,-0.489816948125,0.337560421946,Englund Robert,2324.235955,6.685955056,69,37818319.01,1304347.826,177.0,7541722.925,0,0,False
1634940,-0.0597379306254,-1.3711763159,O'Connell Jerry,3103.021622,7.165405405,42,37491366.99,0.0,185.0,27871826.84,0,0,False
1265557,0.099210309076,1.22428497102,Lee Bruce,6417.27044,7.037735849,76,37383177.57,43753.3227,167.5,3704089.418,0,0,False
1740398,4.39867572246,-1.19604570084,Pettyfer Alex,67361.53846,6.461538462,26,37377141.61,266738.9826,181.0,31379110.04,0,0,False
1013811,2.60361940396,0.142823780586,Hutcherson Josh,31326.04301,6.889247312,24,37280477.08,0.0,167.5,62378238.62,0,0,False
960519,1.62358966475,-1.39057850461,Highmore Freddie,12512.5,7.7,24,37198422.66,0.0,175.0,68079618.55,0,0,False
1917166,1.67701740715,-1.17696452696,Rowe Charlie,14277.0,7.5,20,37163835.73,0.0,175.0,51620857.29,0,0,False
175170,0.101930534427,0.769469548584,Belushi John,996.7611465,7.171019108,67,37148547.31,147239.2638,170.0,30137016.87,0,0,False
1335166,-0.256832465215,-0.915349783015,Ludzik Ted,8425.762712,6.798305085,50,37119021.71,0.0,185.0,39412342.36,0,0,False
1174975,-0.94092301832,-0.112432285629,Kline Kevin,10769.16667,6.981481481,69,37012412.41,354404.9583,185.0,44912298.3,1,0,False
96505,1.50098556031,0.160722048496,Astin Sean,13193.07671,7.390958904,45,36904108.55,0.0,167.5,18601209.71,0,0,False
1293140,1.55519805491,0.976939112923,Li Jet,24442.76344,6.587096774,53,36893243.26,7067384.411,168.0,60319776.49,0,0,False
917980,0.482900541709,-1.75021627474,Hartley Nate,6440.660714,6.9625,24,36622218.92,0.0,185.0,12743619.29,0,0,False
567530,0.0722114715899,-1.85664830811,Dillahunt Garret,7827.044983,7.699653979,52,36605305.38,0.0,185.0,13127734.39,0,0,False
1501398,-1.29347857831,2.01061332886,Mills John,2642.965714,6.819428571,108,36377820.11,0.0,170.0,33569808.38,1,1,False
589737,-1.13096694472,1.75358654959,Douglas Kirk,4173.879377,6.790661479,100,36366910.6,1783168.725,172.5,15058636.08,0,1,False
1164655,0.343929138132,2.56677899524,Kingsley Ben,24337.13303,6.722477064,73,36308955.2,0.0,170.0,47959790.48,1,1,False
1882181,-1.86864400344,2.32250280097,Robinson Edward G.,2131.216374,6.775438596,123,36287827.69,838527.464,167.5,12717356.12,0,0,False
2376929,0.114506753916,-3.34525758006,Welling Tom,1143.232836,8.226865672,39,36265575.42,0.0,190.0,49342149.2,0,0,False
789102,1.08039460801,0.811024400703,Gervais Ricky,2351.15083,7.736048265,55,36256052.53,0.0,170.0,62263023.16,0,1,False
268476,-1.88496047556,0.327950682767,Bridges Lloyd,1554.521628,7.003053435,103,36168137.46,0.0,182.0,23807867.58,0,0,False
935827,-2.0442901981,0.812098787532,Heflin Van,1324.712644,6.745977011,108,36164475.37,0.0,182.0,22104596.58,1,0,False
1850381,0.125966992269,-0.038492187672,Reubens Paul,5268.117871,7.321292776,64,36067597.8,0.0,175.0,28788821.67,0,0,False
637503,-0.537762432375,-0.796957017939,Elliott Sam,14281.58282,7.225766871,72,35975100.0,0.0,185.0,39245027.9,0,0,False
