id_data,x_data,y_data,z_data,votes,rating,gross,salary,age,heightcm,budget,academy,golden,sample
2010712,0.710293078669,0.0295333270217,Seinfeld Jerry,1024.130159,7.803174603,75113946.45,435483871.0,62,177.5,21638947.16,0,1,False
509004,0.761894725105,-0.103320249292,David Larry,1091.444196,8.098214286,5935336.469,387096774.2,69,177.5,2333623.057,0,0,False
327230,0.339112151148,0.557169964523,Cameron James,52137.44811,7.217924528,0.0,191358719.0,62,185.0,32268835.44,0,0,False
2110043,0.467743475181,-0.572255838389,Spielberg Steven,20674.30837,7.177450199,0.0,134524105.3,70,167.5,29166076.83,0,0,False
1332706,0.33029967933,-0.612143610723,Lucas George,29467.41506,7.127992278,0.0,73085345.6,72,165.0,32196049.32,0,0,False
624824,0.7809317369,-0.308967521756,Edwards Anthony,3241.471338,7.478343949,6373208.735,56680161.94,54,185.0,22180462.42,0,1,False
1224733,0.802765379891,-0.270675537292,La Salle Eriq,1402.486577,7.574496644,1189786.235,43724696.36,54,185.0,24746711.55,0,0,False
1031901,0.890512955114,-0.252897892403,Irwin Steve,5906.9,7.733333333,37886637.47,24933078.39,54,175.0,17342968.32,0,0,False
475352,-0.680173386004,0.121046489233,Cruise Tom,29250.88089,6.073407202,150325470.3,22818323.78,54,167.5,68280976.74,0,3,False
716611,-0.699055656146,-0.126109047819,Ford Harrison,28546.37884,6.739249147,168295256.9,21631576.66,74,182.5,54105500.49,0,0,False
589811,-0.244860446751,-0.762737368608,Douglas Michael,9953.971354,6.83203125,73836110.58,21282123.61,72,175.0,41165284.06,1,1,False
689214,-0.295629160811,0.255474838197,Ferrell Will,7404.132212,6.574399038,98494045.11,21087698.24,49,187.5,53623859.16,0,0,False
550145,0.399136959115,0.251267625252,Depp Johnny,24312.12652,7.081751825,94994341.53,20877617.82,53,175.0,74335882.04,0,1,False
2360944,-0.160609216962,-0.448680025505,Washington Denzel,16147.28707,7.035015773,73890134.83,20543720.22,62,182.5,53255579.35,2,2,False
1262838,0.892963689835,-0.271933934441,LeBlanc Matt,1890.516355,7.710046729,4823997.168,19847844.15,49,172.5,39704030.33,0,0,False
2248803,-0.579121964862,-0.34672190294,Travolta John,12322.78141,6.638693467,77036521.54,19700699.36,62,185.0,48039701.62,0,1,False
2117865,-0.705750333118,-0.340078732695,Stallone Sylvester,21819.67961,6.402912621,82897946.97,19530638.16,70,172.5,50645364.23,0,1,False
1998523,-0.692453302351,-0.231931052177,Schwarzenegger Arnold,17470.84958,6.552367688,96876169.31,19240963.21,69,185.0,53645104.22,0,1,False
2408692,-0.736692009345,0.347968050057,Willis Bruce,34449.95399,6.681288344,86986622.1,19124938.06,61,180.0,55923029.98,0,1,False
1042750,0.112777082729,0.753542083477,Jackson Peter,100967.9474,7.190526316,0.0,19064619.35,55,165.0,78202658.33,0,0,False
563215,-0.154232563809,0.610419099624,DiCaprio Leonardo,41242.78261,6.785507246,128505945.8,18773564.51,42,180.0,61657739.62,1,3,False
348210,-0.564729636097,0.211023648234,Carrey Jim,17295.23844,6.564963504,148529548.1,18764681.5,54,185.0,85934242.91,0,2,False
761501,0.795028848329,-0.369649992263,Gandolfini James,9693.480952,7.462380952,396759.5118,18727491.0,55,180.0,44846767.76,0,1,False
794988,-0.763843254964,0.19367458572,Gibson Mel,25864.19048,6.458730159,109152998.5,18379080.29,60,177.0,59365173.83,0,0,False
900439,-0.0714575796707,-0.350460209012,Hanks Tom,18368.42588,7.075471698,86323156.26,18301838.8,60,180.0,64852884.27,2,4,False
1256364,0.889905451649,-0.241468326004,Lawrence Martin,1851.952575,7.377642276,60713713.87,18270548.26,51,167.5,48670788.93,0,0,False
987074,-0.2974196685,-0.73866595241,Hopkins Anthony,19622.75357,6.785714286,32817616.71,17621787.48,79,170.0,60866970.33,1,0,False
474500,-0.697296715577,0.32463892542,Crowe Russell,29768.42408,6.429842932,64830506.25,17380321.93,52,177.5,68846562.25,1,1,False
591752,-0.212657156973,0.521514466428,Downey Jr. Robert,34221.50847,6.687118644,242561776.5,17273914.98,51,170.0,72646630.99,0,2,False
1565774,-0.444218801628,-0.121394732599,Murphy Eddie,12095.2975,6.629,140156051.7,16985271.61,55,172.5,84863148.58,0,1,False
1960051,-0.597078851244,0.373019527828,Sandler Adam,15572.80169,6.464978903,103194472.3,16670085.9,50,172.5,53316270.0,0,0,False
787236,-0.641124247533,-0.445507820569,Gere Richard,11210.77059,6.348235294,56796240.61,15678051.25,67,175.0,34425417.56,0,1,False
1809693,0.569208129732,0.606129754481,Radcliffe Daniel,25670.67333,7.262666667,158893704.0,15384281.41,27,162.5,74989294.43,0,0,False
1567421,-0.147801514492,-0.645341929959,Murray Bill,12923.6211,7.007194245,79445631.34,15352956.42,66,185.0,37864782.62,0,1,False
1363315,0.00860793893547,0.719710560255,Maguire Tobey,35589.11852,6.811851852,229506092.3,15310192.01,41,170.0,92123473.09,0,0,False
2304430,-0.444055306399,0.530967828135,Vaughn Vince,22313.56831,6.454098361,62302121.84,14949731.76,46,192.5,51599617.29,0,0,False
1404550,0.0157612485349,-0.789777346814,Martin Steve,5145.892308,6.994461538,71033743.97,14929978.39,71,180.0,50875695.48,0,0,False
1090175,-0.749503980972,-0.170482814911,Jones Tommy Lee,30003.10458,6.636601307,72264064.99,14735638.29,70,180.0,68707446.97,0,1,False
2088005,-0.142982754018,0.40846336358,Smith Will,14740.36723,6.807532957,168142383.1,14693957.66,48,185.0,77337355.74,0,0,False
277032,-0.0103182187711,-0.554960940782,Brosnan Pierce,7750.671196,6.930163043,71075755.04,14609067.28,63,185.0,50653600.88,0,0,False
2162767,0.883973432874,-0.264859737358,Sutherland Kiefer,3640.731988,7.885590778,34030409.8,14550797.24,50,174.0,43613551.74,0,1,False
457725,-0.699947321881,-0.0471259627151,Costner Kevin,19980.58009,6.724242424,79565659.43,13975166.0,61,182.5,51335278.53,0,0,False
1999118,0.874462801441,-0.170304458592,Schwimmer David,4232.682382,7.92133995,7239337.63,13900134.95,50,182.5,62115562.45,0,0,False
1076538,0.0372055534481,0.336071449225,Johnson Dwayne,7271.184783,6.799347826,87451580.19,13674865.0,44,196.0,55815904.96,0,0,False
1758718,-0.675638596421,0.483640903217,Pitt Brad,43676.98611,6.311944444,85481463.85,13594260.62,53,177.5,69734306.35,0,1,False
527289,-0.474561285155,-0.503394385274,De Niro Robert,32962.68056,6.816944444,51796626.24,13434255.15,73,177.0,42057824.71,2,1,False
839375,-0.750392657741,0.27327360748,Grant Hugh,24628.03425,6.656164384,44257606.04,12761524.84,56,177.5,34213678.77,0,1,False
375608,0.208554422789,-0.802106120237,Chan Jackie,8179.49892,6.835637149,38393643.91,12740372.08,62,170.0,49988082.59,0,0,False
1839989,-0.499804861204,0.561826160821,Reeves Keanu,27066.1005,6.599497487,59432409.45,12573334.69,52,185.5,36456780.95,0,0,False
1929147,0.151396488362,-0.553295360958,Russell Kurt,23963.25,7.034659091,54752507.68,12480084.62,65,177.5,54279301.84,0,0,False
518501,-0.303249162253,-0.343795965519,Day-Lewis Daniel,20369.47436,6.833333333,43133777.0,12237093.69,59,185.0,49878993.46,3,2,False
2047331,-0.138072592694,0.803488939411,Shyamalan M. Night,65818.37037,6.691358025,0.0,12132359.11,46,175.0,57744502.55,0,0,False
1402050,-0.00352297309636,-0.818624953748,Martin Dean,1104.213439,7.103952569,0.0,12001085.56,99,177.5,25679038.92,0,1,False
1783142,0.432748074542,0.4497864655,Pratt Chris,10254.22713,7.766876972,499125057.4,12000000.0,37,185.0,57482662.81,0,0,False
2342010,0.87877415678,0.166443673552,Wahlberg Mark,14330.5154,7.467556468,85868936.47,11494802.64,45,170.0,54451400.67,0,0,False
130045,-0.787711373054,-0.103276119312,Banderas Antonio,15235.60699,6.277292576,56049553.32,11190272.86,56,170.0,49960406.9,0,0,False
1633490,0.737814573424,-0.185715334815,O'Brien Conan,1304.992667,7.703208066,285381.9035,11006346.99,53,193.0,6534070.348,0,0,False
916977,0.714225185646,0.403235484654,Hart Kevin,8072.34981,6.755893536,34466809.09,10975896.58,37,160.0,23735595.42,0,0,False
1639217,-0.0259314934927,0.224531237861,O'Neal Shaquille,6388.133333,6.696969697,11305945.75,10707456.98,44,212.5,8995164.34,0,0,False
676677,0.176605059164,0.724077678034,Favreau Jon,36633.63211,7.019397993,14895366.89,10669559.3,50,182.5,50966041.21,0,0,False
2261105,-0.507215142516,0.606236612381,Tucker Chris,23338.01299,6.367532468,111679995.2,10586285.96,44,182.5,45749063.1,0,0,False
319490,-0.68451173332,0.413612898354,Cage Nicolas,33031.1448,6.446153846,51169353.29,10357770.38,52,180.0,53132192.13,1,1,False
619703,-0.129904271159,-0.679164773495,Eastwood Clint,19155.32055,7.19708589,94815867.68,10303635.13,86,190.0,32429283.96,0,0,False
2136188,0.310868800917,-0.763192534738,Stewart Patrick,9077.790816,7.35170068,101036997.9,10131056.01,76,175.0,70650733.21,0,0,False
368197,0.747154598423,0.163562047023,Cena John,616.7174721,7.07063197,18058679.17,10125855.95,39,182.5,11342101.66,0,0,False
1608541,-0.377229512382,-0.521823600977,Nicholson Jack,18557.10332,6.647601476,64294010.61,9999583.943,79,177.0,38574815.53,3,6,False
498354,-0.244960913959,0.773826512688,Damon Matt,37409.4078,6.736170213,94909053.35,9628841.176,46,175.0,54395111.88,0,1,False
1594257,-0.412135787062,0.362281516834,Neeson Liam,37478.92419,6.958122744,59608720.75,9604454.351,64,190.0,58790546.65,0,0,False
1157128,-0.747010467775,0.139219974066,Kilmer Val,18087.30636,6.377456647,69010877.6,9563370.177,57,182.0,35421181.58,0,0,False
2090308,-0.784674785535,0.195196800061,Snipes Wesley,19692.58065,6.137903226,56961090.97,9457455.122,54,175.0,43840912.28,0,0,False
2137515,0.579081103069,0.411553838721,Stiller Ben,16325.27565,6.919315895,101863186.0,9456860.915,51,167.5,53952705.94,0,0,False
502595,0.465580137744,-0.68142281612,Danson Ted,2257.332056,7.513920817,18620533.67,9447473.855,69,185.0,13564322.86,0,3,False
1573233,-0.302254976961,0.126315463338,Myers Mike,11443.92637,6.503087886,233026594.9,9442259.997,53,170.0,66303617.94,0,0,False
1255048,0.0607121988299,0.825889304895,Law Jude,31505.61491,6.81552795,34259248.6,9237738.822,44,175.0,64304654.73,0,0,False
2032780,0.820902121548,-0.358937386502,Sheen Charlie,5817.44717,7.070943396,48236233.01,9184107.092,51,175.0,26643764.92,0,1,False
439257,-0.433357399939,-0.635309657911,Connery Sean,14270.52416,6.785873606,103367519.9,9147010.127,86,185.0,44208113.51,1,1,False
731668,-0.470173195163,0.474858158054,Fraser Brendan,16836.15504,6.480620155,67844077.85,8966124.806,48,187.5,53382734.09,0,0,False
1040268,-0.183869643848,0.773084750712,Jackman Hugh,46906.72889,7.060888889,141214431.3,8927678.041,48,190.0,107145611.3,0,1,False
1836580,-0.167966959312,-0.785083550181,Redford Robert,9030.750842,6.872727273,81880661.59,8894160.586,80,175.0,41762634.02,0,1,False
419269,-0.314827205583,-0.343026874763,Clooney George,15037.86581,6.734375,71410442.29,8815443.672,55,177.5,50473341.01,1,3,False
596363,0.0509229592276,-0.800924816855,Dreyfuss Richard,8668.707317,6.834146341,48182871.01,8810572.687,69,162.5,21517860.89,1,1,False
1708356,0.365430324963,0.721536600106,Pattinson Robert,21264.36607,6.939285714,451347.1606,8685636.879,30,182.5,29683321.55,0,0,False
911043,0.805462077378,-0.406890280992,Harrelson Woody,15445.01639,7.325526932,9668910.129,8661417.323,55,172.5,38884407.96,0,0,False
1853342,-0.217070247235,-0.768398198067,Reynolds Burt,2276.961694,6.785483871,61149816.68,8574116.97,80,177.5,26618720.89,0,2,False
221417,0.0563431456315,0.828865617623,Bloom Orlando,51292.27211,6.904081633,16492707.65,8522048.624,39,177.5,111594821.3,0,0,False
725481,0.467568178875,-0.173308408976,Foxx Jamie,7879.279438,6.927943761,65583154.48,8486849.728,49,172.5,62818368.99,1,1,False
565794,-0.394598440511,0.73508037114,Diesel Vin,52135.34454,6.637815126,122222812.3,8345738.505,49,182.0,67362144.42,0,0,False
340623,0.574089978115,-0.231215659463,Carell Steve,10043.57666,7.201393728,108689441.2,8267843.811,54,175.0,48663898.02,0,1,False
995904,0.692170574601,-0.581434346399,Howard Ron,6481.764763,7.420329138,0.0,8214339.216,62,172.5,20618716.0,0,1,False
1731749,0.888381534334,-0.147490957438,Perry Matthew,1717.492218,7.813618677,27192080.72,8190132.1,47,180.0,26647402.56,0,0,False
2032803,0.898170830081,0.0933362149128,Sheen Michael,16512.93897,7.542723005,51238507.11,8166423.507,47,175.0,64159820.46,0,0,False
926651,-0.299750765964,0.708563121941,Hawke Ethan,23430.80952,6.648979592,18463466.12,8141129.141,46,180.0,29800835.69,0,0,False
724948,0.459480491059,-0.422885119619,Fox Michael J.,4624.430813,7.225820257,104573522.0,8097165.992,55,160.0,61292602.74,0,4,False
496835,0.542847602364,-0.590738540578,Dalton Timothy,8493.396739,7.464130435,56806539.24,8037537.839,70,185.0,48078405.06,0,0,False
465172,-0.0307442219957,0.813778392124,Craig Daniel,31467.52941,6.864052288,107478081.8,7957362.04,48,175.0,121766139.1,0,0,False
1043091,-0.731826797052,0.031750614615,Jackson Samuel L.,37682.62121,6.587662338,27455804.3,7956530.803,68,185.0,56631689.65,0,0,False
1253496,0.433588811362,0.660198525879,Lautner Taylor,12922.14407,6.886440678,174132709.1,7938834.255,24,170.0,56926226.11,0,0,False
2346668,-0.361656113754,0.689799681995,Walker Paul,30141.04938,6.588888889,60545549.09,7791793.568,43,188.0,46301329.52,0,0,False
556074,0.335890209176,-0.693169405578,DeVito Danny,11615.12048,7.252409639,68519227.17,7648183.556,72,145.0,40409368.66,0,1,False
2413209,-0.529711331349,0.662591351857,Wilson Owen,47688.232,6.3072,86969718.17,7590780.429,48,175.0,72448265.56,0,0,False
