id_data,x_data,y_data,z_data,votes,rating,gross,salary,age,heightcm,budget,academy,golden,sample
1224733,-0.793663045127,0.00779630116549,La Salle Eriq,1402.486577,7.574496644,1189786.235,43724696.36,54,185.0,24746711.55,0,0,False
624824,-0.77763863229,0.343232289115,Edwards Anthony,3241.471338,7.478343949,6373208.735,56680161.94,54,185.0,22180462.42,0,1,False
1332706,0.709415120899,-0.524518116697,Lucas George,29467.41506,7.127992278,0.0,73085345.6,72,165.0,32196049.32,0,0,False
2110043,0.747796757422,-0.470132816942,Spielberg Steven,20674.30837,7.177450199,0.0,134524105.3,70,167.5,29166076.83,0,0,False
327230,-0.0938803487231,-0.771217792808,Cameron James,52137.44811,7.217924528,0.0,191358719.0,62,185.0,32268835.44,0,0,False
509004,0.366657691381,0.610685393091,David Larry,1091.444196,8.098214286,5935336.469,387096774.2,69,177.5,2333623.057,0,0,False
2010712,-0.158687543561,0.804154743076,Seinfeld Jerry,1024.130159,7.803174603,75113946.45,435483871.0,62,177.5,21638947.16,0,1,False
