id_data,x_data,y_data,z_data,votes,rating,age,gross,salary,heightcm,budget,academy,golden,sample
1608541,-2.17952263968,7.22540498883,Nicholson Jack,18557.10332,6.647601476,79,64294010.61,9999583.943,177.0,38574815.53,3,6,False
1277139,-3.78726983214,4.95876597301,Lemmon Jack,4156.442308,6.856923077,91,71141355.77,2567538.381,172.5,25602308.96,2,4,False
974144,-2.56707427607,5.17849123561,Hoffman Dustin,14315.19149,6.965045593,79,135573724.0,6587366.397,167.0,65462254.21,2,5,False
1677236,-1.19359504026,5.18853501769,Pacino Al,31986.76166,6.98238342,76,45834065.75,6046899.693,167.5,35720416.58,1,4,False
320580,-0.427878026316,4.50006268403,Caine Michael,34222.2899,6.885016287,83,26002932.94,1851851.852,185.0,52518281.42,2,3,False
1641432,-1.4853226543,3.42711528442,O'Toole Peter,13609.91772,6.90443038,84,25363928.78,0.0,185.0,39607655.43,0,4,False
900439,-0.275923956141,3.930406221,Hanks Tom,18368.42588,7.075471698,60,86323156.26,18301838.8,180.0,64852884.27,2,4,False
1603765,-2.53678355996,2.91077379778,Newman Paul,6571.725869,7.001158301,91,78668238.81,4616979.761,172.5,36527297.09,1,2,False
33670,1.93714974317,-3.82183270597,Alda Alan,2013.127214,7.630595813,80,22839573.69,1263157.895,185.0,34131062.62,0,6,False
613509,-1.10282677021,3.30744624588,Duvall Robert,20726.66045,6.994402985,85,27305897.95,206698.5646,172.5,27342013.53,1,4,False
881636,-1.2408852456,3.14657879967,Hackman Gene,14705.06417,6.729411765,86,44741786.37,4006026.177,185.0,53161099.31,2,3,False
258944,-2.02200798832,2.94553563363,Brando Marlon,14383.90052,7.327748691,92,75059601.63,3668291.533,172.5,44422708.47,2,2,False
518501,0.034336580875,3.50017859555,Day-Lewis Daniel,20369.47436,6.833333333,59,43133777.0,12237093.69,185.0,49878993.46,3,2,False
2406454,-1.28978706488,3.564389797,Williams Robin,9865.513135,6.871628722,65,93078532.86,6953453.062,167.5,51104904.12,1,4,False
563215,1.86710750873,4.61348790091,DiCaprio Leonardo,41242.78261,6.785507246,42,128505945.8,18773564.51,180.0,61657739.62,1,3,False
2360944,-0.117592764925,3.2258450729,Washington Denzel,16147.28707,7.035015773,62,73890134.83,20543720.22,182.5,53255579.35,2,2,False
527289,0.378941519305,3.45615739808,De Niro Robert,32962.68056,6.816944444,73,51796626.24,13434255.15,177.0,42057824.71,2,1,False
1654128,-3.4099301727,0.621588625612,Olivier Laurence,3626.840909,7.405909091,109,61301533.29,1230739.045,175.0,41216930.89,1,2,False
2246414,-3.14037936504,1.36007447429,Tracy Spencer,7080.138554,6.951807229,116,72138692.54,1813903.791,172.5,22268028.41,2,1,False
2330359,-0.7968135911,2.60599852455,Voight Jon,13106.28716,6.856418919,78,42480669.07,111171.6621,185.0,40392688.49,1,3,False
419269,-0.063826572793,2.87560359073,Clooney George,15037.86581,6.734375,55,71410442.29,8815443.672,177.5,50473341.01,1,3,False
1716306,-1.51245615594,2.58526900839,Peck Gregory,5092.772321,6.992410714,100,75920183.45,1427586.26,187.5,28230308.06,1,3,False
698020,0.183456903513,2.64041485549,Finney Albert,25410.0614,7.228070175,80,24294464.44,2487046.632,172.5,52533237.27,0,3,False
771403,0.641586052942,-3.25829965026,Garner James,2224.64257,7.535341365,88,60558724.66,486815.4158,185.0,35331803.4,0,4,False
306991,-2.23350864853,1.34084041519,Burton Richard,2410.95092,7.109202454,91,77859874.96,3212137.87,172.5,32227152.41,0,2,False
268429,0.0607288989608,2.09990628701,Bridges Jeff,17360.62896,6.763348416,67,41104026.22,4452685.527,182.5,42951071.91,1,2,False
502595,1.92972633126,-1.87348753233,Danson Ted,2257.332056,7.513920817,69,18620533.67,9447473.855,185.0,13564322.86,0,3,False
1386900,-2.70323432882,-0.763186480514,March Fredric,1596.948718,6.935897436,119,0.0,0.0,175.0,13982133.07,2,1,False
1927558,2.52623546828,2.52633596382,Rush Geoffrey,46476.82787,7.054098361,65,38119993.13,0.0,177.5,86554339.99,1,2,False
475352,0.348981159673,4.79673808444,Cruise Tom,29250.88089,6.073407202,54,150325470.3,22818323.78,167.5,68280976.74,0,3,False
162071,-1.35142326391,2.44408412829,Beatty Warren,4124.802469,6.669753086,79,114074263.2,6950208.91,185.0,48365986.43,0,2,False
446189,-2.70697555354,1.39241049488,Cooper Gary,2083.028571,6.764761905,115,86997071.93,1920195.908,187.5,16627165.13,2,1,False
1237861,-1.48922212033,0.67972939135,Landau Martin,3922.30179,6.947314578,88,7762142.278,0.0,185.0,24096104.46,1,3,False
724948,-1.72494730559,3.16863489512,Fox Michael J.,4624.430813,7.225820257,55,104573522.0,8097165.992,160.0,61292602.74,0,4,False
124873,1.53961861517,-0.238929993491,Baldwin Alec,6789.176218,7.249570201,58,41607942.51,4783003.075,180.0,48714027.32,0,3,False
735015,0.7432497325,1.88846750647,Freeman Morgan,24208.51327,7.082654867,79,56901942.86,7476635.514,185.0,47270285.52,1,1,False
1422875,-1.70836364346,1.17566815192,Matthau Walter,3365.631868,6.827472527,96,65635345.46,1452188.152,185.0,37475437.35,1,1,False
2353035,0.589523178616,2.47895338266,Waltz Christoph,22446.69343,6.560583942,60,173038.3212,0.0,167.5,91508709.18,2,2,False
83835,-0.33408217111,1.58405227499,Arkin Alan,18520.04487,6.727564103,82,41993107.67,275439.9388,172.5,32981163.54,1,1,False
1164655,0.261746457837,2.01855556928,Kingsley Ben,24337.13303,6.722477064,73,36308955.2,0.0,170.0,47959790.48,1,1,False
1805095,-1.81821884346,0.483807087289,Quinn Anthony,2968.084746,6.875847458,101,21019689.05,0.0,185.0,22419394.56,2,0,False
1983351,-1.68900673395,1.97395708852,Schell Maximilian,3113.774648,6.668309859,86,118485623.1,0.0,177.5,28532505.56,1,2,False
550145,1.44417913488,2.2003944279,Depp Johnny,24312.12652,7.081751825,53,94994341.53,20877617.82,175.0,74335882.04,0,1,False
589808,-2.41521955948,-0.0962992640834,Douglas Melvyn,1835.622807,6.749122807,115,0.0,0.0,182.5,10877361.81,2,1,False
1237145,-2.319159227,1.5965200202,Lancaster Burt,3054.571429,7.013333333,103,121572408.8,1184952.665,182.5,17575789.55,1,1,False
1722671,0.534764708726,1.96531873818,Penn Sean,18770.47727,6.589545455,56,25221918.87,2479469.85,170.0,26082625.66,1,1,False
2280048,-1.3633859276,0.0293013069848,Ustinov Peter,2718.724324,7.02972973,95,22376979.1,0.0,181.5,24086890.37,2,1,False
2135639,-2.02077526093,0.609058671526,Stewart James,4950.860656,6.962295082,108,40052731.89,2036748.831,187.5,10388835.16,1,1,False
265423,-2.33525319524,-0.986108482252,Brennan Walter,924.2634731,7.021556886,122,0.0,158823.5294,180.0,14136781.28,3,0,False
1765753,-1.56238668051,1.52140590453,Poitier Sidney,2206.820359,6.624550898,89,82691110.04,880670.9292,185.0,22347681.28,1,1,False
2105026,1.83837515437,0.00285411253574,Spacey Kevin,19335.44862,7.322305764,57,32421752.33,6625766.871,178.0,38140204.44,2,0,False
474500,1.22853178965,2.58822068277,Crowe Russell,29768.42408,6.429842932,52,64830506.25,17380321.93,177.5,68846562.25,1,1,False
668256,-1.40613286472,-2.06450746844,Falk Peter,3594.129151,7.118450185,89,48073287.02,2074074.074,165.0,18885863.57,0,1,False
987074,0.0279548006932,1.46224570383,Hopkins Anthony,19622.75357,6.785714286,79,32817616.71,17621787.48,170.0,60866970.33,1,0,False
1031124,1.58763003274,-1.05238100949,Irons Jeremy,9961.88172,7.399283154,68,7784228.93,0.0,185.0,45350957.26,1,2,False
867672,0.826473574754,-2.70501247336,Guinness Alec,30259.0155,7.414728682,102,3217444.047,594059.4059,175.0,45629441.39,1,1,False
795608,-1.54670466908,-1.32150141444,Gielgud John,5099.657754,7.212834225,112,3084230.837,0.0,180.5,21842044.94,1,2,False
2061597,-2.37398997702,0.336535522624,Sinatra Frank,2487.871585,6.855191257,101,71587355.88,2257414.104,167.5,16365993.55,1,2,False
136863,0.709527233122,2.14993577623,Bardem Javier,14943.86486,6.331756757,47,2452821.071,0.0,181.0,38823768.84,1,1,False
589811,-0.175376371986,1.32379236879,Douglas Michael,9953.971354,6.83203125,72,73836110.58,21282123.61,175.0,41165284.06,1,1,False
2429516,0.388448189032,-0.297687332352,Woods James,7402.332353,7.033235294,69,6640922.307,6521.73913,177.5,38386327.33,0,1,False
1012233,1.09366320535,0.617209714058,Hurt William,17431.08065,7.080107527,66,33356025.79,1588141.874,185.0,38509963.75,1,0,False
1014902,1.84047184049,-2.13990155312,Hutton Timothy,2831.208481,7.756183746,56,11750512.48,0.0,180.0,22494972.87,1,2,False
373801,0.983237471379,-2.71213840292,Chamberlain Richard,933.1691176,7.815441176,82,20755774.22,0.0,182.5,18105857.66,0,3,False
875922,-3.57145593317,-1.61006727437,Gwenn Edmund,1541.117647,6.707058824,139,0.0,0.0,162.5,22793251.44,1,2,False
1853342,-0.784400677602,0.730915527354,Reynolds Burt,2276.961694,6.785483871,80,61149816.68,8574116.97,177.5,26618720.89,0,2,False
125330,4.10367451735,4.0241507816,Bale Christian,68960.42657,6.812587413,42,121073404.0,7480124.381,183.0,68258050.06,1,1,False
912575,1.30346353397,1.20799671055,Harris Ed,28162.55249,6.870165746,66,15611206.93,0.0,172.5,35881377.7,0,1,False
1635305,0.151889481959,-2.67890262714,O'Connor Carroll,217.2907801,7.701276596,92,0.0,1185185.185,177.5,33088917.35,0,1,False
272314,1.78316016518,0.715574313881,Broadbent Jim,27691.83744,7.056157635,67,4156590.205,0.0,185.0,73092201.98,1,2,False
830852,-0.906665446592,0.694163211324,Gossett Jr. Louis,975.4886731,6.700323625,80,26045189.94,0.0,185.0,13516372.54,1,2,False
837556,1.65501347092,-1.66984772637,Grammer Kelsey,1985.295176,7.603959683,61,39442604.97,0.0,182.5,64480442.06,0,2,False
1617226,-1.45456291068,-0.53178717706,Niven David,1416.56422,7.033027523,106,30802233.79,0.0,180.0,32269541.5,1,2,False
1876378,0.793948811251,2.2531103243,Robbins Tim,18089.64453,6.440234375,58,17148629.5,0.0,190.0,40892530.2,1,2,False
1903722,-3.85216580775,-0.418873854747,Rooney Mickey,1786.195745,6.599361702,96,44395488.22,296204.6766,155.0,12550514.36,0,2,False
2162666,-0.0637231516512,1.22595028755,Sutherland Donald,13193.14714,6.859945504,81,27637449.51,343889.9022,190.0,46581706.86,0,2,False
319490,1.51243500654,2.37534704399,Cage Nicolas,33031.1448,6.446153846,52,51169353.29,10357770.38,180.0,53132192.13,1,1,False
596363,-0.962096840616,1.69833651804,Dreyfuss Richard,8668.707317,6.834146341,69,48182871.01,8810572.687,162.5,21517860.89,1,1,False
915659,-1.8435733811,0.289763214235,Harrison Rex,1696.659091,6.835227273,108,41703359.08,2064395.651,185.5,51350028.9,1,1,False
1013664,-2.70097324653,-0.561904387241,Huston Walter,2996.479592,6.736734694,133,7147445.255,0.0,180.0,16853555.2,1,1,False
1975393,-0.823989140908,-1.03094145689,Savalas Telly,1284.847458,7.085084746,94,0.0,0.0,177.5,22082510.99,0,2,False
2027682,-0.894431604159,0.623267761058,Sharif Omar,4187.802326,6.619767442,84,47390998.57,1474548.44,177.5,54814480.47,0,3,False
2126761,-1.13912961333,0.143600092503,Steiger Rod,4386.717172,6.64040404,91,18085925.93,757130.8995,175.0,22274970.62,1,1,False
2455138,-1.33067007431,-0.596074617767,Young Gig,3829.754237,6.977966102,103,0.0,0.0,182.5,18567278.97,1,1,False
591752,1.55255899588,5.45800808071,Downey Jr. Robert,34221.50847,6.687118644,51,242561776.5,17273914.98,170.0,72646630.99,0,2,False
601064,1.49175576653,-1.54449715189,Duchovny David,2140.811927,7.538073394,56,28611845.28,0.0,180.0,27408895.62,0,2,False
1307246,1.82267732571,-1.0200638667,Lithgow John,7908.919315,7.369193154,71,28314409.22,0.0,190.0,34502008.52,0,2,False
1562064,-1.5728703043,-2.27571621419,Muni Paul,1122.235294,7.411764706,121,13109243.7,0.0,172.5,3256319.236,1,0,False
340623,1.93368035049,0.506780871827,Carell Steve,10043.57666,7.201393728,54,108689441.2,8267843.811,175.0,48663898.02,0,1,False
498354,2.04486378091,2.53457047465,Damon Matt,37409.4078,6.736170213,46,94909053.35,9628841.176,175.0,54395111.88,0,1,False
725481,0.841989554188,0.922550341778,Foxx Jamie,7879.279438,6.927943761,49,65583154.48,8486849.728,172.5,62818368.99,1,1,False
967925,0.451069191572,-1.75768488006,Hirsch Judd,4247.594937,7.486582278,81,0.0,0.0,180.0,51744825.09,0,1,False
1141571,-1.55722148654,-0.436726994868,Kennedy Arthur,3553.83871,6.695698925,102,0.0,0.0,175.0,15015780.48,0,1,False
1633648,-1.32439675012,-1.01134622398,O'Brien Edmond,2752.141732,6.935433071,101,0.0,187755.102,172.5,13961063.87,1,1,False
1746324,2.23005585164,0.950095649069,Phoenix Joaquin,29856.6422,7.026605505,42,32070198.45,2423153.068,173.0,43372163.05,0,1,False
96332,-2.00965235852,-1.29544049705,Astaire Fred,5677.344828,7.244827586,117,68797479.38,0.0,172.5,22263518.85,0,2,False
2008774,-0.516137651232,0.163000806032,Segal George,2885.332506,7.018858561,82,58566186.63,0.0,179.0,28467955.43,0,2,False
433411,-2.65052833862,-0.0430182739592,Colman Ronald,919.3098592,6.915492958,125,81813849.6,2708333.333,175.0,18479716.59,1,1,False
1682590,-2.15984577459,1.08719442378,Palance Jack,3637.069364,6.385549133,97,16735803.1,0.0,190.0,29255329.28,1,1,False
2248803,0.283918104843,1.74665072126,Travolta John,12322.78141,6.638693467,62,77036521.54,19700699.36,185.0,48039701.62,0,1,False
274266,-0.425194145261,0.766064180653,Brolin James,2324.8125,6.941796875,76,25928816.53,0.0,190.0,18315972.41,0,2,False
348210,0.786845769669,3.31533528927,Carrey Jim,17295.23844,6.564963504,54,148529548.1,18764681.5,185.0,85934242.91,0,2,False
719776,-0.652754500441,-1.63726941323,Forsythe John,760.9240069,7.312607945,98,0.0,150365.1244,177.5,20219918.36,0,2,False
1875725,-0.696743094772,-1.48473419164,Robards Jason,7008.472222,7.181666667,94,12105948.63,0.0,170.0,33161003.59,2,0,False
2002242,-1.30557569804,1.35080761264,Scott George C.,5839.913043,7.032608696,89,114864772.6,4051932.432,180.0,24989106.08,0,2,False
696128,-1.34462590447,-0.870896692061,Finch Peter,2508.469697,6.848484848,100,0.0,0.0,172.5,36721659.06,1,1,False
699216,1.23232193645,0.845184005996,Firth Colin,22105.46405,6.839215686,56,17881004.52,0.0,182.5,29728839.44,1,1,False
713913,-2.21552020541,0.773886091551,Fonda Henry,4463.050562,7.128089888,111,103466298.4,646456.1191,182.5,16806819.17,1,1,False
1264639,1.79746590548,1.14649903095,Ledger Heath,22217.03571,6.877142857,37,42228554.93,1735730.926,182.5,29519853.1,1,1,False
1417264,-1.05707863613,-0.317992577377,Mastroianni Marcello,2433.331606,6.741450777,92,5185609.691,0.0,176.0,10157043.95,0,1,False
2363095,0.863882526414,-2.01316670628,Waterston Sam,609.5290102,7.609726962,76,21631459.9,0.0,182.5,13070468.1,0,1,False
713923,-0.790694306682,1.27579108252,Fonda Peter,5318.257895,6.412631579,76,39431317.73,74074.07407,185.0,12366123.85,0,2,False
792390,2.13317573884,0.682602024114,Giamatti Paul,29864.10096,7.052403846,49,23803040.02,0.0,172.5,53847725.83,0,2,False
1531257,-3.76980585628,-0.0886309380154,Moore Dudley,1065.164063,6.553125,81,45544879.65,0.0,155.0,20369308.92,0,2,False
311612,-1.44046660175,-1.89801082214,Buttons Red,1489.197183,6.998591549,97,9536423.841,0.0,165.0,25557415.85,1,1,False
1758718,2.10355236932,3.18050337342,Pitt Brad,43676.98611,6.311944444,53,85481463.85,13594260.62,177.5,69734306.35,0,1,False
2012566,-1.12025951047,0.426782531955,Sellers Peter,8546.158192,6.872316384,91,64867892.56,0.0,170.0,19722920.52,0,1,False
2032801,-0.0309814763441,-1.65621419961,Sheen Martin,6249.933948,7.140092166,76,5886915.531,400135.5143,167.5,18693702.64,0,1,False
455450,-0.234688183528,-0.182089146109,Cosby Bill,292.7755102,7.04649512,79,46705357.39,0.0,182.5,18865518.83,0,2,False
1130006,-0.890397264492,-1.41051681851,Kaye Danny,3595.97479,7.314285714,105,33497822.93,1811320.755,177.5,12188094.76,0,2,False
589737,-1.31469477884,-0.339093742282,Douglas Kirk,4173.879377,6.790661479,100,36366910.6,1783168.725,172.5,15058636.08,0,1,False
702584,-3.18965708303,-2.3690025842,Fitzgerald Barry,2905.25,6.858333333,128,0.0,0.0,157.5,19494788.22,1,1,False
1414509,-1.33767359059,-0.508581494965,Mason James,3078.207071,6.903030303,107,30460928.65,0.0,177.5,19587756.83,0,1,False
2366885,-2.35415562564,0.992880859917,Wayne John,2692.235294,6.535549872,109,59544825.08,2055923.276,190.0,17659981.11,1,1,False
750821,-2.03108804301,0.277242851864,Gable Clark,2670.864253,6.67239819,115,57079567.67,2855076.208,182.5,16775795.11,1,0,False
1174975,0.502769391947,0.31767441772,Kline Kevin,10769.16667,6.981481481,69,37012412.41,354404.9583,185.0,44912298.3,1,0,False
2260805,1.06443879423,4.47931093317,Tucci Stanley,21334.15498,6.974907749,56,214810127.8,0.0,170.0,53355403.83,0,2,False
238923,-1.26529153669,-0.869201004997,Borgnine Ernest,2247.860236,6.835826772,99,574780.7229,25534.12712,172.5,19780357.93,1,1,False
372594,-0.374408830976,-0.709096628079,Chakiris George,1861.804348,6.959782609,82,0.0,0.0,177.5,14150688.37,1,1,False
439257,-0.439550675572,1.77953949383,Connery Sean,14270.52416,6.785873606,86,103367519.9,9147010.127,185.0,44208113.51,1,1,False
611588,-1.14285347465,-0.847516977721,Durning Charles,5237.589666,6.821276596,93,1480655.474,0.0,170.0,13318259.57,0,1,False
851677,-0.699105597974,-2.71002781586,Grey Joel,2072.366906,7.296402878,84,70483.46457,0.0,162.5,21604215.44,1,1,False
1411518,-2.71938674654,2.46081257041,Marvin Lee,1776.722488,6.967942584,92,180615022.2,6140568.166,182.5,26720228.23,1,1,False
1495318,-1.95849977289,0.0391057513266,Milland Ray,1576.040404,6.673737374,111,23758015.63,1115241.636,185.5,10556522.39,1,1,False
1602998,-0.265055198354,-1.93070721525,Newhart Bob,1631.555315,7.37505423,87,46176285.82,0.0,170.0,45070025.76,0,1,False
1621053,0.276915035288,0.819611561967,Nolte Nick,17869.69375,6.739375,75,43637715.83,7233401.766,180.0,37571187.09,0,1,False
2012419,2.03029094225,-1.59799605707,Selleck Tom,802.4527972,7.556468531,71,77098500.76,165095.2049,187.5,37141473.54,0,1,False
2386664,0.507963109145,1.01987966971,Whitaker Forest,10246.98734,6.636392405,55,23213910.15,0.0,185.0,22301099.43,1,1,False
2399554,2.40016842872,1.37997601626,Wilkinson Tom,39421.49286,7.030714286,68,25950674.61,0.0,185.5,47260717.2,0,1,False
268343,-0.0426322994077,-0.928846267841,Bridges Beau,2086.692494,7.061985472,75,1485866.672,0.0,175.0,17249209.33,0,2,False
1370633,-0.978735322302,-1.16020295036,Malden Karl,1776.299595,7.189878543,104,12936802.97,218446.6019,182.5,20061610.94,1,0,False
1654827,0.547279420151,-1.95207903215,Olmos Edward James,3171.115,7.441,69,6983548.708,0.0,170.0,12765064.7,0,2,False
2416311,-0.219550628555,-2.6193439613,Winkler Henry,1942.765318,7.239884393,71,84559909.53,243407.7079,165.0,13851512.48,0,2,False
1565774,0.22200870094,2.90963050762,Murphy Eddie,12095.2975,6.629,55,140156051.7,16985271.61,172.5,84863148.58,0,1,False
1567421,0.725997158867,1.01204939791,Murray Bill,12923.6211,7.007194245,66,79445631.34,15352956.42,185.0,37864782.62,0,1,False
1624827,2.97198439539,1.82183018717,Norton Edward,47062.50993,6.89205298,47,32553008.65,7557564.083,180.0,44775123.24,0,1,False
2139174,-0.529051914051,-1.60461922654,Stockwell Dean,2806.991228,7.016666667,80,0.0,0.0,167.5,19185288.93,0,1,False
2368222,-2.40816452476,-0.488930229917,Webb Clifton,2061.2,6.723333333,127,44089887.64,0.0,175.0,10736078.53,0,1,False
472704,-3.95973648479,1.54467607718,Crosby Bing,639.7915058,6.966795367,113,181407800.6,0.0,167.5,19232792.84,1,0,False
1252040,-2.21485956627,-1.2514082898,Laughton Charles,3721.701031,7.118556701,117,78131386.86,39416.05839,170.0,22421029.53,1,0,False
304475,-1.20335663543,-3.55908867505,Burns George,112.3849287,7.888187373,120,34794127.63,11929.82456,167.5,7836961.173,1,1,False
344819,-0.570987751276,-1.75115876906,Carney Art,1062.224719,7.335955056,98,0.0,0.0,175.0,41230847.9,1,1,False
440013,-0.264502530241,-1.32367411173,Connors Mike,227.117284,7.231481481,91,0.0,3582.089552,182.5,10409377.82,0,1,False
445916,2.74756812957,0.766919528185,Cooper Chris,41383.17476,7.109708738,65,8907537.901,0.0,175.0,46886349.3,1,1,False
467181,-0.969042113816,-1.35432768199,Crawford Broderick,242.5953947,7.224671053,105,11641791.04,0.0,180.0,12270324.83,1,1,False
556074,-1.20387789941,-4.93835307404,DeVito Danny,11615.12048,7.252409639,72,68519227.17,7648183.556,145.0,40409368.66,0,1,False
604078,1.44094584056,1.85978382189,Dujardin Jean,22432.26154,6.367692308,44,5240642.592,0.0,182.0,48425719.06,1,1,False
1037370,-1.11753638163,-1.21931662039,Ives Burl,1698.975904,7.125301205,107,0.0,0.0,180.0,11714068.01,1,1,False
1074843,-1.35024779846,-0.075802647861,Johnson Ben,2990.151079,6.728057554,98,0.0,0.0,185.0,16115157.42,1,1,False
1074884,1.98430518125,-1.33806175604,Johnson Ben,52.66666667,7.3,37,0.0,0.0,182.5,26195.64056,1,1,False
1284528,2.34296762413,-0.50273653853,Leto Jared,23397.22527,7.443406593,45,14206437.2,5070597.867,175.0,19118383.6,1,1,False
1336523,-2.22955728315,-0.829157510391,Lukas Paul,1013.330097,6.833009709,125,0.0,0.0,182.5,22674512.53,1,1,False
1439380,1.38499084341,1.03805900139,McConaughey Matthew,21476.85268,6.823660714,47,54327063.43,3684531.737,180.0,46477224.98,1,1,False
1452819,2.33243837667,1.19409783263,McKellen Ian,32612.37374,7.279461279,77,103654776.9,0.0,177.5,90351340.58,0,1,False
1501398,-1.731231412,-0.824378518701,Mills John,2642.965714,6.819428571,108,36377820.11,0.0,170.0,33569808.38,1,1,False
1759498,1.12454281178,-0.748026466252,Piven Jeremy,7465.197425,7.156437768,51,11970179.2,444.6797247,172.5,31708062.7,0,1,False
2162767,2.0668250576,-2.36181667217,Sutherland Kiefer,3640.731988,7.885590778,50,34030409.8,14550797.24,174.0,43613551.74,0,1,False
1156401,-0.320723351485,-1.27687972887,Kiley Richard,5778.738255,7.251006711,94,0.0,0.0,177.5,10288881.24,0,2,False
1259877,-0.352186165217,1.32024109251,Le Mat Paul,11039.66667,6.332098765,71,40661950.02,0.0,177.5,7204148.108,0,2,False
1733325,1.10509905025,2.96876999112,Pesci Joe,30486.27083,6.477083333,73,26921444.62,5042597.054,160.0,46003856.27,1,0,False
2194081,-0.549929252285,-0.64499349119,Tayback Vic,827.5337621,6.932797428,86,0.0,0.0,180.0,14984946.8,0,2,False
226960,-1.62177293089,-1.52602638141,Bogart Humphrey,5748.855814,7.080465116,117,24071585.66,1279914.212,170.0,10392101.85,1,0,False
319640,-2.06043206696,-1.99494721584,Cagney James,1482.208589,7.093251534,117,47728975.82,1492750.602,165.0,10384996.5,1,0,False
421575,-2.5367416229,-1.44548766109,Coburn Charles,1538.494253,6.985057471,139,0.0,0.0,180.0,24751543.64,1,0,False
693358,2.77970873744,1.64667299815,Fiennes Ralph,44739.29861,6.977777778,54,50005607.72,0.0,180.5,62504704.09,0,0,False
839094,-1.72339349106,0.124143892678,Grant Cary,5161.85782,6.957819905,112,68652246.93,4868070.467,182.5,13116254.3,0,0,False
955728,-1.66984933605,1.76838516705,Heston Charlton,5489.461538,6.725558313,93,123927656.3,1049170.486,185.0,35791086.7,1,0,False
977365,-0.86506142245,-0.445207688058,Holden William,5686.607692,6.884615385,98,23061260.1,3029157.34,177.5,26330936.67,1,0,False
2088005,1.34832756998,3.3721768969,Smith Will,14740.36723,6.807532957,48,168142383.1,14693957.66,185.0,77337355.74,0,0,False
44479,1.65697472437,-0.495413354357,Allen Tim,3880.23538,7.282309942,63,101429563.2,6606193.16,175.0,44326894.43,0,1,False
825300,0.906255973124,0.660665368331,Goodman John,10302.01377,7.056798623,64,80318935.44,3697909.027,185.0,52071151.55,0,1,False
890182,2.48997808696,-3.12094101456,Hall Michael C.,2415.235988,8.193510324,45,11405.52453,0.0,175.0,44735243.46,0,1,False
914045,0.237384167574,1.32178806715,Harris Richard,21641.0,6.806837607,86,78335643.41,0.0,182.5,50850500.95,0,1,False
1012196,0.758338093402,-1.0600660917,Hurt John,16304.56649,7.311968085,76,7354503.427,0.0,172.5,35292720.44,0,1,False
1086883,0.434315541048,-0.253941638971,Jones James Earl,17047.3871,7.060117302,85,1065393.701,930755.0028,182.5,27177300.12,0,1,False
1402050,-0.805082907729,-1.1785221171,Martin Dean,1104.213439,7.103952569,99,0.0,12001085.56,177.5,25679038.92,0,1,False
1871534,0.309939487197,-0.669229767595,Ritter John,799.9433962,7.10754717,68,38468827.84,155475.9479,177.5,8907338.396,0,1,False
2024995,1.23263326487,-1.80871543969,Shalhoub Tony,5774.105263,7.644385965,63,28422996.56,0.0,175.0,50448531.74,0,1,False
2117865,0.289063408642,2.22995519962,Stallone Sylvester,21819.67961,6.402912621,70,82897946.97,19530638.16,172.5,50645364.23,0,1,False
2391681,-0.501815993118,-1.36382885699,Whitmore James,14106.62987,7.123376623,95,5738335.702,0.0,170.0,30755765.08,0,1,False
2456278,-1.18749914456,-1.22498790286,Young Robert,169.7466667,7.144266667,109,13991031.39,0.0,180.0,13029193.99,0,1,False
99456,-0.769698634272,-1.32695364081,Attenborough Richard,11374.10526,6.995906433,93,14955499.51,0.0,167.5,53608364.53,0,2,False
582819,-1.23270565706,-1.30788804201,Donat Robert,2111.78125,7.13125,111,0.0,0.0,180.0,0.0,1,0,False
627458,-1.3584410891,0.262843691327,Egan Richard,564.9285714,6.535714286,95,35294117.65,0.0,180.0,14331967.11,0,2,False
2344715,0.690435280779,1.18158333351,Walken Christopher,25174.99115,6.585840708,73,10046272.03,0.0,180.0,43582479.39,1,0,False
504123,-0.0182797014869,-1.96406513727,Darin Bobby,586.671875,7.3453125,80,0.0,0.0,170.0,10441522.76,0,1,False
726972,-0.308478348174,-1.01120404452,Franciosa Anthony,674.7459016,7.108196721,88,0.0,78431.37255,182.5,14124489.87,0,1,False
728282,1.56730364446,0.922219379119,Franco James,19286.77922,6.77987013,38,40086436.97,5440108.994,177.5,46401593.39,0,1,False
991716,-0.360629955428,1.12367350372,Hoskins Bob,12363.17722,6.742405063,74,47511193.22,0.0,165.0,50523555.76,0,1,False
1763318,-0.0309912404527,-0.161316196414,Plummer Christopher,17195.95769,6.889230769,87,6170254.622,110429.4479,175.0,52975064.95,0,1,False
1802474,-0.585708365897,2.35415994809,Quaid Randy,7986.38,6.3245,66,664068.0761,2058808.942,192.5,34967271.55,0,1,False
2065282,1.23609958888,-1.54471715313,Sinise Gary,6968.974359,7.51996337,61,46499758.29,0.0,172.5,27887610.08,0,1,False
252109,-1.67906228741,-1.45266009969,Boyer Charles,934.1807229,6.980120482,117,0.0,0.0,172.5,34008643.46,0,0,False
418445,-0.264110318564,-1.64484244583,Clift Montgomery,4311.777778,7.404444444,96,33885561.2,1186403.811,175.0,27203070.42,0,0,False
1141909,-1.30425827165,0.161716791857,Kennedy George,2593.678873,6.861690141,91,3379438.205,0.0,190.0,26629298.28,1,0,False
624824,2.61555734627,-1.79941732368,Edwards Anthony,3241.471338,7.478343949,54,6373208.735,56680161.94,185.0,22180462.42,0,1,False
725503,-0.482960371436,-2.19860427104,Foxx Redd,647.172043,7.406989247,94,0.0,0.0,170.0,21254925.13,0,1,False
761501,1.59455389932,-1.25167637258,Gandolfini James,9693.480952,7.462380952,55,396759.5118,18727491.0,180.0,44846767.76,0,1,False
787236,-0.158891574466,1.56706037048,Gere Richard,11210.77059,6.348235294,67,56796240.61,15678051.25,175.0,34425417.56,0,1,False
895837,2.33205375937,-1.79871666873,Hamm Jon,5440.712159,7.736228288,45,18410721.25,0.0,185.0,58425901.57,0,1,False
974512,2.49451174859,1.16845522581,Hoffman Philip Seymour,36391.76974,6.803289474,49,2404862.067,0.0,172.5,34892755.71,0,1,False
1098195,-0.604426931765,0.758949519207,Julia Raul,5416.985714,6.492857143,76,996575.1295,0.0,185.0,39992989.54,0,1,False
1192361,0.965103843512,-3.06969483944,Korman Harvey,1220.102719,7.852567976,89,0.0,0.0,187.5,22176584.53,0,1,False
1329783,1.471814234,-1.56282892659,Lowe Rob,3624.276316,7.551315789,52,28979745.12,0.0,177.5,24198530.23,0,1,False
1504053,-0.561525228457,-2.07918604754,Mineo Sal,2420.227848,7.012658228,77,0.0,1394788.199,165.0,7907650.132,0,1,False
2010712,5.70155629374,15.6478751442,Seinfeld Jerry,1024.130159,7.803174603,62,75113946.45,435483871.0,177.5,21638947.16,0,1,False
2088473,1.57567310944,-1.49220239276,Smits Jimmy,2894.529833,7.423150358,61,4786780.488,0.0,187.5,33378658.59,0,1,False
2184741,-3.13099253498,-1.42460603058,Tamiroff Akim,1461.926667,6.482666667,117,0.0,0.0,162.5,19575315.42,0,1,False
2408692,1.74227282729,2.13548133359,Willis Bruce,34449.95399,6.681288344,61,86986622.1,19124938.06,180.0,55923029.98,0,1,False
2475431,0.0383904178296,-2.56852997043,Zimbalist Jr. Efrem,443.7942974,7.684114053,98,0.0,0.0,180.0,19240378.76,0,1,False
84037,-3.22406336409,-1.86169878734,Arliss George,240.6052632,6.773684211,148,0.0,0.0,167.5,3673846.154,1,0,False
167392,-2.71759537476,-0.683522263072,Beery Wallace,492.4318182,6.534848485,131,11237997.64,0.0,177.5,10135147.01,1,0,False
445816,3.52241907079,0.733143906827,Cooper Bradley,28511.82308,7.412692308,41,130982123.2,6008767.718,182.5,44500167.92,0,0,False
539554,2.59514786489,2.13802015098,Del Toro Benicio,42533.06034,6.662068966,49,52274807.43,0.0,185.0,36505377.68,1,0,False
1455077,-2.86722749717,-0.351463349786,McLaglen Victor,1079.601852,6.527777778,130,11228070.18,537357.0617,185.0,14083338.34,1,0,False
1511310,-3.48845702891,1.38407341443,Mitchell Thomas,8918.0,6.97816092,124,162879570.1,207194.2446,175.0,20547438.27,1,0,False
1923711,3.47645807259,1.94870213902,Ruffalo Mark,51363.13816,6.731578947,49,10163297.93,0.0,170.0,71037828.59,0,0,False
385892,1.5721067131,-0.622248355469,Cheadle Don,15770.9717,7.187028302,52,8613794.711,628716.611,170.0,90074617.18,0,1,False
494401,-1.78821278553,-0.15501961123,Dailey Dan,337.6341463,6.718292683,101,0.0,0.0,187.5,18399835.6,0,1,False
1013605,-1.62802453909,-0.402149721564,Huston John,6365.755435,6.729347826,110,0.0,1653209.412,182.5,23067101.38,0,1,False
1040268,3.60961384738,2.92276242719,Jackman Hugh,46906.72889,7.060888889,48,141214431.3,8927678.041,190.0,107145611.3,0,1,False
1132177,1.04465597832,1.70992612529,Keaton Michael,23948.35088,6.779532164,65,96223970.22,4838771.121,172.5,49021617.74,0,1,False
1415790,-0.394011000936,-0.160521394796,Massey Daniel,4058.853659,6.882926829,83,0.0,0.0,187.5,14634528.78,0,1,False
1836580,-0.185192531348,0.675267921739,Redford Robert,9030.750842,6.872727273,80,81880661.59,8894160.586,175.0,41762634.02,0,1,False
2118341,0.26376802696,0.205424108371,Stamp Terence,16618.50943,6.797484277,78,2527770.387,0.0,180.0,43579860.4,0,1,False
2231944,-1.19982614418,-0.535012378937,Todd Richard,1089.04878,6.812195122,97,41461132.08,0.0,172.5,13923163.36,0,1,False
128141,-3.38471452284,2.10266005301,Balsam Martin,7115.356828,7.042290749,97,182772934.0,0.0,167.5,36226301.92,1,0,False
273731,1.86627310321,1.42398933565,Brody Adrien,27372.4,6.596666667,43,11548760.46,5820243.611,182.5,29256981.88,1,0,False
290602,-1.47792381628,-0.301506560464,Brynner Yul,2409.226804,6.748453608,96,52794565.72,2531643.072,170.0,30589072.01,1,0,False
551069,0.092119809017,-0.537693133127,Dern Bruce,9346.317597,7.029613734,80,6492623.376,0.0,180.0,19986657.11,0,0,False
672786,-0.474774288365,-0.585858373507,Farnsworth Richard,11866.49524,6.96952381,96,860268.4015,0.0,180.0,29482251.53,0,0,False
674758,3.68071020201,0.491993056567,Fassbender Michael,44200.30357,7.341964286,39,10459660.45,0.0,183.0,81396616.11,0,0,False
824904,0.840507045104,1.16732958296,Gooding Jr. Cuba,14185.85354,6.517676768,48,31373919.34,1206591.467,175.0,32563637.33,1,0,False
1255048,2.0637288243,1.20150377935,Law Jude,31505.61491,6.81552795,44,34259248.6,9237738.822,175.0,64304654.73,0,0,False
1372571,1.22609860578,0.367742950066,Malkovich John,23298.58049,6.907804878,63,4097566.648,1660899.654,180.0,50045062.97,0,0,False
1814887,-2.01124819418,-2.39680345469,Rains Claude,9424.714286,7.205102041,127,16779950.77,0.0,165.0,12399416.3,0,0,False
1823048,-0.830221406504,-1.72407890997,Randall Tony,968.8200692,7.146712803,96,0.0,0.0,170.0,13008757.75,0,0,False
1879960,-0.517142736199,-0.539221623088,Robertson Cliff,8785.366667,6.920555556,93,0.0,0.0,180.0,28055594.33,1,0,False
1934524,1.24454805849,-0.950220751527,Rylance Mark,9213.82,7.274,56,34238305.35,0.0,170.0,65005407.86,1,0,False
1958877,-2.17910938936,0.0760070608005,Sanders George,2985.8,6.560645161,110,11351351.35,0.0,187.5,21879041.4,1,0,False
1985272,-1.73446781143,-1.2868726417,Schildkraut Joseph,1134.87931,6.962068966,120,7167990.857,0.0,175.0,22712240.87,1,0,False
2341449,-0.127408642764,-1.27698995906,Wagner Robert,1888.773333,7.224761905,86,0.0,608108.1081,177.5,19182069.33,0,0,False
123110,1.18760828154,-1.47380107956,Bakula Scott,3321.394336,7.493028322,62,19438899.34,0.0,182.0,17913148.37,0,1,False
215538,-1.29444347831,-2.68587902649,Blake Robert,1198.239669,6.932644628,83,487300.516,0.0,160.0,7444656.943,0,1,False
393504,0.880020985505,-1.27897062643,Chiklis Michael,3412.413655,7.085341365,53,2107741.935,0.0,170.0,54095807.56,0,1,False
428555,0.225434634281,-1.42588404697,Coleman Dabney,2401.929204,7.339233038,84,4698199.235,0.0,182.5,33493757.27,0,1,False
716583,-1.16471260892,-0.425367653972,Ford Glenn,2228.257143,6.726857143,100,16958873.05,1192052.98,177.5,28894584.23,0,1,False
839375,1.20636546476,1.23550415553,Grant Hugh,24628.03425,6.656164384,56,44257606.04,12761524.84,177.5,34213678.77,0,1,False
841444,-1.358082614,0.812211572914,Graves Peter,1671.171806,7.133920705,90,85409252.67,55555.55556,187.5,12915961.2,0,1,False
894803,-1.75595927268,2.46207310836,Hamilton George,2501.692308,6.46875,77,145074380.2,0.0,182.5,18249745.89,0,1,False
1055106,0.016472633253,-1.44194753836,Janssen David,159.3075117,7.295070423,85,0.0,0.0,180.0,40823004.4,0,1,False
1090175,1.21297805547,1.77953522199,Jones Tommy Lee,30003.10458,6.636601307,70,72264064.99,14735638.29,180.0,68707446.97,0,1,False
1442933,1.28725198049,-1.47426600471,McDermott Dylan,3769.886435,7.44384858,55,727780.8251,0.0,180.0,26885853.31,0,1,False
1560381,-0.772277061864,-0.00515133359126,Mulligan Richard,584.827027,6.677837838,84,12498876.61,0.0,182.5,27460965.53,0,1,False
1855938,1.78940847039,-0.903468049899,Rhys Meyers Jonathan,8608.356164,7.311643836,39,14316823.64,0.0,177.0,33124083.68,0,1,False
2032780,1.05916363356,-0.299855044708,Sheen Charlie,5817.44717,7.070943396,51,48236233.01,9184107.092,175.0,26643764.92,0,1,False
153007,-0.489202064038,-0.762922591553,Bates Alan,3892.737864,6.838834951,82,101769.9654,0.0,172.5,11433402.0,0,0,False
258054,1.24034558421,-0.911152625583,Branagh Kenneth,10023.49603,7.31984127,56,32143111.36,0.0,172.5,40485235.48,0,0,False
316227,0.292721593068,-0.134702923116,Caan James,11465.70755,7.012578616,76,47158702.17,149536.604,176.0,32672387.83,0,0,False
630924,3.16407850074,1.11546598719,Ejiofor Chiwetel,42928.64634,7.002439024,39,20373543.64,0.0,175.0,57915708.4,0,0,False
716611,1.33074017135,3.50037486978,Ford Harrison,28546.37884,6.739249147,74,168295256.9,21631576.66,182.5,54105500.49,0,0,False
716612,-2.02832786515,-1.86815496867,Ford Harrison,244.2333333,7.17,132,0.0,0.0,177.5,13447057.64,0,0,False
830504,2.31235960882,-0.00996861891052,Gosling Ryan,23234.89437,7.190140845,36,17804859.44,1157742.402,180.0,20575772.96,0,0,False
1006277,1.36306600063,0.0706895088498,Hulce Tom,20646.7,7.072,63,38924784.71,0.0,170.0,50066617.93,0,0,False
1460928,0.0107160906454,-3.81871894967,McQueen Steve,3099.837838,7.410810811,86,169171509.6,3366302.317,172.5,27509951.27,0,0,False
2304375,-1.05990876358,-0.797747583267,Vaughn Robert,984.8361345,6.701890756,84,0.0,0.0,170.0,12012246.01,0,0,False
184483,0.50488340633,0.488267520869,Berenger Tom,16365.95031,6.753416149,67,34104779.61,0.0,177.5,22949858.59,0,1,False
516317,0.135821248939,0.275692283123,Davison Bruce,4315.293605,6.896802326,70,57078302.8,0.0,182.5,15244755.16,0,1,False
590484,0.855853072219,0.319064608648,Dourif Brad,19673.92105,6.803508772,66,11929924.35,0.0,172.5,18825176.07,0,1,False
699246,0.858804391566,-1.85118422902,Firth Peter,3096.221698,7.466037736,63,0.0,0.0,172.5,36043794.01,0,1,False
1436747,-0.980470350952,-1.19900300288,McCarthy Kevin,1919.670157,7.019895288,102,0.0,0.0,175.0,9695742.66,0,1,False
1673233,1.67904017766,-0.0135173548564,Owen Clive,18284.43636,7.117575758,52,16006697.63,0.0,185.0,58732469.19,0,1,False
1728700,-0.472843272712,0.287188137855,Perkins Anthony,5103.436508,6.788095238,84,40142827.97,324324.3243,185.0,26230917.07,0,1,False
2184455,-0.293937965649,-0.0614851930312,Tamblyn Russ,12578.26277,6.708759124,82,0.0,0.0,172.5,22644528.98,0,1,False
2393905,-1.08624064714,-0.82976740869,Widmark Richard,2018.298507,6.901492537,102,19950306.65,0.0,175.0,24383411.79,0,1,False
31603,-5.46781718427,3.92297070454,Albert Eddie,755.4325581,6.954883721,110,310728476.8,0.0,177.5,26953564.24,0,0,False
32184,-1.10539864871,-1.49535964436,Albertson Jack,1767.472527,7.182967033,109,0.0,0.0,182.5,12268956.57,1,0,False
54248,-1.78493261641,0.240108211931,Ameche Don,3696.121739,6.669565217,108,71773321.48,0.0,177.5,22968765.24,1,0,False
146496,-3.02203173037,-0.773192076996,Barrymore Lionel,3744.760976,6.478536585,138,7403508.772,186.8181818,177.5,17447631.09,1,0,False
158115,-2.50026788714,-0.867064582761,Baxter Warner,263.0952381,6.595238095,127,2369536.009,0.0,177.5,5443581.469,1,0,False
178633,1.23585862909,1.05207365019,Benigni Roberto,19323.2,6.684705882,64,9759782.559,0.0,165.0,22911888.35,1,0,False
421607,-0.896857303247,1.00587683825,Coburn James,5985.911348,6.784751773,88,85673298.05,344827.5862,185.0,36683370.51,1,0,False
470372,-2.80348021574,-1.43991274152,Crisp Donald,1391.415584,6.650649351,134,0.0,0.0,170.0,13531902.46,1,0,False
607855,-2.26995059942,-0.466239327558,Dunn James,196.2794118,6.494117647,115,0.0,0.0,180.0,21270643.84,1,0,False
911043,1.52801078282,-0.851513597087,Harrelson Woody,15445.01639,7.325526932,55,9668910.129,8661417.323,172.5,38884407.96,0,0,False
935827,-1.59179705548,-0.222556999226,Heflin Van,1324.712644,6.745977011,108,36164475.37,0.0,182.0,22104596.58,1,0,False
1047042,-2.05579410442,-0.448334442585,Jagger Dean,1372.982143,6.676785714,113,0.0,0.0,185.0,16474788.06,1,0,False
1054429,-2.42698337926,-1.15003993792,Jannings Emil,950.031746,6.803174603,132,105678.5997,0.0,180.0,14035087.72,1,0,False
1356128,0.0401658271546,-1.61895928615,MacLeod Gavin,249.0632911,7.354272152,85,1515910.822,0.0,177.5,4690795.946,0,0,False
1404550,0.322449960363,0.273514019656,Martin Steve,5145.892308,6.994461538,71,71033743.97,14929978.39,180.0,50875695.48,0,0,False
1439975,0.591835195658,-0.185508228914,McCormack Eric,167.1378026,6.734823091,53,92453.10454,368098.1595,177.5,11304469.58,0,0,False
1844264,1.25388829518,-1.1781278264,Reiner Rob,10186.86946,7.386480186,69,191353.4063,6842480.399,185.0,17967289.81,0,0,False
2146204,0.483621201187,-1.03042255745,Strauss Peter,1272.585714,7.252857143,69,39706662.65,0.0,177.5,23670882.59,0,0,False
31606,-0.440770826231,0.552774113431,Albert Edward,305.2,6.499512195,65,0.0,0.0,180.0,12585382.93,0,1,False
113260,0.774059137043,0.0710078117933,Bacon Kevin,13031.41844,6.854255319,58,18640328.9,2467997.422,175.0,27017921.81,0,1,False
179273,-2.01328459503,2.65333590231,Benjamin Richard,2933.680412,6.405154639,78,150015073.6,0.0,185.0,24164811.58,0,1,False
251887,-2.08242472402,2.00014001452,Boyd Stephen,3740.745763,6.042372881,85,88888888.89,0.0,180.0,62354248.25,0,1,False
258628,-0.32614994204,-0.380301524617,Brandauer Klaus Maria,2629.742857,6.735714286,73,11166581.04,0.0,172.5,47556191.97,0,1,False
307524,1.90383087561,-0.516800198921,Buscemi Steve,23644.92105,7.276608187,59,587968.8862,0.0,172.5,39384758.44,0,1,False
442795,-0.806798042584,-2.29599509945,Conway Tim,415.4067797,7.141162228,83,64693761.49,0.0,165.0,6282477.376,0,1,False
512208,0.0107531547181,0.0894820982254,Davis Brad,3586.111111,6.784444444,67,43825724.39,0.0,172.5,3945572.364,0,1,False
719009,-0.080686779846,-1.42352828109,Forrest Steve,1412.242105,7.151052632,91,0.0,0.0,187.5,17930854.56,0,1,False
789102,1.52086904983,-2.45579852681,Gervais Ricky,2351.15083,7.736048265,55,36256052.53,0.0,170.0,62263023.16,0,1,False
924627,-0.0146310305432,0.880255644673,Hauer Rutger,12342.36239,6.466972477,72,6585528.954,0.0,182.5,20127997.14,0,1,False
979340,-0.247310868587,-1.15621649993,Holliman Earl,781.572327,7.145283019,88,0.0,0.0,180.0,7061326.846,0,1,False
995904,0.950998049481,-1.64957819202,Howard Ron,6481.764763,7.420329138,62,0.0,8214339.216,172.5,20618716.0,0,1,False
1076423,1.07438964927,-2.00844489695,Johnson Don,2826.338951,7.650561798,67,8597654.451,229445.5067,177.5,24011732.16,0,1,False
1131212,-0.0308929993005,-0.631791687687,Keach Stacy,4259.257642,6.926637555,75,0.0,0.0,177.5,13722352.61,0,1,False
1176378,-0.510281313316,-1.72575059946,Klugman Jack,1292.9,7.248974359,94,0.0,30747.33096,172.5,1759679.058,0,1,False
1461399,0.643791534082,-1.92715666736,McShane Ian,9666.52,7.414333333,74,39237057.22,0.0,167.5,77417801.79,0,1,False
1541831,0.576452835613,-0.749971567077,Moriarty Michael,1147.557214,6.947263682,75,328726.0232,0.0,190.0,13797363.19,0,1,False
1612837,2.46879865062,0.810474406104,Nighy Bill,29234.8324,7.183798883,67,97900387.31,0.0,185.0,78099022.85,0,1,False
1977676,-0.78885023327,0.00949408296816,Saxon John,2663.507042,6.570070423,81,12830546.43,0.0,175.0,10504362.49,0,1,False
1998523,0.4915964046,2.08566665028,Schwarzenegger Arnold,17470.84958,6.552367688,69,96876169.31,19240963.21,185.0,53645104.22,0,1,False
2027886,-0.953946459845,0.64260990707,Sharkey Ray,477.037037,6.502469136,64,1717412.0,0.0,170.0,17280406.94,0,1,False
2029880,-1.88149706269,1.11525861656,Shatner William,1797.295529,7.112758997,85,122032752.1,0.0,172.5,15338975.37,0,1,False
2341943,1.16470345577,-1.93949871586,Wahl Ken,267.8292683,7.581707317,62,4225564.822,0.0,180.0,25429678.23,0,1,False
201192,-1.96982097176,-1.44818941319,Bickford Charles,685.86,7.041333333,125,0.0,0.0,182.5,30864968.89,0,0,False
391463,-4.01296537495,1.26602187585,Chevalier Maurice,698.26,6.72,128,172811920.5,0.0,175.0,23813916.05,0,0,False
457725,0.992430022691,1.40146752558,Costner Kevin,19980.58009,6.724242424,61,79565659.43,13975166.0,182.5,51335278.53,0,0,False
466672,1.37033182554,-1.77824097674,Cranston Bryan,8850.123711,7.621821306,60,11691252.67,0.0,175.0,54740106.73,0,0,False
807514,-0.245999573342,-2.76428026423,Gleason Jackie,1261.231638,7.714124294,100,14489183.13,1950275.518,172.5,15215139.02,0,0,False
996111,-1.16275944439,-0.144977924552,Howard Trevor,4570.488372,6.857364341,103,49205233.0,0.0,181.5,56323399.59,0,0,False
1594257,2.70589861227,1.5365249668,Neeson Liam,37478.92419,6.958122744,64,59608720.75,9604454.351,190.0,58790546.65,0,0,False
1780117,-2.60389745602,-0.829866122316,Powell William,1256.424779,6.485840708,124,0.0,0.0,175.0,11334070.32,0,0,False
1878093,-0.75253875349,1.82661043677,Roberts Eric,5165.090566,6.152075472,60,4634277.012,0.0,175.0,5098562.414,0,0,False
36669,1.29724372143,-2.97856275484,Alexander Jason,2198.48244,7.620887246,57,34562087.1,0.0,163.0,18825741.66,0,0,False
95858,-0.870435164678,1.38718989772,Assante Armand,4995.788462,6.222435897,67,4831048.42,0.0,175.0,17142788.67,0,0,False
347260,-0.42034712759,-0.0573624049168,Carradine David,4131.104294,6.710633947,80,16465847.45,223048.3271,180.0,6207209.611,0,0,False
460293,0.143341051412,-1.83224240106,Courtenay Tom,4624.333333,7.312,79,48256.12648,0.0,170.0,44737150.61,0,0,False
492883,2.62216302949,1.52493136961,Dafoe Willem,41890.31,6.719,61,5444284.268,0.0,172.5,38165867.32,0,0,False
895724,0.206364327614,-0.639953735149,Hamlin Harry,479.4505929,6.884980237,65,1321675.586,0.0,177.5,7783693.063,0,0,False
909352,1.39937403597,-2.2820251609,Harmon Mark,931.1657519,7.784632272,65,25447274.22,668478.2609,180.0,30315757.12,0,0,False
913830,1.69090670988,-1.30597964787,Harris Neil Patrick,4079.388084,7.345249597,43,0.0,0.0,180.0,36230158.22,0,0,False
926651,1.58618933805,1.06019336732,Hawke Ethan,23430.80952,6.648979592,46,18463466.12,8141129.141,180.0,29800835.69,0,0,False
993421,2.70327312771,1.66683675298,Hounsou Djimon,41024.42,6.647,52,0.0,0.0,182.5,61505691.79,0,0,False
1043091,2.04754079067,1.87951262282,Jackson Samuel L.,37682.62121,6.587662338,68,27455804.3,7956530.803,185.0,56631689.65,0,0,False
1477750,-1.81997234401,-2.34152431538,Meredith Burgess,4784.658824,6.958823529,109,0.0,0.0,162.5,27692463.16,0,0,False
1596708,5.3871489024,-1.60123033808,Nelson Craig T.,4199.655109,7.755109489,72,239401663.4,0.0,187.5,43644389.71,0,0,False
1712402,1.21350069997,0.00805120831583,Paxton Bill,20163.63158,7.043421053,61,12922246.82,0.0,180.0,39208424.66,0,0,False
1845231,0.719341277621,-1.17184492354,Reiser Paul,3334.95881,7.183295195,59,0.0,0.0,175.0,18271961.99,0,0,False
1847950,4.25104234438,1.9066437691,Renner Jeremy,61342.81967,6.996721311,45,39425285.33,3454000.474,175.0,91549097.85,0,0,False
1983047,-0.610514565244,-0.0340100608411,Scheider Roy,7992.028708,6.684688995,84,28544969.86,0.0,172.5,22996831.8,0,0,False
2221454,0.606367752893,0.466799367569,Thornton Billy Bob,14198.49246,6.717085427,61,31738067.25,0.0,175.0,38395844.77,0,0,False
86165,0.321850398899,-0.753323778338,Arnaz Jr. Desi,111.3609023,6.926315789,63,0.0,145287.3563,177.5,4254338.786,0,1,False
141822,2.09610512027,0.852533799675,Baron Cohen Sacha,19825.13966,6.936871508,45,70319746.32,0.0,187.5,91404177.91,0,1,False
146113,-0.104682149678,-2.00326526414,Barry Gene,1311.786441,7.484745763,97,17267326.73,9056.603774,180.0,14317223.4,0,1,False
152877,1.84574156159,-0.679159094764,Bateman Jason,14642.21222,7.384565916,47,38437254.19,0.0,177.5,32655211.4,0,1,False
186156,-1.19674334819,-0.00383616667768,Bergerac Jacques,567.4,6.742857143,89,0.0,0.0,187.5,5019744.424,0,1,False
196515,0.176107570609,-2.56805505235,Betz Carl,47.81659389,7.676419214,95,0.0,0.0,180.0,7505617.978,0,1,False
242830,1.11547966276,-1.18600834822,Bostwick Barry,886.1695402,7.13908046,71,14115479.38,0.0,190.0,5797052.669,0,1,False
243893,0.187309136753,-0.175836983676,Bottoms Joseph,384.527027,6.72027027,62,0.0,0.0,180.0,35698115.27,0,1,False
313463,0.738826527656,-1.17209954452,Byrne Gabriel,8014.981343,7.297761194,66,8239903.809,0.0,175.0,32319046.71,0,1,False
353178,0.794129940646,-1.00995905915,Caruso David,1714.616564,7.211656442,60,13154461.48,266814.8972,180.0,43003133.49,0,1,False
498351,-1.97217235639,2.08415121279,Damon Mark,12808.9646,5.909734513,83,0.0,0.0,181.0,19167694.29,0,1,False
502794,-0.700946379651,-0.404619953011,Danton Ray,435.9589041,6.740410959,85,0.0,0.0,180.0,9229508.377,0,1,False
548203,-0.301405800755,0.324259396368,Dennehy Brian,6907.683036,6.658035714,78,964590.1973,0.0,185.0,24062484.99,0,1,False
567844,-0.453026038529,-0.536201193641,Dillman Bradford,1070.911565,6.914285714,86,22085889.57,0.0,180.0,20252444.23,0,1,False
582346,-1.26794372266,1.53232174728,Donahue Troy,8231.672727,6.192727273,80,0.0,0.0,185.0,364209.9934,0,1,False
604797,-0.37106887931,0.320824706071,Dullea Keir,6091.642857,6.669642857,80,33855388.8,0.0,182.5,19480635.85,0,1,False
662177,-0.769496500285,-1.92921972954,Ewell Tom,833.5263158,7.335789474,107,0.0,0.0,180.0,14978161.93,0,1,False
671047,-0.0706122939275,-0.987578006454,Farentino James,645.2794118,7.043382353,78,570735.3135,0.0,177.5,14749755.18,0,1,False
673438,1.84863088496,0.862889241077,Farrell Colin,23636.04969,6.758385093,40,24056243.88,6507060.384,175.0,49070901.72,0,1,False
778540,-0.326555271973,0.680968108576,Gavin John,10564.62264,6.771698113,85,0.0,0.0,190.0,6267949.069,0,1,False
892519,-0.982843377463,0.34230576462,Halsey Brett,2333.624113,6.54893617,83,0.0,0.0,185.0,4739376.709,0,1,False
975730,-1.23073724439,1.99324258993,Hogan Paul,7043.568182,6.909090909,77,135839254.0,0.0,172.5,26911451.0,0,1,False
1092239,-0.103324399053,-0.0228867010772,Jordan Richard,7092.724138,6.801724138,79,3458233.577,0.0,185.0,35699686.99,0,1,False
1206029,-0.406524594564,-0.0557259015743,Kristofferson Kris,5036.100358,6.707885305,80,23203565.44,0.0,177.5,27814249.63,0,1,False
1243801,0.668068922766,-0.662354357825,LaPaglia Anthony,3017.514286,6.983809524,57,1486049.201,0.0,178.0,30369244.36,0,1,False
1355708,1.58947588634,-1.97515403501,MacLachlan Kyle,3427.16568,7.681952663,57,8885839.428,0.0,181.0,39293783.63,0,1,False
1510863,-1.68462529142,-0.740855073458,Mitchell Millard,8163.029412,6.902941176,113,0.0,0.0,185.0,9032251.14,0,1,False
1578542,-2.38883748125,0.593655412346,Nader George,313.9655172,6.175862069,95,8988764.045,0.0,182.5,797611.0942,0,1,False
1597022,-0.350675364825,-1.64218839066,Nelson Gene,326.4444444,7.288888889,96,0.0,0.0,180.0,21505421.62,0,1,False
1633259,0.37520285319,-2.60940393594,O'Brian Hugh,473.1444759,7.721529745,91,0.0,0.0,180.0,8471704.439,0,1,False
1635418,-0.827060304111,-1.911794574,O'Connor Donald,1700.71223,7.079856115,91,0.0,819923.4763,167.5,15979466.32,0,1,False
1729472,1.11744110401,-1.23826822249,Perlman Ron,5588.271429,7.431111111,66,32374005.5,0.0,182.5,32060263.53,0,1,False
1784898,2.73555878639,-1.22428264102,Presnell Harve,22780.6729,7.468224299,83,0.0,0.0,192.5,42863303.5,0,1,False
1854820,1.24298208172,1.60815989783,Rhames Ving,23057.93939,6.351515152,57,0.0,0.0,180.0,44429813.99,0,1,False
1859844,-1.46166979234,0.141597502686,Richards Jeff,1283.314286,6.554285714,92,0.0,0.0,185.0,10724536.47,0,1,False
1863180,3.8675676976,0.358625743109,Rickman Alan,49708.28346,7.337795276,70,362810.8731,0.0,185.0,59134745.35,0,1,False
1915655,0.781287868672,1.79364506087,Rourke Mickey,22245.80142,6.25248227,64,15202983.47,2643034.429,177.5,32437936.16,0,1,False
2118795,-1.14196312767,-1.3036076504,Stander Lionel,1516.641434,7.073705179,108,0.0,0.0,180.0,19805439.31,0,1,False
2366951,-0.355885104143,-0.111460953859,Wayne Patrick,2773.840909,6.720454545,77,0.0,99.58506224,182.5,26861471.09,0,1,False
2434128,2.56036075563,-0.196790980374,Wright Jeffrey,25720.82353,7.459558824,51,69953965.02,0.0,177.5,46506862.67,0,1,False
44674,-1.70486444243,1.37621270472,Allen Woody,13176.28094,6.631103679,81,58275275.9,2218785.481,162.5,23706437.92,0,0,False
422508,-0.550415565029,-0.874285456269,Coco James,1409.535714,6.8875,86,0.0,0.0,175.0,21629867.16,0,0,False
441788,0.225446945266,0.186337998281,Conti Tom,14744.45455,6.707954545,75,57187.12409,0.0,177.5,12728533.44,0,0,False
484871,-1.0302499204,-0.401907892637,Curtis Tony,2882.154341,6.684565916,91,26159014.38,1597550.678,172.5,11693280.22,0,0,False
718905,-0.86310312869,0.641951096367,Forrest Frederic,8312.897959,6.380612245,80,802094.9223,0.0,175.0,24850966.69,0,0,False
764222,0.721789848896,0.35634408328,Garcia Andy,14912.24309,6.722651934,60,13017762.84,0.0,178.0,26313978.84,0,0,False
876295,2.58495544996,0.950531895619,Gyllenhaal Jake,33074.51429,6.902142857,36,34041832.68,3343317.972,177.5,35971854.13,0,0,False
1547669,2.41569465141,1.12316330149,Mortensen Viggo,38692.45238,6.867857143,58,18795102.78,0.0,177.5,32996991.23,0,0,False
1639205,0.0395985601684,-0.416020053897,O'Neal Ryan,2299.77931,6.937241379,75,21341400.05,3305785.124,182.5,14625216.73,0,0,False
1712668,0.86344647454,-2.164287121,Paymer David,5809.672241,7.397658863,62,192123.1409,0.0,167.5,44273209.09,0,0,False
1785549,-0.867215764237,-0.991008869609,Preston Robert,1351.833333,6.98452381,98,19505016.52,1702.12766,175.0,27422440.02,0,0,False
2145598,0.67164076216,-0.263505183566,Strathairn David,14043.29082,6.948469388,67,316036.1662,0.0,177.5,30319601.51,0,0,False
2342010,2.66711739377,-0.795358420121,Wahlberg Mark,14330.5154,7.467556468,45,85868936.47,11494802.64,170.0,54451400.67,0,0,False
2397289,-0.162450838719,0.272795082563,Wilder Gene,7434.147727,7.010227273,83,80926462.32,71856.28743,175.0,13548820.44,0,0,False
130045,0.432426174574,2.20627909286,Banderas Antonio,15235.60699,6.277292576,56,56049553.32,11190272.86,170.0,49960406.9,0,0,False
256787,2.48968522648,-1.99040003577,Braff Zach,3942.784722,7.8125,41,39899176.93,523364.486,182.25,53249931.79,0,0,False
468787,0.0502699115445,-1.53756329771,Crenna Richard,2830.665517,7.300689655,90,0.0,0.0,182.5,50028131.87,0,0,False
477307,-0.575038220518,1.64536736329,Crystal Billy,6509.052402,6.942358079,68,102348541.8,0.0,167.5,45556947.05,0,0,False
501071,1.72787406571,0.121587397376,Daniels Jeff,17176.70115,7.066666667,61,32306015.09,1214574.899,189.0,32823168.86,0,0,False
502963,-0.00339635537798,-0.137609441172,Danza Tony,1332.758333,6.713958333,65,23353339.35,0.0,172.5,11097138.21,0,0,False
509004,13.3979815327,6.73731504479,David Larry,1091.444196,8.098214286,69,5935336.469,387096774.2,177.5,2333623.057,0,0,False
531850,-0.548577328806,-1.47307946787,Dean James,1690.97561,6.996341463,85,0.0,137423.1782,170.0,2018518.232,0,0,False
594297,0.712132798933,-0.408390688972,Drake Larry,2873.743961,6.948792271,67,14375081.4,0.0,187.5,12792659.02,0,0,False
619703,2.48227594222,0.135423879136,Eastwood Clint,19155.32055,7.19708589,86,94815867.68,10303635.13,190.0,32429283.96,0,0,False
633435,3.12541250433,-0.716811263906,Elba Idris,21594.285,7.5685,44,44037902.44,0.0,190.0,55527586.92,0,0,False
770293,-1.2570516146,-1.98491329587,Garfield John,1196.684211,7.050877193,103,0.0,0.0,167.5,18542162.95,0,0,False
779982,-0.515086198494,-0.704046963759,Gazzara Ben,4784.911392,6.831223629,86,78472.47387,0.0,175.0,16129780.36,0,0,False
944863,-0.175836213822,0.094744915927,Henriksen Lance,8390.870166,6.64558011,76,3720903.336,0.0,178.5,11976666.59,0,0,False
995617,-1.68872907071,-1.66166782856,Howard Leslie,4508.225806,7.066129032,123,0.0,0.0,175.0,6913543.975,0,0,False
1262838,1.77011660239,-2.44194093532,LeBlanc Matt,1890.516355,7.710046729,49,4823997.168,19847844.15,172.5,39704030.33,0,0,False
1357256,0.772310737224,-1.20311098184,Macy William H.,9704.201681,7.267507003,66,5971583.103,759894.9136,173.0,33311978.71,0,0,False
1528030,-2.07619499732,-0.26204942619,Montgomery Robert,711.7641509,6.556603774,112,19501345.29,0.0,182.5,9006921.391,0,0,False
1540133,-2.1631489307,-1.70577423961,Morgan Frank,14295.21101,6.881651376,126,0.0,0.0,170.0,15102963.62,0,0,False
1547078,1.42634521932,-2.21035530511,Morrow Rob,1287.573913,7.647826087,54,381556.3173,0.0,175.0,18792020.51,0,0,False
1595463,1.5156687763,-0.113800434403,Neill Sam,8056.701068,7.215302491,69,98711260.6,0.0,182.0,39073470.64,0,0,False
1634806,-1.44794023576,-0.983421265296,O'Connell Arthur,4415.690265,6.798230088,108,0.0,0.0,175.0,23729818.58,0,0,False
1748911,-2.23053696108,-0.24938850926,Pidgeon Walter,1443.196203,6.767088608,119,44753760.67,0.0,185.0,17819495.67,0,0,False
1828272,-2.14192910408,-1.06760138691,Rathbone Basil,1876.642857,6.847619048,124,0.0,71856.28743,182.5,14989219.79,0,0,False
1861412,-1.09561949144,-2.08238803963,Richardson Ralph,2470.85,7.390833333,114,53046092.98,0.0,180.0,20115417.17,0,0,False
2167549,0.475467429848,0.216997761795,Swayze Patrick,10333.76224,6.796503497,64,42889304.16,0.0,175.0,19713429.21,0,0,False
2357544,-0.758869883821,-0.887781328958,Warden Jack,5593.915493,6.905164319,96,3094663.145,0.0,175.0,24390055.25,0,0,False
2391104,1.67742120017,-2.36620879662,Whitford Bradley,4200.265306,7.814540816,57,0.0,0.0,177.5,28881163.87,0,0,False
2407447,0.694236662967,-1.09281319032,Williams Treat,7279.909091,7.234181818,65,7574874.332,0.0,175.0,31189220.43,0,0,False
2430872,-2.16073719992,-1.48418326543,Woolley Monty,1100.969697,6.875757576,128,0.0,0.0,175.0,16920555.81,0,0,False
2437511,2.10866432705,-2.06712396445,Wyle Noah,2517.869663,7.696404494,45,0.0,0.0,182.5,12732945.69,0,0,False
17351,4.20977582188,2.17474834612,Affleck Casey,59672.83333,6.619444444,41,4874689.81,0.0,175.0,24675172.03,0,0,False
23776,-0.257346289825,2.08559381025,Aiello Danny,19617.75397,6.344444444,83,6337401.815,0.0,189.0,20866532.43,0,0,False
132158,0.000488059906375,-0.513041214254,Bannen Ian,8893.116667,7.073333333,88,35710166.15,0.0,182.5,19166422.7,0,0,False
149282,0.623771010861,-2.33871686963,Baryshnikov Mikhail,1692.0,7.45974026,68,18216510.76,0.0,167.5,30853345.4,0,0,False
162036,-0.424297174003,-1.32487986244,Beatty Ned,8582.411017,6.827966102,79,142652.2648,0.0,167.5,41388269.13,0,0,False
275449,1.74776419331,0.343570181349,Brooks Albert,29734.96703,7.031868132,69,19280850.92,4858299.595,175.0,49815933.47,0,0,False
299079,0.150109318479,-0.769688543215,Buono Victor,1281.589744,6.921367521,78,0.0,0.0,187.5,34027038.3,0,0,False
307805,-1.00389453251,1.405665384,Busey Gary,5003.757463,6.192537313,72,15611308.94,0.0,180.0,13656133.15,0,0,False
322913,-2.10699646576,-0.888925559288,Calhern Louis,3024.753247,6.771428571,121,0.0,0.0,182.5,16304288.55,0,0,False
357470,-0.396072047018,-2.09122782238,Cassavetes John,2833.900763,7.245801527,87,12448277.72,0.0,167.5,14753535.84,0,0,False
472347,-1.88606446508,-1.9576560277,Cronyn Hume,4030.12766,6.971276596,105,69603796.48,0.0,165.0,35314191.41,0,0,False
480515,3.30203033109,-0.59838868285,Cumberbatch Benedict,29426.94286,7.702285714,40,50306276.98,0.0,180.0,67418883.26,0,0,False
568110,0.831254016714,0.519057918111,Dillon Matt,10714.62308,6.634615385,52,10472296.44,0.0,180.0,21526070.28,0,0,False
630409,2.78242485349,1.08921374316,Eisenberg Jesse,31867.08602,6.755913978,33,32379859.5,0.0,171.0,41250441.62,0,0,False
700474,1.61125331631,-0.661473921147,Fishburne Laurence,15656.87376,7.342326733,55,27013241.25,180290.7833,180.0,43354946.89,0,0,False
827680,0.377841655024,-2.24360935387,Gordon Dexter,7064.785714,7.114285714,93,7109717.518,0.0,192.5,0.0,0,0,False
832464,0.243836855943,0.0621193099809,Gould Elliott,7835.316265,6.879216867,78,20208836.68,0.0,187.5,11704323.57,0,0,False
919867,-1.14189979158,0.841795450405,Harvey Laurence,3236.114943,6.622988506,88,80792582.78,3047619.048,180.0,32470272.19,0,0,False
926756,1.20122027118,-0.896447033139,Hawkes John,12086.09524,7.247619048,57,3685287.07,0.0,175.0,27470241.74,0,0,False
928144,-2.44815208004,-1.81076360932,Hayakawa Sessue,3733.957447,6.785106383,127,0.0,2774566.474,167.5,8356043.812,0,0,False
962670,3.75259101453,3.16194892118,Hill Jonah,53695.92857,6.605844156,33,102748812.7,0.0,167.5,59418589.13,0,0,False
987769,-0.617717550046,-0.363907064735,Hopper Dennis,4795.706751,6.671097046,80,5043175.939,0.0,172.5,9701071.788,0,0,False
996037,1.23675261307,0.0325019004944,Howard Terrence,11623.59839,6.902008032,47,17734916.55,771756.4468,180.0,29389646.21,0,0,False
1134645,1.757729352,1.64443640721,Keitel Harvey,31929.99095,6.605882353,77,5656267.967,0.0,167.5,28632183.07,0,0,False
1137800,-1.20870177842,-1.58972531213,Kelly Gene,2927.086275,7.008235294,104,12814285.7,0.0,170.0,23056755.35,0,0,False
1165130,0.975513578054,0.967521057545,Kinnear Greg,16271.5597,6.523880597,53,14975322.17,0.0,175.0,35471916.72,0,0,False
1543146,-1.74181098715,-0.611954888948,Morley Robert,2040.570175,6.655263158,108,0.0,0.0,180.0,24849437.23,0,0,False
1638151,0.979831423617,-1.15206771963,O'Keefe Michael,3537.291667,7.246428571,61,1609820.607,0.0,182.5,12344161.14,0,0,False
1746351,1.87247250418,-0.213781871597,Phoenix River,20179.16667,7.095833333,46,6535709.005,0.0,175.0,38330555.01,0,0,False
1833639,0.302650654927,-0.386284805705,Rea Stephen,9776.240506,6.849367089,70,556789.7889,0.0,175.0,20387271.97,0,0,False
1913923,1.77447770095,-0.30382460261,Roth Tim,17807.47317,6.994146341,55,14670408.0,0.0,167.5,28979326.6,0,0,False
1968201,0.171305962482,0.0550416168606,Sarandon Chris,8514.284722,6.833333333,74,29819487.55,0.0,182.5,10617918.45,0,0,False
2026628,2.949376659,-0.600102828668,Shannon Michael,24480.43046,7.41986755,42,1440358.046,0.0,187.5,35031187.73,0,0,False
2031108,-0.155398646399,-0.393851259754,Shaw Robert,9919.5,7.005813953,89,44533128.66,2600390.151,178.0,17884091.43,0,0,False
2035181,1.15471995943,0.492610762472,Shepard Sam,22503.34286,6.844761905,73,13156194.04,0.0,185.0,37081584.3,0,0,False
2145350,-0.902107960775,-3.68263491612,Strasberg Lee,29608.48276,7.4,115,0.0,0.0,162.5,13303820.26,0,0,False
2246380,-2.49145223939,-0.807001943797,Tracy Lee,374.0465116,6.474418605,118,0.0,0.0,175.0,6906521.331,0,0,False
2362114,3.99441186813,1.72937645607,Watanabe Ken,57308.46154,7.049230769,57,53670887.19,0.0,184.0,102859304.0,0,0,False
2376853,-0.782466050412,-0.801740138221,Welles Orson,4541.241135,7.113475177,101,45267936.28,659046.7669,182.5,26129591.75,0,0,False
2396859,0.082098595083,-2.71941690927,Wild Jack,4614.435897,7.084615385,64,0.0,6539509.537,162.5,24447397.96,0,0,False
2437964,-1.96039012454,-1.71030993158,Wynn Ed,6603.985294,7.098529412,130,0.0,0.0,180.0,10791076.76,0,0,False
122117,2.06474378384,-2.68998739958,Baker Simon,3680.625714,7.907142857,47,8498884.583,0.0,172.5,33478851.47,0,0,False
155871,0.222456605724,0.841221040915,Bauer Steven,4541.596567,6.569957082,60,23942030.41,0.0,185.0,7385608.765,0,0,False
182285,0.910235664875,-1.45129674499,Benson Robby,2082.21466,7.34973822,60,26335940.48,0.0,175.0,23768921.19,0,0,False
190030,-0.236909830762,-1.80742211672,Bernardi Herschel,211.0988372,7.328488372,93,0.0,0.0,177.5,27487597.35,0,0,False
191097,0.376918128274,-0.441006934915,Bernsen Corbin,1044.85084,6.797689076,62,0.0,0.0,180.0,5872176.855,0,0,False
197647,0.610775623032,-1.65986918368,Beymer Richard,2322.903226,7.348387097,78,274409.6386,0.0,185.0,26011516.21,0,0,False
212095,2.54762624921,0.213927219817,Black Jack,14585.84384,6.913213213,47,80663632.54,1770520.186,165.0,48673698.55,0,0,False
226933,-0.899828797749,-1.70566224701,Bogarde Dirk,1168.216981,7.038679245,95,1609782.047,577626.2943,170.0,20471857.27,0,0,False
276233,-2.64753546312,0.585974226731,Brooks Mel,11303.1963,6.688518519,90,75075406.92,0.0,162.5,18421390.9,0,0,False
277032,0.958645284965,0.510348443371,Brosnan Pierce,7750.671196,6.930163043,63,71075755.04,14609067.28,185.0,50653600.88,0,0,False
305348,0.00703575771929,-2.43233632757,Burr Raymond,741.9472843,7.571405751,99,10881726.91,0.0,182.5,16131373.01,0,0,False
327327,-0.525662920936,2.15017792097,Cameron Kirk,527.3660377,6.212075472,46,10868177.12,1179009.541,175.0,2162007.829,0,0,False
329334,-0.379240544185,-0.515933588453,Campbell Glen,860.5802469,6.79382716,80,370122.3119,0.0,180.0,20768405.05,0,0,False
382864,2.20578097443,-1.08958213309,Chase Chevy,3000.406103,7.19741784,73,54800957.04,7497054.266,193.0,32295365.28,0,0,False
405296,1.16276369571,-0.348775149655,Church Thomas Haden,9556.7251,7.132270916,56,43188803.84,0.0,181.0,70929180.33,0,0,False
421169,-0.658680773434,-1.8369892731,Cobb Lee J.,4312.508929,7.299553571,105,0.0,608108.1081,177.5,18129504.04,0,0,False
441126,-0.414793774582,-2.44486361364,Constantine Michael,1055.803279,7.373360656,89,0.0,0.0,167.5,11296670.39,0,0,False
546737,1.61234291864,-2.01750820543,Dempsey Patrick,3376.002653,7.624933687,50,15330070.09,384024.5776,175.0,40122558.44,0,0,False
637503,1.17512680305,-0.44276474622,Elliott Sam,14281.58282,7.225766871,72,35975100.0,0.0,185.0,39245027.9,0,0,False
661142,-0.424883697262,-0.184115370244,Everett Chad,2739.313433,6.720895522,79,0.0,0.0,182.5,17899900.8,0,0,False
