id_data,x_data,y_data,z_data,votes,rating,gross,salary,age,heightcm,budget,academy,golden,sample
468787,-0.0408013330861,0.520213992165,Crenna Richard,2830.665517,7.300689655,0.0,0.0,90,182.5,50028131.87,0,0,False
1372571,-0.476933568818,0.426566196481,Malkovich John,23298.58049,6.907804878,4097566.648,1660899.654,63,180.0,50045062.97,0,0,False
1006277,-0.269441612481,0.834332035806,Hulce Tom,20646.7,7.072,38924784.71,0.0,63,170.0,50066617.93,0,0,False
187741,-0.52375698847,0.626543390853,Berkel Christian,17848.6729,6.663551402,0.0,0.0,59,173.0,50128255.04,0,0,False
2462499,0.253285532626,0.792679969362,Zahn Steve,12952.37838,7.278378378,16687875.15,2703533.026,49,171.0,50146323.33,0,0,False
2205514,-0.104344673044,0.581797257164,Terry Nigel,7487.80597,7.059701493,5970058.581,0.0,71,177.5,50152235.29,0,0,False
333165,-0.845718370841,-0.257257966691,Canet Guillaume,8010.838235,6.552941176,325565.1405,0.0,43,176.0,50269221.84,0,0,False
2142034,-0.868332641461,0.396101156779,Stone Skyler,8621.6875,6.60875,0.0,0.0,37,170.0,50333720.98,0,0,False
489397,0.454942938676,-0.525225088634,D'Arcy James,15875.04274,7.321367521,0.0,0.0,41,187.5,50350300.31,0,0,False
794046,-0.261745800667,0.62871217199,Gibbs Timothy,8134.423077,6.888461538,0.0,0.0,49,175.0,50434455.37,0,0,False
2024995,0.287693862797,0.694748578706,Shalhoub Tony,5774.105263,7.644385965,28422996.56,0.0,63,175.0,50448531.74,0,1,False
419269,-0.804690436745,0.346494803539,Clooney George,15037.86581,6.734375,71410442.29,8815443.672,55,177.5,50473341.01,1,3,False
991716,-0.466088303539,0.782808625896,Hoskins Bob,12363.17722,6.742405063,47511193.22,0.0,74,165.0,50523555.76,0,1,False
2117865,-0.92676886537,0.286415147618,Stallone Sylvester,21819.67961,6.402912621,82897946.97,19530638.16,70,172.5,50645364.23,0,1,False
277032,-0.828791390588,-0.127804408934,Brosnan Pierce,7750.671196,6.930163043,71075755.04,14609067.28,63,185.0,50653600.88,0,0,False
1626457,0.604562671749,-0.475572921275,Novak Kayvan,2488.688525,7.478688525,51525364.96,0.0,38,182.5,50689375.51,0,0,False
408091,0.37264216545,-0.587909296724,Cioffi Jon,66947.5,7.15,0.0,0.0,25,177.5,50689375.51,0,0,False
897635,0.412220591766,-0.599478917514,Hampton Sean,35573.84211,7.147368421,0.0,0.0,35,182.5,50699349.01,0,0,False
616274,-0.00762916741706,0.737887218768,Dzundza George,4199.841176,7.180588235,326635.3339,0.0,71,172.5,50715517.22,0,0,False
1704056,-0.356236434086,0.427907462249,Pastorelli Robert,2743.421801,6.833175355,12140867.29,0.0,62,178.0,50716443.99,0,0,False
1767636,-0.112122051235,0.516135016554,Pollack Sydney,13317.14286,7.08156682,0.0,0.0,82,180.0,50805590.08,0,0,False
1349098,0.320026841807,0.355880920758,Maar Pons,3970.92,7.395,0.0,0.0,65,180.0,50821533.24,0,0,False
914045,-0.551012745035,0.421753904139,Harris Richard,21641.0,6.806837607,78335643.41,0.0,86,182.5,50850500.95,0,1,False
1356602,0.342814684674,0.693150413022,MacNicol Peter,1815.986014,7.567599068,6357594.719,0.0,62,170.0,50871872.74,0,0,False
1404550,-0.857607125502,0.277000736792,Martin Steve,5145.892308,6.994461538,71033743.97,14929978.39,71,180.0,50875695.48,0,0,False
676677,-0.612200202546,-0.311340487491,Favreau Jon,36633.63211,7.019397993,14895366.89,10669559.3,50,182.5,50966041.21,0,0,False
1540348,0.589433209665,-0.319236007632,Morgan Jeffrey Dean,10691.45699,7.579569892,38651244.41,0.0,50,185.0,50972292.73,0,0,False
1540462,0.750822716124,0.068602728051,Morgan Joseph,3725.075472,8.493081761,0.0,0.0,35,177.5,51010847.39,0,0,False
2167253,-0.519883534514,0.746756720553,Swardson Nick,14662.33333,6.785802469,1322772.504,0.0,40,170.0,51049689.73,0,0,False
2406454,-0.674276744802,0.586171977068,Williams Robin,9865.513135,6.871628722,93078532.86,6953453.062,65,167.5,51104904.12,1,4,False
2028696,0.792741449402,-0.083092870947,Sharma Suraj,41593.75,7.833333333,124987023.0,0.0,23,172.5,51114895.92,0,0,False
760601,0.0761878599706,0.501964689143,Gambon Michael,22509.75238,7.307619048,2584524.923,0.0,76,180.0,51231841.31,0,0,False
457725,-0.934467457366,-0.0527511234955,Costner Kevin,19980.58009,6.724242424,79565659.43,13975166.0,61,182.5,51335278.53,0,0,False
2073513,-0.936704390709,-0.21494118391,Slattery Ryan,8603.095238,6.285714286,0.0,0.0,34,172.5,51342488.21,0,0,False
915659,-0.463044274068,0.516407471058,Harrison Rex,1696.659091,6.835227273,41703359.08,2064395.651,108,185.5,51350028.9,1,1,False
270020,0.73825508337,-0.0217194860642,Brimmer Nathan,30752.08696,7.691304348,0.0,0.0,38,177.5,51442823.59,0,0,False
1724228,-0.690878105676,-0.426955222312,Pepper Barry,42233.35366,6.596341463,15518514.73,0.0,46,178.0,51505441.51,0,0,False
2304430,-0.674755200534,-0.564657134163,Vaughn Vince,22313.56831,6.454098361,62302121.84,14949731.76,46,192.5,51599617.29,0,0,False
1917166,0.751532859372,-0.292500098769,Rowe Charlie,14277.0,7.5,37163835.73,0.0,20,175.0,51620857.29,0,0,False
606473,-0.276175309802,-0.612911659243,Duncan Michael Clarke,23873.02793,6.401675978,0.0,0.0,59,196.0,51637114.66,0,0,False
2104996,0.752369297809,0.0318214023534,Space Gaku,20207.5625,7.3,0.0,0.0,37,175.0,51656743.33,0,0,False
967925,-0.0322132975601,0.640949385043,Hirsch Judd,4247.594937,7.486582278,0.0,0.0,81,180.0,51744825.09,0,1,False
2345505,0.681015627877,0.0616066442829,Walker Eamonn,3084.831373,8.076862745,74500.34843,0.0,54,182.5,51811145.92,0,0,False
215273,0.163884972291,-0.401997745194,Blake Geoffrey,19849.448,7.132,32214885.95,0.0,54,182.5,51828352.8,0,0,False
889935,-0.10305661063,-0.691638351907,Hall Kevin Peter,14747.5098,6.564705882,51998493.65,0.0,61,215.0,51969370.27,0,0,False
2069247,-0.427771588023,-0.40940175322,Skarsg_Îârd Stellan,39741.91358,6.609876543,10715708.24,1190476.19,65,187.5,51999249.24,0,0,False
1304312,0.328577647267,0.7181565887,Linn-Baker Mark,967.9033816,7.617874396,0.0,0.0,62,167.5,52008281.77,0,0,False
1742445,0.109662833312,0.859663368001,Phan Dat,2611.6,7.108571429,0.0,0.0,41,162.5,52013190.21,0,0,False
825300,-0.696209659819,-0.0452661654061,Goodman John,10302.01377,7.056798623,80318935.44,3697909.027,64,185.0,52071151.55,0,1,False
1122693,0.563594937005,-0.0603537199069,Kasche Edward,92844.0,7.4,0.0,0.0,35,175.0,52098408.1,0,0,False
1635663,0.50156581997,0.29388125779,O'Connor Kevin J.,14894.23301,7.295145631,0.0,0.0,53,177.5,52236955.8,0,0,False
2444633,0.396767633711,0.667372039223,Yang Joseph Steven,9884.866667,7.186666667,0.0,0.0,48,172.5,52237653.6,0,0,False
2032658,0.711930303295,-0.262043427125,Sheehan Robert,3358.961039,7.638961039,0.0,0.0,28,180.0,52246110.02,0,0,False
22688,0.690155082512,0.392546359774,Ahmed Riz,14316.52381,7.385714286,414709.9573,0.0,34,170.0,52277657.96,0,0,False
1415325,-0.7319468007,-0.448900347103,Massa Joseph,59808.0,6.266666667,0.0,0.0,27,172.5,52335455.19,0,0,False
891011,-0.217632376601,0.568073097121,Hallahan Charles,2920.688797,6.917427386,0.0,0.0,73,177.5,52348115.13,0,0,False
359000,-0.26566817448,0.20245437906,Castellaneta Dan,2241.879652,7.449836779,212020110.0,293548.3871,59,175.0,52477105.83,0,0,False
320580,-0.528775761945,0.415326188129,Caine Michael,34222.2899,6.885016287,26002932.94,1851851.852,83,185.0,52518281.42,2,3,False
698020,-0.37276500252,0.729111647498,Finney Albert,25410.0614,7.228070175,24294464.44,2487046.632,80,172.5,52533237.27,0,3,False
851284,0.55700555676,0.434284805839,Gretsch Joel,6277.860465,7.492248062,0.0,0.0,53,175.0,52555679.93,0,0,False
273403,-0.63904876534,0.65758492781,Broderick Matthew,14074.39286,6.775,62275243.23,0.0,54,170.0,52593476.67,0,0,False
1979727,-0.342116572991,-0.811455680824,Scardino Hal,21803.33333,6.7,56090707.09,0.0,32,180.0,52629332.55,0,0,False
471923,0.0786958841186,-0.262295327135,Cromwell James,13234.99051,7.246518987,683846.3818,0.0,76,195.0,52747914.37,0,0,False
487208,0.482120493704,0.567452360693,Czerny Henry,6063.81761,7.597484277,417343.838,0.0,57,172.5,52804764.72,0,0,False
1302318,0.0230480178833,-0.509427729227,Lindo Delroy,18681.1371,7.159677419,56870545.88,0.0,64,190.0,52811447.99,0,0,False
999155,-0.461161099851,-0.572591366132,Hsu Art,45230.14286,6.657142857,0.0,0.0,41,178.0,52843101.43,0,0,False
992948,-0.428714821067,-0.759686663528,Hough Derek,1785.816327,6.723129252,123979.116,0.0,31,175.0,52898844.36,0,0,False
1536330,0.0872686831434,0.837392067547,Moranis Rick,9559.359649,7.585087719,97712304.75,0.0,63,160.0,52911070.8,0,0,False
974534,0.656470450067,0.390208406475,Hoffman Rick,6180.5,7.787619048,0.0,0.0,46,172.0,52947064.04,0,0,False
1763318,-0.341588982957,0.698645431652,Plummer Christopher,17195.95769,6.889230769,6170254.622,110429.4479,87,175.0,52975064.95,0,1,False
1285128,0.361902394321,0.5829012215,Leung Ken,20660.62238,8.039160839,207833648.1,0.0,46,167.5,53111504.46,0,0,False
1008513,0.745517762708,-0.120344847474,Hunnam Charlie,8238.753247,8.357792208,52434144.93,0.0,36,182.5,53122835.58,0,0,False
319490,-0.958279127317,0.0378562064208,Cage Nicolas,33031.1448,6.446153846,51169353.29,10357770.38,52,180.0,53132192.13,1,1,False
1249206,0.394582922306,-0.605066378066,Lasky Matt,14010.83562,7.343835616,0.0,0.0,35,192.5,53137902.75,0,0,False
881636,-0.623632783984,0.423787253807,Hackman Gene,14705.06417,6.729411765,44741786.37,4006026.177,86,185.0,53161099.31,2,3,False
537115,0.341321083965,-0.700292923064,DeHaan Dane,38427.25,7.1175,35511254.76,0.0,30,175.0,53242099.05,0,0,False
256787,0.728829326174,-0.176075257952,Braff Zach,3942.784722,7.8125,39899176.93,523364.486,41,182.25,53249931.79,0,0,False
2360944,-0.84237815993,0.280938424489,Washington Denzel,16147.28707,7.035015773,73890134.83,20543720.22,62,182.5,53255579.35,2,2,False
1960051,-0.944566296232,0.0617242381297,Sandler Adam,15572.80169,6.464978903,103194472.3,16670085.9,50,172.5,53316270.0,0,0,False
1161530,-0.196378990646,0.739832949277,King George Vnan,64.21212121,7.087878788,0.0,0.0,151,165.0,53333333.33,0,0,False
663151,-0.390827864455,0.60846472187,Eythe William,1748.333333,6.54,0.0,0.0,98,175.0,53333333.33,0,0,False
1930731,-0.0978266702302,0.564186683879,Ruth Babe,5440.5,7.3078125,0.0,0.0,121,182.5,53347796.51,0,0,False
2260805,-0.67202035032,0.362896141797,Tucci Stanley,21334.15498,6.974907749,214810127.8,0.0,56,170.0,53355403.83,0,2,False
2287342,0.109740521478,-0.379987310891,Valleti Ravi,513042.0,8.0,0.0,0.0,37,190.0,53361501.55,0,0,False
731668,-0.719104952013,-0.544178937015,Fraser Brendan,16836.15504,6.480620155,67844077.85,8966124.806,48,187.5,53382734.09,0,0,False
835303,0.58629232757,0.18175981369,Grady John,40203.76923,7.373076923,0.0,0.0,51,177.5,53401469.27,0,0,False
149102,0.30642998384,-0.732615467464,Baruchel Jay,18825.73057,7.333678756,90507180.79,0.0,34,182.7,53443633.33,0,0,False
2192740,-0.365714645923,-0.766361371456,Tatum Channing,55628.37755,6.602040816,50681632.83,0.0,36,182.5,53490894.48,0,0,False
1802634,-0.155902999599,0.816255776433,Quan Jonathan Ke,77685.85,6.9,0.0,0.0,45,160.0,53528378.37,0,0,False
310229,0.318137115285,-0.635302128958,Butler Gerard,31378.09701,7.252985075,48472857.93,0.0,47,185.0,53554321.76,0,0,False
99456,-0.281030327408,0.793399244087,Attenborough Richard,11374.10526,6.995906433,14955499.51,0.0,93,167.5,53608364.53,0,2,False
689214,-0.8373670241,-0.319736184751,Ferrell Will,7404.132212,6.574399038,98494045.11,21087698.24,49,187.5,53623859.16,0,0,False
1998523,-0.926690547779,-0.0532680770989,Schwarzenegger Arnold,17470.84958,6.552367688,96876169.31,19240963.21,69,185.0,53645104.22,0,1,False
849418,0.520969090134,0.535180102598,Gregg Clark,18777.97569,7.574652778,0.0,0.0,54,172.5,53737054.6,0,0,False
2159063,0.703865305735,-0.288765563333,Sumpter Jeremy,4367.467742,7.606451613,0.0,0.0,27,180.0,53751046.05,0,0,False
792390,-0.367602252862,0.696945112185,Giamatti Paul,29864.10096,7.052403846,23803040.02,0.0,49,172.5,53847725.83,0,2,False
2137515,-0.80919055675,0.442172560941,Stiller Ben,16325.27565,6.919315895,101863186.0,9456860.915,51,167.5,53952705.94,0,0,False
2132655,-0.069154326034,-0.363766340049,Steven Joseph,71820.42105,6.973684211,0.0,0.0,60,185.0,54086038.89,0,0,False
393504,-0.121977129935,0.838933670867,Chiklis Michael,3412.413655,7.085341365,2107741.935,0.0,53,170.0,54095807.56,0,1,False
2116525,0.678103911172,-0.125154288841,Stadulis Christopher,34762.07895,7.526315789,0.0,0.0,44,180.0,54096494.4,0,0,False
716611,-0.942804486919,0.0249860783509,Ford Harrison,28546.37884,6.739249147,168295256.9,21631576.66,74,182.5,54105500.49,0,0,False
449706,0.541239360298,0.619773690064,Corden James,2176.391941,7.234065934,16358141.73,0.0,38,170.0,54261793.65,0,0,False
1929147,-0.801769460342,0.288502476209,Russell Kurt,23963.25,7.034659091,54752507.68,12480084.62,65,177.5,54279301.84,0,0,False
498354,-0.9594058378,0.145951203556,Damon Matt,37409.4078,6.736170213,94909053.35,9628841.176,46,175.0,54395111.88,0,1,False
2342010,-0.550126790079,0.568675378497,Wahlberg Mark,14330.5154,7.467556468,85868936.47,11494802.64,45,170.0,54451400.67,0,0,False
2414965,0.697344498831,-0.234442761175,Winchester Philip,3400.4,7.76,62945.29846,0.0,35,182.5,54491094.42,0,0,False
483406,0.67343247503,0.103281864797,Curran Tony,19816.58721,7.384883721,11886.06161,0.0,47,177.5,54529039.36,0,0,False
1886319,-0.193927527571,0.130784390379,Rock Chris,5698.134003,7.031155779,31891942.23,988478.7139,51,178.0,54603701.91,0,0,False
1550922,0.578990878001,-0.424877555849,Moss-Bachrach Ebon,6799.632184,7.329885057,50853.45622,0.0,38,182.5,54612422.31,0,0,False
1406929,-0.843562734724,0.137751421583,Martinez Olivier,11039.20455,6.436363636,359948.4663,0.0,50,175.0,54696670.3,0,0,False
2429998,0.472427306198,-0.625802313957,Woods Zach,5981.488,7.852,128150608.0,0.0,32,190.0,54700547.03,0,0,False
466672,0.424205399293,0.604050587217,Cranston Bryan,8850.123711,7.621821306,11691252.67,0.0,60,175.0,54740106.73,0,0,False
1287238,0.571678183242,0.336431912953,Levine Ted,14828.10189,7.709811321,0.0,0.0,59,177.5,54801267.43,0,0,False
2027682,-0.642423900006,0.554351075531,Sharif Omar,4187.802326,6.619767442,47390998.57,1474548.44,84,177.5,54814480.47,0,3,False
2177557,0.159562027985,0.644806949044,Tabori Kristoffer,1401.769737,7.255921053,0.0,0.0,64,175.0,54946240.68,0,0,False
621908,-0.292875231965,-0.649533350123,Eckhart Aaron,56386.12195,6.758536585,18996410.99,0.0,48,183.0,55101088.01,0,0,False
1505668,0.598871468565,0.523226097978,Mintz-Plasse Christopher,28351.20588,7.159558824,0.0,0.0,27,167.5,55297743.52,0,0,False
848804,0.377961628328,0.0448820223932,Greenwood Bruce,13429.17314,7.374558304,30981513.29,0.0,60,182.0,55301257.12,0,0,False
659825,-0.00421093444573,-0.725532224608,Evans Luke,76505.41026,6.969230769,28565320.99,0.0,37,180.0,55469259.87,0,0,False
633435,0.484066138888,-0.543965272722,Elba Idris,21594.285,7.5685,44037902.44,0.0,44,190.0,55527586.92,0,0,False
274269,0.606987901092,0.395471867623,Brolin Josh,23657.45545,7.291584158,14650218.41,0.0,48,175.0,55539646.69,0,0,False
882277,0.164388968775,-0.768456175563,Hader Bill,9914.941606,7.184379562,88487355.22,0.0,38,182.5,55557039.49,0,0,False
475215,-0.499321953869,0.699827698681,Crudup Billy,45163.60938,6.8140625,6644256.867,1393728.223,48,170.0,55793117.78,0,0,False
1076538,-0.465013954665,-0.715211946415,Johnson Dwayne,7271.184783,6.799347826,87451580.19,13674865.0,44,196.0,55815904.96,0,0,False
1876180,0.373591326408,-0.484217791723,Robbins Jarrod,78756.7,7.22,0.0,0.0,36,180.0,55824263.51,0,0,False
2408692,-0.943561843843,0.0496338853391,Willis Bruce,34449.95399,6.681288344,86986622.1,19124938.06,61,180.0,55923029.98,0,1,False
2210819,-0.0260523613258,-0.601330132347,Thewlis David,37321.02564,6.897435897,2104670.65,0.0,53,189.0,55943435.02,0,0,False
2339214,-0.869485607302,-0.283616839169,Wada Tet,34643.14286,5.314285714,0.0,0.0,43,177.0,55948555.21,0,0,False
1519809,0.454038989158,-0.00593175066261,Molina Alfred,14410.36545,7.628571429,35619344.97,3811540.498,63,185.0,56015317.49,0,0,False
2198423,-0.250774062148,-0.781866092508,Taylor-Johnson Aaron,81199.21739,6.793478261,61662032.77,0.0,26,177.5,56244489.66,0,0,False
1239833,-0.18015370035,0.858980099883,Lane Nathan,11971.67742,7.051612903,28203458.89,0.0,60,167.5,56274267.95,0,0,False
996111,-0.362700887906,0.553736709589,Howard Trevor,4570.488372,6.857364341,49205233.0,0.0,103,181.5,56323399.59,0,0,False
2267556,-0.440812978531,0.0811269788794,Turturro John,24597.76966,6.778651685,7410329.861,0.0,59,180.0,56333849.42,0,0,False
1381032,-0.183874598547,-0.834346140464,Mann Thomas,37272.0,6.677777778,32020577.12,0.0,25,181.0,56434121.76,0,0,False
2170213,-0.806673603177,0.0875692822213,Sykes Eric,3689.893401,5.639086294,290013036.0,0.0,93,175.0,56434745.29,0,0,False
532033,0.674422320677,0.0847441154514,Dean Loren,19719.15909,7.329545455,6561203.842,0.0,47,177.5,56588934.27,0,0,False
1043091,-0.838347471076,-0.125727402083,Jackson Samuel L.,37682.62121,6.587662338,27455804.3,7956530.803,68,185.0,56631689.65,0,0,False
2327512,-0.584505688154,0.669792445454,Viterelli Joe,15276.21951,6.182926829,0.0,0.0,79,165.0,56755233.98,0,0,False
1261790,0.50084676694,-0.0409881791003,Leary Denis,6636.32287,7.574215247,5456235.053,1529636.711,59,185.0,56875825.09,0,0,False
1253496,-0.779817870027,-0.274639436451,Lautner Taylor,12922.14407,6.886440678,174132709.1,7938834.255,24,170.0,56926226.11,0,0,False
1636357,0.663207766054,0.431857241362,O'Donnell Chris,5126.34767,7.533333333,38597256.91,2873529.196,46,175.0,56929374.98,0,0,False
1882493,-0.0349676437708,-0.811107573835,Robinson James,58298.53846,7.1,119070779.5,0.0,33,182.5,56946059.78,0,0,False
1916334,0.478390927383,-0.626619491695,Routh Brandon,7118.91716,7.699408284,119882939.6,1190476.19,37,185.0,56969001.19,0,0,False
1165058,0.615239303358,-0.436754043793,Kinnaman Joel,15509.21739,7.642391304,39675844.55,0.0,37,185.0,57004123.24,0,0,False
807724,0.269550903195,-0.643258829666,Gleeson Domhnall,92041.59459,7.2,13792986.58,0.0,33,182.5,57047850.01,0,0,False
2021031,0.521749447649,-0.240418346404,Sewell Rufus,12746.69841,7.216666667,21110545.77,0.0,49,180.0,57169982.97,0,0,False
2424801,0.419811030594,0.689443524107,Wong BD,5312.376,8.050133333,50779.8773,0.0,56,160.0,57217166.61,0,0,False
447991,0.408098789315,-0.635167147579,Copley Sharlto,32971.98214,7.305357143,56807406.69,0.0,43,183.0,57293873.84,0,0,False
1875388,0.604390775404,0.404154764929,Roache Linus,17501.54658,7.588819876,2582190.148,0.0,52,175.0,57326453.46,0,0,False
1783142,-0.495265517164,-0.603078334848,Pratt Chris,10254.22713,7.766876972,499125057.4,12000000.0,37,185.0,57482662.81,0,0,False
449868,0.0732697496904,0.239266650304,Cordero Ricardo,16755.23529,7.0,0.0,0.0,51,177.5,57507788.16,0,0,False
1280691,-0.547036753824,0.715505932108,Leong Al,24883.34667,6.445333333,0.0,0.0,64,165.0,57523982.7,0,0,False
2047331,-0.812164741511,-0.036307938203,Shyamalan M. Night,65818.37037,6.691358025,0.0,12132359.11,46,175.0,57744502.55,0,0,False
2122965,-0.620319877581,-0.148110962636,Statham Jason,82368.52239,6.714925373,23928773.38,793756.1931,49,175.0,57800602.87,0,0,False
1032202,0.618415261418,0.298046022765,Isaacs Jason,23470.80531,7.465486726,42335915.65,0.0,53,177.5,57857348.26,0,0,False
1572817,0.599331232549,-0.41271611292,Myers Christopher H.,7214.272727,7.072727273,0.0,0.0,38,177.5,57895642.97,0,0,False
630924,-0.369849086797,0.00635451123115,Ejiofor Chiwetel,42928.64634,7.002439024,20373543.64,0.0,39,175.0,57915708.4,0,0,False
1859547,-0.604402432703,-0.356038235366,Richards Craig,20925.0,6.24,0.0,0.0,61,185.0,57995696.55,0,0,False
1843540,0.244776441181,-0.617670701726,Reilly John C.,22056.14286,7.272321429,60047217.77,0.0,51,185.0,58017912.96,0,0,False
1449552,-0.608960885791,-0.464009693102,McGregor Ewan,29033.43478,6.946859903,65688660.18,0.0,45,177.0,58090733.0,0,0,False
727015,-0.675734181909,0.369983218176,Francis Alan,19959.18519,6.648148148,0.0,0.0,52,175.0,58095515.0,0,0,False
1282199,0.752298805708,-0.301250784199,Lerman Logan,46973.36364,7.378181818,62289390.69,0.0,24,172.5,58106688.06,0,0,False
2199761,-0.630535182306,-0.0105983618739,Tedford Travis,23257.3125,6.84375,83829878.54,0.0,28,167.5,58173366.57,0,0,False
2151741,0.634917922207,-0.386686970923,Sturgess Jim,54173.85417,7.4375,30192148.41,0.0,38,180.0,58416328.51,0,0,False
895837,0.643375671525,-0.203661661592,Hamm Jon,5440.712159,7.736228288,18410721.25,0.0,45,185.0,58425901.57,0,1,False
391477,0.227104272683,0.766335619045,Chevalier Peter J.,56053.5,7.34,0.0,0.0,51,165.0,58593421.71,0,0,False
1274852,0.525153512929,-0.566483967061,Leinbach Jacob,19337.9,7.42,0.0,0.0,20,185.0,58698991.8,0,0,False
1690369,0.770430964847,0.158137806764,Papac Benjamin,13405.72222,7.688888889,0.0,0.0,23,170.0,58729964.52,0,0,False
1673233,0.0544048330698,-0.446340559358,Owen Clive,18284.43636,7.117575758,16006697.63,0.0,52,185.0,58732469.19,0,1,False
160751,0.412279768675,0.538130787204,Bean Sean,27912.92126,7.359448819,4768588.952,0.0,57,175.0,58754630.82,0,0,False
905401,0.537694018942,-0.448832796978,Harbour David,23215.98148,7.628703704,23383.93843,0.0,41,190.0,58785756.45,0,0,False
1594257,-0.699658976199,-0.438282017197,Neeson Liam,37478.92419,6.958122744,59608720.75,9604454.351,64,190.0,58790546.65,0,0,False
1821958,-0.366129683106,-0.587123278868,Ram__rez Edgar,31220.22222,6.891111111,16923036.77,0.0,39,175.0,58881851.4,0,0,False
2213424,0.459420548351,0.535253237254,Thomas Dave,836.2663934,7.799795082,20653913.25,0.0,67,175.0,58912719.49,0,0,False
2082375,-0.788012106034,-0.412296132667,Smith Jaden,18149.02128,6.540425532,128357363.4,3301904.098,18,170.0,58996491.74,0,0,False
529117,-0.870532450186,-0.166982194431,De Sica Christian,3472.402174,4.841304348,0.0,0.0,65,180.0,59031734.97,0,0,False
2221056,-0.480582838957,-0.580411291535,Thornberry Michael,116898.0,6.133333333,0.0,0.0,43,185.0,59081443.92,0,0,False
1863180,0.143912252762,0.128067032951,Rickman Alan,49708.28346,7.337795276,362810.8731,0.0,70,185.0,59134745.35,0,1,False
232143,0.379381580465,-0.51875926697,Bonaventura Anthony,34684.56522,7.030434783,0.0,0.0,38,177.5,59220856.46,0,0,False
1013579,-0.144530073438,-0.515705174512,Huston Danny,27681.13675,6.823076923,27884.34783,0.0,54,185.0,59225062.24,0,0,False
794988,-0.946483925618,0.0217382552848,Gibson Mel,25864.19048,6.458730159,109152998.5,18379080.29,60,177.0,59365173.83,0,0,False
962670,-0.788894295055,0.00165684615385,Hill Jonah,53695.92857,6.605844156,102748812.7,0.0,33,167.5,59418589.13,0,0,False
722177,0.0927021538374,0.53566988319,Foster Ron,1356.638889,7.432407407,0.0,0.0,86,180.0,59431775.09,0,0,False
1839689,-0.190824749211,-0.49077523786,Reeve Christopher,4308.555,6.944,38003881.65,1595398.211,64,190.0,59434116.29,0,0,False
2331969,-0.0503219387898,0.35936165255,von Bargen Daniel,21857.07018,7.055263158,0.0,0.0,66,180.0,59718292.21,0,0,False
1639662,0.424859811962,0.309166614412,O'Neill Ed,1976.796902,7.707228916,8112650.22,0.0,70,182.5,59752450.76,0,0,False
1941855,0.188677970263,0.726945028991,Sagastizado I Tony,55016.26316,7.178947368,0.0,0.0,51,170.0,59798343.62,0,0,False
1021764,-0.203544123042,-0.629557796335,Ifans Rhys,26958.8172,6.724731183,2482250.994,0.0,49,185.0,60002391.57,0,0,False
1051002,0.55915277194,0.455791892887,James Kevin,4129.785992,7.66770428,91030388.53,736196.319,51,175.0,60035644.56,0,0,False
459486,0.704122486101,0.270150402201,Coulson Christian,36940.5,7.403333333,0.0,0.0,38,172.5,60107809.72,0,0,False
834078,0.668386348092,-0.253208463476,Goyos Rey,79568.0,7.70625,0.0,0.0,32,180.0,60152402.04,0,0,False
809342,-0.0240105739591,0.169880180774,Glover Julian,14418.71101,7.65733945,169458874.7,0.0,81,185.0,60204367.89,0,0,False
345849,0.353167657824,0.440088973661,Carpenter Cole,1272.833333,7.316666667,0.0,0.0,59,177.5,60223048.33,0,0,False
795244,-0.640615698062,-0.62096582789,Gibson Tyrese,30423.12222,6.275555556,32159453.36,0.0,38,181.0,60297358.25,0,0,False
1293140,-0.844348869815,0.459630837738,Li Jet,24442.76344,6.587096774,36893243.26,7067384.411,53,168.0,60319776.49,0,0,False
634632,0.0317859961287,-0.789389625191,Elgort Ansel,48856.71429,6.761904762,0.0,0.0,22,187.5,60463303.75,0,0,False
2206093,-0.265944617099,-0.632159034049,Tesen Todd,11025.65,6.64,0.0,0.0,48,185.0,60625945.28,0,0,False
1894039,-0.523761712894,-0.687218145629,Rogen Seth,38784.7751,7.053815261,101859130.6,5126868.928,34,177.5,60626756.29,0,0,False
2020462,0.675191680815,0.442304106351,Severino Leonel,14081.5,7.316666667,0.0,0.0,27,167.5,60755135.71,0,0,False
816539,0.536477927083,-0.136137979724,Goldwyn Tony,8469.763393,7.558035714,867159.462,0.0,56,185.0,60761078.03,0,0,False
1132171,0.731702418219,0.248963346743,Keaton Josh,1014.180095,7.716587678,0.0,0.0,37,172.5,60823319.88,0,0,False
987074,-0.764098448448,0.556302706662,Hopkins Anthony,19622.75357,6.785714286,32817616.71,17621787.48,79,170.0,60866970.33,1,0,False
1521075,-0.921763910877,-0.133469650114,Moll__ Jordi,14190.16842,6.109473684,18830072.36,0.0,48,175.0,60937279.54,0,0,False
1146168,0.591958127897,-0.252929435035,Kerr Steve,8068.8,7.733333333,0.0,0.0,51,187.5,61210468.45,0,0,False
2333617,-0.312259338887,-0.0312311676591,von Sydow Max,21494.06091,6.811675127,47729568.23,0.0,87,190.0,61278453.63,0,0,False
724948,-0.525144523086,0.770083823359,Fox Michael J.,4624.430813,7.225820257,104573522.0,8097165.992,55,160.0,61292602.74,0,4,False
860425,0.396662895061,-0.634817439668,Gruffudd Ioan,16720.64848,7.478181818,104107197.3,0.0,43,182.0,61381210.97,0,0,False
993421,-0.502114132123,-0.400506511728,Hounsou Djimon,41024.42,6.647,0.0,0.0,52,182.5,61505691.79,0,0,False
2459460,0.444758475428,-0.381377287202,Yune Rick,17447.5,7.106521739,0.0,0.0,45,180.0,61513025.0,0,0,False
563215,-0.899587671162,0.108715378935,DiCaprio Leonardo,41242.78261,6.785507246,128505945.8,18773564.51,42,180.0,61657739.62,1,3,False
1255117,0.597035521522,0.484448609628,Law Maximilian,40524.35714,7.214285714,0.0,0.0,35,170.0,61756070.9,0,0,False
1999118,0.383827494913,0.120928923731,Schwimmer David,4232.682382,7.92133995,7239337.63,13900134.95,50,182.5,62115562.45,0,0,False
789102,0.408951049878,0.695596298111,Gervais Ricky,2351.15083,7.736048265,36256052.53,0.0,55,170.0,62263023.16,0,1,False
251887,-0.775966627992,0.243810413336,Boyd Stephen,3740.745763,6.042372881,88888888.89,0.0,85,180.0,62354248.25,0,1,False
2156875,0.775309181396,0.0768279737859,Sullivan Erik Per,7850.67052,7.804624277,0.0,0.0,25,172.5,62369316.35,0,0,False
1013811,-0.457848374359,-0.0457223543251,Hutcherson Josh,31326.04301,6.889247312,37280477.08,0.0,24,167.5,62378238.62,0,0,False
693358,-0.541793221223,-0.011197166418,Fiennes Ralph,44739.29861,6.977777778,50005607.72,0.0,54,180.5,62504704.09,0,0,False
1304936,-0.384626601741,-0.131909071838,Linz Alex D.,11036.27419,6.930645161,34649631.71,0.0,27,170.0,62577047.49,0,0,False
382812,0.726016076138,0.0358883306413,Chase Bailey,3166.385542,8.053614458,0.0,0.0,44,180.0,62639239.92,0,0,False
499123,0.732928948073,0.17857465731,Dancy Hugh,8493.526316,7.826315789,2214214.173,0.0,41,175.0,62656247.13,0,0,False
1780578,0.211543537928,0.13736854095,Powers Frank,112848.7273,7.213636364,0.0,0.0,41,172.5,62701064.35,0,0,False
495316,0.741661570199,0.120797202627,Dale James Badge,35117.72727,7.869318182,0.0,0.0,38,175.0,62707871.8,0,0,False
501333,0.0627859637121,0.774774845113,Daniels Phil,1576.142857,7.533082707,148841693.4,0.0,58,167.5,62717770.03,0,0,False
725481,-0.837128321369,0.431007800531,Foxx Jamie,7879.279438,6.927943761,65583154.48,8486849.728,49,172.5,62818368.99,1,1,False
85481,0.732727908677,-0.121524789514,Armstrong Jonas,4651.777778,7.826262626,1015189.965,0.0,35,180.0,63028942.13,0,0,False
1437060,0.417353855193,0.172017530511,McCarthy Tom,25941.5125,7.13875,0.0,0.0,50,177.5,63245380.12,0,0,False
1854100,0.310913503961,-0.728182661174,Reynolds Ryan,26058.81905,7.345714286,71716827.69,2000000.0,40,185.0,63257173.87,0,0,False
888100,-0.148488916131,0.861207710695,Haley Jackie Earle,23429.5,7.108333333,69405644.42,0.0,55,162.5,63258574.06,0,0,False
442927,0.55160491704,0.440010726402,Coogan Steve,6658.881356,7.381144068,1611815.589,0.0,51,175.0,63344686.64,0,0,False
927643,-0.511774925289,0.668511140055,Hawn Phil,42398.19658,6.62991453,0.0,0.0,59,170.0,63401710.33,0,0,False
1654014,0.459913367212,-0.469108928541,Oliveto Nils,7193.294118,7.076470588,0.0,0.0,42,180.0,63455405.17,0,0,False
834850,0.689557710736,-0.261919697051,Grace Topher,13385.71825,7.421428571,7387486.563,0.0,38,179.7,63781833.6,0,0,False
1355249,-0.30589813048,-0.413745341335,Mackie Anthony,70562.47727,6.822727273,2963346.703,0.0,38,175.0,63907244.57,0,0,False
1457228,0.641380227821,-0.188094280123,McMahon Julian,4006.780488,7.7271777,0.0,0.0,48,185.0,63939779.14,0,0,False
2032803,0.333405751767,0.589424637394,Sheen Michael,16512.93897,7.542723005,51238507.11,8166423.507,47,175.0,64159820.46,0,0,False
1255048,-0.926865604505,0.13416981456,Law Jude,31505.61491,6.81552795,34259248.6,9237738.822,44,175.0,64304654.73,0,0,False
837556,0.131528179007,0.396895305722,Grammer Kelsey,1985.295176,7.603959683,39442604.97,0.0,61,182.5,64480442.06,0,2,False
26751,0.292613641801,-0.556885048045,Akinnuoye-Agbaje Adewale,20038.28472,7.788194444,167814643.4,0.0,49,185.0,64602752.05,0,0,False
1651428,-0.322622517688,0.812170045373,Oldman Gary,63445.66013,7.073856209,23605403.39,4048887.916,58,170.0,64811864.28,0,0,False
1939563,0.494461506242,0.311147452101,Sachs Robin,11773.03659,7.680487805,0.0,0.0,65,180.0,64825930.37,0,0,False
900439,-0.804421357345,0.351179870845,Hanks Tom,18368.42588,7.075471698,86323156.26,18301838.8,60,180.0,64852884.27,2,4,False
964038,0.492231197786,-0.536887167641,Hilliard Justin D.,12028.25,7.475,0.0,0.0,34,190.0,64963261.57,0,0,False
935123,-0.307628242971,-0.746358691412,Hedlund Garrett,51718.34615,6.403846154,0.0,0.0,32,185.0,64994558.23,0,0,False
1934524,-0.0230870209247,0.852717724642,Rylance Mark,9213.82,7.274,34238305.35,0.0,56,170.0,65005407.86,1,0,False
2417165,-0.204250886392,0.656882230607,Winstone Ray,18981.03518,6.933165829,3268915.35,0.0,59,175.0,65040673.43,0,0,False
621059,0.659575035697,0.0895817789449,Eccleston Christopher,10520.53571,7.657142857,619723.1358,0.0,52,180.0,65044414.41,0,0,False
1973302,-0.592913316818,0.674428488771,Saucedo Michael,13608.76923,6.769230769,279140.1869,0.0,46,172.5,65047995.48,0,0,False
350887,0.635878603349,0.0887617714371,Carter Alex,2158.218182,7.56,0.0,0.0,52,180.0,65217391.3,0,0,False
1397967,-0.0906430640797,-0.141808175195,Marsden James,36039.7973,7.012837838,29579872.45,0.0,43,175.0,65300783.52,0,0,False
1917396,0.459419152016,-0.503336832096,Rowe Nicholas,6753.284091,7.525,44027509.29,0.0,50,190.0,65416232.96,0,0,False
974144,-0.635104072549,0.593181573559,Hoffman Dustin,14315.19149,6.965045593,135573724.0,6587366.397,79,167.0,65462254.21,2,5,False
829455,0.700339888908,0.308205723021,Gorman Burn,13952.59494,7.767721519,0.0,0.0,42,172.5,65614314.24,0,0,False
1763071,0.0729087718841,-0.129031243572,Plowman David Michael,779071.3333,8.5,0.0,0.0,37,172.5,65635401.52,0,0,False
1371125,0.741475678274,0.202818167419,Malek Rami,15959.54651,7.912790698,0.0,0.0,35,172.5,65699620.33,0,0,False
24002,0.100695953651,-0.809063678199,Aiken Liam,13975.95,6.8525,0.0,0.0,26,177.5,65799470.95,0,0,False
1032084,0.244901450473,0.674985034608,Isaac Oscar,48124.04762,7.06984127,6420549.137,0.0,37,170.0,65824071.52,0,0,False
2032214,0.120688229282,0.798419315126,Shearer Harry,2535.666832,7.474708075,0.0,293548.3871,73,165.0,66181511.54,0,0,False
1573233,-0.894011280017,0.0253196261477,Myers Mike,11443.92637,6.503087886,233026594.9,9442259.997,53,170.0,66303617.94,0,0,False
440772,0.320098721967,-0.467970104902,Considine Paddy,39150.48,7.046,9875002.777,0.0,42,177.5,66596340.72,0,0,False
972671,0.444867338931,0.672500716829,Hodgman John,4212.290123,7.286419753,0.0,0.0,45,170.0,67121289.1,0,0,False
565794,-0.824953259694,-0.432790165198,Diesel Vin,52135.34454,6.637815126,122222812.3,8345738.505,49,182.0,67362144.42,0,0,False
480515,0.744776202034,-0.173785723454,Cumberbatch Benedict,29426.94286,7.702285714,50306276.98,0.0,40,180.0,67418883.26,0,0,False
995610,0.771497077108,-0.0737920914007,Howard Leo,2450.669643,7.903571429,11528.04784,0.0,19,175.0,67547579.1,0,0,False
496026,-0.0297893341673,-0.444166459442,Dallace Tommy,269029.0,7.16875,0.0,0.0,44,185.0,67849737.46,0,0,False
607978,0.30674063456,0.593457740598,Dunn Kevin,13590.9878,7.327642276,0.0,0.0,60,175.0,67939807.36,0,0,False
960519,0.781564025619,-0.122008208094,Highmore Freddie,12512.5,7.7,37198422.66,0.0,24,175.0,68079618.55,0,0,False
2225041,0.386614229345,0.252826047323,Tiernan Andrew,15110.34043,7.138297872,0.0,0.0,51,177.5,68237935.83,0,0,False
624907,-0.291761751916,0.0851010625497,Edwards Bill,940.6212121,6.665151515,0.0,0.0,98,192.5,68251754.49,0,0,False
125330,-0.858987962434,-0.371071642884,Bale Christian,68960.42657,6.812587413,121073404.0,7480124.381,42,183.0,68258050.06,1,1,False
475352,-0.957564850995,0.231899463511,Cruise Tom,29250.88089,6.073407202,150325470.3,22818323.78,54,167.5,68280976.74,0,3,False
907395,0.604598112837,0.353284348381,Hardy Tom,66253.32609,7.319565217,33611372.67,0.0,39,172.5,68340538.09,0,0,False
1226667,-0.285764847786,-0.326442750924,Lacey Aaron Michael,52058.23288,6.850684932,0.0,163273.343,47,177.5,68519915.65,0,0,False
2417689,-0.642528720169,-0.512985838596,Winters Chris,11846.1,6.23,0.0,0.0,46,182.5,68636351.31,0,0,False
1090175,-0.937085409924,0.164216548213,Jones Tommy Lee,30003.10458,6.636601307,72264064.99,14735638.29,70,180.0,68707446.97,0,1,False
1565531,0.650334670433,0.253295102641,Murphy Cillian,89410.97872,7.623404255,1053076.928,0.0,40,172.5,68715447.99,0,0,False
108243,0.587256864185,0.286957283481,Azaria Hank,2617.708053,7.412392667,38284992.99,293548.3871,52,177.5,68761130.43,0,0,False
474500,-0.950956189814,0.125800563467,Crowe Russell,29768.42408,6.429842932,64830506.25,17380321.93,52,177.5,68846562.25,1,1,False
413839,0.349716468269,-0.622170476267,Clarke Jason,24218.94624,7.31827957,71322082.59,0.0,47,182.5,68903253.42,0,0,False
940223,0.619640391281,-0.40443694138,Helman Josh,42406.05263,7.694736842,0.0,0.0,30,185.0,68981618.2,0,0,False
1937865,0.787299863389,-0.062339728739,Sabara Daryl,12877.24183,7.306535948,5152730.952,0.0,24,172.5,69070189.84,0,0,False
1419130,0.551977201804,0.574096209887,Matheson Hans,19902.90385,7.325,1967376.297,0.0,41,170.0,69309978.78,0,0,False
1434207,0.37559815058,0.733222373917,McAvoy James,23635.1371,7.312096774,48296245.51,0.0,37,167.5,69428061.8,0,0,False
196089,-0.0726933710474,-0.695841467436,Bettany Paul,86242.57895,6.855263158,18999701.5,0.0,45,187.5,69449529.54,0,0,False
941454,0.35572362137,-0.711586400243,Hemsworth Liam,35228.34286,7.35,55368160.89,0.0,26,187.5,69716056.4,0,0,False
1758718,-0.988517193291,0.0365858509092,Pitt Brad,43676.98611,6.311944444,85481463.85,13594260.62,53,177.5,69734306.35,0,1,False
86480,0.237835255177,-0.674634030928,Arnett Will,7779.381395,7.436744186,117746813.3,0.0,46,185.0,69850666.35,0,0,False
1031692,0.396607650392,0.467400493568,Irwin Bill,10475.78261,7.547204969,0.0,0.0,66,177.5,70066745.26,0,0,False
832184,-0.22900000165,0.611496147483,Gough Michael,11502.41176,6.916470588,0.0,0.0,100,177.5,70156052.47,0,0,False
1199519,0.550769512189,-0.43240353487,Kozlov Vladislav,32128.64286,7.321428571,0.0,0.0,40,182.5,70264746.54,0,0,False
1709647,0.479863184919,-0.215663922738,Paul Michael,55389.83333,7.15,0.0,0.0,34,175.0,70427713.44,0,0,False
1380838,0.220735687056,-0.515950896936,Mann Nav,137261.0,7.275,0.0,0.0,35,182.5,70520083.92,0,0,False
2136188,-0.469943302807,0.72796312302,Stewart Patrick,9077.790816,7.35170068,101036997.9,10131056.01,76,175.0,70650733.21,0,0,False
2448304,-0.806265122069,-0.263658269738,Yee Jason,107601.6154,5.538461538,18189.67395,0.0,46,175.0,70808181.62,0,0,False
405296,-0.0265474968467,-0.032655611349,Church Thomas Haden,9556.7251,7.132270916,43188803.84,0.0,56,181.0,70929180.33,0,0,False
2062431,0.671032498706,0.299697998134,Singer Bryan,21746.97734,7.911898017,0.0,0.0,51,175.0,71028961.44,0,0,False
1923711,-0.598319348542,0.620604856866,Ruffalo Mark,51363.13816,6.731578947,10163297.93,0.0,49,170.0,71037828.59,0,0,False
2077778,-0.0690833006599,-0.832143576108,Smit-McPhee Kodi,33333.34286,6.668571429,24029667.28,0.0,20,185.0,71260795.89,0,0,False
434593,-0.0507088248962,0.131187810009,Coltrane Robbie,20780.70213,7.035744681,515033.5883,0.0,66,182.5,71326627.93,0,0,False
2223489,-0.230951667689,-0.827155406706,Thwaites Brenton,34316.17647,6.647058824,31153464.0,0.0,27,181.0,71390105.43,0,0,False
2428764,0.743569756121,0.0311355113827,Woodlee Zachary,9311.584314,7.783921569,0.0,0.0,39,177.5,71644088.5,0,0,False
2148853,0.339188547975,-0.396182809808,Strong Mark,23674.48705,7.238860104,12624137.37,0.0,53,185.0,71700349.46,0,0,False
2197225,0.477570437752,0.62398085442,Taylor Noah,25843.02128,7.391489362,1283366.317,0.0,47,170.0,71934646.76,0,0,False
1225670,-0.597181086873,-0.577789015458,LaBeouf Shia,20173.20856,7.01657754,188576662.8,4667649.787,30,176.0,71995560.41,0,0,False
446339,-0.232624471355,0.717128040765,Cooper Jackie,1422.561702,6.94212766,0.0,0.0,94,172.5,72031153.74,0,0,False
2413209,-0.970239709184,-0.114681546942,Wilson Owen,47688.232,6.3072,86969718.17,7590780.429,48,175.0,72448265.56,0,0,False
591752,-0.951937060757,0.154897515352,Downey Jr. Robert,34221.50847,6.687118644,242561776.5,17273914.98,51,170.0,72646630.99,0,2,False
105368,-0.568679468641,-0.441392923304,AvMen Michael,170595.6667,6.033333333,0.0,0.0,39,177.5,72682203.15,0,0,False
1059101,0.542921138015,-0.175793516822,Jay Baron,71671.29231,7.316923077,0.0,0.0,40,177.5,72776847.27,0,0,False
1829055,0.145553878496,0.710982394587,Ratzenberger John,18765.78958,7.341698842,2638.98535,0.0,69,172.5,73069790.94,0,0,False
272314,-0.312794850786,0.268508172418,Broadbent Jim,27691.83744,7.056157635,4156590.205,0.0,67,185.0,73092201.98,1,2,False
1806565,0.605666232109,-0.372361065546,Quinto Zachary,6027.51145,7.546564885,0.0,0.0,39,185.0,73130686.09,0,0,False
1499872,0.5787384351,-0.444327424351,Miller T.J.,13027.14286,7.481385281,0.0,0.0,35,185.0,73457098.37,0,0,False
991521,0.436921771258,0.652219028564,Hosford Steve,1003.666667,7.173333333,0.0,0.0,46,172.5,73469387.76,0,0,False
1448446,0.129467414612,0.460029372819,McGoohan Patrick,5281.812785,7.503196347,0.0,0.0,88,182.5,73951410.75,0,0,False
2277915,0.58560658626,-0.349148105342,Urban Karl,54559.46667,7.464444444,13274741.99,0.0,44,182.5,74300517.32,0,0,False
550145,-0.886052756394,0.285593897587,Depp Johnny,24312.12652,7.081751825,94994341.53,20877617.82,53,175.0,74335882.04,0,1,False
691876,0.594217746883,0.0201307964079,Fichtner William,29368.63084,7.791588785,0.0,0.0,60,184.0,74478100.53,0,0,False
1809693,-0.746473398272,0.171591344582,Radcliffe Daniel,25670.67333,7.262666667,158893704.0,15384281.41,27,162.5,74989294.43,0,0,False
1753921,-0.311576144679,-0.810136762539,Pine Chris,23289.26042,7.084375,97104058.82,4095274.323,36,180.0,75121943.08,0,0,False
2347807,0.676180267949,0.225296914048,Wall Todd,55412.9,7.64,0.0,0.0,46,175.0,75645564.2,0,0,False
264649,0.0470491707084,0.715336204386,Bremner Ewen,27636.56075,6.959813084,115571.6687,0.0,44,173.0,75919089.94,0,0,False
856984,0.756047620083,-0.0323693593767,Groff Jonathan,12472.84286,7.99,56972.91775,0.0,31,177.5,76167432.75,0,0,False
129254,-0.077052732515,-0.730266073672,Bana Eric,40125.09639,6.878313253,43344889.26,0.0,48,189.0,76597492.37,0,0,False
1051110,0.754999916198,0.221150741419,James Liam,6104.782609,8.133043478,0.0,0.0,20,167.5,76777040.61,0,0,False
1876495,-0.468337381051,0.40021560565,Rober Richard,684.0,6.274193548,0.0,0.0,106,182.5,76868327.4,0,0,False
811082,0.168578924229,-0.253671190923,Goddard Trevor,14256.76829,7.075609756,0.0,0.0,54,182.5,76890998.38,0,0,False
1465551,0.667689898603,-0.00311109388548,Meehan Sean,85584.64286,7.685714286,0.0,0.0,42,177.5,77179719.69,0,0,False
2088005,-0.899220223241,-0.301157601968,Smith Will,14740.36723,6.807532957,168142383.1,14693957.66,48,185.0,77337355.74,0,0,False
1461399,-0.0195906196817,0.83785348107,McShane Ian,9666.52,7.414333333,39237057.22,0.0,74,167.5,77417801.79,0,1,False
1848166,-0.627106190304,-0.244029547059,Reno Jean,25349.11404,6.212280702,6378590.476,0.0,68,185.0,77472310.61,0,0,False
1612837,-0.293986585512,-0.124986705281,Nighy Bill,29234.8324,7.183798883,97900387.31,0.0,67,185.0,78099022.85,0,1,False
1042750,-0.573687838574,0.518356277867,Jackson Peter,100967.9474,7.190526316,0.0,19064619.35,55,165.0,78202658.33,0,0,False
734957,0.384242078547,0.722619264454,Freeman Martin,16485.52586,7.449137931,270226.1905,0.0,45,165.0,78403106.78,0,0,False
929919,0.728910109151,0.143990685402,Hayes Sean,1324.888342,7.58817734,24656306.0,588957.0552,46,177.5,78408505.67,0,0,False
1750427,0.122087989206,-0.757678323904,Pierre Perri,45213.0,6.916666667,0.0,0.0,28,185.0,78434206.96,0,0,False
446094,0.690538085912,0.354684432483,Cooper Dominic,19948.84694,7.197959184,1447904.01,0.0,38,172.5,78613484.36,0,0,False
1140228,0.0737644865111,-0.711239978031,Kemp Will,6486.784314,6.888235294,0.0,0.0,39,177.5,79153961.13,0,0,False
281618,-0.314581551501,-0.722279996497,Brown Joshua David,16594.5,6.583333333,0.0,0.0,39,182.5,79231692.68,0,0,False
1501066,-0.374078393324,0.768653247341,Mills Bob Jay,21408.0,6.77,0.0,0.0,59,170.0,79419096.53,0,0,False
1306904,-0.0805961524618,-0.834427148966,List Spencer,19783.68182,6.65,0.0,0.0,18,180.0,79475759.53,0,0,False
221184,0.197223676598,-0.392315468746,Blood Todd,118569.3929,7.310714286,0.0,0.0,57,187.5,79872678.5,0,0,False
2245488,0.240098558762,0.00890885652965,Townsend Paul,34429.46667,7.14,0.0,0.0,55,180.0,80027197.94,0,0,False
2368023,-0.0254034027491,-0.458214410355,Weaving Hugo,88618.22628,7.016058394,5155039.848,0.0,56,185.0,80056045.53,0,0,False
1854920,-0.74945598169,0.345811214175,Rhee Simon,47902.28,6.261333333,0.0,0.0,59,172.5,80106117.55,0,0,False
499344,0.429356405105,-0.0830143476845,Dane Michael,102574.1818,7.459090909,0.0,0.0,51,180.0,80152330.42,0,0,False
139974,-0.127305761014,-0.795277774811,Barnes Ben,26011.82143,7.117857143,157866623.3,0.0,35,182.5,80162394.2,0,0,False
780682,-0.270426276528,-0.564956127658,Geckles Joshua,179573.0,6.6,0.0,0.0,31,180.0,81009347.61,0,0,False
770250,-0.358529450221,-0.591001692628,Garfield Andrew,40757.19355,7.203225806,161207811.0,522661.742,33,175.0,81016756.36,0,0,False
674758,0.452792547163,-0.472884496131,Fassbender Michael,44200.30357,7.341964286,10459660.45,0.0,39,183.0,81396616.11,0,0,False
2409808,-0.468940520283,-0.57208134069,Willshire Kyle,157424.0,6.1,0.0,0.0,36,182.5,81701228.88,0,0,False
171672,0.695064364033,0.394370094911,Bell Jamie,23744.52439,7.629268293,18932576.58,0.0,30,167.5,81930545.92,0,0,False
510910,-0.139244156697,-0.728841341844,Davies Jonno,102780.0,6.7,0.0,0.0,24,180.0,82019433.21,0,0,False
898811,0.248867649924,-0.590051211091,Hancock Martin,9818.796296,7.159259259,58244790.17,0.0,43,177.5,82408576.12,0,0,False
1708507,0.485493788925,-0.534628943385,Patton Donovan,6871.23913,7.084782609,0.0,0.0,38,180.0,82469544.81,0,0,False
1838705,-0.225204430764,-0.711954437286,Reed Tanoai,33892.32432,6.559459459,0.0,0.0,42,187.5,82985054.01,0,0,False
460454,0.551911426665,-0.488140053375,Courtney Jai,58153.8125,7.421875,0.0,0.0,30,182.5,83322940.33,0,0,False
433354,0.531808870643,-0.422696419173,Collymore Stan,7886.75,7.5,6965700.0,0.0,45,187.5,83333333.33,0,0,False
1306079,0.13338788631,0.74981918449,Lipton James,961.8346457,7.689370079,0.0,0.0,90,167.5,83660995.3,0,0,False
683057,0.128711798431,0.470997884199,Feore Colm,12014.99149,7.12,2603531.626,0.0,58,177.5,84201728.9,0,0,False
1565774,-0.955612554011,0.197712207469,Murphy Eddie,12095.2975,6.629,140156051.7,16985271.61,55,172.5,84863148.58,0,1,False
146671,0.269613616485,0.801792731558,Barsky Brett,6503.826087,7.282608696,0.0,0.0,35,160.0,84871486.76,0,0,False
1792879,-0.212043905885,0.415902243926,Pryce Jonathan,22923.3625,6.950625,3930594.731,0.0,69,180.0,85449037.48,0,0,False
348210,-0.954360523352,-0.140458774772,Carrey Jim,17295.23844,6.564963504,148529548.1,18764681.5,54,185.0,85934242.91,0,2,False
2134464,0.531999902591,-0.357326237249,Stevenson Ray,27192.23158,7.681052632,5751980.265,0.0,52,190.0,86156348.55,0,0,False
1927558,-0.461363726668,0.53691956871,Rush Geoffrey,46476.82787,7.054098361,38119993.13,0.0,65,177.5,86554339.99,1,2,False
2386481,0.726310561827,-0.00971082489664,Whishaw Ben,41911.84211,7.343421053,1279485.475,0.0,36,175.0,86883140.91,0,0,False
1696087,0.491479812256,-0.416152907883,Parke Evan,41249.54386,7.468421053,0.0,0.0,48,187.5,86907334.84,0,0,False
1918244,0.611402220837,0.395737328267,Roxburgh Richard,6219.433735,7.720481928,12307855.31,0.0,54,175.0,86972426.44,0,0,False
14538,0.504796351094,0.514155666786,Addy Mark,3645.110132,7.415418502,49102947.74,0.0,52,175.0,87515902.92,0,0,False
171196,0.75024561887,0.16901799452,Bell Brandon P,3421.785714,8.422619048,0.0,0.0,31,172.5,89286714.29,0,0,False
1816392,-0.522872209193,-0.59676959067,Rakes Kwame,45283.77778,6.355555556,0.0,0.0,43,182.5,89375000.0,0,0,False
385892,-0.058222381024,0.847510480179,Cheadle Don,15770.9717,7.187028302,8613794.711,628716.611,52,170.0,90074617.18,0,1,False
1452819,-0.311222784422,0.710505830382,McKellen Ian,32612.37374,7.279461279,103654776.9,0.0,77,177.5,90351340.58,0,1,False
81600,0.191421298856,0.817526581533,Arenberg Lee,12045.75789,7.435263158,0.0,0.0,54,160.0,90656809.83,0,0,False
579119,-0.0323530910127,0.374448056811,Dolan Buddy,67555.42857,7.014285714,0.0,0.0,52,175.0,90788884.29,0,0,False
896143,0.301434860233,-0.677367255801,Hammer Armie,33370.83333,7.218518519,0.0,0.0,30,192.5,91264127.47,0,0,False
141822,-0.153156678932,-0.776991353634,Baron Cohen Sacha,19825.13966,6.936871508,70319746.32,0.0,45,187.5,91404177.91,0,1,False
2353035,-0.583279472819,0.62385351112,Waltz Christoph,22446.69343,6.560583942,173038.3212,0.0,60,167.5,91508709.18,2,2,False
1847950,-0.815825537942,0.140124273137,Renner Jeremy,61342.81967,6.996721311,39425285.33,3454000.474,45,175.0,91549097.85,0,0,False
1363315,-0.888626351035,-0.040280154037,Maguire Tobey,35589.11852,6.811851852,229506092.3,15310192.01,41,170.0,92123473.09,0,0,False
993343,0.418541255922,-0.655490548457,Hoult Nicholas,50998.63291,7.493670886,45172544.24,0.0,27,189.6,92230195.08,0,0,False
434220,0.422515742713,-0.287660612111,Colosimo Vince,8612.02381,7.217857143,0.0,0.0,50,182.5,93102018.8,0,0,False
1332962,0.148491702954,0.846313522547,Lucas Matt,5352.388693,7.109540636,0.0,0.0,42,165.0,94559571.64,0,0,False
1718435,0.472632394216,0.507994049172,Pegg Simon,19138.5,7.071014493,10283574.57,0.0,46,175.0,94762954.49,0,0,False
241806,0.0901619158235,-0.787303158731,Boseman Chadwick,16894.81132,7.058490566,60558314.67,0.0,40,180.0,95787725.25,0,0,False
2001326,0.645910218865,0.439943298763,Scott Andrew,23515.42424,7.566666667,0.0,0.0,40,170.0,96458098.73,0,0,False
1170428,0.655751872029,-0.439253431614,Kitsch Taylor,14466.48,7.593,72290129.53,0.0,35,181.0,96763567.69,0,0,False
744641,-0.701648689051,0.115083948639,Fujioka Hiroshi,369.9038462,6.103846154,0.0,0.0,70,180.0,97560975.61,0,0,False
1108425,0.46613074222,-0.357097248937,Kalbfleisch Dan,130367.5,7.55,0.0,0.0,30,180.0,98408104.2,0,0,False
311239,0.387051900658,-0.703511629642,Butterfield Asa,30756.76,7.228,24603807.7,0.0,19,182.88,100153382.6,0,0,False
1439036,0.346891839095,-0.579836947762,McCluskey Taylor,92913.27778,7.283333333,0.0,0.0,34,185.0,100978141.4,0,0,False
1016239,0.0839851206126,-0.807664142992,Hyland Ian,13337.36364,6.809090909,0.0,0.0,21,182.5,101641079.9,0,0,False
2118514,0.625758275937,-0.389632945884,Stan Sebastian,59517.25974,7.627272727,14315043.47,0.0,34,183.0,102083837.1,0,0,False
2362114,-0.173627840005,-0.560272176402,Watanabe Ken,57308.46154,7.049230769,53670887.19,0.0,57,184.0,102859304.0,0,0,False
1210970,0.67019076428,-0.282607945033,Kucsulain Justin,72523.25,8.475,0.0,0.0,32,190.0,103023459.3,0,0,False
941451,-0.089366811524,-0.836399793874,Hemsworth Chris,65665.37838,7.025675676,76022263.81,5144772.698,33,190.0,103380878.9,0,0,False
2462665,-0.364655557021,-0.389540005705,Zaideman Kevin,427871.75,6.15,0.0,0.0,30,175.0,103484654.0,0,0,False
955071,0.0290420882484,0.775911934332,Heslov Grant,17425.09701,7.041791045,0.0,0.0,53,172.5,104005155.1,0,0,False
2432206,-0.446621038613,-0.287667996496,Worthington Sam,28517.35065,7.174025974,224727127.2,0.0,40,175.0,105219695.5,0,0,False
2113136,0.47504488449,-0.594628316732,Spruell Sam,23633.67105,7.389473684,46917634.69,0.0,39,185.0,106563835.6,0,0,False
1040268,-0.586831660929,-0.704325463306,Jackman Hugh,46906.72889,7.060888889,141214431.3,8927678.041,48,190.0,107145611.3,0,1,False
2150589,-0.223893482644,-0.435996995214,Stubbins John Michael,223514.3333,6.766666667,0.0,0.0,47,182.5,108793138.9,0,0,False
371088,-0.725927732832,0.364244298855,Chabat Alain,6148.336449,6.440186916,0.0,0.0,58,175.0,111062952.7,0,0,False
761580,0.646310209309,-0.325439794893,Gandy David,6038.5,7.9,0.0,0.0,36,187.5,111470810.9,0,0,False
221417,-0.701330402655,-0.346069685443,Bloom Orlando,51292.27211,6.904081633,16492707.65,8522048.624,39,177.5,111594821.3,0,0,False
959105,0.527140949037,-0.499907733395,Hiddleston Tom,30476.94382,7.516853933,985183.0,0.0,35,188.0,112670248.2,0,0,False
344781,-0.710067710573,0.569805200328,Carnevale Michael J.,35177.11765,6.358823529,0.0,0.0,55,167.5,113882216.9,0,0,False
917691,0.201365936224,-0.77602912946,Hartigan Dylan,19512.07692,6.938461538,0.0,0.0,20,182.5,114346214.9,0,0,False
459901,-0.728171543716,-0.213835011438,Coupe David,132339.5,5.983333333,0.0,0.0,30,167.5,114557267.0,0,0,False
2063288,0.689249362959,-0.232822511507,Singh Gugun Deep,33874.0625,7.5375,0.0,0.0,37,180.0,115889570.2,0,0,False
658845,-0.569819824926,-0.664312485358,Evans Chris,76134.55462,6.744537815,150033464.2,3160423.597,35,180.0,116236357.7,0,0,False
1549182,0.768606366346,-0.0276553134418,Moseley William,12108.68085,7.614893617,0.0,0.0,29,175.0,118626870.3,0,0,False
465172,-0.905488738654,-0.0635772709564,Craig Daniel,31467.52941,6.864052288,107478081.8,7957362.04,48,175.0,121766139.1,0,0,False
52510,-0.495215707062,0.78338666814,Amalric Mathieu,10708.70543,6.620930233,1049697.657,0.0,51,165.0,124143154.8,0,0,False
409921,0.277060110351,-0.739637066554,Claflin Sam,47929.58974,7.184615385,56154094.0,0.0,30,177.5,125563977.7,0,0,False
365478,0.21511979718,-0.753347189264,Cavill Henry,38519.43056,7.515277778,147729442.1,1481840.052,33,182.5,127614012.3,0,0,False
252057,0.769030972614,-0.0739516173492,Boyega John,15306.37778,7.697777778,0.0,455663.5178,24,175.0,130976949.0,0,0,False
2017445,-0.445440924672,0.212021580394,Serkis Andy,59650.71585,7.244808743,199997699.0,0.0,52,170.0,132432929.2,0,0,False
434480,0.645666524917,-0.29850779329,Colter Mike,12062.30275,7.908256881,0.0,0.0,40,187.5,136032071.7,0,0,False
2331594,-0.33640228734,0.603585833321,Volpe Lou,25456.44444,6.822222222,0.0,0.0,61,175.0,136049990.4,0,0,False
474395,0.19162119432,0.184870135529,Crowe Cameron,30977.93056,7.163888889,485234.4858,0.0,59,180.0,136075597.6,0,0,False
1483134,0.703837016763,-0.118887537922,Meunier David,10534.59167,8.084166667,0.0,0.0,43,184.0,137660344.6,0,0,False
254654,0.584578482025,-0.416936347687,Braddock John David,29914.0,7.666666667,0.0,0.0,37,187.5,139756484.9,0,0,False
572123,0.475372917233,0.64957436127,DiSparrow Lukas,70005.93878,7.93877551,0.0,0.0,32,155.0,141888248.6,0,0,False
290483,-0.697957479988,0.166483896254,Bryggman Larry,18006.69231,5.934615385,0.0,0.0,78,180.0,148788219.7,0,0,False
1594022,-0.561570840047,-0.461457633895,Neeley Michael,47419.4,6.26,0.0,0.0,56,185.0,153310104.5,0,0,False
417003,0.695698261065,-0.164500926557,Clement Jemaine,10517.73387,7.776612903,3374947.789,0.0,42,182.5,159872632.5,0,0,False
2236632,0.723698661596,-0.130415059365,Tomovic Branko,15777.72917,8.121875,0.0,0.0,36,182.5,165095204.9,0,0,False
84839,0.705706064296,-0.185701814443,Armitage Richard,18382.83673,8.096598639,48258509.73,0.0,45,185.0,165613824.5,0,0,False
944330,0.626764655572,-0.364663226532,Henney Daniel,15994.36735,7.459183673,0.0,0.0,37,182.5,167539081.0,0,0,False
1666029,-0.680298309241,-0.544384849465,Orton Justin,71767.0,5.766666667,0.0,0.0,31,180.0,167803222.8,0,0,False
1694484,0.459009341882,0.137535151221,Paris D.J.,54730.66667,7.15,0.0,0.0,43,175.0,202757502.0,0,0,False
2342794,-0.305503553208,-0.708264799467,Waititi Taika,10907.84906,6.524528302,0.0,0.0,41,185.0,213391186.1,0,0,False
