id_data,x_data,y_data,z_data,votes,rating,gross,salary,age,heightcm,budget,academy,golden,sample
2342794,0.538917321086,-0.355275950751,Waititi Taika,10907.84906,6.524528302,0.0,0.0,41,185.0,213391186.1,0,0,False
1694484,-0.679031446786,0.218367130105,Paris D.J.,54730.66667,7.15,0.0,0.0,43,175.0,202757502.0,0,0,False
1666029,0.54093657395,-0.724991500258,Orton Justin,71767.0,5.766666667,0.0,0.0,31,180.0,167803222.8,0,0,False
944330,0.210864701049,0.656519670057,Henney Daniel,15994.36735,7.459183673,0.0,0.0,37,182.5,167539081.0,0,0,False
84839,0.00151690916772,0.673943886844,Armitage Richard,18382.83673,8.096598639,48258509.73,0.0,45,185.0,165613824.5,0,0,False
2236632,0.0331998291359,0.72278695739,Tomovic Branko,15777.72917,8.121875,0.0,0.0,36,182.5,165095204.9,0,0,False
417003,-0.0155359585459,0.667847060704,Clement Jemaine,10517.73387,7.776612903,3374947.789,0.0,42,182.5,159872632.5,0,0,False
1594022,0.0164995081742,-0.66040964285,Neeley Michael,47419.4,6.26,0.0,0.0,56,185.0,153310104.5,0,0,False
290483,-0.402459151223,-0.704412214135,Bryggman Larry,18006.69231,5.934615385,0.0,0.0,78,180.0,148788219.7,0,0,False
572123,-0.709700221411,0.441300235407,DiSparrow Lukas,70005.93878,7.93877551,0.0,0.0,32,155.0,141888248.6,0,0,False
254654,0.301524096489,0.618961010667,Braddock John David,29914.0,7.666666667,0.0,0.0,37,187.5,139756484.9,0,0,False
1483134,-0.0322360847222,0.67461509352,Meunier David,10534.59167,8.084166667,0.0,0.0,43,184.0,137660344.6,0,0,False
474395,-0.550641093696,-0.192652452976,Crowe Cameron,30977.93056,7.163888889,485234.4858,0.0,59,180.0,136075597.6,0,0,False
2331594,-0.669706093322,-0.48315824811,Volpe Lou,25456.44444,6.822222222,0.0,0.0,61,175.0,136049990.4,0,0,False
434480,0.152253877939,0.650430954033,Colter Mike,12062.30275,7.908256881,0.0,0.0,40,187.5,136032071.7,0,0,False
2017445,-0.613868782334,-0.0837822646833,Serkis Andy,59650.71585,7.244808743,199997699.0,0.0,52,170.0,132432929.2,0,0,False
252057,0.0403700855408,0.807902318049,Boyega John,15306.37778,7.697777778,0.0,455663.5178,24,175.0,130976949.0,0,0,False
365478,0.647134654581,0.176397429816,Cavill Henry,38519.43056,7.515277778,147729442.1,1481840.052,33,182.5,127614012.3,0,0,False
409921,0.754860009862,0.344740376149,Claflin Sam,47929.58974,7.184615385,56154094.0,0.0,30,177.5,125563977.7,0,0,False
52510,-0.786643610432,-0.54330756771,Amalric Mathieu,10708.70543,6.620930233,1049697.657,0.0,51,165.0,124143154.8,0,0,False
465172,-0.0108761571757,-0.845666455514,Craig Daniel,31467.52941,6.864052288,107478081.8,7957362.04,48,175.0,121766139.1,0,0,False
1549182,-0.0616432215703,0.786131680591,Moseley William,12108.68085,7.614893617,0.0,0.0,29,175.0,118626870.3,0,0,False
658845,0.745794474142,-0.47609400915,Evans Chris,76134.55462,6.744537815,150033464.2,3160423.597,35,180.0,116236357.7,0,0,False
2063288,0.0945587851871,0.723523212203,Singh Gugun Deep,33874.0625,7.5375,0.0,0.0,37,180.0,115889570.2,0,0,False
459901,0.279791481845,-0.877382538788,Coupe David,132339.5,5.983333333,0.0,0.0,30,167.5,114557267.0,0,0,False
917691,0.758031239454,0.32551072091,Hartigan Dylan,19512.07692,6.938461538,0.0,0.0,20,182.5,114346214.9,0,0,False
344781,-0.627866744379,-0.720491032636,Carnevale Michael J.,35177.11765,6.358823529,0.0,0.0,55,167.5,113882216.9,0,0,False
959105,0.396788195194,0.577335630201,Hiddleston Tom,30476.94382,7.516853933,985183.0,0.0,35,188.0,112670248.2,0,0,False
221417,0.213434922356,-0.720441005379,Bloom Orlando,51292.27211,6.904081633,16492707.65,8522048.624,39,177.5,111594821.3,0,0,False
761580,0.201990064585,0.659995175957,Gandy David,6038.5,7.9,0.0,0.0,36,187.5,111470810.9,0,0,False
371088,-0.526531369486,-0.68552803323,Chabat Alain,6148.336449,6.440186916,0.0,0.0,58,175.0,111062952.7,0,0,False
2150589,0.364418426546,-0.566663477367,Stubbins John Michael,223514.3333,6.766666667,0.0,0.0,47,182.5,108793138.9,0,0,False
1040268,0.672567284041,-0.540982587978,Jackman Hugh,46906.72889,7.060888889,141214431.3,8927678.041,48,190.0,107145611.3,0,1,False
2113136,0.427422609654,0.521571439036,Spruell Sam,23633.67105,7.389473684,46917634.69,0.0,39,185.0,106563835.6,0,0,False
2432206,0.268567607969,-0.296160705457,Worthington Sam,28517.35065,7.174025974,224727127.2,0.0,40,175.0,105219695.5,0,0,False
955071,-0.807319743707,-0.256433925495,Heslov Grant,17425.09701,7.041791045,0.0,0.0,53,172.5,104005155.1,0,0,False
2462665,0.446396511585,-0.636157336028,Zaideman Kevin,427871.75,6.15,0.0,0.0,30,175.0,103484654.0,0,0,False
941451,0.832277062015,-0.0329729699632,Hemsworth Chris,65665.37838,7.025675676,76022263.81,5144772.698,33,190.0,103380878.9,0,0,False
1210970,0.235042965208,0.696524686865,Kucsulain Justin,72523.25,8.475,0.0,0.0,32,190.0,103023459.3,0,0,False
2362114,-0.224536499858,-0.51214898152,Watanabe Ken,57308.46154,7.049230769,53670887.19,0.0,57,184.0,102859304.0,0,0,False
2118514,0.357624109885,0.675258371659,Stan Sebastian,59517.25974,7.627272727,14315043.47,0.0,34,183.0,102083837.1,0,0,False
1016239,0.79520840513,0.235984691079,Hyland Ian,13337.36364,6.809090909,0.0,0.0,21,182.5,101641079.9,0,0,False
1439036,0.604925770546,0.411862832571,McCluskey Taylor,92913.27778,7.283333333,0.0,0.0,34,185.0,100978141.4,0,0,False
311239,0.692152272152,0.460251537924,Butterfield Asa,30756.76,7.228,24603807.7,0.0,19,182.88,100153382.6,0,0,False
1108425,0.536061907055,0.531208389,Kalbfleisch Dan,130367.5,7.55,0.0,0.0,30,180.0,98408104.2,0,0,False
744641,-0.38603995935,-0.689818602238,Fujioka Hiroshi,369.9038462,6.103846154,0.0,0.0,70,180.0,97560975.61,0,0,False
1170428,0.275966613716,0.720926501584,Kitsch Taylor,14466.48,7.593,72290129.53,0.0,35,181.0,96763567.69,0,0,False
2001326,-0.615461722229,0.513770834273,Scott Andrew,23515.42424,7.566666667,0.0,0.0,40,170.0,96458098.73,0,0,False
241806,0.542613204907,0.019700508275,Boseman Chadwick,16894.81132,7.058490566,60558314.67,0.0,40,180.0,95787725.25,0,0,False
1718435,-0.807953047305,-0.101723133846,Pegg Simon,19138.5,7.071014493,10283574.57,0.0,46,175.0,94762954.49,0,0,False
1332962,-0.891674443689,0.0393727232158,Lucas Matt,5352.388693,7.109540636,0.0,0.0,42,165.0,94559571.64,0,0,False
434220,-0.179032203579,0.212491664512,Colosimo Vince,8612.02381,7.217857143,0.0,0.0,50,182.5,93102018.8,0,0,False
993343,0.619156381094,0.482574835429,Hoult Nicholas,50998.63291,7.493670886,45172544.24,0.0,27,189.6,92230195.08,0,0,False
1363315,0.111371912812,-0.830832582345,Maguire Tobey,35589.11852,6.811851852,229506092.3,15310192.01,41,170.0,92123473.09,0,0,False
1847950,-0.243544806622,-0.914053920623,Renner Jeremy,61342.81967,6.996721311,39425285.33,3454000.474,45,175.0,91549097.85,0,0,False
2353035,-0.518321599388,-0.610180656228,Waltz Christoph,22446.69343,6.560583942,173038.3212,0.0,60,167.5,91508709.18,2,2,False
141822,0.575700613804,-0.197020260344,Baron Cohen Sacha,19825.13966,6.936871508,70319746.32,0.0,45,187.5,91404177.91,0,1,False
896143,0.597780428746,0.38835167856,Hammer Armie,33370.83333,7.218518519,0.0,0.0,30,192.5,91264127.47,0,0,False
579119,-0.683832542424,-0.380270969251,Dolan Buddy,67555.42857,7.014285714,0.0,0.0,52,175.0,90788884.29,0,0,False
81600,-0.874592565821,0.0243214447024,Arenberg Lee,12045.75789,7.435263158,0.0,0.0,54,160.0,90656809.83,0,0,False
1452819,-0.706589461544,-0.453230163209,McKellen Ian,32612.37374,7.279461279,103654776.9,0.0,77,177.5,90351340.58,0,1,False
385892,-0.849805662341,-0.240966815205,Cheadle Don,15770.9717,7.187028302,8613794.711,628716.611,52,170.0,90074617.18,0,1,False
1816392,0.399581776935,-0.6854594929,Rakes Kwame,45283.77778,6.355555556,0.0,0.0,43,182.5,89375000.0,0,0,False
171196,-0.238343110963,0.726911205839,Bell Brandon P,3421.785714,8.422619048,0.0,0.0,31,172.5,89286714.29,0,0,False
14538,-0.7078887281,0.161947382909,Addy Mark,3645.110132,7.415418502,49102947.74,0.0,52,175.0,87515902.92,0,0,False
1918244,-0.619578731952,0.355759094249,Roxburgh Richard,6219.433735,7.720481928,12307855.31,0.0,54,175.0,86972426.44,0,0,False
1696087,0.151124550466,0.450782931418,Parke Evan,41249.54386,7.468421053,0.0,0.0,48,187.5,86907334.84,0,0,False
2386481,-0.25462895947,0.733433340762,Whishaw Ben,41911.84211,7.343421053,1279485.475,0.0,36,175.0,86883140.91,0,0,False
1927558,-0.42807869847,-0.536557797949,Rush Geoffrey,46476.82787,7.054098361,38119993.13,0.0,65,177.5,86554339.99,1,2,False
2134464,0.0743888524603,0.472297027825,Stevenson Ray,27192.23158,7.681052632,5751980.265,0.0,52,190.0,86156348.55,0,0,False
348210,0.0840517215582,-0.863079414031,Carrey Jim,17295.23844,6.564963504,148529548.1,18764681.5,54,185.0,85934242.91,0,2,False
1792879,-0.588910901321,-0.405142210867,Pryce Jonathan,22923.3625,6.950625,3930594.731,0.0,69,180.0,85449037.48,0,0,False
146671,-0.833329246525,0.256220350554,Barsky Brett,6503.826087,7.282608696,0.0,0.0,35,160.0,84871486.76,0,0,False
1565774,-0.10828363955,-0.88737408472,Murphy Eddie,12095.2975,6.629,140156051.7,16985271.61,55,172.5,84863148.58,0,1,False
683057,-0.663951497081,-0.209866984785,Feore Colm,12014.99149,7.12,2603531.626,0.0,58,177.5,84201728.9,0,0,False
1306079,-0.795317134233,-0.126754519272,Lipton James,961.8346457,7.689370079,0.0,0.0,90,167.5,83660995.3,0,0,False
433354,0.169959503923,0.51393677005,Collymore Stan,7886.75,7.5,6965700.0,0.0,45,187.5,83333333.33,0,0,False
460454,0.492291100792,0.607546784141,Courtney Jai,58153.8125,7.421875,0.0,0.0,30,182.5,83322940.33,0,0,False
1838705,0.594281478258,-0.312676611454,Reed Tanoai,33892.32432,6.559459459,0.0,0.0,42,187.5,82985054.01,0,0,False
1708507,0.265025563888,0.50942602761,Patton Donovan,6871.23913,7.084782609,0.0,0.0,38,180.0,82469544.81,0,0,False
898811,-0.347727305978,0.291590756776,Hancock Martin,9818.796296,7.159259259,58244790.17,0.0,43,177.5,82408576.12,0,0,False
510910,0.848315528744,-0.152768446309,Davies Jonno,102780.0,6.7,0.0,0.0,24,180.0,82019433.21,0,0,False
171672,-0.481238668867,0.655555527468,Bell Jamie,23744.52439,7.629268293,18932576.58,0.0,30,167.5,81930545.92,0,0,False
2409808,0.534596188357,-0.65272061324,Willshire Kyle,157424.0,6.1,0.0,0.0,36,182.5,81701228.88,0,0,False
674758,0.261534743425,0.227717142718,Fassbender Michael,44200.30357,7.341964286,10459660.45,0.0,39,183.0,81396616.11,0,0,False
770250,0.468172329132,-0.151357974121,Garfield Andrew,40757.19355,7.203225806,161207811.0,522661.742,33,175.0,81016756.36,0,0,False
780682,0.592838409662,-0.522243517039,Geckles Joshua,179573.0,6.6,0.0,0.0,31,180.0,81009347.61,0,0,False
139974,0.670536452473,-0.0471251214343,Barnes Ben,26011.82143,7.117857143,157866623.3,0.0,35,182.5,80162394.2,0,0,False
499344,-0.343934098117,0.197507979035,Dane Michael,102574.1818,7.459090909,0.0,0.0,51,180.0,80152330.42,0,0,False
1854920,-0.489177100277,-0.774456784302,Rhee Simon,47902.28,6.261333333,0.0,0.0,59,172.5,80106117.55,0,0,False
2368023,-0.0500211902543,-0.34322699455,Weaving Hugo,88618.22628,7.016058394,5155039.848,0.0,56,185.0,80056045.53,0,0,False
2245488,-0.498024658672,-0.163757537933,Townsend Paul,34429.46667,7.14,0.0,0.0,55,180.0,80027197.94,0,0,False
221184,-0.0128602606504,-0.0430985023933,Blood Todd,118569.3929,7.310714286,0.0,0.0,57,187.5,79872678.5,0,0,False
1306904,0.857720784864,0.103175114828,List Spencer,19783.68182,6.65,0.0,0.0,18,180.0,79475759.53,0,0,False
1501066,-0.760573551718,-0.485027591494,Mills Bob Jay,21408.0,6.77,0.0,0.0,59,170.0,79419096.53,0,0,False
281618,0.586691269166,-0.379163940704,Brown Joshua David,16594.5,6.583333333,0.0,0.0,39,182.5,79231692.68,0,0,False
1140228,0.0698881270552,-0.125495483927,Kemp Will,6486.784314,6.888235294,0.0,0.0,39,177.5,79153961.13,0,0,False
446094,-0.64968670272,0.495835366665,Cooper Dominic,19948.84694,7.197959184,1447904.01,0.0,38,172.5,78613484.36,0,0,False
1750427,0.768353417981,0.229372303665,Pierre Perri,45213.0,6.916666667,0.0,0.0,28,185.0,78434206.96,0,0,False
929919,-0.426074237887,0.551067838886,Hayes Sean,1324.888342,7.58817734,24656306.0,588957.0552,46,177.5,78408505.67,0,0,False
