id_data,x_data,y_data,z_data,votes,rating,age,gross,salary,heightcm,budget,academy,golden,sample
1783142,3.64906790294,-4.62796377074,Pratt Chris,10254.22713,7.766876972,37,499125057.4,12000000.0,185.0,57482662.81,0,0,False
316176,2.49395348101,-3.1025091875,C.K. Louis,2544.752918,7.962451362,49,365802225.0,0.0,180.0,3718178.457,0,0,False
1955337,-0.477663121816,-3.32886487382,Samuel Xavier,27814.23333,6.49,33,330775673.4,0.0,175.0,40853502.9,0,0,False
31603,3.25632875022,0.397921872578,Albert Eddie,755.4325581,6.954883721,110,310728476.8,0.0,177.5,26953564.24,0,0,False
926022,2.83113747233,-0.956270196466,Havens Richie,2188.666667,7.053333333,75,309278350.5,0.0,187.5,2046874.692,0,0,False
262991,3.24606599592,1.09979996977,Brazzi Rossano,900.8035714,6.151785714,100,305605536.3,0.0,180.0,32671701.45,0,0,False
2170213,3.1324019177,2.09310241829,Sykes Eric,3689.893401,5.639086294,93,290013036.0,0.0,175.0,56434745.29,0,0,False
1565874,3.14577516011,1.02157505049,Murphy George,312.3296703,6.469230769,114,288987440.5,0.0,177.5,9543697.959,0,0,False
894327,1.89563349129,-1.24399012146,Hamill Mark,4596.849632,7.326077813,65,279397838.9,2574257.426,172.5,17419162.54,0,0,False
1839017,2.59049003941,0.655111023698,Reems Harry,327.7790698,6.070348837,69,258373205.7,95560.89942,183.0,1361637.89,0,0,False
1286438,1.5942510316,-2.50529860177,Levi Zachary,3046.625407,7.61237785,36,245678898.5,69464.54414,191.0,46676851.66,0,0,False
591752,-3.26728982363,1.65939346311,Downey Jr. Robert,34221.50847,6.687118644,51,242561776.5,17273914.98,170.0,72646630.99,0,2,False
1596708,2.05363655382,-1.59585864007,Nelson Craig T.,4199.655109,7.755109489,72,239401663.4,0.0,187.5,43644389.71,0,0,False
2391580,1.98251492997,0.563825046343,Whitman Stuart,764.7020408,6.605714286,88,237037036.2,0.0,180.0,15988929.47,0,0,False
1900016,1.53950149714,-1.59680055257,Romano Ray,2450.722393,7.559509202,59,233924684.4,2753346.08,187.0,21849725.31,0,0,False
1573233,-1.31311405997,1.04797338895,Myers Mike,11443.92637,6.503087886,53,233026594.9,9442259.997,170.0,66303617.94,0,0,False
1363315,-3.01034792302,0.554800548316,Maguire Tobey,35589.11852,6.811851852,41,229506092.3,15310192.01,170.0,92123473.09,0,0,False
2432206,-0.863123581767,-1.46562878057,Worthington Sam,28517.35065,7.174025974,40,224727127.2,0.0,175.0,105219695.5,0,0,False
1724186,1.79707668784,0.0892499873551,Peppard George,1014.293194,7.00052356,88,219944880.0,0.0,180.0,18159261.54,0,0,False
2260805,-0.932271688913,0.52049323932,Tucci Stanley,21334.15498,6.974907749,56,214810127.8,0.0,170.0,53355403.83,0,2,False
359000,0.453807595931,-0.967226041122,Castellaneta Dan,2241.879652,7.449836779,59,212020110.0,293548.3871,175.0,52477105.83,0,0,False
1285128,-0.805209945943,-2.80776694877,Leung Ken,20660.62238,8.039160839,46,207833648.1,0.0,167.5,53111504.46,0,0,False
1085684,1.53270260141,0.41661574257,Jones Dean,1934.254386,6.744736842,85,204584404.8,0.0,180.0,8499010.161,0,0,False
2017445,-2.58959673537,-2.01845468734,Serkis Andy,59650.71585,7.244808743,52,199997699.0,0.0,170.0,132432929.2,0,0,False
888296,2.22990797862,1.67271552366,Halicki H.B.,2038.142857,5.714285714,76,194726166.3,0.0,180.0,1290028.267,0,0,False
1225670,-1.0487479931,-0.803539196543,LaBeouf Shia,20173.20856,7.01657754,30,188576662.8,4667649.787,176.0,71995560.41,0,0,False
128141,0.588321834815,1.75570699095,Balsam Martin,7115.356828,7.042290749,97,182772934.0,0.0,167.5,36226301.92,1,0,False
472704,1.52351832628,2.41264812027,Crosby Bing,639.7915058,6.966795367,113,181407800.6,0.0,167.5,19232792.84,1,0,False
1411518,0.758817171441,1.51995426788,Marvin Lee,1776.722488,6.967942584,92,180615022.2,6140568.166,182.5,26720228.23,1,1,False
1253496,-1.75588696987,-0.241594181257,Lautner Taylor,12922.14407,6.886440678,24,174132709.1,7938834.255,170.0,56926226.11,0,0,False
391463,2.04943619695,2.09010886492,Chevalier Maurice,698.26,6.72,128,172811920.5,0.0,175.0,23813916.05,0,0,False
508989,0.729195000071,-0.928300935543,David Keith,11514.02712,7.249005425,60,169855308.0,0.0,185.0,24147608.36,0,0,False
809342,1.36584423912,-1.20968174093,Glover Julian,14418.71101,7.65733945,81,169458874.7,0.0,185.0,60204367.89,0,0,False
1460928,0.244143853545,0.804010781721,McQueen Steve,3099.837838,7.410810811,86,169171509.6,3366302.317,172.5,27509951.27,0,0,False
70713,-0.828079833495,-2.63611006747,Ansari Aziz,4711.102041,7.778231293,33,168628890.7,0.0,165.0,42461135.52,0,0,False
716611,-2.61405299344,2.31373326643,Ford Harrison,28546.37884,6.739249147,74,168295256.9,21631576.66,182.5,54105500.49,0,0,False
2088005,-1.68805295038,1.52401834316,Smith Will,14740.36723,6.807532957,48,168142383.1,14693957.66,185.0,77337355.74,0,0,False
26751,0.470787783213,-2.02173989105,Akinnuoye-Agbaje Adewale,20038.28472,7.788194444,49,167814643.4,0.0,185.0,64602752.05,0,0,False
2292105,1.83886565559,-0.606116954733,Van Dyke Dick,1030.693215,7.566814159,91,167152844.4,0.0,182.5,38125670.53,0,0,False
479701,-1.36821525652,-0.0106386016074,Culkin Macaulay,8608.688679,6.968867925,36,166668508.4,6276625.773,167.5,27311481.2,0,0,False
210447,0.578783872362,0.0476836049555,Bixby Bill,1198.587537,7.328486647,82,164400000.0,0.0,172.5,14254200.43,0,0,False
1040472,-1.45456238468,-0.22638801192,Jackson Jr. O'Shea,18270.85714,6.171428571,25,162927133.5,0.0,177.5,28352396.66,0,0,False
1511310,1.62710995847,2.00479540702,Mitchell Thomas,8918.0,6.97816092,124,162879570.1,207194.2446,175.0,20547438.27,1,0,False
770250,-1.59195134686,-1.56004721652,Garfield Andrew,40757.19355,7.203225806,33,161207811.0,522661.742,175.0,81016756.36,0,0,False
1844205,1.77334230998,-0.371289047193,Reiner Carl,2679.754455,7.425346535,94,160689733.3,0.0,182.5,13175070.18,0,0,False
1809693,-3.55889596642,0.183171465886,Radcliffe Daniel,25670.67333,7.262666667,27,158893704.0,15384281.41,162.5,74989294.43,0,0,False
1281063,-0.866717026447,-0.925929801535,Leopardi Chauncey,6593.04878,7.129268293,35,157997155.9,0.0,167.5,24075800.22,0,0,False
139974,-0.507008851189,-1.41909034698,Barnes Ben,26011.82143,7.117857143,35,157866623.3,0.0,182.5,80162394.2,0,0,False
641880,-0.632027057189,0.268054531422,Eminemnan,3987.643836,6.580136986,44,155718610.3,4002223.457,173.0,7973394.007,0,0,False
30710,-0.470793114747,-0.146534850594,Alazraqui Carlos,3064.446855,7.028850325,54,151995828.5,0.0,167.5,23132512.61,0,0,False
475352,-3.53734627255,3.56823411933,Cruise Tom,29250.88089,6.073407202,54,150325470.3,22818323.78,167.5,68280976.74,0,3,False
658845,-3.57500235787,-2.03430452395,Evans Chris,76134.55462,6.744537815,35,150033464.2,3160423.597,180.0,116236357.7,0,0,False
179273,1.29165053917,0.960621342336,Benjamin Richard,2933.680412,6.405154639,78,150015073.6,0.0,185.0,24164811.58,0,1,False
1258699,1.23292090947,0.000497923972428,Lazenby George,1039.761538,6.926923077,77,148934014.2,360192.0399,185.0,6915884.181,0,0,False
501333,-0.306493028282,-0.985065208754,Daniels Phil,1576.142857,7.533082707,58,148841693.4,0.0,167.5,62717770.03,0,0,False
348210,-2.11573529423,2.49995030307,Carrey Jim,17295.23844,6.564963504,54,148529548.1,18764681.5,185.0,85934242.91,0,2,False
365478,-1.22809622448,-1.99953300459,Cavill Henry,38519.43056,7.515277778,33,147729442.1,1481840.052,182.5,127614012.3,0,0,False
894803,1.01441719638,0.983807871942,Hamilton George,2501.692308,6.46875,77,145074380.2,0.0,182.5,18249745.89,0,1,False
1040268,-2.78624698027,-0.516248700568,Jackman Hugh,46906.72889,7.060888889,48,141214431.3,8927678.041,190.0,107145611.3,0,1,False
1565774,-1.99118613913,2.02080087097,Murphy Eddie,12095.2975,6.629,55,140156051.7,16985271.61,172.5,84863148.58,0,1,False
973081,0.0206724103096,-1.41775233103,Hoechlin Tyler,2575.279221,7.221428571,29,138816472.3,91778.20268,180.0,30120942.48,0,0,False
975730,0.200660575701,0.602022316847,Hogan Paul,7043.568182,6.909090909,77,135839254.0,0.0,172.5,26911451.0,0,1,False
974144,-1.46045678776,6.26812612007,Hoffman Dustin,14315.19149,6.965045593,79,135573724.0,6587366.397,167.0,65462254.21,2,5,False
460464,0.0856323060945,-2.14277681389,Courtney Joel,11131.81481,7.314814815,20,135507862.0,0.0,186.0,20449265.5,0,0,False
1319219,-0.154618532227,-2.11415755152,Long Matt,3234.013333,7.828,36,134069575.7,0.0,175.0,49368455.31,0,0,False
1594027,-3.20050311281,-1.25144076747,Neeley Ted,56934.55556,6.683333333,73,132311432.4,0.0,165.0,4946296.296,0,0,False
1067153,0.652775534512,-1.32688272584,Jeter Derek,6334.20339,7.079661017,42,131217644.6,0.0,187.5,27651623.2,0,0,False
445816,-1.33368264221,-1.05986816259,Cooper Bradley,28511.82308,7.412692308,41,130982123.2,6008767.718,182.5,44500167.92,0,0,False
1698586,0.0338934790281,-0.0912355636714,Parks Michael,26799.15432,6.932716049,76,129982688.9,0.0,180.0,15613557.75,0,0,False
1522120,-0.515488421501,2.94605205754,Monahan Dan,4975.8125,5.73125,61,129507637.8,0.0,165.0,24846389.62,0,0,False
563215,-4.19308696361,3.35573516515,DiCaprio Leonardo,41242.78261,6.785507246,42,128505945.8,18773564.51,180.0,61657739.62,1,3,False
2082375,-1.93620799065,-0.447875397772,Smith Jaden,18149.02128,6.540425532,18,128357363.4,3301904.098,170.0,58996491.74,0,0,False
2429998,0.769285490973,-2.71906275187,Woods Zach,5981.488,7.852,32,128150608.0,0.0,190.0,54700547.03,0,0,False
2069243,1.06073112848,-2.37922616754,Skarsg_Îârd Alexander,8154.56338,7.431690141,40,126585313.0,306544.73,194.0,44380323.18,0,0,False
2028696,-1.83857101413,-2.64701494488,Sharma Suraj,41593.75,7.833333333,23,124987023.0,0.0,172.5,51114895.92,0,0,False
121279,0.945677164959,0.477943355998,Baker Joe Don,14594.2967,6.592307692,80,124324324.3,0.0,185.0,39009739.39,0,0,False
955728,1.1363687148,1.32744531101,Heston Charlton,5489.461538,6.725558313,93,123927656.3,1049170.486,185.0,35791086.7,1,0,False
1424897,1.97498260036,1.45490227314,Mature Victor,829.702381,6.26547619,103,123820951.0,771131.9822,185.0,23466988.44,0,0,False
565794,-2.72025674561,-0.585005362302,Diesel Vin,52135.34454,6.637815126,49,122222812.3,8345738.505,182.0,67362144.42,0,0,False
2029880,0.421797526137,0.899706381925,Shatner William,1797.295529,7.112758997,85,122032752.1,0.0,172.5,15338975.37,0,1,False
1367520,1.27020614728,-0.384705978074,Majetich Daniel T.,215.0,6.9,66,121963426.4,0.0,187.5,0.0,0,0,False
1237145,1.01490878574,2.64727012812,Lancaster Burt,3054.571429,7.013333333,103,121572408.8,1184952.665,182.5,17575789.55,1,1,False
125330,-4.10953052329,-0.398257483877,Bale Christian,68960.42657,6.812587413,42,121073404.0,7480124.381,183.0,68258050.06,1,1,False
1916334,0.383080679949,-2.04952991177,Routh Brandon,7118.91716,7.699408284,37,119882939.6,1190476.19,185.0,56969001.19,0,0,False
1307634,0.829930565171,0.024752593651,Little Cleavon,2642.065574,7.050819672,77,119500000.0,0.0,180.0,6906715.639,0,0,False
1882493,-2.37057649553,-2.22987694373,Robinson James,58298.53846,7.1,33,119070779.5,0.0,182.5,56946059.78,0,0,False
1983351,0.411007380222,2.52316035702,Schell Maximilian,3113.774648,6.668309859,86,118485623.1,0.0,177.5,28532505.56,1,2,False
86480,0.496649971178,-1.49415479333,Arnett Will,7779.381395,7.436744186,46,117746813.3,0.0,185.0,69850666.35,0,0,False
1010179,1.15593002395,0.428051231198,Hunter Jeffrey,2324.965116,6.940697674,90,116254330.4,0.0,180.0,11553984.79,0,0,False
2002242,0.255223949003,1.62960237315,Scott George C.,5839.913043,7.032608696,89,114864772.6,4051932.432,180.0,24989106.08,0,2,False
1279433,0.968043224448,-0.497864876045,Leonnan,4449.910112,6.668539326,54,114363343.4,0.0,187.5,22312456.13,0,0,False
162071,-0.0866367335091,2.98633089974,Beatty Warren,4124.802469,6.669753086,79,114074263.2,6950208.91,185.0,48365986.43,0,2,False
192697,0.834633863984,2.93217719416,Berryman Michael,11163.29897,5.568041237,68,113544201.1,0.0,185.0,3697861.138,0,0,False
100179,0.82706016657,-0.291649396106,Auberjonois Rene,1902.660844,7.311499272,76,113180829.8,0.0,180.0,27294476.78,0,0,False
2261105,-1.83085692721,0.798055785679,Tucker Chris,23338.01299,6.367532468,44,111679995.2,10586285.96,182.5,45749063.1,0,0,False
1805193,-0.389735744198,0.961998011489,Quinn Colin,2435.935849,6.488301887,57,111392779.4,0.0,170.0,4205196.851,0,0,False
1489845,1.0882773401,-0.951183610522,Midkiff Dale,1100.314516,7.119354839,57,111230669.0,0.0,188.0,5625969.982,0,0,False
884293,1.05022589206,0.730546985339,Haggerty Dan,1985.045455,6.45,74,110788648.9,0.0,182.5,6298452.327,0,0,False
1315740,1.45480341983,-0.102001679165,Logan Robert,258.5510204,6.865306122,75,109303539.1,0.0,187.5,0.0,0,0,False
794988,-2.5299427191,1.69605400502,Gibson Mel,25864.19048,6.458730159,60,109152998.5,18379080.29,177.0,59365173.83,0,0,False
