id_data,x_data,y_data,z_data,votes,rating,age,gross,salary,heightcm,budget,academy,golden,sample
1763071,-1.07860356798,-11.6974346439,Plowman David Michael,779071.3333,8.5,37,0.0,0.0,172.5,65635401.52,0,0,False
160469,-6.36872042018,-5.10612635873,Beam Greg,570541.3333,6.533333333,34,0.0,0.0,180.0,193496.1564,0,0,False
2287342,-1.3071149379,-7.53610069557,Valleti Ravi,513042.0,8.0,37,0.0,0.0,190.0,53361501.55,0,0,False
1208644,-3.83522208268,-5.86548191,Kruse Brian,492178.0,7.35,32,0.0,0.0,175.0,2027.57502,0,0,False
2462665,-5.80703653208,-1.97018772932,Zaideman Kevin,427871.75,6.15,30,0.0,0.0,175.0,103484654.0,0,0,False
2018718,-5.29067270788,-1.24067604543,Serrone Christopher,372719.5,6.15,40,0.0,0.0,190.0,506920.429,0,0,False
1887102,-4.08853193074,-1.38526922033,Roda Andrew,312836.0,6.5,33,0.0,0.0,172.5,0.0,0,0,False
2298140,-1.3293286245,-4.72792448677,Vang Bee,285950.5,8.3,25,0.0,0.0,165.0,18458854.5,0,0,False
496026,-2.46174226578,-2.69603873763,Dallace Tommy,269029.0,7.16875,44,0.0,0.0,185.0,67849737.46,0,0,False
914248,-3.38081961047,0.0170601649269,Harris Sam,232368.75,6.1,34,0.0,0.0,182.5,49819408.0,0,0,False
2150589,-2.73024403624,-0.996170546167,Stubbins John Michael,223514.3333,6.766666667,47,0.0,0.0,182.5,108793138.9,0,0,False
1855286,-1.58834229639,-2.85124112408,Rhodes Alexander,221037.125,7.6125,27,0.0,0.0,175.0,25467564.48,0,0,False
2159886,-2.15993657219,-1.41016060598,Sundgren Kyle,195338.0,7.0,32,0.0,0.0,172.5,21339639.59,0,0,False
780682,-2.29006350554,-0.593625787028,Geckles Joshua,179573.0,6.6,31,0.0,0.0,180.0,81009347.61,0,0,False
105368,-2.40969939411,0.892972625339,AvMen Michael,170595.6667,6.033333333,39,0.0,0.0,177.5,72682203.15,0,0,False
80966,-3.23111980856,1.83821448502,Ardine Dustin,169999.5,5.3,32,0.0,0.0,170.0,40558282.16,0,0,False
2090569,1.45919476883,-0.73333263764,Snow Anthony,165763.7143,7.157142857,54,0.0,0.0,180.0,15600257.06,0,0,False
2409808,-2.3086188938,0.694210659868,Willshire Kyle,157424.0,6.1,36,0.0,0.0,182.5,81701228.88,0,0,False
2280706,-1.73276719633,-1.9449512727,Uwais Iko,145102.5,7.366666667,33,3476593.881,0.0,162.5,6570633.209,0,0,False
972427,-2.1441443694,-0.0376624004021,Hodges Jordon,143315.0833,6.4,29,0.0,0.0,172.5,29880649.12,0,0,False
2120572,-0.594529707989,-2.11406098889,Stanton Kevin,140117.5,7.45,29,0.0,0.0,185.0,13760433.74,0,0,False
1749589,-1.59117542214,-0.560110239381,Pierce Ernest,138868.0323,6.741935484,31,0.0,9418.431085,180.0,32502204.4,0,0,False
576669,1.20088262708,-1.59688391356,Docter Pete,138699.8913,7.336956522,48,0.0,0.0,190.0,12288.78648,0,0,False
2462354,-0.0259008317057,-1.87915192053,Zaher Baktash,138565.5,7.5,40,0.0,0.0,182.5,3135256.75,0,0,False
1380838,-0.58610580154,-1.62395786534,Mann Nav,137261.0,7.275,35,0.0,0.0,182.5,70520083.92,0,0,False
1992176,1.18111853594,1.03140763554,Schoneberg Andy,134337.0833,7.108333333,60,0.0,0.0,170.0,24466.68172,0,0,False
459901,-2.54867076652,0.762972532331,Coupe David,132339.5,5.983333333,30,0.0,0.0,167.5,114557267.0,0,0,False
1108425,-0.505057918278,-1.95858040988,Kalbfleisch Dan,130367.5,7.55,30,0.0,0.0,180.0,98408104.2,0,0,False
1885326,-1.39304357986,-0.446183764948,Rocco Sam,126031.5,6.775,33,0.0,0.0,175.0,49852891.77,0,0,False
734430,0.765795185591,0.859997415477,Freeman Alfonso,124834.9474,6.997368421,57,0.0,0.0,172.5,9715860.172,0,0,False
805937,-1.91442109302,0.308201150595,Gladen Jeremy,121242.375,6.3,31,0.0,0.0,172.5,81168.5361,0,0,False
38889,-1.24296617899,-0.288688279415,Alfter Adam,120726.6667,6.733333333,36,0.0,0.0,182.5,0.0,0,0,False
1766664,-3.98819833956,3.38572924723,Poletti Mark,120403.0,4.2,27,0.0,0.0,172.5,6550.342381,0,0,False
221184,1.53315115193,-0.548115998237,Blood Todd,118569.3929,7.310714286,57,0.0,0.0,187.5,79872678.5,0,0,False
1769814,0.742557242816,-0.00626113875486,Ponce-Bonano Alexander Xavier,117741.2667,7.113333333,53,0.0,0.0,177.5,0.0,0,0,False
2221056,-1.19330040646,1.46049046857,Thornberry Michael,116898.0,6.133333333,43,0.0,0.0,185.0,59081443.92,0,0,False
1780578,-0.670507062283,-1.01602353064,Powers Frank,112848.7273,7.213636364,41,0.0,0.0,172.5,62701064.35,0,0,False
1792868,-1.92449463299,0.0350912799472,Pryce David James,112808.3333,6.366666667,25,0.0,0.0,175.0,6332794.749,0,0,False
923828,-1.16783011706,1.14059425638,Hatley Adam,110001.6667,6.188888889,42,0.0,0.0,180.0,10718418.31,0,0,False
1401709,-1.13007218431,-0.423565544496,Martin Christian,109510.375,6.9,41,0.0,0.0,170.0,36684.34322,0,0,False
2448304,-1.67740114081,2.16958869372,Yee Jason,107601.6154,5.538461538,46,18189.67395,0.0,175.0,70808181.62,0,0,False
534855,-0.634074663409,-1.55933026632,DeCourville Alex,106129.3,7.41,28,0.0,0.0,177.5,28385039.87,0,0,False
2011815,-2.10248382305,1.92844724377,Selenfriend Jeremy,104023.1667,5.5,38,0.0,0.0,172.5,0.0,0,0,False
510910,-1.50177989408,-0.516202642354,Davies Jonno,102780.0,6.7,24,0.0,0.0,180.0,82019433.21,0,0,False
499344,0.850366351956,-0.807900385137,Dane Michael,102574.1818,7.459090909,51,0.0,0.0,180.0,80152330.42,0,0,False
1339127,-1.82465376924,1.2513205794,Lundy Gary,101759.1667,5.866666667,35,0.0,0.0,175.0,4102165.185,0,0,False
754954,-0.824377106121,-0.679043759846,Galatis William,101668.6667,7.033333333,37,0.0,0.0,172.5,16205790.92,0,0,False
1116083,-1.86386549329,0.740612305958,Kapcia Chris,101650.5,6.1,32,0.0,0.0,172.5,42252098.22,0,0,False
1042750,2.39468637384,-0.444643436332,Jackson Peter,100967.9474,7.190526316,55,0.0,19064619.35,165.0,78202658.33,0,0,False
2342017,1.83524439666,-0.18686309234,Wahlberg Robert,99409.33333,6.877777778,49,69543280.75,0.0,175.0,9064868.666,0,0,False
2425868,-0.920031595591,-0.91849880712,Wong Stanley,97025.28571,7.064285714,29,0.0,0.0,175.0,4155.150041,0,0,False
1439036,-0.038558503662,-1.27028982792,McCluskey Taylor,92913.27778,7.283333333,34,0.0,0.0,185.0,100978141.4,0,0,False
1122693,-0.380495818748,-1.2440891344,Kasche Edward,92844.0,7.4,35,0.0,0.0,175.0,52098408.1,0,0,False
1514992,-1.26614569288,-0.572160927131,Mobraaten Derek,92099.4,6.76,28,0.0,0.0,185.0,46516895.04,0,0,False
807724,-0.0980470509903,-1.07639622145,Gleeson Domhnall,92041.59459,7.2,33,13792986.58,0.0,182.5,57047850.01,0,0,False
607426,0.471390422657,-1.61284890555,Dunlevy Stephen,91709.42857,7.521428571,38,0.0,0.0,187.5,0.0,0,0,False
1275285,0.00697455447048,-1.77851817343,Leitch Matthew,89556.2,7.73,41,0.0,0.0,172.5,39242952.47,0,0,False
1565531,-0.0428798261215,-1.58700309737,Murphy Cillian,89410.97872,7.623404255,40,1053076.928,0.0,172.5,68715447.99,0,0,False
2368023,0.882297411886,0.369787957632,Weaving Hugo,88618.22628,7.016058394,56,5155039.848,0.0,185.0,80056045.53,0,0,False
839977,-1.6018907736,0.138695081107,Grant Travis,87883.0,6.425,28,0.0,0.0,185.0,9633682.042,0,0,False
606592,-0.483073797292,0.0303152986539,Duncan Ryan,87338.06667,6.853333333,43,0.0,0.0,172.5,14020639.47,0,0,False
907723,-0.743191779302,-0.185817759001,Hargitay Eddie,86845.31818,6.85,38,0.0,0.0,172.5,39719204.49,0,0,False
684148,-0.636101695948,-0.621086044691,Ferguson Patrick,86692.0,6.966666667,32,0.0,0.0,180.0,23541243.71,0,0,False
196089,0.657642792179,0.0905950476865,Bettany Paul,86242.57895,6.855263158,45,18999701.5,0.0,187.5,69449529.54,0,0,False
1138001,-0.312786906387,-2.23891207802,Kelly Jason,85917.5,7.85,25,0.0,0.0,177.5,0.0,0,0,False
147123,-0.691238039298,-0.0211242326266,Barter Bryan,85850.16667,6.8,40,0.0,0.0,172.5,14678981.55,0,0,False
1068098,-0.51699256569,-2.67078953449,Jia Dave,85786.0,8.028571429,24,0.0,0.0,170.0,34345352.63,0,0,False
762779,0.19454175054,-0.288435066493,Ganyo Scott,85593.65,7.155,47,0.0,0.0,172.5,29758775.16,0,0,False
1465551,0.320744004254,-1.47742380841,Meehan Sean,85584.64286,7.685714286,42,0.0,0.0,177.5,77179719.69,0,0,False
2334782,-0.382890310486,0.0513066255257,Vos Marc,85261.0,6.871428571,44,0.0,0.0,172.5,20973092.04,0,0,False
1390680,-0.103895152321,0.18443143038,Mariano Tom,83216.60714,6.903571429,47,0.0,0.0,172.5,39206871.88,0,0,False
2122965,0.150014678206,0.550389696633,Statham Jason,82368.52239,6.714925373,49,23928773.38,793756.1931,175.0,57800602.87,0,0,False
1082011,0.483706084113,1.73113735504,Johnston Joe,82259.94444,6.519444444,66,0.0,0.0,182.5,11000000.0,0,0,False
679470,-1.32145351622,0.0877897850136,Fein Chase,82124.3617,6.49787234,29,0.0,0.0,177.5,12053.69397,0,0,False
1154518,-0.150184205342,-1.1227486444,Kidd Rhet,81864.6,7.4,36,0.0,0.0,177.5,32910451.02,0,0,False
2198423,1.04725544902,-1.54642261228,Taylor-Johnson Aaron,81199.21739,6.793478261,26,61662032.77,0.0,177.5,56244489.66,0,0,False
1866979,-1.26411900117,0.372808670582,Riley Benjamin,80866.15,6.38,32,0.0,0.0,180.0,19215102.32,0,0,False
834078,-0.0408889937654,-1.77138831881,Goyos Rey,79568.0,7.70625,32,0.0,0.0,180.0,60152402.04,0,0,False
1704722,-1.13492998985,-1.17433684387,Patel Ankit,79497.0,7.16,26,0.0,0.0,170.0,1322.992135,0,0,False
1876180,-0.166725146661,-0.819392519528,Robbins Jarrod,78756.7,7.22,36,0.0,0.0,180.0,55824263.51,0,0,False
2453966,-0.18037674352,-0.476356638724,Youcef Ben,77722.91667,6.954166667,37,0.0,0.0,185.0,45108596.66,0,0,False
1802634,-2.10482771119,0.130831173914,Quan Jonathan Ke,77685.85,6.9,45,0.0,0.0,160.0,53528378.37,0,0,False
659825,0.0617726766591,-0.460828778993,Evans Luke,76505.41026,6.969230769,37,28565320.99,0.0,180.0,55469259.87,0,0,False
658845,3.6308872801,-2.14260557405,Evans Chris,76134.55462,6.744537815,35,150033464.2,3160423.597,180.0,116236357.7,0,0,False
2475583,0.54629585308,0.777742206757,Zimmer Hans,74974.91241,6.901094891,59,0.0,0.0,175.0,1259842.52,0,0,False
170434,-1.83982557907,3.35443686844,Belfort Jordan,74274.81818,5.0,54,0.0,0.0,167.5,0.0,0,0,False
1721628,0.213689934922,-1.43659437897,Pence Josh,72852.53333,7.383333333,34,0.0,0.0,187.5,20876365.17,0,0,False
1918525,-2.02769748654,5.24485408204,Roy Deep,72659.78082,6.750684932,59,0.0,1228878.648,130.0,28888099.67,0,0,False
1210970,0.731771078607,-3.29723737764,Kucsulain Justin,72523.25,8.475,32,0.0,0.0,190.0,103023459.3,0,0,False
291424,-0.789913485483,-1.69679807389,Bubar Pablo,72321.0,7.5375,28,0.0,0.0,170.0,19574539.37,0,0,False
2132655,0.932946339995,0.658299992251,Steven Joseph,71820.42105,6.973684211,60,0.0,0.0,185.0,54086038.89,0,0,False
1666029,-1.85179985608,1.36636349479,Orton Justin,71767.0,5.766666667,31,0.0,0.0,180.0,167803222.8,0,0,False
1059101,0.0146435568944,-0.787778143903,Jay Baron,71671.29231,7.316923077,40,0.0,0.0,177.5,72776847.27,0,0,False
1355249,-0.534029110911,-0.0916107587737,Mackie Anthony,70562.47727,6.822727273,38,2963346.703,0.0,175.0,63907244.57,0,0,False
2025040,-0.0519820797859,-1.72328854987,Shalkoski Jr. James,70088.0,7.725,33,0.0,0.0,177.5,13763160.36,0,0,False
572123,-1.06925768417,-3.1968168942,DiSparrow Lukas,70005.93878,7.93877551,32,0.0,0.0,155.0,141888248.6,0,0,False
1374154,-0.216745636399,0.991850200214,Malone Robert,69533.8125,6.55,52,0.0,0.0,172.5,30838354.61,0,0,False
125330,4.73254546343,-0.217425307412,Bale Christian,68960.42657,6.812587413,42,121073404.0,7480124.381,183.0,68258050.06,1,1,False
506616,-0.468480109068,-0.649939920323,Dastmalchian David,68781.97222,7.038888889,32,0.0,0.0,180.0,158817.0412,0,0,False
1203500,-2.1380273529,2.48449729021,Kreinbrink Justin,68622.09091,5.209090909,37,0.0,0.0,185.0,1829954.487,0,0,False
2189637,0.091539668018,0.934194180304,Tarantino Quentin,68102.23954,6.558174905,53,0.0,0.0,182.5,17956663.12,0,0,False
1975235,0.559789684181,4.16871187416,Savage Peter,67726.6,5.78,96,0.0,0.0,182.5,12371134.02,0,0,False
579119,0.299773432483,0.208688768707,Dolan Buddy,67555.42857,7.014285714,52,0.0,0.0,175.0,90788884.29,0,0,False
278275,-0.396701689048,-0.31098236134,Brown Jr. Kenneth,67484.875,6.9125,36,0.0,0.0,180.0,8392161.138,0,0,False
1853243,0.046284217547,0.197175996934,Reynolds Anthony,67392.7013,6.88961039,48,0.0,0.0,177.5,4719051.49,0,0,False
1740398,-1.60005125885,-0.0371759097521,Pettyfer Alex,67361.53846,6.461538462,26,37377141.61,266738.9826,181.0,31379110.04,0,0,False
408091,-0.782693692727,-1.07266533282,Cioffi Jon,66947.5,7.15,25,0.0,0.0,177.5,50689375.51,0,0,False
907395,0.62235152409,-0.904041161592,Hardy Tom,66253.32609,7.319565217,39,33611372.67,0.0,172.5,68340538.09,0,0,False
72193,0.398820579093,-2.43295628045,Anthony Rock,65973.5,7.964285714,30,0.0,0.0,187.5,35965819.03,0,0,False
2475682,-0.402575188055,-1.15785803322,Zimmerman III David,65893.26087,7.373913043,32,0.0,0.0,175.0,3749.088221,0,0,False
2047331,-0.13148855342,0.914670563171,Shyamalan M. Night,65818.37037,6.691358025,46,0.0,12132359.11,175.0,57744502.55,0,0,False
941451,1.94321870535,-1.64396492824,Hemsworth Chris,65665.37838,7.025675676,33,76022263.81,5144772.698,190.0,103380878.9,0,0,False
2395749,-0.0599133738212,-0.0874252233518,Wiig Steven,65577.21622,6.981081081,44,0.0,0.0,177.5,47232871.64,0,0,False
710715,0.167429254187,-0.854721936317,Floyd Jayson,65523.66667,7.1,36,0.0,0.0,187.5,111720.8109,0,0,False
465623,-1.1616200847,-1.42241366953,Craig Tyler,65191.0,7.15,17,0.0,0.0,177.5,9426384.834,0,0,False
672587,-2.40568908965,1.64397344773,Farmer Timothy,64306.65385,5.519230769,29,0.0,0.0,170.0,19512022.88,0,0,False
1651428,1.17029568578,0.576019387484,Oldman Gary,63445.66013,7.073856209,58,23605403.39,4048887.916,170.0,64811864.28,0,0,False
977253,0.800318947272,-0.129673004437,Holden Larry,63394.39394,7.284848485,55,0.0,0.0,180.0,11122224.42,0,0,False
1342092,-1.21904475275,0.0675161675967,Ly Amadou,62710.33333,6.533333333,28,0.0,0.0,180.0,0.0,0,0,False
1050955,-2.14184578385,1.23245231052,James Kasey,62281.58824,5.8,29,0.0,0.0,170.0,26446398.17,0,0,False
1101223,-0.812937283054,0.142733641221,Justice Michael,61420.68182,6.604545455,34,0.0,0.0,180.0,1961255.321,0,0,False
1847950,1.18110121068,0.00834863167178,Renner Jeremy,61342.81967,6.996721311,45,39425285.33,3454000.474,175.0,91549097.85,0,0,False
320275,-0.0259174946937,0.516159765378,Cain Atticus,60854.0,6.683333333,45,0.0,0.0,185.0,3279563.779,0,0,False
516148,-7.67495865686,3.19491076578,Davis Warwick,60694.77444,6.97593985,46,8936572.5,0.0,105.0,38197394.42,0,0,False
1842785,-1.38098414293,0.822484247971,Reid Richard Alan,60185.95,6.14,32,0.0,0.0,180.0,34418348.46,0,0,False
1537272,0.187894526678,-1.58489601866,Morehouse Ron,59844.09524,7.70952381,36,0.0,0.0,180.0,8845.16831,0,0,False
1908513,-1.79806848863,-0.503540181784,Rosendall Scott,59834.33333,6.866666667,35,0.0,0.0,162.5,2852.370511,0,0,False
2253782,-0.349235269905,-1.49750850285,Troeller Kerim,59814.0,7.3,26,0.0,0.0,185.0,1750000.0,0,0,False
1415325,-1.69712810202,0.422801005337,Massa Joseph,59808.0,6.266666667,27,0.0,0.0,172.5,52335455.19,0,0,False
17351,-0.423161968165,0.443390444453,Affleck Casey,59672.83333,6.619444444,41,4874689.81,0.0,175.0,24675172.03,0,0,False
2017445,5.20793221309,-2.46194022578,Serkis Andy,59650.71585,7.244808743,52,199997699.0,0.0,170.0,132432929.2,0,0,False
94020,-1.32623454266,0.593097675815,Ashmawey Ibrahim,59574.28571,6.257142857,31,0.0,0.0,180.0,0.0,0,0,False
2118514,0.34584528635,-1.54967385361,Stan Sebastian,59517.25974,7.627272727,34,14315043.47,0.0,183.0,102083837.1,0,0,False
368399,-0.837527099685,-0.26684852326,Centanni Louis,58716.2,6.76,31,0.0,0.0,185.0,37444641.41,0,0,False
2125321,1.56046518845,-0.448668954663,Steen David,58449.44828,7.627586207,62,0.0,0.0,180.0,15122096.1,0,0,False
1882493,2.71365351061,-2.03480357564,Robinson James,58298.53846,7.1,33,119070779.5,0.0,182.5,56946059.78,0,0,False
460454,-0.109421788599,-1.36370112849,Courtney Jai,58153.8125,7.421875,30,0.0,0.0,182.5,83322940.33,0,0,False
2107219,-0.948455168975,-2.02033010506,Spears Corey,58102.33333,7.6,41,0.0,0.0,162.5,30000.0,0,0,False
2097939,-0.973389753073,-0.176608588805,Sommerville David Kenneth,57999.0,6.7,29,0.0,0.0,182.5,299678.8612,0,0,False
251871,-0.0180816893809,0.422231665541,Boyd Sean,57845.14286,6.757142857,49,0.0,0.0,177.5,2668.078348,0,0,False
2145163,-0.992815606434,-0.275518379717,Strange Patrick Michael,57769.01471,6.889705882,39,0.0,0.0,167.5,45493415.64,0,0,False
994541,-0.310342202131,-0.578248517981,Hover Erich,57607.2,7.14,37,0.0,0.0,175.0,10737610.93,0,0,False
2362114,1.7657462474,0.190993999762,Watanabe Ken,57308.46154,7.049230769,57,53670887.19,0.0,184.0,102859304.0,0,0,False
1388536,-0.574844681371,-0.995771750182,Marcucci Nick,57300.0,7.1,27,0.0,0.0,182.5,14535524.28,0,0,False
280673,1.85390731442,0.251355516301,Brown Gregory M.,57175.42308,7.465384615,68,0.0,0.0,185.0,34607541.56,0,0,False
686228,-0.538025729484,0.809549197326,Fernstrom Scott,56980.0,6.409090909,43,0.0,0.0,182.5,20210506.38,0,0,False
1594027,4.23414169646,1.14300343626,Neeley Ted,56934.55556,6.683333333,73,132311432.4,0.0,165.0,4946296.296,0,0,False
1550640,-1.20848672894,-1.41837324833,Moss Jameson,56729.6,7.28,25,0.0,0.0,167.5,97490.61135,0,0,False
387343,-1.11195508497,0.665449622901,Chen Edison,56633.64706,6.3,36,0.0,0.0,175.0,13370747.06,0,0,False
1802467,0.00636838691776,-2.19581946306,Quaid Jack,56474.31818,7.740909091,24,0.0,0.0,185.0,13012480.03,0,0,False
621908,0.347088722343,0.42410375819,Eckhart Aaron,56386.12195,6.758536585,48,18996410.99,0.0,183.0,55101088.01,0,0,False
391477,1.10971559652,-0.466787886746,Chevalier Peter J.,56053.5,7.34,51,0.0,0.0,165.0,58593421.71,0,0,False
2192740,0.970344629202,0.0565817283001,Tatum Channing,55628.37755,6.602040816,36,50681632.83,0.0,182.5,53490894.48,0,0,False
1996153,-0.96444676948,1.52362751888,Schulze Matt,55466.04,5.972,44,0.0,0.0,182.5,34980832.84,0,0,False
1059303,1.30520478314,1.74088637105,Jay Ricky,55454.27957,7.246236559,68,155965.9508,0.0,165.0,30674277.92,0,0,False
1197750,-0.290376656134,0.249848420511,Kovacs Amir,55441.8,6.76,44,0.0,0.0,175.0,25009336.38,0,0,False
2347807,0.550238966813,-1.15551758753,Wall Todd,55412.9,7.64,46,0.0,0.0,175.0,75645564.2,0,0,False
1709647,-0.417378862045,-0.700957943911,Paul Michael,55389.83333,7.15,34,0.0,0.0,175.0,70427713.44,0,0,False
1837445,-1.23282933058,1.65542935981,Reece Brian,55191.33333,5.826666667,41,0.0,0.0,182.5,3232244.951,0,0,False
1941855,0.483460917955,-0.0320523717747,Sagastizado I Tony,55016.26316,7.178947368,51,0.0,0.0,170.0,59798343.62,0,0,False
383191,0.276362793143,-1.19794873463,Chasey Brian,54939.76923,7.307692308,35,0.0,0.0,187.5,50800.21695,0,0,False
1694484,-0.0107250906904,-0.36363887583,Paris D.J.,54730.66667,7.15,43,0.0,0.0,175.0,202757502.0,0,0,False
2277915,0.606052487175,-0.870027086919,Urban Karl,54559.46667,7.464444444,44,13274741.99,0.0,182.5,74300517.32,0,0,False
661074,-0.382090884418,0.777001041167,Everbeck R.C.,54504.6,6.466666667,47,0.0,0.0,177.5,28547459.21,0,0,False
502425,-0.569936596098,-0.288347968121,Dano Paul,54270.32813,6.8203125,32,2650601.564,0.0,182.5,31891583.17,0,0,False
2151741,0.529886063358,-1.06540235783,Sturgess Jim,54173.85417,7.4375,38,30192148.41,0.0,180.0,58416328.51,0,0,False
962670,2.84957836914,-1.15531180423,Hill Jonah,53695.92857,6.605844156,33,102748812.7,0.0,167.5,59418589.13,0,0,False
541054,1.54767458246,0.82257783538,Delate Brian,53393.79592,7.17755102,67,0.0,0.0,187.5,19184644.78,0,0,False
1960966,-1.78774867168,0.583195936246,Sands Roger,53229.53846,6.276923077,31,0.0,0.0,167.5,35703302.35,0,0,False
1769686,-0.52132546246,-0.677796210365,Ponce Frank,52833.4,6.99,30,0.0,0.0,182.5,0.0,0,0,False
1954763,0.352349408652,1.35124794864,Samra Ofer,52731.125,6.575,62,0.0,0.0,177.5,31387.40642,0,0,False
771414,-0.614845462818,0.191612444694,Garner Jerald,52695.17544,6.710526316,40,0.0,0.0,172.5,47639607.05,0,0,False
1384951,-1.11300829039,-0.981950599817,Manzour Dory,52451.11111,7.161111111,40,0.0,0.0,165.0,36769838.11,0,0,False
2283979,-0.865586583835,-0.183884579033,Valdez Ron,52448.44444,6.788888889,33,0.0,0.0,172.5,30314361.83,0,0,False
2035088,-0.93017195087,0.506531409826,Shepard Jason,52446.81818,6.4,36,0.0,0.0,177.5,6389635.884,0,0,False
2384839,0.458590363874,1.20966852667,Whannell Leigh,52309.02381,6.602380952,39,55913831.1,0.0,170.0,5023010.617,0,0,False
327230,-16.3154106826,11.4432029056,Cameron James,52137.44811,7.217924528,62,0.0,191358719.0,185.0,32268835.44,0,0,False
565794,3.40067901022,-0.761008666365,Diesel Vin,52135.34454,6.637815126,49,122222812.3,8345738.505,182.0,67362144.42,0,0,False
2366559,-2.23311485282,0.174114718327,Way John,52087.0,6.3,21,0.0,0.0,167.5,29365488.55,0,0,False
1226667,-0.0161919799103,0.226358660608,Lacey Aaron Michael,52058.23288,6.850684932,47,0.0,163273.343,177.5,68519915.65,0,0,False
941024,-0.250036168169,-0.786079357935,Hemingway Toby,51861.2069,7.182758621,33,0.0,0.0,180.0,6398294.49,0,0,False
935123,-1.1847577218,0.505133019135,Hedlund Garrett,51718.34615,6.403846154,32,0.0,0.0,185.0,64994558.23,0,0,False
238898,0.331163165781,0.804913305352,Borgman Eric Bruno,51528.09722,6.688888889,46,0.0,0.0,190.0,43295972.58,0,0,False
1922693,0.862607091253,2.30720428652,Rudin Stuart,51491.94737,6.513157895,75,0.0,0.0,187.0,494355.4283,0,0,False
1923711,0.913868821611,1.313819291,Ruffalo Mark,51363.13816,6.731578947,49,10163297.93,0.0,170.0,71037828.59,0,0,False
221417,0.0211604794177,-0.129233838809,Bloom Orlando,51292.27211,6.904081633,39,16492707.65,8522048.624,177.5,111594821.3,0,0,False
2911,0.74723578813,-2.43656669689,Abbott Jr. Michael,51248.75,8.10625,38,0.0,0.0,187.5,15235807.21,0,0,False
993343,1.00887059635,-2.09096783668,Hoult Nicholas,50998.63291,7.493670886,27,45172544.24,0.0,189.6,92230195.08,0,0,False
1752773,-1.17565177064,0.968180054684,Pilleri Tim,50903.52941,6.129411765,36,0.0,0.0,180.0,9531174.116,0,0,False
479585,-0.17458771297,-1.02176456913,Culbertson Zachary,50350.4,7.397142857,36,0.0,0.0,175.0,34636702.37,0,0,False
62259,0.229080049948,1.0358469455,Anderson Paul W.S.,49823.44,6.576,51,6549.403629,0.0,187.5,0.0,0,0,False
1863180,1.92581978044,0.918082680083,Rickman Alan,49708.28346,7.337795276,70,362810.8731,0.0,185.0,59134745.35,0,1,False
2299576,-1.033652289,0.61854777769,Vardian Michael,49416.85,6.46,39,0.0,0.0,170.0,45564453.13,0,0,False
1184305,0.574308022516,-1.07682575021,Kohler Matt,48891.4375,7.19375,37,0.0,0.0,190.0,14620162.04,0,0,False
212725,-0.221565328008,-0.156188416204,Black Tony,48860.1,6.88,38,0.0,0.0,182.5,6770030.581,0,0,False
634632,-1.51538044297,-0.822552487491,Elgort Ansel,48856.71429,6.761904762,22,0.0,0.0,187.5,60463303.75,0,0,False
2226164,-1.26821154351,-0.152911533101,Till Lucas,48637.41509,6.641509434,26,0.0,0.0,175.0,19870220.0,0,0,False
2351995,0.490773573483,7.05078148329,Walters Bryce,48610.0,6.333333333,116,0.0,0.0,135.0,365201.85,0,0,False
2403693,-0.542496597575,0.43933510506,Williams J.W.,48399.7,6.63,43,0.0,0.0,172.5,26741.36903,0,0,False
1508039,0.150236800943,0.394495606648,Mischke Rick,48333.72727,6.818181818,50,0.0,0.0,180.0,13230758.87,0,0,False
212631,0.122735504318,0.934776051297,Black Shane,48271.80556,6.633333333,55,0.0,2326650.288,175.0,32575677.9,0,0,False
2456910,-1.32968999815,2.09907042462,Youngblood Rudy,48170.4,5.86,34,60547486.9,0.0,177.5,13005727.37,0,0,False
1032084,-0.530378694883,-0.531557290183,Isaac Oscar,48124.04762,7.06984127,37,6420549.137,0.0,170.0,65824071.52,0,0,False
409921,0.897377110292,-1.39368368692,Claflin Sam,47929.58974,7.184615385,30,56154094.0,0.0,177.5,125563977.7,0,0,False
1854920,-0.177888653278,1.76689098748,Rhee Simon,47902.28,6.261333333,59,0.0,0.0,172.5,80106117.55,0,0,False
412982,-0.602771349374,-0.650558632174,Clark Spencer Treat,47721.10256,6.987179487,29,0.0,0.0,180.0,32290815.97,0,0,False
2413209,2.11179609999,1.425816782,Wilson Owen,47688.232,6.3072,48,86969718.17,7590780.429,175.0,72448265.56,0,0,False
1594022,-0.0600223758498,1.64072776095,Neeley Michael,47419.4,6.26,56,0.0,0.0,185.0,153310104.5,0,0,False
1624827,2.26702568697,0.590095572756,Norton Edward,47062.50993,6.89205298,47,32553008.65,7557564.083,180.0,44775123.24,0,1,False
251409,-0.737057434232,-1.36159187829,Boyd Cayden,47021.78261,7.239130435,22,0.0,0.0,180.0,25184373.47,0,0,False
1282199,0.80308977235,-2.2051485247,Lerman Logan,46973.36364,7.378181818,24,62289390.69,0.0,172.5,58106688.06,0,0,False
1040268,4.32917606765,-1.11545838903,Jackman Hugh,46906.72889,7.060888889,48,141214431.3,8927678.041,190.0,107145611.3,0,1,False
2036429,-1.52097581539,-0.949919928075,Sheridan Tye,46870.72222,6.905555556,20,3681044.313,0.0,170.0,15990094.35,0,0,False
845346,-0.323840133172,-1.52777827687,Green J.J.,46858.25,7.4625,26,0.0,0.0,180.0,22662894.47,0,0,False
2377135,0.516722886945,-1.18853487636,Wells Jr. David Dino,46851.26415,7.649056604,45,0.0,0.0,175.0,15448985.27,0,0,False
88357,-0.0731546597165,0.962041193049,Arquette Richmond,46775.46341,6.542682927,53,0.0,0.0,175.0,23704664.54,0,0,False
2201562,-1.06654707889,-0.0273567892684,Teller Miles,46762.22222,6.605555556,29,29321878.21,0.0,180.0,35936856.32,0,0,False
2410424,-0.404990533894,1.56075249518,Wilson Andrew,46550.86111,6.144444444,52,553560.7143,0.0,182.5,3753341.982,0,0,False
1927558,4.4858029312,2.59284420569,Rush Geoffrey,46476.82787,7.054098361,65,38119993.13,0.0,177.5,86554339.99,1,2,False
590481,-0.0229347219989,1.15433927172,Douridas Chris,45686.08333,6.625,54,0.0,0.0,170.0,4160878.505,0,0,False
1494074,0.178321498682,-2.45082334138,Miles Dustin,45532.5,8.133333333,33,0.0,0.0,175.0,5745.614107,0,0,False
374971,-0.803766406688,1.40435265926,Champion Jayson,45493.16667,6.466666667,38,0.0,0.0,192.5,1365134.92,0,0,False
2404266,1.4506036733,2.34854180058,Williams John,45456.51667,7.011388889,84,0.0,396039.604,177.5,1626266.339,0,0,False
2349191,1.17484435776,-1.08576920742,Waller Brian,45390.84615,7.753846154,54,0.0,0.0,180.0,42164753.91,0,0,False
1422340,-0.108004540103,-0.655709077739,Matsuzaki Yuki,45321.53125,7.115625,35,0.0,0.0,182.5,12235852.72,0,0,False
1816392,-0.570261997245,0.910995907888,Rakes Kwame,45283.77778,6.355555556,43,0.0,0.0,182.5,89375000.0,0,0,False
2369343,-0.516776834749,0.816282110855,Weber Chris,45257.44444,6.4,45,0.0,0.0,177.5,1207936.446,0,0,False
999155,-0.417388529183,0.305040211763,Hsu Art,45230.14286,6.657142857,41,0.0,0.0,178.0,52843101.43,0,0,False
1750427,-0.744808026198,-0.749423544306,Pierre Perri,45213.0,6.916666667,28,0.0,0.0,185.0,78434206.96,0,0,False
760410,-2.16191397402,-1.60801019195,Gamble Nathan,45189.26923,7.125,18,0.0,0.0,160.0,16143529.5,0,0,False
475215,-0.0736339074099,0.488962798512,Crudup Billy,45163.60938,6.8140625,48,6644256.867,1393728.223,170.0,55793117.78,0,0,False
1419063,-0.113685865237,-0.422279388987,Mathes Benjamin,44842.69231,7.007692308,37,0.0,0.0,183.0,50175.52724,0,0,False
1693872,-0.440916218504,0.633374235432,Parent Jean-Pierre,44817.04545,6.509090909,42,0.0,0.0,182.5,47460503.82,0,0,False
693358,2.28100258338,0.504499382905,Fiennes Ralph,44739.29861,6.977777778,54,50005607.72,0.0,180.5,62504704.09,0,0,False
324249,-1.02730996723,-0.821619275601,Calle Tony,44685.27273,7.081818182,34,0.0,0.0,167.5,11062805.37,0,0,False
638783,0.152333810096,-1.5194301491,Ellison David,44314.5,7.601666667,33,0.0,0.0,182.5,2303075.899,0,0,False
674758,1.21452946789,-0.960192749647,Fassbender Michael,44200.30357,7.341964286,39,10459660.45,0.0,183.0,81396616.11,0,0,False
619745,-1.36740605033,0.575373937579,Eastwood Scott,44172.63889,6.258333333,30,0.0,0.0,177.5,16541224.21,0,0,False
742026,0.885086807895,0.294401801149,Fry Jr. Albert,43967.36,7.204,59,0.0,0.0,177.5,28283234.21,0,0,False
434541,-1.90777121402,0.907101824899,Colton Kyle,43938.6,6.0,27,0.0,0.0,172.5,14758.25257,0,0,False
2456677,-0.561959473829,-0.360874438571,Young Travis Quentin,43757.8,6.938181818,34,0.0,0.0,175.0,186879.1849,0,0,False
1758718,3.52274157045,1.54123611391,Pitt Brad,43676.98611,6.311944444,53,85481463.85,13594260.62,177.5,69734306.35,0,1,False
1359501,-2.38223911333,1.8813647623,Madsen Christian,42942.5625,5.45625,26,0.0,0.0,185.0,17061510.0,0,0,False
630924,0.985010951482,-0.17670007724,Ejiofor Chiwetel,42928.64634,7.002439024,39,20373543.64,0.0,175.0,57915708.4,0,0,False
2110686,0.763247123669,2.59955353352,Spinell Joe,42804.2,6.377333333,80,6603808.196,147561.3552,177.5,8935220.953,0,0,False
257582,0.636984044233,0.223387588987,Brake Richard,42716.95588,7.030882353,52,0.0,0.0,185.0,21062259.6,0,0,False
899331,0.696485561976,-0.493136622015,Handley Richard,42642.25,7.425,51,0.0,0.0,177.5,10605.36871,0,0,False
934656,-0.773763504014,0.597718963503,Hector Johnnie,42557.94444,6.483333333,41,0.0,0.0,172.5,2061806.174,0,0,False
1447801,0.191889873638,-1.39436515887,McGillivray Rob,42553.46154,7.623076923,36,0.0,0.0,180.0,35554376.98,0,0,False
539554,2.01429845283,0.638066392289,Del Toro Benicio,42533.06034,6.662068966,49,52274807.43,0.0,185.0,36505377.68,1,0,False
463660,0.526262353801,-0.486110619597,Cox Rob,42456.0,7.3,47,0.0,0.0,182.5,0.0,0,0,False
940223,0.222351596447,-1.88665144575,Helman Josh,42406.05263,7.694736842,30,0.0,0.0,185.0,68981618.2,0,0,False
927643,0.195054737531,1.42269324998,Hawn Phil,42398.19658,6.62991453,59,0.0,0.0,170.0,63401710.33,0,0,False
1791224,0.294710458289,-1.70793830614,Pronsky Ben,42376.38889,7.816666667,38,0.0,0.0,177.5,37535980.96,0,0,False
1724228,-0.0868193773377,0.585218808367,Pepper Barry,42233.35366,6.596341463,46,15518514.73,0.0,178.0,51505441.51,0,0,False
358235,-0.138424742005,-2.8722348497,Cast Emilio,42177.66667,8.2,23,0.0,0.0,172.5,2832077.034,0,0,False
1504417,-0.907005318571,-0.0535171484195,Minghella Max,42099.3,6.686666667,31,3924900.0,0.0,175.0,33213370.96,0,0,False
1172482,-3.58140037241,5.64079318439,Klebba Martin,42050.89109,6.477227723,47,0.0,0.0,120.0,29572045.25,0,0,False
2386481,-0.175932416752,-0.921014261855,Whishaw Ben,41911.84211,7.343421053,36,1279485.475,0.0,175.0,86883140.91,0,0,False
492883,0.787044918624,1.38832648515,Dafoe Willem,41890.31,6.719,61,5444284.268,0.0,172.5,38165867.32,0,0,False
2028696,2.54659500127,-3.27137144928,Sharma Suraj,41593.75,7.833333333,23,124987023.0,0.0,172.5,51114895.92,0,0,False
1449770,-2.78166377115,-4.68332521432,McGrory Matthew,41586.2,6.776,43,0.0,0.0,225.0,46228220.0,0,0,False
1736228,-0.584537255296,0.639369186025,Peterson Dominic,41546.5,6.45,41,0.0,0.0,180.0,33483356.52,0,0,False
445916,2.12182110756,1.39226492928,Cooper Chris,41383.17476,7.109708738,65,8907537.901,0.0,175.0,46886349.3,1,1,False
1771967,-0.392078028858,0.159527424448,Pope Jeff,41254.41667,6.741666667,40,0.0,0.0,177.5,7039898.352,0,0,False
1696087,0.976180599848,-0.921992770377,Parke Evan,41249.54386,7.468421053,48,0.0,0.0,187.5,86907334.84,0,0,False
563215,8.30333956618,1.4125490934,DiCaprio Leonardo,41242.78261,6.785507246,42,128505945.8,18773564.51,180.0,61657739.62,1,3,False
283148,0.715388560834,0.0140176791666,Brown Pomaika'i,41156.625,7.2375,55,0.0,0.0,177.5,2091046.904,0,0,False
981546,-0.795029089163,0.166958640848,Holmes Nick,41107.15789,6.626315789,35,0.0,0.0,175.0,292402.7388,0,0,False
993421,0.524237920461,0.988404927428,Hounsou Djimon,41024.42,6.647,52,0.0,0.0,182.5,61505691.79,0,0,False
182895,-0.389470644756,0.100285616119,Bentley Wes,40990.68831,6.731168831,38,14521944.57,0.0,177.5,25309000.86,0,0,False
1816913,-0.492648988729,2.38041256893,Rally Steve,40962.8125,5.78125,59,0.0,0.0,182.5,25556641.64,0,0,False
1518443,-0.542966045657,-0.952575085407,Moir Cameron,40950.8,7.18,28,0.0,0.0,177.5,12637.8751,0,0,False
260009,-0.240738506451,0.426356064483,Brannon Johnnie,40928.83333,6.658333333,44,0.0,0.0,180.0,17410918.56,0,0,False
770250,3.81319568812,-2.55761871769,Garfield Andrew,40757.19355,7.203225806,33,161207811.0,522661.742,175.0,81016756.36,0,0,False
1960054,-2.00997156575,1.18170207659,Sandler Andrew,40751.5,5.84,28,0.0,0.0,172.5,0.0,0,0,False
1221416,-0.350319540158,2.55854689168,Kyle David,40704.75,5.925,65,0.0,0.0,170.0,184049.0798,0,0,False
1529279,-0.745535945316,-1.2974001996,Moody Aaron,40594.42857,7.385714286,37,0.0,0.0,167.5,19579.5935,0,0,False
1255117,-0.652767272994,-0.898631299666,Law Maximilian,40524.35714,7.214285714,35,0.0,0.0,170.0,61756070.9,0,0,False
2397242,0.742206870339,0.687148244246,Wilder Bates,40490.71795,6.856410256,55,0.0,0.0,187.5,272787.9598,0,0,False
1729055,-0.594433938565,1.37928044133,Perkins Oz,40347.04545,6.363636364,42,0.0,0.0,190.0,2635412.394,0,0,False
357517,-0.112349008704,1.0315503395,Cassel Vincent,40340.98851,6.427586207,50,6789538.574,0.0,182.5,46591860.33,0,0,False
2088577,-0.0848128838614,-2.27544644786,Smoke Nick,40322.23077,7.953846154,28,0.0,0.0,175.0,0.0,0,0,False
835303,0.649934222393,-0.402839552064,Grady John,40203.76923,7.373076923,51,0.0,0.0,177.5,53401469.27,0,0,False
129254,1.39981088929,0.0456841563019,Bana Eric,40125.09639,6.878313253,48,43344889.26,0.0,189.0,76597492.37,0,0,False
1571202,-0.530926576703,0.367849010633,Muto Chris,40038.58333,6.591666667,39,0.0,0.0,180.0,3505068.938,0,0,False
2004080,-0.888481810993,0.690815991428,Scott William Lee,39982.2973,6.618918919,43,0.0,67758.32863,167.5,36732749.41,0,0,False
1999019,-0.413692160783,0.674774277012,Schwert John,39948.5,6.533333333,41,0.0,0.0,185.0,0.0,0,0,False
1662133,-0.0930409528932,-0.258097721007,Orion Neal,39837.0,7.090909091,43,0.0,0.0,172.5,44904158.52,0,0,False
1714628,0.355836866878,0.0604351467002,Pearce Guy,39793.23423,7.020720721,49,13899670.21,0.0,178.5,42028375.79,0,0,False
2069247,0.85546596639,1.59904800982,Skarsg’_Îârd Stellan,39741.91358,6.609876543,65,10715708.24,1190476.19,187.5,51999249.24,0,0,False
1121904,0.204528585228,-0.606969160116,Karst Adam,39473.5,7.04,37,0.0,0.0,187.0,12702478.1,0,0,False
2399554,2.62843697641,1.4621063901,Wilkinson Tom,39421.49286,7.030714286,68,25950674.61,0.0,185.5,47260717.2,0,1,False
1815815,-0.373782242434,-0.169546039741,Rajcic Vladimir,39221.64286,6.992857143,42,0.0,0.0,170.0,46082949.31,0,0,False
440772,0.0317369585542,-0.228509767863,Considine Paddy,39150.48,7.046,42,9875002.777,0.0,177.5,66596340.72,0,0,False
1620582,-0.368295326157,0.12757829856,Nolan Nathan,39063.2,6.792,41,0.0,0.0,175.0,48154148.34,0,0,False
177120,-0.975315711913,0.39462745962,Bender Matthew,39027.33333,6.45,33,0.0,0.0,180.0,28230992.37,0,0,False
1217146,-0.432654128195,-1.33154099181,Kurland Ben,38876.4,7.46,32,0.0,0.0,172.5,179821.3004,0,0,False
368771,1.01570532774,-1.37769078898,Ceponis Brian,38853.94444,7.561111111,44,0.0,0.0,190.0,32680449.3,0,0,False
1894039,2.40385023639,-1.57128093081,Rogen Seth,38784.7751,7.053815261,34,101859130.6,5126868.928,177.5,60626756.29,0,0,False
15758,-0.836546226622,0.921169230075,Adkins Scott,38769.86538,6.255769231,40,0.0,0.0,180.0,35172572.39,0,0,False
1547669,0.964937947628,0.790932550023,Mortensen Viggo,38692.45238,6.867857143,58,18795102.78,0.0,177.5,32996991.23,0,0,False
683801,-1.26541397691,0.639481440056,Ferguson Duncan,38661.8,6.34,31,0.0,0.0,185.0,0.0,0,0,False
432263,-0.14991845695,1.47194344209,Collins Kerry,38636.4,6.54,44,0.0,0.0,192.5,35714.28571,0,0,False
1064386,-0.012557747969,2.04788265672,Jensen David,38567.54737,6.176842105,64,0.0,0.0,175.0,18431172.03,0,0,False
365478,3.38358456503,-2.75053516445,Cavill Henry,38519.43056,7.515277778,33,147729442.1,1481840.052,182.5,127614012.3,0,0,False
2003692,-0.624964975074,0.77210265662,Scott Seann William,38518.51163,6.405813953,40,18790605.82,5226617.42,177.5,46953332.32,0,0,False
1497165,-0.615162866778,-1.38320323287,Miller Ezra,38507.79412,7.338235294,24,2868.254026,0.0,177.5,6062965.435,0,0,False
1404448,0.408124165138,0.310588583949,Martin Scott A.,38444.125,6.9,49,0.0,0.0,185.0,14972004.2,0,0,False
537115,-0.400170312214,-1.05504872223,DeHaan Dane,38427.25,7.1175,30,35511254.76,0.0,175.0,53242099.05,0,0,False
1657483,1.35364783484,1.01538136029,Omilami Afemo,38286.55789,7.024210526,66,0.0,0.0,187.5,6127380.229,0,0,False
2413223,1.31217176324,-0.867584174147,Wilson Patrick,38239.03333,7.333333333,43,49639910.74,0.0,184.0,35787483.99,0,0,False
502720,0.177088444379,0.593461580135,Dante Peter,38209.67442,6.71627907,48,0.0,0.0,185.0,30135392.55,0,0,False
16043,-0.172954196808,1.11834761557,Adler Matt,38145.8,6.652307692,50,8096256.338,0.0,167.5,17996450.46,0,0,False
980464,1.740362241,2.79410149015,Holm Ian,38011.91061,7.312849162,85,1819164.74,0.0,165.0,37151614.51,0,0,False
1457454,0.553577089212,1.83748385324,McManne Dihlon,37968.75,6.50625,62,0.0,0.0,190.0,9255512.456,0,0,False
644342,-0.135105236199,-0.635183245734,Engfer Dave,37940.27273,7.2,37,0.0,0.0,177.5,20000.0,0,0,False
922234,-0.479796782853,1.43510122311,Hassan Tamer,37925.17742,6.20483871,48,0.0,0.0,185.0,12888794.85,0,0,False
847844,0.102219483458,0.999520631697,Greene Peter,37728.98718,6.535897436,51,200963.6493,0.0,185.0,14608285.74,0,0,False
1043091,1.60575045185,1.67937764273,Jackson Samuel L.,37682.62121,6.587662338,68,27455804.3,7956530.803,185.0,56631689.65,0,0,False
715317,-1.10799466915,0.44245790026,Foo Jon,37574.2069,6.434482759,34,0.0,0.0,173.0,29528927.31,0,0,False
1594257,2.71495522236,0.609367560173,Neeson Liam,37478.92419,6.958122744,64,59608720.75,9604454.351,190.0,58790546.65,0,0,False
498354,3.957219827,0.481342848558,Damon Matt,37409.4078,6.736170213,46,94909053.35,9628841.176,175.0,54395111.88,0,1,False
1125885,0.0835580231001,-0.0475735026738,Katt Nicky,37356.64516,7.044354839,46,0.0,0.0,175.0,39559572.39,0,0,False
2210819,0.846378907723,0.559246174356,Thewlis David,37321.02564,6.897435897,53,2104670.65,0.0,189.0,55943435.02,0,0,False
1381032,-1.28118038564,-0.43574761287,Mann Thomas,37272.0,6.677777778,25,32020577.12,0.0,181.0,56434121.76,0,0,False
212896,-0.283729914217,1.16762003308,Blackburn James,37263.06667,6.446666667,46,0.0,0.0,187.5,26845911.29,0,0,False
400225,-0.110428363854,-1.39494031851,Choy Wai,37118.0,7.485714286,30,0.0,0.0,180.0,55031.73497,0,0,False
1741299,-0.843252656921,-0.488834456397,Pe’_Î±a Michael,37013.63077,7.026923077,40,0.0,0.0,167.5,40055482.25,0,0,False
199327,-1.10368307627,-0.00503326071837,Bhatter Mayank,37012.96429,6.625,29,0.0,0.0,175.0,23171689.66,0,0,False
2027123,-0.693154289917,1.04047410182,Shapiro Lee,37006.2,6.34,46,0.0,0.0,172.5,0.0,0,0,False
459486,-0.166772745565,-1.0316337531,Coulson Christian,36940.5,7.403333333,38,0.0,0.0,172.5,60107809.72,0,0,False
937129,-0.298882621544,-1.38163154398,Heiman Jesse,36835.03883,7.509708738,38,0.0,0.0,170.0,35785573.09,0,0,False
885660,-0.324809967419,-1.11158164798,Haim Turi,36826.25,7.391666667,35,0.0,0.0,172.5,40425022.4,0,0,False
357472,-0.00855897640985,2.51883338581,Cassavetes Nick,36815.83673,6.144897959,57,0.0,0.0,195.0,44826230.23,0,0,False
591546,-0.553140006825,1.08010167616,Dowling Timothy,36779.29412,6.335294118,43,0.0,0.0,185.0,44568766.19,0,0,False
2056294,-0.0195507556255,-0.0779067184879,Simich Mark,36730.33333,6.925,41,0.0,0.0,182.5,19270544.39,0,0,False
676677,0.986935932301,0.162826357455,Favreau Jon,36633.63211,7.019397993,50,14895366.89,10669559.3,182.5,50966041.21,0,0,False
1650380,0.468664013792,0.726772596913,Okumoto Yuji,36411.04651,6.819767442,57,0.0,0.0,180.0,1393772.752,0,0,False
974512,0.971828862397,1.18229752013,Hoffman Philip Seymour,36391.76974,6.803289474,49,2404862.067,0.0,172.5,34892755.71,0,1,False
2264873,0.39817599263,0.642746982111,Turk John,36346.52632,6.794736842,54,0.0,0.0,182.5,27247126.07,0,0,False
1683660,0.986387254426,4.24328808925,Pallana Kumar,36277.57143,6.546428571,98,0.0,0.0,160.0,10986202.65,0,0,False
98865,-0.944785175392,2.03401401766,Atkinson Tad,36265.13333,5.88,51,0.0,0.0,170.0,28649248.47,0,0,False
1397967,0.308866993143,-0.153387830808,Marsden James,36039.7973,7.012837838,43,29579872.45,0.0,175.0,65300783.52,0,0,False
1291824,-0.918214673276,0.63121051292,Lexerot Antonio,35987.16667,6.633333333,42,0.0,0.0,167.5,48689.05179,0,0,False
1248890,-0.766583290068,-0.49811386718,Lashaway Nick,35978.85,6.875,28,0.0,0.0,180.0,12852737.33,0,0,False
1776482,0.88096612989,1.7440854816,Postlethwaite Pete,35934.09016,6.767213115,70,1960727.864,0.0,172.5,36687935.91,0,0,False
925195,-0.0440421758752,-0.312089188025,Hauptman Micah,35899.55556,7.12962963,43,0.0,0.0,172.5,8946937.622,0,0,False
317625,-1.5328149796,1.20911854504,Cabrera Joey,35894.5,6.25,39,0.0,0.0,165.0,17859099.38,0,0,False
868385,1.64815716679,-0.703861407199,Gulbranson Matt,35738.94595,7.271621622,52,0.0,0.0,194.0,43452624.99,0,0,False
1363315,6.08937113109,-2.84249442915,Maguire Tobey,35589.11852,6.811851852,41,229506092.3,15310192.01,170.0,92123473.09,0,0,False
897635,-0.0506020404002,-0.695386600572,Hampton Sean,35573.84211,7.147368421,35,0.0,0.0,182.5,50699349.01,0,0,False
166474,-0.0354733266782,-0.980802297993,Bedria Alexander,35572.61538,7.338461538,34,0.0,0.0,180.0,1462646.858,0,0,False
1405423,0.397136351916,-1.42559559699,Martinez Jr. Andy,35569.4,7.695,39,0.0,0.0,180.0,676065.5392,0,0,False
381633,0.109920883174,-0.126875563727,Charles Scott,35557.0,7.028571429,44,0.0,0.0,180.0,49225224.35,0,0,False
507302,-1.06613085475,-0.138181558593,Dault Michael,35508.4,6.76,33,0.0,0.0,170.0,44912326.6,0,0,False
649977,0.981337566336,1.73338117824,Ermey R. Lee,35455.0625,6.747159091,72,0.0,0.0,180.0,28446300.82,0,0,False
40296,-0.219978618155,-2.11695838323,Alicea Rob,35405.35417,7.841666667,33,0.0,0.0,170.0,8837.17094,0,0,False
1314097,0.807446160956,-0.751905876221,Lockwood Billy,35291.125,7.5375,50,0.0,0.0,172.5,30551011.97,0,0,False
1603291,-0.254462484325,-0.166069794396,Newman Brad,35281.09091,6.936363636,39,0.0,0.0,177.5,37158827.75,0,0,False
2417042,-0.647693980408,1.23858727298,Winston Don,35258.0,6.183333333,46,0.0,0.0,180.0,5705309.574,0,0,False
1384572,-1.7316693454,0.952568638332,Manzanares Emmanuel,35239.0,6.09,31,0.0,0.0,170.0,17236451.6,0,0,False
941454,1.16063897866,-1.97232695602,Hemsworth Liam,35228.34286,7.35,26,55368160.89,0.0,187.5,69716056.4,0,0,False
344781,-0.376236502861,1.76730630562,Carnevale Michael J.,35177.11765,6.358823529,55,0.0,0.0,167.5,113882216.9,0,0,False
495316,0.276097880845,-1.86060204132,Dale James Badge,35117.72727,7.869318182,38,0.0,0.0,175.0,62707871.8,0,0,False
670789,-0.09945599515,-0.750413775926,Farb Aaron,35056.1875,7.215625,35,0.0,0.0,180.0,10848779.2,0,0,False
18230,0.317100253546,1.42286693914,Agata Toshiya,34876.28571,6.89047619,55,0.0,0.0,165.0,11068.93755,0,0,False
271207,-1.04869826769,0.193025705434,Bristol Gavin,34836.58824,6.535294118,30,0.0,0.0,180.0,103258.7205,0,0,False
2116525,0.50320900084,-0.934088012505,Stadulis Christopher,34762.07895,7.526315789,44,0.0,0.0,180.0,54096494.4,0,0,False
2386471,-2.27666384435,0.371344169699,Whisenhunt Brayden,34739.0,6.15,18,0.0,0.0,172.5,88050.77595,0,0,False
232143,-0.219425210984,-0.340787493414,Bonaventura Anthony,34684.56522,7.030434783,38,0.0,0.0,177.5,59220856.46,0,0,False
2339214,-1.65895667573,2.47499018872,Wada Tet,34643.14286,5.314285714,43,0.0,0.0,177.0,55948555.21,0,0,False
396112,-1.78719276953,0.775838058849,Chitwood Seth,34537.0,6.08,25,0.0,0.0,180.0,31852958.05,0,0,False
2408692,3.46723542958,0.981848748994,Willis Bruce,34449.95399,6.681288344,61,86986622.1,19124938.06,180.0,55923029.98,0,1,False
2245488,0.68499937357,0.187195437,Townsend Paul,34429.46667,7.14,55,0.0,0.0,180.0,80027197.94,0,0,False
2223489,-1.2031703427,-0.219926890623,Thwaites Brenton,34316.17647,6.647058824,27,31153464.0,0.0,181.0,71390105.43,0,0,False
2073545,-1.45558507839,0.776749584405,Slaughter Billy,34232.79221,6.35974026,36,0.0,0.0,167.5,16095754.87,0,0,False
320580,7.79646935915,5.25649390257,Caine Michael,34222.2899,6.885016287,83,26002932.94,1851851.852,185.0,52518281.42,2,3,False
591752,7.64692205934,-1.1797470231,Downey Jr. Robert,34221.50847,6.687118644,51,242561776.5,17273914.98,170.0,72646630.99,0,2,False
1784010,0.204552980746,-0.850343818785,Preimesberger Ryan,34175.84211,7.321052632,38,0.0,0.0,182.5,32202695.72,0,0,False
706671,0.511933644402,0.162277949894,Flemyng Jason,33977.70395,6.9875,50,13529621.57,0.0,182.5,41410213.07,0,0,False
1183463,-0.591924837307,1.09617946464,Koerner Jason L.,33936.33333,6.277777778,44,0.0,0.0,182.5,12034978.38,0,0,False
2241747,-0.142415964029,1.8086104004,Torres Lou,33912.7,6.166666667,59,0.0,0.0,177.5,29485350.66,0,0,False
1838705,-0.274426680324,0.839808136204,Reed Tanoai,33892.32432,6.559459459,42,0.0,0.0,187.5,82985054.01,0,0,False
2063288,0.204378747091,-1.21176070236,Singh Gugun Deep,33874.0625,7.5375,37,0.0,0.0,180.0,115889570.2,0,0,False
1642690,-0.214734460225,0.11113093845,Oberm’__ller Heiko,33835.72,6.828,42,0.0,0.0,177.5,17330982.36,0,0,False
1353651,0.846228028989,1.9024815557,MacInnes Angus,33553.52857,6.617142857,69,0.0,0.0,187.5,11765731.52,0,0,False
1637640,0.691584451367,-0.425668476248,O'Hara David,33521.72527,7.389010989,51,0.0,0.0,178.0,14597257.81,0,0,False
896143,0.539241038564,-1.79734272598,Hammer Armie,33370.83333,7.218518519,30,0.0,0.0,192.5,91264127.47,0,0,False
2077778,-1.62723737944,-0.741113132421,Smit-McPhee Kodi,33333.34286,6.668571429,20,24029667.28,0.0,185.0,71260795.89,0,0,False
427435,-1.46002893174,0.369322899727,Cole Dominic,33283.16667,6.45,29,0.0,0.0,187.5,22348223.55,0,0,False
71739,2.12324976816,5.64617161564,Anthony Emjay,33122.66667,7.25,113,43128582.34,0.0,147.5,15446815.51,0,0,False
2057142,-0.713591584916,-0.562965254311,Simmons Johnny,33077.40909,6.979545455,30,0.0,0.0,175.0,32261381.16,0,0,False
876295,0.776151578107,-0.241378738764,Gyllenhaal Jake,33074.51429,6.902142857,36,34041832.68,3343317.972,177.5,35971854.13,0,0,False
319490,3.19739156121,1.86987685776,Cage Nicolas,33031.1448,6.446153846,52,51169353.29,10357770.38,180.0,53132192.13,1,1,False
447991,1.4198056511,-0.929777392789,Copley Sharlto,32971.98214,7.305357143,43,56807406.69,0.0,183.0,57293873.84,0,0,False
527289,6.33456960149,3.94529634415,De Niro Robert,32962.68056,6.816944444,73,51796626.24,13434255.15,177.0,42057824.71,2,1,False
728188,-1.14822736364,-0.88379362713,Franco Dave,32908.10588,7.061176471,31,0.0,0.0,167.5,34958409.85,0,0,False
258326,-0.386823602243,-0.132584301175,Branco Guile,32796.21739,6.873913043,37,0.0,0.0,177.5,9454084.508,0,0,False
374252,-2.07781099794,1.64829514149,Chambers Levi,32729.0,5.6,28,0.0,0.0,180.0,25764.38809,0,0,False
1510004,-0.199163175785,0.309048318856,Mitchell E. Roger,32702.47222,6.773611111,45,0.0,0.0,175.0,14564516.01,0,0,False
1452819,4.15667859901,0.785520712121,McKellen Ian,32612.37374,7.279461279,77,103654776.9,0.0,177.5,90351340.58,0,1,False
1484026,-0.257480595647,0.0450796314646,Meyer Josh,32374.80769,6.780769231,37,0.0,0.0,185.0,25651530.06,0,0,False
1032129,0.447898432543,-1.16377094658,Isaac Victor,32369.77778,7.588888889,44,0.0,0.0,172.5,15476190.48,0,0,False
214192,0.304253094933,-1.03966472701,Blagrove Will,32355.925,7.225,35,0.0,0.0,187.5,49668714.82,0,0,False
812543,-1.33198880174,-1.78005928705,Goetz Paul,32347.66667,7.422222222,30,0.0,0.0,162.5,32485.17489,0,0,False
710613,0.331841559254,-0.675623064037,Floyd Bourke,32314.35714,7.214285714,40,0.0,0.0,185.0,27268699.84,0,0,False
1638454,-1.18412651737,0.195934086568,O'Leary Matt,32214.6,6.54,29,50335.46173,0.0,184.0,24601438.82,0,0,False
1526120,-1.41462291867,2.71421660949,Monte Paul Dion,32196.5,5.286363636,49,0.0,0.0,177.5,44516271.1,0,0,False
1274511,-0.779519251493,-0.435887808198,Leigh Kevin,32129.83333,6.9,30,0.0,0.0,175.0,23121812.1,0,0,False
1199519,0.284496634597,-0.776316950419,Kozlov Vladislav,32128.64286,7.321428571,40,0.0,0.0,182.5,70264746.54,0,0,False
1798428,1.61280725708,3.81226261742,Putnam George,32079.71429,6.635714286,102,0.0,0.0,185.0,0.0,0,0,False
1677236,9.43151803155,5.39763584541,Pacino Al,31986.76166,6.98238342,76,45834065.75,6046899.693,167.5,35720416.58,1,4,False
2216300,-0.5851687956,0.484314375496,Thomas Valence,31933.3,6.55,38,0.0,0.0,182.5,1008165.758,0,0,False
1134645,0.963608025844,2.56700942549,Keitel Harvey,31929.99095,6.605882353,77,5656267.967,0.0,167.5,28632183.07,0,0,False
630409,-1.10496515563,-0.197419753005,Eisenberg Jesse,31867.08602,6.755913978,33,32379859.5,0.0,171.0,41250441.62,0,0,False
2208112,0.20166385287,-0.102083600154,Thames Byron,31844.7541,7.119672131,47,0.0,0.0,172.5,6216397.711,0,0,False
479699,-1.71482151651,-0.749112120616,Culkin Kieran,31837.8,6.945,34,6245473.708,0.0,162.5,29794746.64,0,0,False
880109,-0.458888540427,0.296487488055,Haas Lukas,31815.44444,6.660185185,40,224982.6769,0.0,177.5,11576146.29,0,0,False
628811,-0.627870838326,-1.27014853482,Ehrenreich Alden,31646.07143,7.271428571,27,20033105.17,0.0,173.0,20398249.49,0,0,False
721253,-0.338657373413,-0.873176849581,Foster Ben,31536.28736,7.273563218,36,74546.02236,1678032.228,172.5,41778922.13,0,0,False
1255048,1.61648533665,0.49847273998,Law Jude,31505.61491,6.81552795,44,34259248.6,9237738.822,175.0,64304654.73,0,0,False
291217,-0.604394953357,0.269929447157,Br’__hl Daniel,31477.9878,6.632926829,38,1783875.386,0.0,176.0,23209080.57,0,0,False
465172,2.95037644812,-0.680321151994,Craig Daniel,31467.52941,6.864052288,48,107478081.8,7957362.04,175.0,121766139.1,0,0,False
310229,1.39110942937,-0.610894271901,Butler Gerard,31378.09701,7.252985075,47,48472857.93,0.0,185.0,53554321.76,0,0,False
1013811,-1.5969354293,-1.11098385627,Hutcherson Josh,31326.04301,6.889247312,24,37280477.08,0.0,167.5,62378238.62,0,0,False
808238,0.95247321293,2.02539815229,Glenn Scott,31275.42478,6.646017699,75,5341954.404,0.0,180.0,39496439.61,0,0,False
343697,-0.49734189854,1.55391502512,Carlton Randall,31273.33333,6.211111111,47,0.0,0.0,187.5,5692548.334,0,0,False
164209,-0.787303215702,0.882875472749,Beck Ossie,31258.5,6.295,41,0.0,0.0,177.5,7667458.528,0,0,False
2189355,-0.913454536278,0.164282836205,Tapscott Tristan Layne,31247.75,6.5875,32,0.0,0.0,177.5,12239833.54,0,0,False
1821958,-0.216248259656,-0.0892006052787,Ram’__rez Edgar,31220.22222,6.891111111,39,16923036.77,0.0,175.0,58881851.4,0,0,False
2286957,0.357896881138,-2.13528514885,Valle Luca Della,31175.5,7.933333333,32,0.0,0.0,182.5,5500000.0,0,0,False
1041270,-0.457467162037,1.86240868716,Jackson David Emerson,31174.2,6.28,55,0.0,0.0,167.5,133305.3755,0,0,False
1397986,-0.436078968154,1.36215279516,Marsden Matthew,31113.41176,6.417647059,43,0.0,0.0,190.0,27305361.5,0,0,False
2413085,-1.6687157557,0.661390496811,Wilson Myke,31102.94444,6.161111111,26,0.0,0.0,177.5,1431.654721,0,0,False
474395,0.918997916653,0.361571541639,Crowe Cameron,30977.93056,7.163888889,59,485234.4858,0.0,180.0,136075597.6,0,0,False
37110,1.04416413289,2.42694901192,Alexander Newell,30830.17333,6.663333333,81,0.0,0.0,177.5,2796661.009,0,0,False
311239,-0.551084004472,-1.79264473119,Butterfield Asa,30756.76,7.228,19,24603807.7,0.0,182.88,100153382.6,0,0,False
270020,0.282393635642,-1.45822123062,Brimmer Nathan,30752.08696,7.691304348,38,0.0,0.0,177.5,51442823.59,0,0,False
1050757,-0.996507928723,-0.474665163456,James Jesse,30726.875,6.84375,27,0.0,0.0,175.0,28371422.29,0,0,False
1655028,-0.775848561948,0.336539345996,Olomi Ali,30715.22727,6.609090909,38,0.0,0.0,172.5,44873420.08,0,0,False
800077,0.103622020844,1.41100482051,Gilliard Carl,30708.64516,6.414516129,58,0.0,0.0,180.0,8303567.204,0,0,False
1464993,-0.979709611085,-1.80717721175,Medlock Alec,30670.65217,7.519565217,26,0.0,0.0,167.5,27608956.98,0,0,False
809227,-0.147802666048,1.15914973032,Glover Crispin,30587.52174,6.411956522,52,9327944.495,0.0,175.0,40331458.65,0,0,False
1491497,-1.12366893045,0.995659307171,Mihm Michael,30573.6,6.18,35,0.0,0.0,182.5,609307.3023,0,0,False
1619809,0.455968609152,-0.644384802851,Nogueira Antonio Rodrigo,30544.55556,7.133333333,40,0.0,0.0,187.5,0.0,0,0,False
1076349,-0.767235935749,-0.334791259704,Johnson Derek Wayne,30542.74194,6.890322581,33,0.0,0.0,172.5,9875886.138,0,0,False
1733325,1.83595807752,3.19046405193,Pesci Joe,30486.27083,6.477083333,73,26921444.62,5042597.054,160.0,46003856.27,1,0,False
959105,0.555866114566,-1.54608779109,Hiddleston Tom,30476.94382,7.516853933,35,985183.0,0.0,188.0,112670248.2,0,0,False
795244,-0.767875090714,1.09227560459,Gibson Tyrese,30423.12222,6.275555556,38,32159453.36,0.0,181.0,60297358.25,0,0,False
424690,-1.66483511067,1.62074709336,Cohen David Seth,30409.83333,6.133333333,40,0.0,0.0,162.5,31304225.97,0,0,False
661510,0.504204195084,-0.227985506433,Evermore J.D.,30267.66929,7.175590551,48,0.0,0.0,182.5,13631256.42,0,0,False
867672,3.9125180465,3.95908531284,Guinness Alec,30259.0155,7.414728682,102,3217444.047,594059.4059,175.0,45629441.39,1,1,False
2346668,1.93274627678,0.0538408839326,Walker Paul,30141.04938,6.588888889,43,60545549.09,7791793.568,188.0,46301329.52,0,0,False
517671,-0.15968543492,-1.34294126697,Dawson Rick,30089.33333,7.266666667,28,0.0,0.0,185.0,2594462.064,0,0,False
1446021,-0.90083064422,-0.52286708019,McFadden Markiss,30079.81818,6.927272727,30,0.0,0.0,172.5,32248.35138,0,0,False
1090175,2.89574248925,1.61745316305,Jones Tommy Lee,30003.10458,6.636601307,70,72264064.99,14735638.29,180.0,68707446.97,0,1,False
1236720,1.27373084705,1.27703339312,Lampley Jim,29934.46,6.95,67,30703789.28,0.0,172.5,7394763.817,0,0,False
254654,0.645763293239,-1.69419537863,Braddock John David,29914.0,7.666666667,37,0.0,0.0,187.5,139756484.9,0,0,False
792390,2.531860823,0.92763004017,Giamatti Paul,29864.10096,7.052403846,49,23803040.02,0.0,172.5,53847725.83,0,2,False
1746324,2.94516219485,0.540065220024,Phoenix Joaquin,29856.6422,7.026605505,42,32070198.45,2423153.068,173.0,43372163.05,0,1,False
474500,4.09761797808,2.11277205475,Crowe Russell,29768.42408,6.429842932,52,64830506.25,17380321.93,177.5,68846562.25,1,1,False
275449,1.48317160887,1.23202736395,Brooks Albert,29734.96703,7.031868132,69,19280850.92,4858299.595,175.0,49815933.47,0,0,False
836926,-1.63083693746,-0.467422502867,Graham Shane,29676.2,6.78,26,0.0,0.0,167.5,9682.505753,0,0,False
326653,0.0289930004997,1.05609288287,Cambise Jude,29620.33333,6.693333333,53,0.0,0.0,170.0,28649171.06,0,0,False
2145350,2.34758328825,4.79670882987,Strasberg Lee,29608.48276,7.4,115,0.0,0.0,162.5,13303820.26,0,0,False
1567219,-0.765094499511,0.228448445672,Murphy Wes,29514.41667,6.6,34,0.0,0.0,180.0,900585.155,0,0,False
1332706,-2.3712405692,-7.66889566106,Lucas George,29467.41506,7.127992278,72,0.0,73085345.6,165.0,32196049.32,0,0,False
480515,1.46842209618,-1.44339343675,Cumberbatch Benedict,29426.94286,7.702285714,40,50306276.98,0.0,180.0,67418883.26,0,0,False
691876,1.7206523655,-1.00803531684,Fichtner William,29368.63084,7.791588785,60,0.0,0.0,184.0,74478100.53,0,0,False
47745,-0.358046790292,0.75435683711,Alonzo Robert,29317.05882,6.491176471,46,0.0,0.0,177.5,46366436.83,0,0,False
1063169,1.25688468792,1.2070782981,Jenkins Richard,29316.44138,6.970344828,69,10503250.21,0.0,182.5,47623497.69,0,0,False
475352,6.74084121827,1.99826181256,Cruise Tom,29250.88089,6.073407202,54,150325470.3,22818323.78,167.5,68280976.74,0,3,False
1612837,3.40750535133,0.0747586419914,Nighy Bill,29234.8324,7.183798883,67,97900387.31,0.0,185.0,78099022.85,0,1,False
1975450,0.497377102786,-0.584147260994,Savante Stelio,29234.70408,7.369387755,46,0.0,0.0,180.0,12572493.35,0,0,False
1676488,1.02200856376,-1.80061199186,Pace Lee,29216.26168,7.541121495,37,0.0,0.0,192.5,40953466.72,0,0,False
2397734,1.02763152329,0.961781477085,Wiles Michael Shamus,29168.87234,6.895035461,61,0.0,0.0,187.5,17374963.79,0,0,False
1449552,1.64539267242,-0.117728414443,McGregor Ewan,29033.43478,6.946859903,45,65688660.18,0.0,177.0,58090733.0,0,0,False
1162140,0.462485218109,0.375604359774,King Chris Thomas,29031.25,6.991666667,54,0.0,0.0,177.5,18737153.28,0,0,False
1805587,-0.0803735909828,-0.938279005566,Quinn Parker,28870.66667,7.222222222,32,0.0,0.0,182.5,14225937.84,0,0,False
1056964,-1.95106138517,-0.289669602289,Jarred Tristan,28838.7,6.6,22,0.0,0.0,167.5,767647.2977,0,0,False
1856957,-0.505243172851,-0.262235589766,Ribisi Giovanni,28835.0,7.014723926,42,8241264.098,0.0,167.5,44169431.79,0,0,False
1250443,-1.66263933258,-1.10858949514,Latimore Jacob,28633.93333,6.98,20,0.0,0.0,167.5,19566212.54,0,0,False
303787,-0.134233815915,-0.506888446038,Burnett McCaleb,28556.96429,7.160714286,39,0.0,0.0,175.0,2902310.566,0,0,False
716611,5.7470383149,0.0273348753186,Ford Harrison,28546.37884,6.739249147,74,168295256.9,21631576.66,182.5,54105500.49,0,0,False
2432206,5.48531967263,-3.2841998291,Worthington Sam,28517.35065,7.174025974,40,224727127.2,0.0,175.0,105219695.5,0,0,False
445816,3.82494136715,-1.48439403509,Cooper Bradley,28511.82308,7.412692308,41,130982123.2,6008767.718,182.5,44500167.92,0,0,False
1145611,-0.580892384331,-0.0145513666553,Kerner Chris,28488.52941,6.752941176,34,0.0,0.0,185.0,1762582.349,0,0,False
479778,-1.26579299368,0.446159227892,Cullen Bobby,28460.33333,6.433333333,30,0.0,0.0,185.0,33560924.22,0,0,False
623428,0.112283375811,-0.328326611236,Edgerton Joel,28450.27523,7.122018349,42,8368778.253,0.0,177.5,47997378.25,0,0,False
2403860,-1.974337284,1.23262860213,Williams Jamie,28421.11111,5.955555556,31,716409.7196,0.0,167.5,2787456.446,0,0,False
1008775,-0.185808608789,-2.57402961823,Hunt Brian Scott,28386.25,8.0375,28,0.0,0.0,170.0,4180454.765,0,0,False
1238446,-2.64500020318,1.35469216456,Landis Forrest,28366.83333,5.683333333,22,0.0,0.0,167.5,3344124.327,0,0,False
1505668,-1.22797565832,-1.17789922129,Mintz-Plasse Christopher,28351.20588,7.159558824,27,0.0,0.0,167.5,55297743.52,0,0,False
1664040,1.30143425295,-0.445347952124,Orser Leland,28335.59649,7.536842105,56,0.0,0.0,170.0,33653980.86,0,0,False
489214,0.610028612836,-0.18661606835,D'Annunzio Cris,28214.23077,7.242307692,51,0.0,0.0,180.0,32218788.77,0,0,False
2000284,0.214614183255,0.246753946677,Sciglimpaglia Robert,28211.06383,6.965957447,50,0.0,0.0,175.0,9157438.183,0,0,False
1695722,-0.451468719999,0.286730775474,Park Ray,28189.84906,6.739622642,42,0.0,0.0,172.5,35349359.84,0,0,False
912575,2.80369964652,2.46355691161,Harris Ed,28162.55249,6.870165746,66,15611206.93,0.0,172.5,35881377.7,0,1,False
268261,-0.442081324474,-0.674152529993,Bridgeforth Harold,28104.8,7.12,33,0.0,0.0,175.0,11362894.37,0,0,False
