id_data,x_data,y_data,z_data,votes,rating,age,gross,salary,heightcm,budget,academy,golden,sample
3326605,1.1785261407,-0.169375817148,Monique,18.73809524,6.397619048,41,0.0,0.0,155.0,0.0,0,0,True
2597417,-1.18574798403,-0.880347810149,Biel Gioia,6.0,5.8,33,0.0,0.0,168.0,0.0,0,0,True
3665265,3.50728666822,-1.7247260967,Strauss Mira Rose,8.0,8.0,18,0.0,0.0,140.0,1003.237298,0,0,True
3187512,0.011877884343,-0.197314698981,Leone Mia,21.0,5.9,30,0.0,0.0,162.5,0.0,0,0,True
2628736,-0.251772330836,-0.650488628662,Brantz Nikki,8.473684211,6.463157895,39,0.0,0.0,165.0,0.0,0,0,True
2836363,-0.106126349121,-0.992009519561,Ellyson Erica,10.0,7.075,32,0.0,0.0,165.0,0.0,0,0,True
2570415,1.41842076813,1.27337664606,Bateman Louise Anne,53.0,5.3,32,0.0,0.0,155.0,0.0,0,0,True
2892692,1.16605700508,0.0129008336811,Frost Jo,26.84210526,6.884210526,45,0.0,0.0,155.0,0.0,0,0,True
2721595,-0.612487326273,-1.96406207825,Collinet Emmanuelle,5.0,8.0,36,0.0,0.0,171.0,0.0,0,0,True
3653915,0.850607732181,0.423447584314,Steele Selena,30.88461538,6.638461538,55,0.0,0.0,157.5,0.0,0,0,True
2603125,0.820756777332,-1.66981106349,Black Skyy,5.666666667,8.033333333,37,0.0,0.0,160.0,16004.33895,0,0,True
2594093,-0.409587533154,0.84763971693,Beth,55.33333333,6.5,35,0.0,0.0,165.0,0.0,0,0,True
2760988,-1.03956402504,-1.20514214471,Darling Jane,9.372881356,7.161016949,36,0.0,0.0,172.5,0.0,0,0,True
2677788,1.61519587422,-1.07580160592,Carter Cali,6.0,6.8,26,0.0,0.0,152.5,0.0,0,0,True
3262681,2.64179899329,0.0397542487339,Martini Lori,43.57142857,8.271428571,43,0.0,0.0,150.0,0.0,0,0,True
2578753,-0.0895962299281,0.270448327307,Behr Emily,39.4375,6.94375,40,0.0,0.0,164.0,0.0,0,0,True
3422518,0.148269582263,-0.758119409759,Parker Casey,11.4,6.54,30,0.0,0.0,162.5,0.0,0,0,True
3539672,-2.30354696302,-0.550815549914,Rotten Bonnie,20.18367347,4.842857143,23,0.0,0.0,167.5,2027575.02,0,0,True
2532255,2.1261184885,-0.472196190839,Arias Silvana,35.125,8.020833333,34,0.0,0.0,152.5,335771.8283,0,0,True
2791333,0.453213644622,-0.34405921023,DeVoe Diana,19.4,6.48,36,0.0,0.0,160.0,0.0,0,0,True
3545929,0.920578455032,1.15338504868,Rule Helen,48.22222222,5.4,35,0.0,0.0,157.5,0.0,0,0,True
2992300,-0.991339848485,-0.871499474688,Hayes Carmen,6.333333333,6.4,36,0.0,0.0,170.0,0.0,0,0,True
3172303,0.252437226382,-0.872814156853,Lawrence Elizabeth,8.8,7.13,39,0.0,0.0,162.5,0.0,0,0,True
3625055,0.551846758634,-0.845869274903,Skyy Keegan,7.6,7.02,38,0.0,0.0,160.0,0.0,0,0,True
3097611,0.109922403689,-0.940039815421,Kate Anissa,8.375,6.73125,29,0.0,0.0,163.0,0.0,0,0,True
2790054,-0.636635395133,-0.502883076814,Deuce Sid,12.69230769,6.635897436,46,0.0,0.0,168.0,23665.16321,0,0,True
3472547,0.590042720563,-1.05197811128,Priva,8.5,7.266666667,33,0.0,0.0,160.0,0.0,0,0,True
2777052,-1.23885313886,-0.462913150849,DeArmond Dana,25.43564356,6.967326733,37,0.0,0.0,173.0,713732.5153,0,0,True
3644201,0.16296345923,0.469700900377,Spektor Regina,44.22222222,6.588888889,36,7356.64233,0.0,161.5,94452.36436,0,0,True
2760742,-0.985840069837,-1.34761780795,Dark Angel,11.85,7.393333333,34,0.0,0.0,172.5,100000.0,0,0,True
3683322,0.839693531492,-0.384189850698,Tabitha,14.0,6.50952381,40,0.0,0.0,157.5,0.0,0,0,True
3249368,0.522606110602,-0.801923561673,Marcela Nyomi,8.375,6.8875,36,0.0,0.0,160.0,100.0,0,0,True
3769225,0.107057418549,-0.931177239858,Von Tess Alexa,7.5,6.7,30,0.0,0.0,163.0,0.0,0,0,True
3134377,0.352067241676,0.669178186036,Kopacz Debbie,45.83333333,6.45,44,0.0,0.0,160.0,91639.67813,0,0,True
2521456,-1.70879679131,1.10605012448,Andrews Brittany,62.49180328,6.774590164,43,0.0,0.0,175.0,1608900.585,0,0,True
3534259,0.705606064473,-2.50059465004,Rose Arial,6.0,8.8,28,0.0,0.0,163.0,0.0,0,0,True
2803847,1.32327350604,0.597741293492,Doll Tiffany,40.2,5.78,30,0.0,0.0,155.0,0.0,0,0,True
3724853,1.82045749751,2.03629806992,Trowe Gisela,37.55952381,6.979761905,94,0.0,0.0,158.0,0.0,0,0,True
2884145,-0.258506934276,-3.31728022415,Foxx Zoey,7.2,4.06,23,0.0,0.0,157.5,0.0,0,0,True
3337150,0.484065618231,0.0761315760282,Morgan Ryli,22.66666667,6.0,42,0.0,0.0,160.0,114249.8547,0,0,True
2728415,3.06551733645,3.84370660419,Cooke Ethyle,26.625,5.85,136,0.0,0.0,155.0,0.0,0,0,True
2767676,2.12787527132,3.20570176391,Dawson Doris,63.4,6.68,107,0.0,0.0,152.5,0.0,0,0,True
2927924,-2.07092243681,0.0688105658279,Glebova Natalie,40.0,7.375,35,0.0,0.0,177.5,0.0,0,0,True
3672481,0.109335803597,-1.05093871859,Summers Teagan,7.75,6.725,26,0.0,0.0,163.0,0.0,0,0,True
2690854,0.143381451344,-0.207546014042,Champagne,13.44444444,6.314814815,48,0.0,0.0,162.5,0.0,0,0,True
2559155,-0.934616863513,0.0361918392978,Banner Brooke,36.92727273,6.781818182,33,0.0,0.0,170.0,139527.772,0,0,True
2656698,1.16772160635,1.34883013338,Byrne Jasmine,68.35135135,7.002702703,31,0.0,0.0,155.0,0.0,0,0,True
2522448,0.980337493221,-0.622752844416,Anell,9.0,6.325,33,0.0,0.0,157.0,0.0,0,0,True
3101106,-1.34151522731,-0.580421638573,Kay Sandra,15.6,6.435,40,0.0,0.0,173.0,0.0,0,0,True
3101165,1.21805023195,-0.897406197801,Kay Valerie,10.5,6.85,28,0.0,0.0,155.0,0.0,0,0,True
3216113,0.527696188017,1.85398654715,Love Rebecca,76.8125,6.234375,39,0.0,0.0,157.5,79663.05812,0,0,True
3759625,1.85612187271,-1.08393836029,Victoria Mae,5.0,7.6,47,0.0,0.0,152.5,0.0,0,0,True
3732444,-1.81508338868,-1.02868974151,Tyler Tiffany,7.0,6.042857143,30,0.0,0.0,175.0,0.0,0,0,True
2745986,-2.34564572647,-0.97168864162,Crystalis Kristine,8.25,4.7625,27,0.0,0.0,168.0,0.0,0,0,True
3659975,-0.208731106769,0.0904326051312,Stewart Shannon,35.75,6.933333333,38,0.0,0.0,165.0,99130.43478,0,0,True
3225663,0.47384310897,-0.530401585026,Lynn Krissy,16.09302326,6.493023256,32,0.0,0.0,160.0,147332.6739,0,0,True
2899245,2.02029515541,-0.390077791001,Gaia,10.0,5.566666667,33,0.0,0.0,152.5,0.0,0,0,True
3188337,2.03206600144,-0.064040693251,Lere Heather,16.12121212,6.154545455,46,0.0,0.0,150.0,0.0,0,0,True
3267366,-1.23131599021,0.948757802956,Massey Cleo,55.91666667,7.95625,23,0.0,0.0,167.5,1709062.178,0,0,True
2767436,-0.0831500835528,-0.777981923806,Dawn Danielle,27.75,7.35,27,0.0,0.0,165.0,0.0,0,0,True
2606820,-2.44854561269,-0.231445324455,Blessing Nicole,27.83333333,5.216666667,27,0.0,0.0,175.0,832432.9248,0,0,True
3514388,-0.235589271046,-0.260458369829,Rinaldi Anita,18.14814815,6.544444444,46,0.0,0.0,165.0,0.0,0,0,True
2509306,2.37915118164,1.17291077159,Allende Isabel,43.4,7.32,74,0.0,0.0,150.0,390182.5262,0,0,True
2785723,-2.13065323804,2.8372660211,den Adel Sharon,91.125,8.9625,42,0.0,0.0,170.0,0.0,0,0,True
2767472,0.208047584985,-1.80627970883,Dawn Jessica,8.0,8.1,47,0.0,0.0,165.0,15679.85226,0,0,True
3516119,0.262031558014,-0.384846727874,Ritchie Kate,29.5,7.578571429,38,0.0,0.0,163.0,0.0,0,0,True
3091250,0.126513717981,-0.981633669751,Kane Nikki,8.4,6.86,29,0.0,0.0,163.0,0.0,0,0,True
3287900,0.859245360124,-0.541673336924,McKnight Jordan,12.72222222,6.911111111,42,0.0,0.0,157.5,0.0,0,0,True
3496712,-0.007800867342,-0.778932490038,Red Sonia,15.69230769,6.923076923,30,0.0,0.0,164.0,0.0,0,0,True
3120177,1.59328389281,1.1376907313,Kinsella Brooke,55.95238095,5.771428571,33,0.0,0.0,152.5,0.0,0,0,True
3216431,-0.408049207663,0.364014625413,Loveless Patty,20.1875,6.1375,59,0.0,0.0,165.0,0.0,0,0,True
3416380,-0.106949253537,-0.245010182451,Palmer Patsy,26.01851852,7.340740741,44,0.0,0.0,165.0,0.0,0,0,True
3199950,-1.49511887671,-0.878948002106,Lindgren Anna,12.5,6.8,40,0.0,0.0,175.0,3500.0,0,0,True
2895288,-1.44140771242,1.29683513751,Fuller Liz,67.66666667,7.233333333,41,0.0,0.0,172.5,1138542.625,0,0,True
3550281,-1.02655017102,-1.19364127115,Ryder Dylan,13.47368421,7.284210526,35,0.0,0.0,172.5,17857.14286,0,0,True
2975207,-0.53458809291,0.75406797881,Hamolko Julie Ann,36.8,5.41,31,0.0,0.0,162.5,11415.48964,0,0,True
2617078,-1.15584279904,1.14079172231,Borden Lizzy,63.17142857,6.317142857,40,0.0,0.0,170.0,25853.26477,0,0,True
2836265,0.293118919692,-2.07559645081,Ellquist Sarah,11.91666667,8.441666667,36,0.0,0.0,165.0,16113.30871,0,0,True
3521832,-0.10390255945,-0.529124880118,Robinson Kathryn,26.0,7.3,34,0.0,0.0,165.0,77380.95238,0,0,True
3241879,-0.590529906297,-0.0394311053838,Malkin Maya,30.5,6.1,24,0.0,0.0,165.0,0.0,0,0,True
2645055,0.251516193538,1.0330153667,Brydon Shawm,46.57142857,7.228571429,61,0.0,0.0,162.5,0.0,0,0,True
3079562,-0.985916708653,-0.975237132336,Jordin Katie,8.333333333,6.433333333,29,0.0,0.0,170.0,0.0,0,0,True
3661528,1.36358899669,-0.524787102533,Stodden Courtney,16.66666667,5.633333333,22,0.0,0.0,157.5,0.0,0,0,True
3225947,0.523309434123,-0.449525578286,Lynn Veronica,25.33333333,7.1,33,0.0,0.0,160.0,0.0,0,0,True
3225813,-0.0305475594335,-2.24260727568,Lynn Ria,9.0,8.45,31,0.0,0.0,167.5,0.0,0,0,True
3514856,-0.797833635899,1.95507257484,Rinna Lisa,80.76923077,6.679638009,53,0.0,0.0,167.5,141930.2514,0,0,True
2518103,0.983683997197,-2.09832304411,Anderson Andi,9.0,8.516666667,30,0.0,0.0,160.0,88050.77595,0,0,True
2985890,1.18011995392,0.314438689184,Hart Susan,29.66666667,6.66969697,52,0.0,0.0,155.0,0.0,0,0,True
2883451,-0.479248608417,-1.14973170063,Fox Jaelyn,11.625,7.1375,28,0.0,0.0,168.0,0.0,0,0,True
3480459,-1.63323725852,0.269277711322,Quin-Ankrah Holly,43.0,7.84,29,0.0,0.0,172.5,0.0,0,0,True
2625706,-1.33075494999,-0.181012260069,Bradbury Julia,23.11111111,6.333333333,46,0.0,0.0,172.5,0.0,0,0,True
2761967,-1.49000720852,-0.765521113513,Dasha,16.63888889,6.897222222,40,0.0,0.0,175.0,0.0,0,0,True
3251617,-1.89971831249,-0.738370703277,Mari Giselle,16.0,5.2,23,0.0,0.0,167.5,0.0,0,0,True
3242257,-0.602477444385,-1.61532993291,Mallone Meggan,6.0,7.58,30,0.0,0.0,170.0,0.0,0,0,True
3105741,2.47630899471,3.26927032276,Kelly Dorothy,30.0,6.3,122,0.0,0.0,157.5,0.0,0,0,True
2985496,-2.09504415492,-0.317842789977,Hart Heather,20.0,6.552173913,51,0.0,0.0,178.0,0.0,0,0,True
3018852,0.448058475568,0.3699872049,Holland Deidre,31.6875,6.3234375,50,0.0,0.0,160.0,0.0,0,0,True
3284411,0.132210436807,0.197443902425,McGlade Christine,17.9,6.01,53,0.0,0.0,162.5,0.0,0,0,True
3798705,-1.28291342422,-1.00093895996,White Victoria,11.72727273,6.618181818,29,0.0,0.0,173.0,6401.735582,0,0,True
3683340,-0.60044087207,-0.830855667358,Tabitha Totally,6.0,6.8,44,0.0,0.0,168.0,86830.68017,0,0,True
2493655,-1.67879122572,-0.503179222882,Adell Angelie Alas,13.0,5.766666667,41,0.0,0.0,172.5,0.0,0,0,True
3595103,0.414977413354,-2.342388451,Serban Vanda Ciuban,13.89130435,8.734782609,35,0.0,0.0,165.0,100.0,0,0,True
2697422,0.204741448558,-0.315736185533,Cheeks Danyel,15.09756098,6.82195122,49,0.0,0.0,162.5,0.0,0,0,True
3624972,-0.422836128067,-1.37358848798,Skye Sierra,5.0,7.333333333,31,0.0,0.0,168.0,0.0,0,0,True
2716266,0.466619989991,3.40986458777,Coates Phyllis,91.6137931,6.885517241,89,0.0,0.0,160.0,1138411.522,0,0,True
3079088,0.864255263491,-0.860271032773,Jordan Jana,8.8125,6.7625,30,0.0,0.0,157.5,0.0,0,0,True
2987770,1.41472396619,0.430716857421,Hase Marica,32.0,5.6,35,0.0,0.0,155.0,0.0,0,0,True
2743559,-1.49390534645,-0.784298114609,Crosby Emma,7.0,6.066666667,39,0.0,0.0,172.5,0.0,0,0,True
2496781,3.18443450664,-0.520433887144,Aguilera Liv,13.16666667,5.233333333,25,0.0,0.0,145.0,0.0,0,0,True
3769690,-0.719587405626,0.752648892341,Vore Mia,54.5,6.69,34,0.0,0.0,167.5,0.0,0,0,True
3169108,-1.54852747176,2.50156297423,Lau Ankie,87.6,5.726666667,61,0.0,0.0,171.0,0.0,0,0,True
3648022,-0.196577951464,0.398785753756,St. James Chanel,41.5,7.1,44,0.0,0.0,165.0,0.0,0,0,True
2682297,1.32199703563,-1.07657369182,Castello Sophia,11.0,7.533333333,38,0.0,0.0,155.0,0.0,0,0,True
2852660,-1.57476427009,-0.175366891557,Falconer Jenni,23.84615385,5.842307692,40,0.0,0.0,172.5,0.0,0,0,True
2748000,-0.0447505316177,-1.21788394214,Cums Crissy,5.0,7.3,35,0.0,0.0,165.0,47619.04762,0,0,True
3246512,-0.0824415686196,0.117311992593,Manners Sarah,33.95454545,7.727272727,41,0.0,0.0,165.0,0.0,0,0,True
3180975,-1.79022415674,-0.507832365883,Lee Tamara,12.65384615,6.157692308,47,0.0,0.0,175.0,0.0,0,0,True
3172652,-12.889929714,-9.3042077193,Lawrence Vicki,36.25824176,8.114285714,67,0.0,0.0,165.0,4772148.009,0,0,True
2931444,0.984111155004,-0.890453056821,Gold Savannah,17.14285714,7.35,32,0.0,0.0,157.0,0.0,0,0,True
3833510,-0.537160090154,-1.02555777763,Young Hailey,7.0,6.875,33,0.0,0.0,168.0,51335.06053,0,0,True
3561926,-0.209323412013,0.919198166148,Samson Savanna,52.16666667,7.374242424,49,0.0,0.0,165.0,0.0,0,0,True
3697109,-4.11052693758,-0.280249039626,Telford Keira Michelle,12.5,3.1,33,0.0,0.0,167.5,20000.0,0,0,True
3178897,-0.445324542023,1.5937767021,Lee Hye-yeong,68.625,7.2375,54,0.0,0.0,166.0,0.0,0,0,True
3764775,1.97369615918,-1.20010618434,Visconti Marina,6.0,5.3,21,0.0,0.0,155.0,0.0,0,0,True
2542841,0.774362143091,1.25648502889,August,64.94117647,6.790196078,35,0.0,0.0,157.0,97921.10207,0,0,True
3332081,-0.978004355101,-1.66763240684,Moore Micah,8.5,7.55,29,0.0,0.0,173.0,16004.33895,0,0,True
2522702,-0.472418104652,-1.04920522092,Angel Ayana,9.0,7.17,37,0.0,0.0,168.0,0.0,0,0,True
2758156,0.542791670498,-1.03888493444,Danger Abella,13.5,6.8,21,0.0,0.0,160.0,0.0,0,0,True
2732228,-0.28129666391,1.93336308624,Cornell Lydia,71.95918367,7.152040816,63,0.0,0.0,165.0,6701823.352,0,0,True
3725498,-1.99101874527,0.133995633902,Trump Ivanka,40.28703704,6.882407407,35,0.0,0.0,177.5,1965998.817,0,0,True
2493213,-2.37753879861,-2.66398063043,Adara Amirah,7.0,3.8,24,0.0,0.0,157.5,0.0,0,0,True
3818780,-2.56086070658,0.518168224145,Woodburn Kim,21.0,6.255555556,74,0.0,0.0,177.5,0.0,0,0,True
2630308,0.557012201048,2.78113006603,Brecher Amaya,96.71428571,6.071428571,39,0.0,0.0,155.0,0.0,0,0,True
3598853,1.81846916276,-1.54384203755,Shah Ema,20.14285714,8.371428571,35,0.0,0.0,154.0,7500.0,0,0,True
3327095,-0.876621732062,-0.332652656283,Monroe Bridgette,19.54545455,6.814545455,48,0.0,0.0,170.0,22679.26626,0,0,True
2855492,-1.60336700032,1.59747737441,Farrah,76.58333333,6.308333333,41,0.0,0.0,172.5,46598.03414,0,0,True
3652275,-0.262514513551,-1.65530472751,Starr Natasha,6.0,7.7,29,0.0,0.0,167.5,1013890.533,0,0,True
3450813,-0.210383312389,0.151572113378,Pierce Caroline,35.44444444,6.866666667,42,0.0,0.0,165.0,147456.6037,0,0,True
3657107,-0.0962508627812,-0.13112638759,Stephenson Debra,28.63095238,7.478571429,44,0.0,0.0,165.0,0.0,0,0,True
2960026,-0.522273772715,0.128234976362,Gulati Shobna,30.84210526,7.096491228,50,0.0,0.0,167.5,0.0,0,0,True
2900964,-0.102160715633,0.981430422562,Gallacher Kirsty,54.81818182,6.190909091,40,0.0,0.0,162.5,0.0,0,0,True
2884150,0.556845494297,-0.00733433401528,Foxxx Leanna,17.86666667,6.475555556,52,0.0,0.0,160.0,0.0,0,0,True
3196131,-1.75734677731,0.0845221494687,Lieberman Nancy,24.66666667,6.6,58,0.0,0.0,175.0,0.0,0,0,True
2927207,-0.238781588214,-0.739554024944,Glam Gracie,17.07407407,6.57962963,26,0.0,0.0,165.0,42678.23721,0,0,True
3823575,-1.27969569639,0.0601404035232,Wylde Jessica,16.83544304,6.226582278,60,0.0,0.0,170.0,0.0,0,0,True
3074531,-2.89732768102,-0.765820882232,Jolie Christina,12.0,4.975,30,0.0,0.0,178.0,0.0,0,0,True
3758440,-0.183631561937,-0.22761670403,Vette Vicky,17.48148148,6.807407407,51,0.0,0.0,165.0,0.0,0,0,True
2602766,-0.634936463629,0.0261495439781,Black Jasmine,38.0,7.2,29,0.0,0.0,167.5,0.0,0,0,True
3829377,2.87838511576,2.90099074507,Yde Breanna,44.92063492,6.504761905,113,0.0,0.0,150.0,3356612.517,0,0,True
3210279,0.548099573846,1.45200017283,Long Kathryn,68.33333333,7.6,34,0.0,0.0,160.0,0.0,0,0,True
2676497,-0.545110684999,-0.411396406048,Carrington J.R.,15.17777778,6.751111111,48,0.0,0.0,167.5,0.0,0,0,True
3416956,2.24902432358,-0.702309190917,Paltrova Gabriella,10.875,5.8125,25,0.0,0.0,150.0,30413.6253,0,0,True
3111770,0.124067667349,-0.904012108088,Keyes London,13.07692308,6.873076923,27,0.0,0.0,163.0,10669.5593,0,0,True
3486041,0.468320601342,-0.397752577511,Rains Dayton,18.20689655,6.724137931,39,0.0,0.0,160.0,0.0,0,0,True
2730285,0.884382206726,-1.65662130938,Coppi Claire,23.33333333,8.166666667,27,0.0,0.0,160.0,8241.864378,0,0,True
3336878,1.08912160013,-1.37017999224,Morgan Lorna,7.333333333,7.8,40,0.0,0.0,157.5,0.0,0,0,True
3465213,1.04462110831,-1.16838167852,Post Trinity,11.83333333,7.583333333,34,0.0,0.0,157.0,0.0,0,0,True
3305326,0.497837054944,0.107344622841,Michaels Amber,29.17777778,6.971111111,48,0.0,0.0,160.0,0.0,0,0,True
2962528,-1.77085407887,-0.214161009616,Gutierrez Ruffa,24.24,6.068,42,0.0,0.0,175.0,0.0,0,0,True
2501514,0.372826644138,2.50691792667,Alanes Ann Marie,94.0,6.55,43,0.0,0.0,157.5,2541026.998,0,0,True
2710890,1.97420073011,0.680313643828,Clare Valerie,47.625,7.15,49,0.0,0.0,150.0,50182.48175,0,0,True
3587834,1.20609417138,-0.792968175736,Scott Madison,14.125,6.83125,28,0.0,0.0,155.0,0.0,0,0,True
2530713,0.0538599088438,0.673283887629,Archer Melissa,50.9,6.94,37,0.0,0.0,162.5,38126.25034,0,0,True
3706973,-1.16408659857,-1.00593877681,Thorn Staci,14.84210526,7.010526316,33,0.0,0.0,173.0,37988.1178,0,0,True
3213676,1.23684850036,2.38178265745,Lorimer Carole,68.0,6.05,77,0.0,0.0,155.0,0.0,0,0,True
2633571,-1.25912951462,-0.407425198095,Bright Mandy,24.52941176,6.752941176,38,0.0,0.0,173.0,0.0,0,0,True
3170010,-0.242064828284,0.0190156955769,Lauren Dyanna,23.27619048,6.526666667,51,0.0,0.0,165.0,122267.4302,0,0,True
2655994,-4.21912614234,0.380276700269,Buzanko Caroline,19.0,2.9,38,0.0,0.0,162.5,0.0,0,0,True
3535303,-0.681294333653,-1.21918354374,Rose Sabrina,12.625,7.375,34,0.0,0.0,170.0,0.0,0,0,True
3587831,1.77625120555,3.68835096629,Scott Mabel Julienne,32.8,6.72,124,0.0,0.0,162.5,0.0,0,0,True
3794210,-2.89820948073,0.246017645319,West Jodi,13.25,4.2,52,0.0,0.0,165.0,15188.78393,0,0,True
3465649,-0.65512421371,2.45102477276,Potter Carol,83.59776536,6.898324022,68,0.0,0.0,167.5,508879.3781,0,0,True
2508081,-1.04125326598,-0.160143607321,Allen Ashley,20.57142857,6.285714286,48,0.0,0.0,170.0,0.0,0,0,True
2515048,-1.6529515054,-1.18295342906,Ames August,14.57142857,5.171428571,22,0.0,0.0,165.0,100000.0,0,0,True
3380541,-0.586323751288,-1.71408248033,Noel Nadia,16.0,7.8,25,0.0,0.0,170.0,0.0,0,0,True
2760301,-1.26485810378,-1.16640673365,Darby Daryn,6.0,6.633333333,30,0.0,0.0,173.0,63525.67496,0,0,True
3549475,-1.7480040264,-1.60585556759,Ryan Dylan,11.3,7.34,30,0.0,0.0,178.0,0.0,0,0,True
3053446,0.952769684135,-0.174364296671,Jacme Janet,11.65116279,6.360465116,49,0.0,0.0,157.5,0.0,0,0,True
3841703,-0.233995857264,-0.392164484769,Zen Lezley,16.1125,6.52875,42,0.0,0.0,165.0,11904.7619,0,0,True
2780950,-0.0488162183424,0.611774334494,Del Rio Olivia,43.27777778,6.384722222,47,0.0,0.0,163.0,0.0,0,0,True
3732237,-0.725755468325,-0.256774754532,Tyler Brynn,28.57142857,6.521428571,29,0.0,0.0,168.0,220126.9399,0,0,True
3653690,1.28474222525,0.52071467149,Steele Dawn,44.89361702,7.890425532,41,0.0,0.0,157.5,0.0,0,0,True
2524611,-0.581499694017,-0.779719343071,Ann Lee,10.68421053,6.715789474,36,0.0,0.0,168.0,0.0,0,0,True
2572876,-1.40679238844,2.5038781088,Baxter Amy Lynn,89.4,5.368,49,0.0,0.0,167.5,103042.2928,0,0,True
3454574,0.606211174843,-1.14907131357,Piper Megan,15.0,7.3,24,0.0,0.0,160.0,0.0,0,0,True
2883399,0.144663078997,-0.451677130934,Fox Felicia,13.46428571,6.585714286,42,0.0,0.0,162.5,44695.8398,0,0,True
3252786,0.949374434075,-0.854695123043,Marie Kayla,14.73333333,7.193333333,32,0.0,0.0,157.0,88050.77595,0,0,True
3607628,1.54015933648,3.01310180489,Shilling Marion,39.44117647,5.911764706,106,0.0,0.0,160.0,0.0,0,0,True
3287993,-1.02520419744,2.56879054644,McLachlan Sarah,99.03773585,6.856603774,48,0.0,0.0,167.5,4228691.477,0,0,True
3794518,0.465873114387,0.615793196958,West Sienna,48.0,7.228571429,39,0.0,0.0,160.0,13174.70578,0,0,True
2665198,0.602578532156,-0.610320474615,Campbell Erica,23.5,7.366666667,35,0.0,0.0,160.0,0.0,0,0,True
2635116,0.454690130219,-0.0714570489981,Britton Zoe,29.9,6.91,39,0.0,0.0,160.0,59523.80952,0,0,True
2878522,1.99183704775,1.50337063623,Foote Georgia May,78.375,7.3875,25,0.0,0.0,152.5,0.0,0,0,True
3158423,-1.90719054474,-1.16639330147,Lalonde Alexandra,14.0,6.6,26,0.0,0.0,177.5,0.0,0,0,True
3797458,-0.269894960674,-0.731786522838,White Debbie,10.6,6.4,32,0.0,0.0,165.0,0.0,0,0,True
2758844,-1.22869120254,-0.60083959944,Daniels Dani,18.975,6.055,27,0.0,0.0,170.0,759772.6514,0,0,True
2848420,-1.30450753976,-0.484515071704,Evans Sara,15.26829268,6.436585366,45,0.0,0.0,172.5,0.0,0,0,True
2883182,1.83449143422,-0.777554226405,Fox Ariana,8.0,6.0,26,0.0,0.0,152.5,0.0,0,0,True
3171980,-1.81103708673,-0.630048909659,Lawler Kate,10.16666667,5.183333333,36,0.0,0.0,167.5,0.0,0,0,True
3454509,-1.24918982415,2.43125189152,Piper S. Elizabeth,81.5,5.05,31,0.0,0.0,162.5,231680.6814,0,0,True
2691115,-1.74427859525,2.38744264367,Chan Bobo,93.0,5.466666667,37,0.0,0.0,169.0,0.0,0,0,True
3740876,-0.641003475705,-0.818319704815,Valentine Claudia,6.0,6.6,40,0.0,0.0,168.0,0.0,0,0,True
2561332,0.408556309803,0.990014582353,Barbour Kandi,45.71428571,6.271428571,57,0.0,0.0,160.0,0.0,0,0,True
3416738,1.12948381812,0.712857063551,Paloma Gia,50.85454545,6.7,32,0.0,0.0,155.0,93786.17088,0,0,True
2700370,-1.90961395239,2.34329382804,Chewning Frances,96.4,7.52,39,0.0,0.0,172.5,7103.607392,0,0,True
2948595,-0.97970550103,1.26041489916,Green-Gaber Renata,59.52173913,6.669565217,56,0.0,0.0,170.0,119338.0756,0,0,True
3816388,-1.16500182175,2.43989594692,Woll Felicitas,98.47727273,6.597727273,36,0.0,0.0,167.0,0.0,0,0,True
2785410,0.511760491735,-1.15681341656,Demon Honey,5.25,6.25,24,0.0,0.0,160.0,0.0,0,0,True
3813394,0.168030390627,-0.40181985188,Winward Sammy,26.9,6.98,31,0.0,0.0,162.5,0.0,0,0,True
3495004,0.863613444914,-0.822806218006,Rayne Amber,13.25490196,7.064705882,32,0.0,0.0,157.5,37373.76303,0,0,True
3411814,1.2007202778,-0.679500641082,Pacific Tobi,13.75,6.675,30,0.0,0.0,155.0,0.0,0,0,True
3672079,-0.360580244976,-0.878341427702,Summer Barbara,12.15,7.155,39,0.0,0.0,167.0,135848.6943,0,0,True
3188928,0.754759878939,2.86936541667,Leskovac Rachel,99.26470588,7.847058824,40,0.0,0.0,157.0,0.0,0,0,True
3389012,1.41958066206,1.74014037757,O'Brien Tina,76.63888889,6.480555556,33,0.0,0.0,152.5,0.0,0,0,True
3600019,-0.784665382647,-0.452564407482,Shane Nikki,10.05128205,6.369230769,49,0.0,0.0,168.0,45000.0,0,0,True
3693403,0.822321101528,0.37689995664,Taylor Cheri,16.71428571,6.553061224,64,0.0,0.0,160.0,0.0,0,0,True
2539783,0.945937932075,-0.302578853481,Ass Lil,13.4,6.32,41,0.0,0.0,157.0,16004.33895,0,0,True
2886369,0.0834248746769,1.83854726281,Frank Rachel,75.5,6.025,32,0.0,0.0,160.0,0.0,0,0,True
3313870,0.89162164341,-0.420608643111,Mills Tonisha,10.25925926,6.644444444,45,0.0,0.0,157.5,0.0,0,0,True
3067079,1.91558734711,-0.439382450363,Jezel Roxy,19.91525424,6.827118644,34,0.0,0.0,150.0,59313.59069,0,0,True
3248501,1.68774772768,-0.865577716879,Maphis Elizabeth,29.0,8.0,36,0.0,0.0,155.0,13840.32803,0,0,True
3760125,0.902713233039,4.59702813876,Vidor Florence,92.2962963,6.711111111,121,0.0,0.0,160.0,6021121.134,0,0,True
3418034,-0.355500944132,0.572444138145,Panganiban Angelica,49.70454545,6.806818182,30,0.0,0.0,165.0,0.0,0,0,True
3618236,0.425243157925,-2.43719166231,Simons Simone,11.75,8.775,31,0.0,0.0,165.0,0.0,0,0,True
3257794,0.505412381586,0.0491479555058,Marsh Kym,21.7826087,5.930434783,40,0.0,0.0,160.0,0.0,0,0,True
3662968,-1.1774211205,-1.87283216637,Stone Rosario,7.666666667,7.733333333,33,0.0,0.0,175.0,0.0,0,0,True
3560324,-0.174564117901,-0.552795772761,Salvador Trisha,12.0,6.8,44,0.0,0.0,165.0,0.0,0,0,True
3490531,0.615548244749,0.946900511067,Rani Anita,55.88888889,6.644444444,39,0.0,0.0,158.0,0.0,0,0,True
3047245,0.0770243928657,0.937776246906,Isaac Kate,57.33333333,7.306666667,34,0.0,0.0,162.5,0.0,0,0,True
2746656,0.230069406525,-1.92700439224,Cudna Ines,19.0,8.333333333,32,0.0,0.0,165.0,0.0,0,0,True
3842181,-0.0034103667179,-1.25162300299,Zerva Dia,7.25,7.475,38,0.0,0.0,165.0,55031.73497,0,0,True
3185659,0.0223857861895,1.69239269216,Lemon Bernadette,73.5,7.4,23,0.0,0.0,162.0,0.0,0,0,True
3104518,0.201591345132,0.158856101734,Keller Amanda,26.26315789,6.910526316,54,0.0,0.0,162.5,0.0,0,0,True
3571465,0.144637768806,-1.63257387392,Satchwell Brooke,15.6875,8.045833333,36,0.0,0.0,165.0,150000.0,0,0,True
3566730,-3.36025278583,-0.976195236018,Santana Sadie,5.0,4.2,25,0.0,0.0,175.0,0.0,0,0,True
3635386,-0.0922426666601,-1.43052837713,Soderlind Henriette,7.0,7.1,20,0.0,0.0,165.0,10000.0,0,0,True
3050416,-0.473425227135,-0.838417094476,Ivory Jenna,16.0,6.15,23,0.0,0.0,165.0,0.0,0,0,True
3272725,1.20683419559,-0.732182204968,Maui Sabrine,9.666666667,6.903703704,37,0.0,0.0,155.0,0.0,0,0,True
3530218,1.72378785621,-0.945082166184,Roma,5.0,5.3,30,0.0,0.0,157.0,0.0,0,0,True
2880733,-0.387068699649,2.19897340439,Forsyth Brigit,62.40983607,7.439344262,76,0.0,0.0,167.5,0.0,0,0,True
3020995,0.15733692757,-1.00112474997,Holscher Heather,6.0,6.5,28,0.0,0.0,162.5,0.0,0,0,True
2892595,-0.867589079373,-0.980556448143,Frost Alice,9.4,6.12,26,0.0,0.0,167.5,2890.931874,0,0,True
3643703,1.58557637034,5.03532281567,Spaulding Nellie Parker,31.75,5.8,146,0.0,0.0,162.5,9375000.0,0,0,True
3651364,2.36105174745,-0.267816598291,Star Marilyn,13.18181818,6.6,47,0.0,0.0,147.5,23558.28221,0,0,True
3166333,-0.0734533825535,-0.979921379988,LaRocque Madaline,9.0,7.233333333,40,0.0,0.0,165.0,19047.61905,0,0,True
2872836,-0.683664839899,2.25154579812,Flannigan Maureen,91.42574257,6.610891089,43,0.0,0.0,165.0,217066.3146,0,0,True
3517099,0.691886988326,-1.48211862678,Rivera Gigi,8.5,7.7,27,0.0,0.0,160.0,0.0,0,0,True
3598806,-0.514157760594,-0.653516447182,Shagwell Flick,13.87719298,6.714035088,37,0.0,0.0,167.5,142692.9084,0,0,True
2840611,1.03845250803,-0.141032189185,Entwistle Vicky,9.785714286,6.078571429,48,0.0,0.0,157.5,0.0,0,0,True
2491498,2.48556678842,2.55846470816,Adair Janice,22.75,6.4,111,0.0,0.0,157.5,0.0,0,0,True
3093070,0.654541923999,-1.03264800042,Kapsaski Rahel,22.1,7.42,25,0.0,0.0,160.0,5000.0,0,0,True
3216161,-0.0874806764949,-0.947710448208,Love Shy,9.590909091,7.177272727,38,0.0,0.0,165.0,53136.00278,0,0,True
3557497,-1.30028967605,1.91207302373,Salamanca Amaia,75.48,8.229333333,30,0.0,0.0,167.0,1850000.0,0,0,True
3600191,2.07985005052,0.51621175862,Shankar Melinda,39.85067873,5.393665158,24,0.0,0.0,152.4,1567985.226,0,0,True
2852165,1.44457526148,-1.60700049845,Faith Angel,10.0,8.0,28,0.0,0.0,155.0,0.0,0,0,True
3223853,1.02318762069,1.76362468195,Luvana Carmen,77.59649123,6.778947368,35,0.0,0.0,155.0,623367.8955,0,0,True
2608664,1.36377313165,-0.480644136569,Blue Valentina,11.25,6.025,32,0.0,0.0,155.0,0.0,0,0,True
2872521,1.19928517914,0.247399133872,Flame Violet,20.33333333,5.466666667,40,0.0,0.0,157.5,3188.543756,0,0,True
3672344,-0.385516478905,0.190350625889,Summers Katie,38.85714286,6.514285714,27,0.0,0.0,165.0,100000.0,0,0,True
2662000,-0.375993630366,-1.13219059281,Calixte Fabiola,16.25,7.4,31,0.0,0.0,167.5,29539.76489,0,0,True
2524559,1.66000576028,-0.103946482866,Ann Chrissy,18.41176471,6.647058824,47,0.0,0.0,152.0,0.0,0,0,True
3234086,0.783853695322,0.425808886459,Madison,33.7755102,6.544897959,51,0.0,0.0,157.5,97296.14086,0,0,True
3384835,-0.621244063358,3.56186624371,Novara Medea de,8.857142857,6.457142857,111,0.0,0.0,167.5,0.0,0,0,True
2872494,1.58790678515,-0.26141049236,Flame,14.98387097,6.620967742,44,0.0,0.0,152.5,0.0,0,0,True
2897471,1.34034226262,3.93442146661,Gaal Franciska,81.625,6.85,112,0.0,0.0,157.5,0.0,0,0,True
3315730,-0.913386659034,-0.253974220046,Minka,26.61904762,7.504761905,46,0.0,0.0,170.0,28633.21754,0,0,True
2572288,-0.203191072602,-2.01196362083,Baumeister Athena,20.75,8.1,19,0.0,0.0,167.5,286010.42,0,0,True
3288321,0.64623837787,1.69658584169,McLaughlin Michelle,39.5,4.716666667,44,0.0,0.0,160.0,2608.695652,0,0,True
3832168,-0.25178789307,2.35911932071,York Lorena Segura,92.13513514,7.308108108,36,0.0,0.0,162.5,513911.187,0,0,True
3262540,2.35156761243,1.88272067894,Martinez Velia,34.2,7.7,96,0.0,0.0,157.5,5508798.776,0,0,True
3636519,0.62220288154,-1.29725699887,Solari Rachel,5.0,7.4,30,0.0,0.0,160.0,0.0,0,0,True
3534523,1.65829946286,-0.740110054798,Rose Desert,15.44444444,7.111111111,33,0.0,0.0,152.0,0.0,0,0,True
2977512,1.43029650598,1.69658715677,Hannelius G.,78.19827586,6.919827586,18,0.0,0.0,155.0,0.0,0,0,True
3173457,1.41963467394,-2.17534082253,Layne Morgan,5.0,8.6,28,0.0,0.0,157.0,0.0,0,0,True
2883307,-0.6920590026,-1.16328915997,Fox Cynara,12.4,7.34,36,0.0,0.0,170.0,0.0,0,0,True
3252806,0.555494988051,-0.859780199659,Marie Kerry,7.333333333,7.033333333,38,0.0,0.0,160.0,0.0,0,0,True
3588609,-0.599287761795,-0.291570706232,Scream Sandra,15.81818182,6.586363636,50,0.0,0.0,167.5,0.0,0,0,True
3262678,-1.94370075399,-0.140330119067,Martini Lea,29.81081081,6.678378378,43,0.0,0.0,177.5,0.0,0,0,True
3249294,0.493324943606,-0.470045350756,Marceau Jewell,14.61538462,6.769230769,41,0.0,0.0,160.0,23002.35093,0,0,True
2799583,-0.822195175371,1.33948092487,Dishington Devorah Lynne,68.78947368,6.526315789,40,0.0,0.0,167.5,607722.0302,0,0,True
3304682,-0.483990121057,-0.259736570041,Mezzadri Manuela,26.5,7.125,42,0.0,0.0,167.5,1600.433895,0,0,True
2738865,-1.4179758341,1.91568279276,Coyle Amber,86.5,7.042857143,34,0.0,0.0,170.0,375861.865,0,0,True
3052592,4.10793687642,-20.8149880912,Jackson Kate,99.4,7.400727273,68,0.0,0.0,170.0,2667245.538,0,0,True
3106525,2.3541569683,0.0928177276374,Kelly Shannon,36.22222222,6.844444444,36,0.0,0.0,147.0,210607.0899,0,0,True
3549733,0.639072323324,1.35311430626,Ryan Lisa Dean,64.6,6.49,44,0.0,0.0,157.5,338791.6431,0,0,True
2507689,0.103519699645,-1.4848146571,Allan Kirsty Lee,24.37254902,7.954901961,32,0.0,0.0,165.0,0.0,0,0,True
3686953,1.26721025892,-1.11030816257,Talore Brandy,8.555555556,7.383333333,34,0.0,0.0,155.0,0.0,0,0,True
2870794,-0.904751855596,-1.89381790479,Fisher Karen,9.0,7.95,40,0.0,0.0,173.0,0.0,0,0,True
3479460,2.14896529993,1.18949246579,Quatro Suzi,50.6,7.183333333,66,0.0,0.0,150.0,146109.0524,0,0,True
2585213,1.37501720062,-0.352309042968,Bennett C.J.,10.44444444,6.95,51,0.0,0.0,155.0,21682.66516,0,0,True
2680764,-0.11728090494,-0.697065503282,Cashmere Jazmine,20.0,7.1,32,0.0,0.0,165.0,0.0,0,0,True
2776151,0.994605697045,1.49685658122,De'Nyle Jewel,69.11111111,6.544444444,40,0.0,0.0,155.0,26681.48972,0,0,True
2703317,0.871457142616,-0.747748631443,Chocolate,7.4,6.83,38,0.0,0.0,157.5,0.0,0,0,True
3823583,1.24714387958,-0.986703491585,Wylde Kylie,10.44444444,7.3,35,0.0,0.0,155.0,0.0,0,0,True
3309807,0.0408544694239,-0.698757791472,Miles McKenzee,11.53846154,6.269230769,30,0.0,0.0,163.0,44025.38797,0,0,True
3526302,1.37790236019,-0.711837581305,Rodriguez Veronica,10.33333333,5.616666667,25,0.0,0.0,157.5,0.0,0,0,True
3374671,-1.68413425068,-0.937399543309,Nicole Keira,15.66666667,5.966666667,20,0.0,0.0,172.5,0.0,0,0,True
3678896,1.97169232496,1.29983337778,Swofford Sarah,59.0,5.26,28,0.0,0.0,152.5,16016.66279,0,0,True
2955017,-1.19215233578,2.32947151552,Grotte Krista,84.92307692,5.346153846,39,0.0,0.0,165.0,227380.5958,0,0,True
3677280,2.37110965186,-1.06532235403,Swanson Annie,7.0,7.4,35,0.0,0.0,147.5,0.0,0,0,True
3840722,-1.37933037968,1.04463624427,Zdrok Victoria,60.57142857,6.6,43,0.0,0.0,172.5,0.0,0,0,True
2524593,-0.857094392262,-0.147374359453,Ann Julia,27.06703911,7.222905028,47,0.0,0.0,170.0,743224.4038,0,0,True
2560519,-0.563677913475,-0.374622966696,Barbarella,26.66666667,6.993333333,35,0.0,0.0,168.0,0.0,0,0,True
2757069,0.122348713085,-0.712748280265,Dames Claire,12.38461538,6.9,36,0.0,0.0,163.0,0.0,0,0,True
2883858,0.646670363359,-0.757366225596,Fox Shay,6.333333333,7.066666667,47,0.0,0.0,160.0,15206.81265,0,0,True
3630391,-2.19080794774,-0.0592593485203,Smith Kathy,8.642857143,5.685714286,65,0.0,0.0,172.5,0.0,0,0,True
3659165,1.11753705405,3.93369832923,Stewart Anita,43.2,5.93,121,0.0,0.0,162.5,2835087.719,0,0,True
3215636,1.35568261708,-0.271540025883,Love Aaliyah,14.0,5.955555556,35,0.0,0.0,155.0,2027575.02,0,0,True
2559031,-3.39193363447,-1.03087874986,Banks Sabrina,9.0,3.8,21,0.0,0.0,167.5,0.0,0,0,True
3226537,2.08743542415,-2.70687070901,Lyons Stevie,8.0,9.4,26,0.0,0.0,155.0,0.0,0,0,True
3377940,1.57416960681,2.23531694224,Nimmi,61.18518519,7.003703704,84,0.0,0.0,155.0,0.0,0,0,True
3433956,-2.91762991088,-0.56410133338,Pedroche Cristina,15.25,4.225,28,0.0,0.0,167.5,0.0,0,0,True
3767829,1.00372129753,-0.395938950027,Volt Jessie,17.27272727,5.918181818,26,0.0,0.0,158.0,0.0,0,0,True
3806985,-3.115803763,-0.047904762702,Williams Rachela,16.25,4.675,49,0.0,0.0,177.5,0.0,0,0,True
3754852,-1.0211181834,-0.25443250216,Vendetta Dayna,22.33333333,5.666666667,26,0.0,0.0,165.0,0.0,0,0,True
3565180,-0.229598074554,-0.305569217601,Sands Lana,17.45348837,6.563953488,45,0.0,0.0,165.0,80000.0,0,0,True
3421620,1.58748994014,-0.440802618135,Parish Diane,21.98901099,7.715384615,47,0.0,0.0,155.0,0.0,0,0,True
2821852,0.709011576803,-1.60879119751,Dusty Busty,18.45454545,8.072727273,57,0.0,0.0,162.5,0.0,0,0,True
2876342,1.32325200118,-1.16802169048,Flynn Shannon,17.90697674,7.265116279,20,0.0,0.0,155.0,0.0,0,0,True
3121232,-0.96353649048,1.13815932239,Kirkbride Anne,50.68181818,6.677272727,62,0.0,0.0,170.0,0.0,0,0,True
3073071,-0.451053740482,-0.775870967238,Johnson Sabrina,12.69230769,7.046153846,40,0.0,0.0,167.5,23037.83173,0,0,True
3045188,0.142619359891,-0.823390442815,Ink Lolly,6.0,6.3,33,0.0,0.0,162.5,0.0,0,0,True
2761372,0.505830700182,-0.117002042903,Darrian Racquel,20.76923077,6.732051282,48,0.0,0.0,160.0,0.0,0,0,True
2758795,-0.716780754223,-1.05711242609,Daniels Bree,8.8,6.33,25,0.0,0.0,167.5,0.0,0,0,True
3322060,1.62788092299,0.106322029587,Modesto Julia,44.0,7.5,24,0.0,0.0,155.0,929500.0,0,0,True
2719730,-1.30248397585,-0.326451729988,Cole Jayden,28.46875,6.525,31,0.0,0.0,172.5,73893.51905,0,0,True
2546607,-0.613835830193,0.130682438089,Ayres Lois,25.91269841,6.604761905,54,0.0,0.0,167.5,0.0,0,0,True
2558857,0.517670752463,-0.813167460463,Banks Gabriella,9.833333333,6.916666667,34,0.0,0.0,160.0,63525.67496,0,0,True
2704966,-0.75066614945,-1.05459589094,Christ Anastasia,9.7,7.025,34,0.0,0.0,170.0,0.0,0,0,True
3534182,-1.06270821567,1.86404585395,Rose Amber,84.35135135,6.786486486,33,0.0,0.0,167.5,800000.0,0,0,True
3833262,0.236615492604,4.60569122549,Young Clara Kimball,73.71153846,6.1,126,0.0,0.0,165.0,0.0,0,0,True
2760745,-0.465783049275,-0.577155808744,Dark Anita,17.62162162,7.016216216,41,0.0,0.0,167.5,54976.52213,0,0,True
2608071,1.58639592641,-0.753445540856,Bloom Lexi,16.16666667,6.833333333,27,0.0,0.0,152.5,0.0,0,0,True
3625292,-2.54170260426,2.42730105154,Slagle Kelley,96.0,7.831578947,45,0.0,0.0,177.5,15351.62869,0,0,True
3657234,-1.38099085411,2.60826515134,StephensonPino Kristen,88.66666667,5.166666667,25,0.0,0.0,162.5,3037.756785,0,0,True
3376409,0.954433865783,-0.431370531268,Night Afrodite,15.14285714,6.1,30,0.0,0.0,157.5,0.0,0,0,True
3740853,-0.177279747676,1.49974656742,Valentine Angelina,72.03225806,7.151612903,30,0.0,0.0,163.0,0.0,0,0,True
3617896,-1.95031524314,1.36908996536,Simone Julie,66.0,5.445454545,42,0.0,0.0,172.5,45420.35342,0,0,True
3225339,-0.778176566673,1.52496185302,Lynn Amber,68.45728643,6.361306533,52,0.0,0.0,167.5,418129.3936,0,0,True
2945876,-5.50114799951,1.92180564766,Graves Teresa,33.8372093,7.397674419,68,0.0,0.0,175.0,0.0,0,0,True
3613766,-1.04204581716,0.762694570397,Sigman April,54.0,7.4,36,0.0,0.0,170.0,5000.0,0,0,True
3372970,-0.360387646705,0.0530870951192,Nice Alexandra,25.65217391,6.134782609,44,0.0,0.0,165.0,23575.63945,0,0,True
2493004,-0.910916040392,0.181727800943,Adams Tracey,18.61403509,6.115789474,58,0.0,0.0,167.5,1000000.0,0,0,True
3727722,-0.460422506051,-1.08397219889,Tucci Flower,9.079365079,7.26031746,39,0.0,0.0,168.0,83180.74054,0,0,True
3694992,2.40517129205,2.64845977753,Taylor Ruth,31.81818182,6.090909091,108,0.0,0.0,155.0,4940350.877,0,0,True
2885191,0.0962448569331,3.70264089561,Francis Arlene,63.89173228,7.172637795,109,0.0,0.0,167.0,12998116.97,0,0,True
3530326,0.559617753247,-0.783180245971,Romain Sandra,11.89230769,7.147692308,38,0.0,0.0,160.0,159383.1824,0,0,True
3113837,0.875493531822,0.2614087085,Kia,29.14285714,6.891428571,53,0.0,0.0,157.5,229445.5067,0,0,True
2604078,-0.0159731352231,-0.385698748694,Blair Briana,20.64705882,6.2,29,0.0,0.0,163.0,0.0,0,0,True
3669758,1.00263449207,3.92629393571,Suedo Julie,60.15789474,5.694736842,115,0.0,0.0,160.0,0.0,0,0,True
3213634,-1.69867863528,0.00375464573556,Lorians Jacqueline,24.828125,6.628125,55,0.0,0.0,175.0,0.0,0,0,True
3427208,1.66343963418,-0.254066968076,Patel Nikki,31.66666667,6.933333333,26,0.0,0.0,152.5,0.0,0,0,True
3104490,1.56473942064,-0.203236546332,Kellei,18.0,6.7,44,0.0,0.0,152.5,0.0,0,0,True
3693928,-1.64560584993,-0.122536851037,Taylor Jay,30.0,5.6,25,0.0,0.0,170.0,10344.39196,0,0,True
3327222,-4.26346691833,-0.682135259129,Monroe Madelyn,10.0,3.0,24,0.0,0.0,168.0,0.0,0,0,True
3432479,-1.13794998188,-1.27359006267,Pearl Anita,5.0,6.8,29,0.0,0.0,172.5,0.0,0,0,True
3514959,-1.78982840234,-0.30813074529,Rio Elle,16.29166667,6.3125,53,0.0,0.0,175.0,0.0,0,0,True
2658385,0.431878451645,0.42691621262,Caban Jessica,44.33333333,7.0,34,0.0,0.0,160.0,3000000.0,0,0,True
3093028,0.100557738462,-0.937428263593,Kapri Kissy,8.833333333,6.666666667,28,0.0,0.0,163.0,61372.94523,0,0,True
3840345,3.44097794635,-1.28204886766,Zavaroni Lena,8.0,8.8,53,0.0,0.0,145.0,0.0,0,0,True
2522710,0.184253587212,-1.07941230641,Angel Brittany,11.0,7.2,29,0.0,0.0,163.0,0.0,0,0,True
3066299,-0.556337060772,1.26593578898,Jess Marilyn,49.48275862,5.706896552,57,0.0,0.0,165.0,0.0,0,0,True
3374602,0.618508283869,0.01340935763,Nicole Cleo,15.0,5.9,46,0.0,0.0,160.0,0.0,0,0,True
3483977,-0.815047242699,-0.946368083417,Rae Alanah,15.73333333,6.896666667,28,0.0,0.0,170.0,0.0,0,0,True
2953246,1.34082729919,-1.16528298089,Grimmie Christina,19.85714286,7.428571429,22,0.0,0.0,155.0,0.0,0,0,True
2897761,1.0253303237,-1.20667094844,Gables Heather,8.214285714,7.492857143,33,0.0,0.0,157.0,59523.80952,0,0,True
3175743,-0.988186826844,1.00294007774,Leardini Christina,57.53333333,6.646666667,47,0.0,0.0,170.0,0.0,0,0,True
2958177,-0.057620255098,1.54540258086,Guerri Ruth,63.33333333,6.3,58,0.0,0.0,162.5,0.0,0,0,True
2495828,-1.29060051364,0.25259205365,Agischewa Marijam,18.4,5.724444444,58,0.0,0.0,168.0,0.0,0,0,True
2569680,1.42517924092,-0.894561096856,Bassinger Brec,26.66071429,7.05,17,0.0,0.0,155.0,3544049.583,0,0,True
3691176,-1.27218777297,0.856654650753,Tarver Katelyn,52.11538462,8.117307692,27,0.0,0.0,168.0,770793.8674,0,0,True
2796082,-0.822632773596,-0.538628916736,Diego Linda,18.57894737,6.857894737,41,0.0,0.0,170.0,23201.522,0,0,True
3020577,0.766044266176,0.647631990561,Holmes Kelly,45.66666667,6.975,46,0.0,0.0,157.5,0.0,0,0,True
3554058,1.1486753781,0.941401052213,Sadler Catt,15.625,4.7875,41,0.0,0.0,162.5,557354.0545,0,0,True
3418496,3.37232416129,1.4337931555,Pansino Rosanna,92.23333333,7.39,31,0.0,0.0,145.0,227176.075,0,0,True
3833115,0.773597320203,2.1959735348,Young Barbara,62.90566038,7.001886792,80,0.0,0.0,160.0,0.0,0,0,True
2939678,-2.27758387805,0.170100459716,Gosch Candance,30.0,5.3,43,0.0,0.0,175.0,0.0,0,0,True
2865992,-0.593281481024,2.53656043787,Fickett Mary,48.0,7.381818182,88,0.0,0.0,170.0,0.0,0,0,True
2566079,-0.857459258886,0.296697367492,Barrino Fantasia,39.15116279,6.087209302,32,0.0,0.0,167.5,2300758.731,0,0,True
3035905,-0.671484623036,-0.75358547283,Hunter Nikki,12.0,7.0,43,0.0,0.0,169.0,0.0,0,0,True
3369427,-1.18235236299,2.28206344415,Neuhauser Adele,88.07142857,6.603968254,57,0.0,0.0,170.0,3000000.0,0,0,True
2693929,-0.777441908503,0.665171827682,Chappell Crystal,36.04705882,8.107058824,51,0.0,0.0,167.5,81596.36693,0,0,True
3678053,0.234738087402,0.249674851704,Sweet Monica,40.05063291,7.292405063,35,0.0,0.0,162.0,7373271.889,0,0,True
3741140,1.03616230858,-0.683485424197,Valentino Monroe,24.0,7.45,34,0.0,0.0,157.0,0.0,0,0,True
2884412,-2.19078252428,2.36198444685,Fragale Domenique,95.66666667,8.066666667,22,0.0,0.0,170.0,0.0,0,0,True
3787069,0.501777812206,-0.617684621793,Webb Charley,15.0,6.371428571,28,0.0,0.0,160.0,0.0,0,0,True
3499048,-1.54816221171,0.277929793379,Refaeli Bar,44.23076923,6.892307692,31,0.0,0.0,174.0,0.0,0,0,True
3725495,-0.1926389728,-0.447968497666,Trump Bianca,14.8,6.725714286,44,0.0,0.0,165.0,0.0,0,0,True
3527905,-1.77561396246,-0.0808211602824,Rogers Danielle,21.52727273,6.298181818,49,0.0,6243.305279,172.5,23831.68938,0,0,True
3030624,-0.104109360985,0.146595144363,Huang Shii Ann,34.62162162,7.608108108,42,0.0,0.0,165.0,0.0,0,0,True
2849840,-0.602860283338,-0.51411275159,Exotica,14.66666667,6.675,43,0.0,0.0,168.0,297619.0476,0,0,True
3082156,0.258128135911,-0.15753823859,Judd Wynonna,19.7027027,7.072972973,52,0.0,0.0,162.5,764818.3556,0,0,True
3125649,-0.49744230778,-0.994340648497,Kline Kelly,9.321428571,7.039285714,35,0.0,0.0,168.0,30000.0,0,0,True
2860532,0.960046546646,-1.36540207418,Fenix Eva,5.0,7.4,26,0.0,0.0,157.5,0.0,0,0,True
2881795,-1.85473191448,1.74125430553,Foster Hailey,83.0,6.2,32,0.0,0.0,172.5,0.0,0,0,True
3132506,-0.639081336486,1.80730092591,Komagata Momona,80.91666667,6.975,30,0.0,0.0,165.0,63301.62363,0,0,True
2847489,2.18368933779,0.851402516275,Evans Audrey Elizabeth,48.14285714,5.028571429,18,0.0,0.0,155.0,21772.54279,0,0,True
3485443,0.532894958811,-0.26675449674,Rai Priya,27.14285714,7.192857143,39,0.0,0.0,160.0,26133.0871,0,0,True
2994283,1.13856560856,3.67345616559,Heard Daphne,62.125,7.5775,112,0.0,0.0,162.5,0.0,0,0,True
3663397,0.691768234365,-1.73665193479,Storey Claire,22.0,8.3,50,0.0,0.0,162.5,0.0,0,0,True
3223302,0.943537220396,-0.483314835999,Lust Kendra,8.357142857,6.207142857,38,0.0,0.0,157.5,0.0,0,0,True
2681347,-0.191975105267,-0.389977365269,Cassidey,22.75862069,6.772413793,36,0.0,0.0,165.0,278677.0273,0,0,True
3618577,-0.407459208533,-1.02797893678,Simpson England,12.5,7.166666667,32,0.0,0.0,167.5,370146.292,0,0,True
3802380,-1.45146497181,-1.00967371566,Wilde Cassandra,12.13636364,7.027272727,41,0.0,0.0,175.0,0.0,0,0,True
3163777,-1.50104600061,-0.326151617128,Langley Emma,24.0,5.7,28,0.0,0.0,170.0,0.0,0,0,True
2755856,1.12887895792,0.267764365392,Daley Sandy,18.5,6.8,62,0.0,0.0,157.5,0.0,0,0,True
3700668,0.521340975633,-0.778062669808,Thai Lily,11.18181818,6.972727273,35,0.0,0.0,160.0,0.0,0,0,True
2670256,-0.339085056376,-0.036555690038,Caramel,27.0,6.233333333,39,0.0,0.0,165.0,21345.19177,0,0,True
3457201,1.49113833575,0.590556212678,Platt Jenny,46.9375,6.73125,37,0.0,0.0,152.5,0.0,0,0,True
2950868,-0.212471643487,-0.556059216447,Gresty Lucy,10.5,6.625,43,0.0,0.0,165.0,0.0,0,0,True
3840895,-0.342196644984,0.636993654758,Zee Ona,23.14503817,6.277099237,65,0.0,0.0,165.0,6670.372429,0,0,True
3181831,-0.607667326585,-0.534826566602,Lefay V©ronique,13.42857143,6.685714286,44,0.0,0.0,168.0,0.0,0,0,True
3201460,-2.13221883846,-0.452000342518,Linkletter Nicole,21.86666667,5.573333333,30,0.0,0.0,175.0,5000.0,0,0,True
3555971,0.159592708618,-0.461019252759,Saint Silvia,17.28275862,6.807586207,40,0.0,0.0,162.5,0.0,0,0,True
3055684,-1.16432463356,-0.863681441212,Jaimes Franceska,8.375,6.1125,31,0.0,0.0,170.0,0.0,0,0,True
2793783,-2.81320685502,-0.416793713052,Diamond Debi,20.38839286,6.545535714,51,0.0,0.0,183.0,25659.3015,0,0,True
3837351,-0.756099068722,-0.998356363227,Zafira,13.10714286,7.032142857,32,0.0,0.0,170.0,0.0,0,0,True
3351832,-2.00647674842,-2.72032641683,Muse Mandy,9.0,4.0,22,0.0,0.0,157.5,0.0,0,0,True
3734640,1.93113428082,0.793611905082,Uhrinova Kristina,36.66666667,4.933333333,31,0.0,0.0,155.0,0.0,0,0,True
3765944,1.17531769274,-0.510990444723,Vixen Taylor,19.625,6.8875,33,0.0,0.0,155.0,1100.634699,0,0,True
2847553,1.17620423894,0.37020413551,Evans Candie,29.41666667,6.202777778,49,0.0,0.0,155.0,0.0,0,0,True
2890078,0.114371245037,1.70442931812,French Sarah,69.48275862,5.793103448,34,0.0,0.0,160.0,78642.02711,0,0,True
3166268,-0.849224852799,-0.763513662867,Laroche Jade,13.44444444,5.788888889,27,0.0,0.0,165.0,0.0,0,0,True
3615968,1.53108674948,-1.02258317919,Silverstone Staci,6.5,5.975,22,0.0,0.0,155.0,0.0,0,0,True
2884017,-0.629000465424,-0.29659019838,Foxx Alex,19.83333333,6.358333333,41,0.0,0.0,167.5,0.0,0,0,True
2538672,-3.37815465986,-1.45400661607,Ashley Mercedes,7.5,3.6,46,0.0,0.0,157.5,0.0,0,0,True
3262267,1.73396518115,-0.607493634602,Martinez Megan,5.0,5.6,33,0.0,0.0,155.0,16004.33895,0,0,True
2949042,-0.621407148947,2.70440482931,Greene Michele,99.25609756,6.843292683,54,0.0,0.0,165.0,1467481.934,0,0,True
3449971,2.46598249397,1.85696231344,Pichon Anne,17.0,7.166666667,102,0.0,0.0,160.0,0.0,0,0,True
2984695,-0.973075943529,1.62308195207,Harrison Jenilee,67.03100775,7.255813953,58,0.0,0.0,170.0,0.0,0,0,True
2683495,-0.161777816029,-0.70832295509,Castro Jessi,17.5,6.85,30,0.0,0.0,165.0,0.0,0,0,True
3453829,2.27931919266,-1.67100088219,Pinky,7.25,8.325,34,0.0,0.0,150.0,88736.79519,0,0,True
3546215,-0.000554705670802,0.702932280394,Runaway Faye,52.0,7.2,29,0.0,0.0,163.0,250149.1669,0,0,True
2857698,-0.317864338249,-0.467384193373,Fay Scarlett,18.6,6.293333333,31,0.0,0.0,165.0,0.0,0,0,True
3277264,-0.251777648265,-0.698489071916,McAlpine Jennie,11.95833333,6.454166667,32,0.0,0.0,165.0,0.0,0,0,True
2524547,-0.359171500835,-0.451892306043,Ann Carrie,9.25,6.2,44,0.0,0.0,165.0,16004.33895,0,0,True
2627479,0.306356732533,0.183880645004,Branch Alyssa,36.9,6.42,24,0.0,0.0,161.0,0.0,0,0,True
3157371,0.0350045309472,2.90771369218,Laine Shannon,99.4,5.88,36,0.0,0.0,157.5,15538.97192,0,0,True
3223815,0.182761786594,-0.649417798781,Luv Bunny,14.74358974,6.919230769,36,0.0,0.0,162.5,1118688.152,0,0,True
3223113,0.185410685342,0.907089678598,Lusardi Linda,46.16666667,7.058333333,58,0.0,0.0,162.5,4000000.0,0,0,True
3548286,-1.04093147828,-0.64810914498,Russo Sandra,12.0,6.576315789,42,0.0,0.0,171.0,0.0,0,0,True
3247795,-0.420644439681,1.82835132703,Manthey Jerri,77.88235294,7.325882353,46,0.0,0.0,165.0,267815.1369,0,0,True
3174858,1.25669514471,-1.77166753584,Le Haylee,8.0,8.2,31,0.0,0.0,157.0,0.0,0,0,True
3211275,-2.23698907397,1.47527066819,Lopatkina Uliana,64.83333333,8.3,43,0.0,0.0,175.0,0.0,0,0,True
2926320,0.919193935129,-2.10485721396,Gish Lorian,13.5,8.35,19,0.0,0.0,160.0,52905.0375,0,0,True
3188895,-1.72225309131,-0.229841290958,Leskanich Katrina,21.08333333,7.091666667,56,0.0,0.0,175.0,0.0,0,0,True
2644840,0.967782076056,4.714793645,Bryant Margot,96.21428571,5.95,119,0.0,0.0,157.5,0.0,0,0,True
2952210,-11.9999357728,6.83382606981,Griffith Corinne,75.33333333,5.92,122,0.0,56250.0,165.0,0.0,0,0,True
3789134,-0.697821777341,0.505066738361,Weichselbraun Mirjam,48.15789474,7.018421053,35,0.0,0.0,168.0,0.0,0,0,True
3127643,-0.45404412839,-1.09801501876,Knight Skylar,9.909090909,7.254545455,36,0.0,0.0,168.0,0.0,0,0,True
3624814,0.0900884783571,-0.614776636863,Sky Isabella,15.5,6.75,34,0.0,0.0,163.0,0.0,0,0,True
2702985,-0.287654211135,0.0225537898775,Chloe,26.68181818,6.362337662,45,0.0,0.0,165.0,110063.4699,0,0,True
2749198,-0.912320933461,-0.41522631092,Currie Karina,15.5,5.95,37,0.0,0.0,167.5,0.0,0,0,True
3535338,1.79409165669,0.974713241053,Rose Sativa,62.0,7.268292683,32,0.0,0.0,152.0,0.0,0,0,True
3193892,1.11176654194,-1.45315120987,Lezian Dasani,6.0,7.766666667,33,0.0,0.0,157.0,0.0,0,0,True
3393002,0.670286894347,-1.39539599364,Oaten Gemma,5.0,7.6,32,0.0,0.0,160.0,0.0,0,0,True
2869693,0.723720252039,2.45680407552,Fires Ashley,89.25,6.041666667,34,0.0,0.0,155.0,2027575.02,0,0,True
3212627,0.165424624405,-0.996772154679,Lor Lia,8.285714286,6.585714286,26,0.0,0.0,162.5,0.0,0,0,True
3128516,2.5688934568,-1.40201083913,Knudsen Kari,6.0,8.5,77,0.0,0.0,160.0,274509.8039,0,0,True
3730555,-1.22314882862,0.497830251426,Turner Laura Jane,48.0,7.6,26,0.0,0.0,170.0,0.0,0,0,True
3217186,1.11509816054,0.614509346425,Lowe Melissa,46.14285714,6.957142857,42,0.0,0.0,155.0,86253.91546,0,0,True
3403472,5.65204834007,2.53986195348,Orchis-Evans Nancy Boo,52.0,6.642857143,111,0.0,0.0,127.5,0.0,0,0,True
3326409,-0.63145539231,-0.554748449963,Monic,15.27272727,6.545454545,38,0.0,0.0,168.0,0.0,0,0,True
3183877,0.564109071766,-0.26172332315,Leigh Payton,16.46153846,6.884615385,49,0.0,0.0,160.0,70089.23834,0,0,True
3213976,-0.426113414395,-1.43215437206,Lory Evelyn,29.0,7.88,32,0.0,0.0,168.0,0.0,0,0,True
2712570,0.0362829631987,0.6944724475,Clarke Julie,48.16666667,6.65,45,0.0,0.0,162.5,0.0,0,0,True
3804161,0.56683787366,0.563171932111,Willets Kathy,28.375,6.175,58,0.0,0.0,160.0,388791.6431,0,0,True
2913618,0.565849713108,-0.198848947357,Gee Kimi,12.9047619,6.433333333,49,0.0,0.0,160.0,0.0,0,0,True
3798613,-0.817204509044,-0.960886869403,White Tarra,13.43902439,6.83902439,29,0.0,0.0,170.0,5000.0,0,0,True
3653947,-0.908202347553,0.0644172004512,Steele Sydnee,29.77477477,6.612612613,48,0.0,0.0,170.0,250705.8159,0,0,True
3535531,-0.113748210453,-0.801545143295,Rose Velvet,13.2,7.06,36,0.0,0.0,165.0,0.0,0,0,True
2493297,0.721875429443,-0.347851548051,Addams Ava,11.0,5.755555556,35,0.0,0.0,160.0,18707.99509,0,0,True
3062004,1.28033584385,-1.22820253026,Jaye Leah,8.75,7.45,30,0.0,0.0,155.0,39256.2677,0,0,True
3225601,-0.675948737364,-0.93541015489,Lynn Jessica,11.91666667,6.85,31,0.0,0.0,169.0,0.0,0,0,True
3213678,0.313431116243,4.39231744523,Lorimer Enid,37.0,6.909090909,129,0.0,0.0,167.5,0.0,0,0,True
3225771,1.66442664123,-0.120228450486,Lynn Nikki,15.71428571,6.1,42,0.0,0.0,152.5,0.0,0,0,True
2655483,-1.36848089281,-3.78392523358,Butt Emma,6.0,9.5,31,0.0,0.0,180.0,0.0,0,0,True
3256811,0.833963365172,-0.13310823976,Marquez Karel,28.0,6.422222222,30,0.0,0.0,157.5,0.0,0,0,True
2982767,-0.0481409827209,-0.451047032116,Harrington Cate,17.0,6.0,29,0.0,0.0,163.0,0.0,0,0,True
3315905,1.47901867535,-0.389559515975,Minogue Dannii,23.08823529,7.594117647,45,0.0,0.0,155.0,0.0,0,0,True
2513762,0.209203025468,1.99098082632,Amani Sharifah,83.11764706,7.011764706,30,0.0,0.0,160.0,0.0,0,0,True
3651921,-0.986279929404,-0.465354252792,Starlet Heather,26.66666667,6.638888889,27,0.0,0.0,170.0,54610.75035,0,0,True
3180136,-0.981429879105,-0.113208544161,Lee Mona,32.0,6.5,32,0.0,0.0,170.0,0.0,0,0,True
3467179,-0.364685690823,-0.822081846604,Powell Vicky,24.0,7.411111111,33,0.0,0.0,167.0,0.0,0,0,True
3336281,0.565895221253,0.0733436467377,Morgan Angelique,19.66666667,5.816666667,41,0.0,0.0,160.0,43905.44438,0,0,True
2859591,0.469579857458,-0.159372689679,Felecia,22.94623656,6.761290323,44,0.0,0.0,160.0,217657.1522,0,0,True
2785870,0.493991650622,0.99441767825,Denby-Ashe Daniela,57.81451613,7.375,38,0.0,0.0,160.0,0.0,0,0,True
3066528,-1.25098225443,1.74852653861,Jessie Sarah,80.91666667,6.983333333,39,0.0,0.0,170.0,0.0,0,0,True
2970660,1.19995522548,-1.54024513959,Hall Allyssa,16.2,8.02,28,0.0,0.0,157.0,0.0,0,0,True
3484040,1.07252747498,2.62573238776,Rae Chelsie,96.45,7.525,32,0.0,0.0,155.0,75411.94917,0,0,True
2538169,1.41648168808,-0.511000585996,Ashe Danni,14.58333333,7.354166667,48,0.0,0.0,155.0,0.0,0,0,True
3652181,0.075128037537,0.23457643061,Starr Jade,39.35294118,6.829411765,35,0.0,0.0,162.5,33019.04098,0,0,True
2507290,-0.210374069396,-0.611531040359,Alisson,14.0,6.6,35,0.0,0.0,165.0,0.0,0,0,True
2981444,1.24655726281,-0.741560326147,Harlow Ann,7.333333333,6.533333333,33,0.0,0.0,155.0,0.0,0,0,True
2549733,0.158955703348,-0.863129752008,Badcock Lolly,6.333333333,6.5,32,0.0,0.0,162.5,0.0,0,0,True
3415232,-0.64960223576,0.27536494127,Palette Jessica,42.85714286,6.871428571,31,0.0,0.0,167.5,18066.90839,0,0,True
3678040,-3.88113662352,0.455812986352,Sweet McKenzie,25.0,3.2,36,0.0,0.0,165.0,0.0,0,0,True
3076690,-0.040593393739,-0.867581595138,Jones Kate,18.0,7.466666667,40,0.0,0.0,165.0,0.0,0,0,True
2738664,-1.55948832017,1.75141910244,Cox Sara,80.92307692,6.746153846,42,0.0,0.0,172.5,0.0,0,0,True
2500257,0.756895145343,1.75053695974,Akira Asa,77.5326087,6.811956522,31,0.0,0.0,157.0,2349493.83,0,0,True
3313730,3.12922458064,2.54711562764,Mills Marilyn,6.0,5.35,113,0.0,0.0,157.5,0.0,0,0,True
3413926,0.380091486197,-1.76358415825,Paige Proxy,7.0,7.95,27,0.0,0.0,163.0,0.0,0,0,True
3341106,1.58132554503,-0.842174939879,Morton Katie,10.0,6.8,30,0.0,0.0,152.5,0.0,0,0,True
2606846,0.889785313679,0.0780480431104,Bleu Bunny,20.62755102,6.535714286,52,0.0,441.7177914,157.5,278810.4089,0,0,True
2806615,-1.36903641229,-0.110457582998,Donovan Stacey,21.55,6.399,52,0.0,0.0,172.5,8000.0,0,0,True
2515940,1.22182305128,-0.76776273618,Amore Alexis,10.67567568,7.072972973,38,0.0,0.0,155.0,30603.2524,0,0,True
3181424,0.931046541272,0.338722804253,Leeanne Leilani,44.0,6.933333333,25,0.0,0.0,157.5,0.0,0,0,True
3224987,-1.21854318315,2.25235073261,Lynch Keavy,94.2,7.06,37,0.0,0.0,168.0,0.0,0,0,True
3181741,0.240460880798,-2.81650806637,Lees Meghan K.,7.666666667,9.066666667,36,0.0,0.0,167.5,0.0,0,0,True
2975915,-1.95186651724,-1.05628884468,Hanah Darryl,9.041666667,6.779166667,44,0.0,0.0,178.0,79877.11214,0,0,True
2879500,0.913386609613,4.9632677762,Forde Eugenie,73.14285714,6.485714286,137,0.0,0.0,162.5,0.0,0,0,True
3449140,-0.932914750672,-0.0956142496732,Phoenix Satine,31.09090909,6.536363636,36,0.0,0.0,170.0,105031.735,0,0,True
3801659,25.8342091731,-1.31500384287,Wiglesworth Kelly,62.97435897,7.828205128,39,0.0,139372.8223,167.5,0.0,0,0,True
3091187,-1.62650785573,0.0259976840958,Kane Kimberly,38.07142857,6.953571429,33,0.0,0.0,175.0,1031644.653,0,0,True
3139322,-1.03936967682,0.376087079447,Kozar Heather,41.38888889,6.266666667,40,0.0,0.0,170.0,0.0,0,0,True
3742379,1.98973545162,-1.53587494366,Vallone Brooke,21.77777778,8.322222222,29,0.0,0.0,152.5,83008.79675,0,0,True
3167541,-0.526578857729,-0.554648514015,LaRue Renee,12.51428571,6.811428571,46,0.0,0.0,167.5,23693.37979,0,0,True
3286503,-0.879043110662,-0.508815846777,McKay Sunny,15.05970149,6.792537313,47,0.0,0.0,170.0,0.0,0,0,True
3668438,-0.509250910221,-0.739649786825,Style Victoria,17.5,7.083333333,36,0.0,0.0,168.0,0.0,0,0,True
3507730,0.547447153308,-0.699329601401,Rhodes Alicia,14.36363636,7.134090909,38,0.0,0.0,160.0,88472.97824,0,0,True
3078666,-0.648638759916,0.354985603345,Jonsson Ulrika,35.59574468,6.370212766,49,0.0,0.0,167.5,0.0,0,0,True
3149638,1.2844413943,-0.180292507322,Kush Karla,19.42857143,5.614285714,25,0.0,0.0,157.5,0.0,0,0,True
2534502,-0.193869682392,0.263379242088,Arnold Berrit,37.14285714,6.971428571,45,0.0,0.0,165.0,0.0,0,0,True
2994487,-0.851404381307,-0.309184470949,Heart Kelsey,21.88235294,6.864705882,46,0.0,0.0,170.0,0.0,0,0,True
3173001,-0.68971555649,1.82259218965,Lawson Nigella,74.77777778,7.066666667,56,0.0,0.0,167.5,5062.927976,0,0,True
3026936,2.19263891182,-1.81157215034,Houghton Tiffany,8.0,8.2,23,0.0,0.0,150.0,21339.11861,0,0,True
3679264,-1.68109523511,2.09076669869,Sykes Melanie,88.52941176,6.317647059,46,0.0,0.0,172.5,0.0,0,0,True
2938774,-0.176750514032,-1.44140784628,Gordon Victoria,8.0,5.8,23,0.0,0.0,162.5,206.0466095,0,0,True
2522774,-1.40236172522,-0.701451023963,Angel Laura,14.07042254,6.697183099,42,0.0,0.0,174.0,500000.0,0,0,True
2699222,-0.228672807541,-0.101745814891,Chernetsky Juliya,31.75,6.775,34,0.0,0.0,165.0,813525.675,0,0,True
2790884,-1.52747987545,-1.21067571181,DeVille Cherie,10.55555556,5.044444444,38,0.0,0.0,162.5,15188.78393,0,0,True
2575144,1.33386841198,0.47391718128,Beauchamp Bianca,45.33333333,7.433333333,39,0.0,0.0,155.0,0.0,0,0,True
3485720,-0.567659157707,-0.123371051069,Rain Misty,24.05714286,6.606666667,47,0.0,0.0,167.5,278677.0273,0,0,True
2740467,-0.187501966561,1.13985178264,Crawford Cindy,61.94285714,6.411428571,36,0.0,0.0,163.0,88148.80797,0,0,True
3225696,1.972655468,1.35963749446,Lynn Loretta,28.87037037,6.733333333,84,0.0,0.0,155.0,1335574.241,0,0,True
2674353,1.65429884336,3.27927353862,Carol Sue,55.61111111,6.477777778,110,0.0,0.0,157.5,0.0,0,0,True
3590865,1.90711282468,3.9995975024,Segal Vivienne,75.11111111,7.066666667,119,0.0,0.0,155.0,7605394.082,0,0,True
3252807,0.224670073432,-3.04585939039,Marie Kiara,5.0,9.2,29,0.0,0.0,168.0,0.0,0,0,True
2985716,-2.17879092995,3.08276137273,Hart Margie,21.0,4.9,103,0.0,0.0,167.5,0.0,0,0,True
2538702,-1.71749454561,0.362529778762,Ashley Rachel,35.60377358,6.309433962,52,0.0,0.0,175.0,1807228.916,0,0,True
3618229,0.897646787038,-1.79527356845,Simons Rita,6.275,8.20875,39,0.0,0.0,160.0,0.0,0,0,True
2756793,-1.30598221881,-0.572369474869,Daly Tess,12.13793103,6.520689655,47,0.0,0.0,172.5,950000.0,0,0,True
3255201,-0.0235349668075,-1.2356686557,Markovic Olivera,12.0,7.45,30,0.0,0.0,165.0,3392828.41,0,0,True
2694997,0.168812437167,1.46016826421,Charmelle Lou,63.66666667,5.833333333,33,0.0,0.0,160.0,0.0,0,0,True
3305437,1.42004829919,-0.195073213133,Michaels Jillian,10.41059603,5.922516556,42,0.0,0.0,155.0,0.0,0,0,True
3273977,-0.171949705317,-0.758481159615,May Alexa,12.24137931,6.755172414,33,0.0,0.0,165.0,0.0,0,0,True
3797445,-2.85009967003,0.626104755743,White Danielle,33.66666667,4.2,24,0.0,0.0,160.0,0.0,0,0,True
3186112,0.526615917603,2.59947796589,Lenee Shawna,96.5,7.0475,29,0.0,0.0,157.0,110063.4699,0,0,True
2639916,0.656190967114,2.31881693309,Brown Jenn,89.73333333,7.42,35,0.0,0.0,157.5,873585.3884,0,0,True
2527767,0.235462347012,1.2752420894,Apan Tiffany,51.22222222,5.455555556,36,0.0,0.0,160.0,102740.4673,0,0,True
3664452,-1.04688477703,-0.0482506701819,Strain Kirsty,34.94117647,7.717647059,36,0.0,0.0,170.0,0.0,0,0,True
3554860,-0.803342723038,-0.619604221815,Sage Adriana,21.03571429,7.003571429,36,0.0,0.0,170.0,16004.33895,0,0,True
3657517,3.28226285289,3.87961961815,Sterling Merta,28.2,5.16,133,0.0,0.0,152.5,0.0,0,0,True
3133549,0.316327380495,0.612719060081,Konishi Hiroko,47.62626263,7.186868687,41,0.0,0.0,161.0,0.0,0,0,True
3327163,0.558395581908,-1.13257127301,Monroe Isis,6.0,7.066666667,28,0.0,0.0,160.0,0.0,0,0,True
3274211,-1.5539193874,-0.853102789807,May Jessica,11.90625,6.559375,37,0.0,0.0,175.0,0.0,0,0,True
3509091,-1.04583171895,2.03210549446,Rice Anneka,77.71428571,7.414285714,58,0.0,0.0,170.0,0.0,0,0,True
3534369,4.34898406279,2.01248813306,Rose Campbell,26.5,6.625,111,0.0,0.0,140.0,0.0,0,0,True
3695947,0.854857307058,-0.740018028347,Teasdale Rebekah,11.625,6.9875,36,0.0,0.0,157.5,0.0,0,0,True
2625071,-0.759972258358,-0.342987823783,Boze Kelsey,27.0,6.4,25,0.0,0.0,167.5,18000.0,0,0,True
3054494,-0.321648996073,-0.138266658437,Jacqueline,15.27272727,6.293939394,51,0.0,0.0,165.0,0.0,0,0,True
2577777,0.615888700259,4.50525955054,Beebe Marjorie,97.29032258,5.493548387,108,0.0,0.0,157.5,100000.0,0,0,True
2538548,2.00313029924,0.164685037382,Ashley Brooke,19.89473684,6.442105263,43,0.0,11042.94479,160.0,23741.75793,0,0,True
2619273,-0.796048825209,-1.28302527246,Boshinski Krista,31.0,7.7,29,0.0,0.0,170.0,7406.357119,0,0,True
3662544,-0.860743084826,-0.897216898734,Stone Cece,7.0,6.7,38,0.0,0.0,170.0,0.0,0,0,True
2652771,-0.262865745912,2.69980032931,Burril April Monique,93.37037037,5.685185185,44,0.0,0.0,160.0,78209.93881,0,0,True
2951074,-2.07877252007,0.924035991756,Grey Dahlia,54.81481481,7.440740741,44,0.0,0.0,177.5,0.0,0,0,True
2790999,0.235141136075,-0.972052087193,Devine Ava,7.7,7.26,42,0.0,0.0,163.0,106598.5985,0,0,True
2661591,2.77821640561,0.973345903762,Caldwell Sarah,15.5,7.8,92,0.0,0.0,157.5,0.0,0,0,True
2769513,-0.140145176787,-0.807926305261,de Boor Krystal,9.238095238,6.904761905,38,0.0,0.0,165.0,0.0,0,0,True
2649644,2.30684567414,-0.570463173303,Burch Liz,14.8627451,8.160784314,62,0.0,0.0,155.0,0.0,0,0,True
3364795,2.66884805942,2.98219760599,Ne Moyer Frances,8.0,6.22,120,0.0,0.0,162.5,0.0,0,0,True
3218316,1.65783824911,0.339021505453,Luanna Mya,33.0,5.988888889,38,0.0,0.0,152.0,0.0,0,0,True
3752060,-1.41095801964,-1.51767609962,Vaughn Megan,7.0,5.033333333,35,0.0,0.0,162.5,0.0,0,0,True
3789540,1.97467968333,-0.539993026164,Weinberg Ally,13.0,6.4,33,0.0,0.0,150.0,0.0,0,0,True
3818847,0.364758056651,1.3283636335,Woodell Pat,42.53521127,6.874647887,72,0.0,0.0,162.5,800992.3799,0,0,True
2835757,0.251098384376,1.67971589569,Ellis Jacqueline,26.78571429,6.428571429,82,0.0,0.0,165.0,0.0,0,0,True
3494094,0.9451624804,-0.982006695541,Ray Allie,8.0,7.0,30,0.0,0.0,157.0,0.0,0,0,True
2493392,-3.43384158515,0.522018981196,Addison Aimee,37.5,3.9,31,0.0,0.0,173.0,194972.048,0,0,True
2782370,-0.332778584473,-1.13416204637,Delcroix Stella,9.714285714,7.2,31,0.0,0.0,167.0,0.0,0,0,True
2502856,-0.22985071625,-0.849947785046,Albrite Anikka,11.64516129,6.541935484,28,0.0,0.0,165.0,2027575.02,0,0,True
3708930,-0.530955866146,3.33363964078,Tidwell Monica,92.0,4.875,62,0.0,0.0,160.0,289962.8253,0,0,True
3798959,-1.64339557985,-1.02708757975,Whitehouse Lauren,12.0,6.4,27,0.0,0.0,175.0,44747.52607,0,0,True
3417209,-0.822199024284,2.64205748466,Pampanini Silvana,47.78,6.236,91,0.0,0.0,170.0,0.0,0,0,True
3052703,0.245130684176,2.28946830198,Jackson La Toya,83.89156627,6.843373494,60,0.0,0.0,160.0,813803.6724,0,0,True
2660461,-2.27146095809,0.329312195782,Caine Marti,5.0,5.4,72,0.0,0.0,167.5,0.0,0,0,True
3330680,-2.1487095879,0.724486866411,Moor Maggie,43.33333333,4.9,38,0.0,0.0,170.0,3000.0,0,0,True
3208965,-0.572434352458,-0.618389661093,Lola,11.36842105,6.549122807,40,0.0,0.0,167.5,24489.79592,0,0,True
3044005,1.99240426101,-0.289399402685,Ina Kyoko,20.16666667,7.15,44,0.0,0.0,150.0,0.0,0,0,True
3462849,-0.324368642457,1.27170120327,Pope Eva,63.56666667,6.932222222,49,0.0,0.0,165.0,0.0,0,0,True
2537848,0.63999284622,-1.08960869293,Ash Angelina,16.66666667,7.477777778,29,0.0,0.0,160.0,0.0,0,0,True
3471647,-0.208694405509,0.00211013048286,Primeau Kat,36.66666667,7.125,30,0.0,0.0,165.0,154378.0476,0,0,True
3797271,-2.31965785672,0.695245953083,White Brooke,47.35483871,5.064516129,33,0.0,0.0,173.0,10137.8751,0,0,True
3339381,-1.06211151502,-1.09590112462,Morris Kari,18.0,7.4,38,0.0,0.0,172.5,13612.18607,0,0,True
3080561,-0.299036688528,-1.1410257859,Jossa Jacqueline,7.785714286,6.328571429,24,0.0,0.0,165.0,0.0,0,0,True
3066878,-0.137105278599,-0.744208353864,Jewel Dina,11.52941176,6.929411765,38,0.0,0.0,165.0,0.0,0,0,True
3215936,1.27966442867,-1.14301829981,Love Lacey,10.22222222,7.466666667,33,0.0,0.0,155.0,0.0,0,0,True
3298050,0.127069188025,0.475139724399,Mendez Monica,44.2,7.2,41,0.0,0.0,162.5,0.0,0,0,True
3664850,-0.0708382246333,1.67417193488,Strasser Robin,53.78378378,7.30990991,71,0.0,0.0,165.0,809716.5992,0,0,True
3578540,-2.33274412482,-0.882109152199,Schiffer Daniella,12.16666667,6.327777778,39,0.0,0.0,180.0,0.0,0,0,True
2532068,0.75281558406,-0.0213349332069,Ariana,11.98148148,6.687037037,58,0.0,0.0,160.0,0.0,0,0,True
2730641,-1.22419983344,0.720880803553,Corbett Brenda,51.0,7.833333333,33,0.0,0.0,170.0,0.0,0,0,True
2752459,0.659378125977,-1.1384823585,D'Ass Cherokee,5.8,7.42,40,0.0,0.0,160.0,0.0,0,0,True
3722324,2.16064145463,0.194482498465,Trencher Helen,32.875,7.4875,52,0.0,0.0,150.0,15044.08425,0,0,True
3193558,0.508357321436,-0.524337430488,Lexis Lea,17.41666667,6.291666667,28,0.0,0.0,160.0,0.0,0,0,True
3669977,1.19695041916,-0.60258009789,Sugar Ivana,13.83333333,5.933333333,24,0.0,0.0,157.0,0.0,0,0,True
2558888,0.915111671302,-0.528217102673,Banks Jasmyn,18.0,6.328571429,26,0.0,0.0,157.5,0.0,0,0,True
3753333,-0.290902455565,-1.41129315409,Vegas Natalie,6.5,5.75,26,0.0,0.0,163.0,0.0,0,0,True
3642716,1.97491641379,-0.852698620999,Spades Sammie,16.5,7.2,29,0.0,0.0,150.0,0.0,0,0,True
3662892,-0.0821865906784,-0.922561298787,Stone Mia,13.66666667,7.243333333,35,0.0,0.0,165.0,0.0,0,0,True
2534526,1.50574589217,1.86255230985,Arnold Charlotte,79.47826087,6.262111801,27,0.0,0.0,152.5,0.0,0,0,True
3470023,-1.48688974126,-0.532646950506,Preston Chanel,20.59701493,6.174626866,31,0.0,0.0,173.0,2027575.02,0,0,True
3277000,0.443947491339,1.84773766137,McAdam Heather,75.31818182,7.554545455,48,0.0,0.0,160.0,0.0,0,0,True
3708082,-0.878914647952,-0.982137562675,Thurber C.K.,30.0,7.6,31,0.0,0.0,170.0,2380.952381,0,0,True
2551464,-1.67718523514,1.63124595322,Bailey A.J.,79.0,7.05,36,0.0,0.0,173.0,80233.378,0,0,True
2676040,-1.39070757443,0.224178996121,Carrera Mercedes,35.4,5.72,34,0.0,0.0,170.0,50629.27976,0,0,True
2745245,0.537160574096,2.82917048301,Cruz Cassandra,98.5,6.1625,34,0.0,0.0,155.0,422121.1678,0,0,True
2694962,2.39204175567,-0.0548838393142,Charm Nikki,16.01785714,6.332142857,50,0.0,0.0,147.5,0.0,0,0,True
3813133,0.505829441359,-0.736306898777,Winters Hayden,16.0,6.585714286,25,0.0,0.0,160.0,0.0,0,0,True
3740793,2.10911764208,-0.726557551135,Valentina Carmen,8.0,6.1,29,0.0,0.0,150.0,0.0,0,0,True
3442604,-2.16808737111,0.882459258164,Petee Maia,52.0,5.0,30,0.0,0.0,170.0,185683.1965,0,0,True
3619412,-2.15642193596,-0.979152712004,Sin Layla,12.0,5.0,21,0.0,0.0,168.0,0.0,0,0,True
3763333,0.139043216819,-0.323553031523,Vincent Ava,20.45555556,6.738888889,41,0.0,0.0,162.5,163846.1952,0,0,True
3339760,-0.222158251927,1.59509519159,Morris Sherry,61.71428571,5.714285714,52,0.0,0.0,162.5,300689.3755,0,0,True
3833159,1.25571423165,-0.796967596877,Young Britney,13.6,6.6,25,0.0,0.0,155.0,257558.2618,0,0,True
2849959,-0.61681955878,-1.50179613691,Eyes Angel,8.25,7.6125,36,0.0,0.0,170.0,0.0,0,0,True
2884130,0.475407637748,-0.233024867049,Foxx Shyla,18.5,6.592857143,44,0.0,0.0,160.0,0.0,0,0,True
2993494,-1.85043565049,-1.03036866927,Haze Autumn,11.08333333,6.775,40,0.0,0.0,177.5,0.0,0,0,True
2838829,-0.0601955487855,1.03357570352,Endres de Oliveira Gloria,58.0,6.36,26,0.0,0.0,162.0,0.0,0,0,True
2868627,0.168165031602,-1.6910025178,Fink Heather,20.5,8.15,35,0.0,0.0,165.0,557.3540545,0,0,True
3057304,-0.122621224717,-0.972461837999,James Paulina,11.0,7.0,30,0.0,0.0,165.0,57887.12012,0,0,True
2516191,0.888683484597,-0.938028419172,Amour Chloe,14.66666667,7.0,25,0.0,0.0,157.5,0.0,0,0,True
3061675,-0.482822316393,1.40218828494,Jay Bailey,60.0,8.125,28,0.0,0.0,165.0,0.0,0,0,True
3728348,-1.13336416877,-0.204582376153,Tuesday Rubee,14.33333333,6.95,60,0.0,0.0,170.0,22679.26626,0,0,True
3527360,1.71354217978,1.96529980927,Roeg Nicolette,39.125,6.775,91,0.0,0.0,157.5,0.0,0,0,True
3016029,-1.82563171445,1.31032717724,Hodna Marcela,66.33333333,5.6,38,0.0,0.0,172.0,0.0,0,0,True
3732387,-0.526352337209,0.0361217173423,Tyler Nikki,32.18867925,6.918867925,44,0.0,0.0,167.5,184049.0798,0,0,True
2649455,-0.35921792189,-2.03922843029,Buoro Taylor,5.0,8.0,25,0.0,0.0,169.0,0.0,0,0,True
3599977,-0.569474423333,-0.363835434772,Shane,16.02173913,6.617391304,47,0.0,0.0,167.5,0.0,0,0,True
3274344,0.0571238567003,-0.10127299694,May Melanie,26.0,6.3,36,0.0,0.0,162.5,0.0,0,0,True
3619610,-6.22018516175,-27.3924877348,Sinclair Diane,46.5,6.3,103,30000000.0,0.0,157.5,166666.6667,0,0,True
2639394,-0.948552647341,1.04366589642,Brown Delotta,58.75,6.075,39,0.0,0.0,168.0,0.0,0,0,True
2547723,-1.5104588295,0.770550752591,B. Bridgette,56.26923077,6.580769231,33,0.0,0.0,173.0,628779.1309,0,0,True
3219655,0.251325670296,-0.732382949911,Lucker Z_e,11.49152542,7.137288136,42,0.0,0.0,162.5,0.0,0,0,True
3109896,0.386800020732,0.3466495839,Kerkove Bridgette,39.78787879,6.664646465,39,0.0,0.0,160.0,98452.15758,0,0,True
3124453,-0.419165686702,-1.0512726193,Klein Cayenne,11.93333333,7.1,30,0.0,0.0,167.5,0.0,0,0,True
3472342,-1.38532341872,-1.62263235488,Priscilla Andy,5.0,5.0,40,0.0,0.0,162.0,0.0,0,0,True
3180154,1.66018227114,-0.942292706514,Lee Morgan,10.33333333,6.533333333,23,0.0,0.0,152.5,100000.0,0,0,True
3202002,-0.475648264811,-0.973924248104,Lion Laura,14.66666667,7.188888889,33,0.0,0.0,168.0,0.0,0,0,True
3223325,0.231821259311,-2.99686665563,Lust Vanda,7.0,9.1,22,0.0,0.0,167.5,0.0,0,0,True
3275394,1.20997609138,1.70151910621,Maylene Michelle,77.40350877,7.147368421,29,0.0,0.0,155.0,331861.9927,0,0,True
3747745,0.456099921778,-0.105224293832,Vandella Sarah,31.55263158,6.863157895,33,0.0,0.0,160.0,200823.9106,0,0,True
2564353,0.222051121263,-0.0575425232277,Baron Angela,10.05555556,6.2,54,0.0,0.0,162.5,0.0,0,0,True
2888657,-0.639943336243,1.00816575998,Fredriksson Marie,47.58333333,6.233333333,58,0.0,0.0,167.0,0.0,0,0,True
3053725,0.0384606481774,-1.46757843046,Jacobs Chyanne,6.666666667,7.633333333,32,0.0,0.0,165.0,0.0,0,0,True
3654728,-1.76559645212,2.16588844093,Stegeman Erin,91.5625,5.83125,33,0.0,0.0,170.0,5000.0,0,0,True
3730083,-0.15024884375,0.609848965434,Turner Anthea,38.82352941,7.2,56,0.0,0.0,165.0,0.0,0,0,True
2514047,-0.165589629962,1.93546538348,Amariah Kaila,81.5,7.283333333,30,0.0,0.0,162.5,150000.0,0,0,True
3381056,-1.81218068095,-1.35132374248,Noire Nika,15.8,7.206666667,32,0.0,0.0,178.0,0.0,0,0,True
2881682,1.34767763151,-0.978903481888,Foster Chloe,8.75,6.425,22,0.0,0.0,155.0,0.0,0,0,True
2775513,1.52051058183,-0.171875135615,De Vell Alexis,16.03225806,6.577419355,46,0.0,0.0,153.0,0.0,0,0,True
3281141,0.550323057101,-0.342954929273,McCray Marie,17.81818182,6.040909091,31,0.0,0.0,160.0,759772.6514,0,0,True
3082611,-0.346552516472,-2.35609760207,Jul Cherry,7.0,8.45,31,0.0,0.0,170.0,0.0,0,0,True
3767014,0.0852862532986,-0.335972532108,Voice Barbara,26.0,6.936363636,35,0.0,0.0,163.0,0.0,0,0,True
3517547,0.627383076853,-0.765168929636,Rivero Iracel,16.4,7.4,40,0.0,0.0,160.0,15232.25837,0,0,True
3101340,-0.393040788012,0.0846162322057,Kaye Ashley,37.5,6.675,23,0.0,0.0,165.0,1905770.249,0,0,True
3492523,-0.880968759026,2.08821150001,Ratcliff Sandy,69.26829268,5.785365854,66,0.0,0.0,167.5,0.0,0,0,True
2951146,1.03163967586,-1.02594083633,Grey Keisha,8.0,6.15,22,0.0,0.0,157.5,0.0,0,0,True
3648244,-0.887099416656,-0.690998385066,St. Martin Lydia,9.875,6.7375,45,0.0,0.0,170.0,0.0,0,0,True
2637220,-2.74505683247,-0.212200955341,Brooks Charlie,16.43243243,4.278378378,35,0.0,0.0,162.5,2537500.0,0,0,True
2884634,0.579738757712,0.182295912039,Frame Annalyn,25.63636364,5.709090909,32,0.0,0.0,160.0,609139.8745,0,0,True
2793787,-1.19282921969,-1.11187415672,Diamond Desiree,9.0,6.833333333,32,0.0,0.0,173.0,55735.40545,0,0,True
3598807,-0.160674634954,-0.810605047397,Shagwell Paige,9.0,6.8,36,0.0,0.0,165.0,0.0,0,0,True
3276138,-3.09027568229,-0.11985971474,Maze Missy,22.0,4.0,28,0.0,0.0,163.0,0.0,0,0,True
2561926,-1.97981905325,-1.86334450629,Bardot Lexi,8.076923077,7.638461538,39,0.0,0.0,180.0,0.0,0,0,True
2823506,2.77722090333,-0.325818764372,Dynamite,14.46666667,5.986666667,37,0.0,0.0,145.0,0.0,0,0,True
2564748,2.00445607268,2.29445189536,Barr Julia,80.1875,7.925,67,0.0,0.0,152.5,830449.827,0,0,True
3614597,0.820292443039,0.389026058704,Silk Alexandra,31.0,6.565882353,53,0.0,0.0,157.5,22357.89257,0,0,True
2584734,3.10355985762,1.96128730967,Benjamin Lucy,62.82432432,4.044594595,46,0.0,0.0,150.0,0.0,0,0,True
3744226,-0.760733352785,-0.829308019909,van der Meij Kim-Lian,18.2,7.18,36,0.0,0.0,170.0,0.0,0,0,True
3507960,0.229655957388,-1.13668123924,Rhodes Sammie,12.19642857,7.425,32,0.0,0.0,163.0,101190.4762,0,0,True
2636810,0.152992679848,-1.04920145773,Brooke Amy,7.434782609,7.008695652,30,0.0,0.0,163.0,0.0,0,0,True
3413840,-0.155523528424,-0.811137630643,Paige Haley,9.951612903,6.824193548,35,0.0,0.0,165.0,148809.5238,0,0,True
2507698,2.6650015688,2.59948496274,Allan Marguerite,17.33333333,6.122222222,113,0.0,0.0,157.5,0.0,0,0,True
2740961,-1.24839782296,-1.67022351276,Cream Kimmie,9.333333333,7.483333333,30,0.0,0.0,175.0,0.0,0,0,True
3537411,1.45945025302,-0.0601879308181,Ross Jenna J.,22.77777778,5.777777778,28,0.0,0.0,155.0,0.0,0,0,True
2681762,0.722335680557,2.47048686031,Castaneda Kat,90.3,6.13,34,0.0,0.0,155.0,780295.6763,0,0,True
3587059,-0.362166109827,-1.47579491281,Scott Brooke,12.5,7.675,31,0.0,0.0,168.0,69464.54414,0,0,True
2673618,-0.436546734648,-0.00116344737382,Carmichael Codi,29.14285714,6.1,33,0.0,0.0,165.0,0.0,0,0,True
3116045,0.437922809194,0.8265888964,Kim Gail,53.48235294,7.163529412,40,0.0,752.372596,160.0,385222.1448,0,0,True
2773386,-0.676266951021,-0.464798973121,De Mer Syren,12.375,6.5375,47,0.0,0.0,168.0,1114.708109,0,0,True
3163605,0.716832335391,-1.43094412223,Langford Jayme,12.88888889,7.794444444,29,0.0,0.0,160.0,15248.90236,0,0,True
2606458,1.31718353092,-2.23058087335,Blaze Roxy,8.0,8.8,49,0.0,0.0,160.0,0.0,0,0,True
2908972,1.74975042615,0.878960571763,Garraway Kate,22.59459459,4.824324324,49,0.0,0.0,157.5,0.0,0,0,True
2959749,-2.35555194372,1.24690866148,Guirado Catalina,62.25,5.25,42,0.0,0.0,175.0,0.0,0,0,True
3173398,1.95480836679,-2.91622927379,Layne Aidan,5.0,9.6,31,0.0,0.0,157.0,0.0,0,0,True
3320297,-1.40077295294,3.85493340031,Mix Ruth,75.36363636,5.472727273,104,0.0,0.0,172.5,0.0,0,0,True
3651358,-1.49505048633,-1.9592132333,Star Luna,9.8,4.68,37,0.0,0.0,160.0,0.0,0,0,True
2793688,0.136019125721,-0.0410070494424,Diamond,19.69230769,6.453846154,50,0.0,0.0,162.5,0.0,0,0,True
2692088,1.07015361537,2.58514613489,Chando Alexandra,91.05128205,8.152564103,30,0.0,0.0,157.5,150000.0,0,0,True
3657527,-0.207020455241,-0.229219876043,Sterling Nici,19.04040404,6.688888889,48,0.0,0.0,165.0,0.0,0,0,True
2580572,-0.898013577369,2.39990277676,Bell Lauralee,88.27777778,5.688888889,48,0.0,0.0,165.0,76096.79301,0,0,True
3281194,-1.35225837859,0.366988685423,McCready Mindy,36.4,5.7,41,0.0,0.0,170.0,0.0,0,0,True
2807364,-1.67511067944,0.266032856515,Dorgu Tupele,40.23076923,6.392307692,39,0.0,0.0,175.0,0.0,0,0,True
3762594,0.0997584671175,0.654610118403,Villaroel Carmina,49.24489796,7.118367347,41,0.0,0.0,162.5,0.0,0,0,True
3215718,0.517381729488,1.33093346477,Love Brianna,66.41509434,7.447169811,31,0.0,0.0,160.0,59504.16638,0,0,True
3617695,-1.08657271657,1.35037206141,Simon Susanna,61.03947368,5.723684211,48,0.0,0.0,168.0,0.0,0,0,True
2812946,-0.436181064423,1.54325076953,Driggs Deborah,67.86363636,6.390909091,53,0.0,0.0,165.0,10125.85595,0,0,True
2991417,1.9453733557,-0.423220302893,Haworth Julia,14.30434783,6.5,37,0.0,0.0,150.0,0.0,0,0,True
3004980,1.43480488418,2.74309175174,Heron Joyce,52.0,7.042105263,100,0.0,0.0,160.0,0.0,0,0,True
3320395,0.821941389726,-0.0938236355978,Miyagi Mimi,20.60606061,6.378787879,43,0.0,0.0,157.5,350038.8412,0,0,True
2780860,0.523898839797,-1.07789657186,Del Rey Angel,7.0,6.1,25,0.0,0.0,160.0,0.0,0,0,True
3053825,-1.7648212896,1.76582001889,Jacobs Jaye,73.6875,8.30625,34,0.0,0.0,170.0,0.0,0,0,True
3300103,-0.130442370404,-0.631472082589,Mercedez,15.5862069,7.003448276,39,0.0,0.0,165.0,130246.0203,0,0,True
3638395,-1.85084815601,-0.841641252169,Sommers Angela,6.0,5.35,33,0.0,0.0,170.0,685990.2056,0,0,True
2521586,-1.80929561447,-0.923167182265,Andrews Jessie,11.7254902,5.784313725,24,0.0,0.0,173.0,0.0,0,0,True
3330285,0.384549019567,-2.35948085626,Moon Crissy,9.5,8.675,32,0.0,0.0,165.0,0.0,0,0,True
3225797,-1.76266063162,-0.278444588873,Lynn Porsche,17.27678571,6.428571429,54,0.0,0.0,175.0,0.0,0,0,True
3515195,0.516634270901,-0.948257016416,Rios Melanie,9.375,6.5125,25,0.0,0.0,160.0,0.0,0,0,True
3160243,2.87866928224,-0.803320354206,LaMott Nancy,6.0,8.2,65,0.0,0.0,150.0,0.0,0,0,True
2748005,2.0472325468,-0.939869249789,Cumz Casey,5.0,6.4,27,0.0,0.0,150.0,15188.78393,0,0,True
3621161,1.34587888128,0.0553960701554,Sinn Summer,18.0,5.9,44,0.0,0.0,155.0,89176.64872,0,0,True
2540280,-1.7139541036,0.922167448191,Aston Michelle,55.66666667,6.411111111,46,0.0,0.0,175.0,1398360.19,0,0,True
3250606,1.62461838205,-0.485033126486,Marcus Serena,7.5,5.4,33,0.0,0.0,157.0,38081.86161,0,0,True
2878655,-1.12289661523,-0.804412886681,Forbes Delanie,5.0,6.2,40,0.0,0.0,170.0,0.0,0,0,True
3759192,-1.39364354588,1.66857739751,Vicious Felix,80.17241379,6.482758621,33,0.0,0.0,170.0,40721.96621,0,0,True
2561938,-0.318896025864,-0.144915448321,Bardoux Rebecca,13.61165049,6.342718447,53,0.0,0.0,165.0,20515.71503,0,0,True
2747765,-0.143613793734,-1.05157436365,Cummings Haley,12.0,6.9,25,0.0,0.0,165.0,0.0,0,0,True
3660974,-0.450422661668,3.52109663936,Stirling Linda,85.9375,6.53125,95,0.0,0.0,167.5,1601439.323,0,0,True
2866449,0.146726089683,-0.22164224658,Fielding Yvette,13.74509804,6.37254902,48,0.0,0.0,162.5,0.0,0,0,True
3106952,-1.39100456794,1.4809874271,Kemery Rachael,74.66666667,6.3,32,0.0,0.0,170.0,4904.910239,0,0,True
3651271,-0.450025297557,-0.905670495979,Star Celeste,13.9375,6.985416667,31,0.0,0.0,167.5,132048.2159,0,0,True
3300406,0.0381850763473,2.72054291729,Mercier Sheila,28.33333333,6.833333333,97,0.0,0.0,167.5,0.0,0,0,True
3225563,0.517813652902,-0.755276793036,Lynn Jasmine,8.344827586,6.820689655,37,0.0,0.0,160.0,0.0,0,0,True
3305610,0.561311446431,-1.05177452004,Michaels Vanessa,6.666666667,7.1,31,0.0,0.0,160.0,0.0,0,0,True
3652308,-0.489811372742,-0.695358091237,Starr Regan,12.20833333,6.85,40,0.0,432.1728691,167.5,0.0,0,0,True
3212914,-1.98287018644,4.01767452069,Lordan Elaine,95.65384615,3.497435897,50,0.0,0.0,160.0,0.0,0,0,True
3585359,-1.99965949243,-1.74430638494,Schwarz Annette,10.75384615,7.455384615,32,0.0,0.0,180.0,66882.48654,0,0,True
3216210,0.525788268044,-0.361289513266,Love Tracy,17.5,6.946153846,45,0.0,0.0,160.0,0.0,0,0,True
2941862,1.02933986921,-1.48863547729,Grace Amber,10.5,7.7,24,0.0,0.0,157.5,12562.92798,0,0,True
3242752,1.2260363189,-2.46954064951,Malone Melissa,10.80769231,9.003846154,32,0.0,0.0,160.0,1012.585595,0,0,True
2694703,-0.245760647145,2.73955093897,Charleson Leslie,85.30882353,7.552941176,71,0.0,0.0,165.0,2944785.276,0,0,True
2684107,0.906734177448,-0.605360953087,Catalina,11.8,6.742857143,37,0.0,0.0,157.0,101574.5008,0,0,True
3638656,-0.593272222849,-0.699561899712,Sonay Simone,7.0,6.6,44,0.0,0.0,167.5,0.0,0,0,True
2884139,-1.01296210958,-0.81085044473,Foxx Tara Lynn,15.86363636,6.445454545,26,0.0,0.0,170.0,59957.82388,0,0,True
3044332,-0.471512886968,-0.94308710132,Indiana Tara,8.0,7.166666667,48,0.0,0.0,167.5,9098.471397,0,0,True
2667735,-0.244922170468,0.242935993311,Cannes Robin,21.06521739,6.558695652,59,0.0,0.0,165.0,0.0,0,0,True
2632032,-0.993387957417,-1.75507220466,Brett Laurie,6.691489362,7.753191489,47,0.0,0.0,173.0,0.0,0,0,True
2505744,-0.127174759806,-1.00814311459,Alexia,9.0,6.95,30,0.0,0.0,165.0,0.0,0,0,True
3449118,-1.85106492994,-1.25956002615,Phoenix Lauren,9.573770492,6.931147541,37,0.0,0.0,178.0,89404.7619,0,0,True
2951138,-3.030758655,-1.38071859506,Grey Karlee,5.0,4.0,22,0.0,0.0,165.0,0.0,0,0,True
3674928,1.31108440176,-0.882588173168,Sutra Sophia,5.0,6.4,29,0.0,0.0,155.0,0.0,0,0,True
3216092,0.829146947163,-2.63413519534,Love Paige,14.0,9.05,28,0.0,0.0,163.0,0.0,0,0,True
2757580,2.9149897866,4.03086543965,Dana Viola,81.57692308,7.45,119,0.0,0.0,147.5,5015204.678,0,0,True
3079233,0.133108428923,-0.982774660809,Jordan Krystal,8.0,6.9,30,0.0,0.0,163.0,0.0,0,0,True
3326811,3.66987605938,0.964457243191,Monka Nina,79.18181818,6.163636364,19,0.0,0.0,142.0,0.0,0,0,True
3326070,0.169246794886,-0.0225906740646,Monet Alicia,12.94230769,6.136538462,52,0.0,0.0,162.5,0.0,0,0,True
3108423,0.733875398345,-1.68822426768,Kennedy Marny,8.380952381,7.80952381,22,0.0,0.0,160.0,27967.20379,0,0,True
3179947,2.29813752393,3.56722420328,Lee Mary,94.63157895,6.794736842,92,0.0,0.0,147.5,0.0,0,0,True
3515098,-0.435579390498,2.3374433959,Rios Ann Marie,93.34375,6.85625,35,0.0,0.0,163.0,120942.8489,0,0,True
3161007,-0.876929187601,-1.07677715448,Lancome Silvia,9.8125,7.0375,35,0.0,0.0,171.0,0.0,0,0,True
3331551,1.28084909742,2.05413585173,Moore Jodie,81.32142857,6.267857143,40,0.0,0.0,152.5,1572774.058,0,0,True
2497348,-0.825793494286,-0.483651450208,Ahlborn Jodie,18.21428571,6.4,36,0.0,0.0,169.0,0.0,0,0,True
3669888,1.44415735552,-0.542316492309,Suffield Melissa,40.91071429,8.001785714,24,0.0,0.0,160.0,0.0,0,0,True
2677403,1.26281022149,0.174292371787,Carson Kimberly,23.93406593,6.772527473,54,0.0,0.0,155.0,0.0,0,0,True
3183823,0.185441394955,-0.0564512129656,Leigh Lynda,9.0,5.9,50,0.0,0.0,162.5,0.0,0,0,True
3184918,0.0150383426931,-0.480877553186,Lelani Mia,14.77777778,6.233333333,34,0.0,0.0,163.0,0.0,0,0,True
3315623,-1.0429210238,2.6524497602,Minich Iris,96.91666667,5.733333333,44,0.0,0.0,165.0,0.0,0,0,True
3157411,-0.851356319787,1.44065934421,Laing C.J.,56.93023256,5.923255814,60,0.0,0.0,167.5,127180.6665,0,0,True
3225455,0.542961376974,-0.206624448805,Lynn Dana,13.43243243,6.351351351,47,0.0,0.0,160.0,0.0,0,0,True
3375668,-0.573058430796,0.23842716594,Nielsen Niki,38.66666667,7.533333333,39,0.0,0.0,167.5,5862.976146,0,0,True
3100967,0.427529575865,-1.65449376893,Kay Kelly,6.5,7.9,31,0.0,0.0,162.5,0.0,0,0,True
2569682,-0.548500490626,0.641822317284,Bassingthwaighte Natalie,46.55813953,7.681395349,41,0.0,0.0,167.0,0.0,0,0,True
3690889,0.137495019562,2.43894780761,Tarnow Toby,70.46153846,6.553846154,79,0.0,0.0,162.5,84507042.25,0,0,True
2521390,0.780640952593,1.04253238342,Andrewartha Janet,43.40909091,7.417272727,64,0.0,0.0,160.0,29447852.76,0,0,True
3832859,-0.252072710448,0.726945603965,Yothers Tina,51.00518135,7.024352332,43,0.0,0.0,165.0,29844559.59,0,0,True
2640739,-0.064764441098,-0.992625475092,Brown Matilda,21.125,7.379166667,29,0.0,0.0,165.0,50000000.0,0,0,True
3273912,-2.12581950604,2.10921656686,Maxwell Stella,93.0,7.54,26,0.0,0.0,172.5,45566351.78,0,0,True
3118379,-0.609340131286,1.29613000498,King Claire,56.44871795,7.770512821,53,0.0,0.0,167.5,31216526.4,0,0,True
