id_data,x_data,y_data,z_data,votes,rating,age,gross,salary,heightcm,budget,academy,golden,sample
3665525,-4.89918664317,-8.76474823115,Streep Meryl,9676.969697,6.967878788,67,52578475.81,4403975.693,165.0,32022998.33,3,8,False
3232396,-2.17898732356,-3.52917691793,MacLaine Shirley,4247.515385,6.958076923,82,42627361.25,2451406.343,167.5,31535455.69,1,4,False
2877563,-2.82501362706,-3.71489955115,Fonda Jane,1936.883041,7.013450292,79,90190631.16,3330461.758,170.0,16658618.44,2,4,False
3002240,-6.125072717,-7.20223008935,Hepburn Katharine,2457.025974,7.009090909,109,296668431.9,1735689.699,167.5,19827377.69,4,0,False
3163287,-2.68901164362,-2.65731498952,Lange Jessica,6926.149425,7.372988506,67,10672473.67,2362204.724,170.0,27799055.23,2,4,False
2589066,-2.20888948068,-3.5038664173,Bergman Ingrid,7569.443609,7.047368421,101,53637621.02,1562206.935,172.5,17874048.61,3,3,False
3164453,-1.60430675949,-3.63506019538,Lansbury Angela,1615.910299,7.48089701,91,55173914.86,692974.0135,170.0,26331406.24,0,6,False
2605353,-5.83354696441,0.796161030808,Blanchett Cate,49946.34444,6.879444444,47,35641151.93,4195175.249,170.0,62285750.76,2,3,False
2524682,-0.644212051022,-3.20885137184,Ann-Margret,2847.233333,6.707222222,75,3091527.607,801975.3893,157.5,13415941.2,1,5,False
3812565,-3.66483497534,-0.562346345898,Winslet Kate,22795.77457,6.73699422,41,23336941.07,2990654.206,165.0,41774810.24,1,3,False
3631098,-0.300940516914,3.54938398049,Smith Maggie,20485.60963,7.549197861,82,23999910.96,0.0,162.5,34461504.44,2,2,False
3497101,1.50290055597,4.38402424352,Redgrave Vanessa,4969.54,8.082857143,79,1887431.979,525118.3555,180.5,30830354.58,1,2,False
3317421,-1.19450471133,-2.43669892196,Mirren Helen,7389.621711,6.970065789,71,24817789.8,0.0,160.0,44963694.64,1,3,False
2785879,0.025885524865,-3.39376934615,Dench Judi,13386.51266,7.325949367,82,20144469.03,0.0,152.5,80144438.93,1,2,False
3413053,-0.970373785633,-2.72300798926,Page Geraldine,1534.48,7.093333333,92,15806583.94,0.0,170.0,15750927.99,1,2,False
2651772,3.55429354312,2.15266584599,Burnett Carol,467.8116197,8.261091549,83,3900466.999,0.0,165.0,26259696.63,0,5,False
2866351,3.12692677994,-0.140794468187,Field Sally,7647.266846,7.350404313,70,31827580.64,1734339.796,155.0,48875778.79,2,2,False
3642643,-0.818035443771,-2.27614179467,Spacek Sissy,8723.338028,7.15915493,67,14360812.03,0.0,157.5,22190393.96,1,3,False
3819825,0.317130510976,-2.48522309009,Woodward Joanne,2446.186992,7.154471545,86,1892754.93,0.0,160.0,13482740.38,1,3,False
2818124,-1.60673067754,-1.99503486064,Dunaway Faye,4858.908654,6.492307692,75,25460394.07,1389079.253,167.5,22254898.05,1,3,False
2764915,4.37508429746,0.376441890511,Davis Bette,2631.819892,8.343817204,108,13891365.03,895639.44,157.5,12631738.79,2,0,False
2521602,-1.83634647422,-2.52743707211,Andrews Julie,8280.596413,7.420179372,81,80419193.12,4910132.606,167.5,69792872.09,1,3,False
3519748,-3.90052927135,-1.78264017726,Roberts Julia,15762.42925,6.366509434,49,112995360.5,11340531.99,170.0,50236500.67,1,3,False
2715506,-1.18628695456,-1.63321329824,Close Glenn,7106.657321,6.975077882,69,33937253.53,6480856.133,162.5,50867620.46,0,2,False
2881870,-2.51598796396,-1.74389488129,Foster Jodie,14825.2437,6.836554622,54,69197635.78,13381308.91,157.5,45185942.5,2,2,False
3035109,-2.57916961316,-2.06293634274,Hunt Helen,3674.947781,6.943603133,53,93553984.15,1710620.1,167.5,27785375.77,1,4,False
3114226,-3.39216597915,-0.908726336295,Kidman Nicole,11641.85619,6.385284281,49,41713047.71,9151655.549,177.5,53959999.3,1,3,False
2557924,-1.03136606592,-1.78424596423,Bancroft Anne,8990.967742,6.740322581,85,25322302.87,4494.382022,165.0,35945140.08,1,2,False
3102605,-2.27970785108,-0.768067855098,Keaton Diane,21458.02454,6.895092025,70,22932275.48,2525061.027,165.0,39271049.13,1,2,False
2698961,-1.70904469743,-1.82473917323,Cher,1978.09589,6.935616438,70,63034128.05,2526630.104,170.0,27647637.94,1,3,False
3052364,0.158666915684,-1.84814970603,Jackson Glenda,546.012987,7.325974026,80,2022595.852,1603049.048,165.0,5843187.686,2,1,False
3002221,-1.47127804312,-2.45059873108,Hepburn Audrey,5008.590551,7.037795276,87,85033140.05,2839843.297,167.5,23287774.55,1,1,False
2653071,-1.40376599547,-1.54349296032,Burstyn Ellen,11745.51037,7.058921162,84,50523524.52,48681.54158,167.5,26451085.78,1,1,False
3307268,2.70431318812,-0.658222249683,Midler Bette,3173.648148,7.201851852,71,43021733.75,2229599.615,152.5,49851191.02,0,4,False
3547887,-1.3901364165,-3.42000489795,Russell Rosalind,2665.125,6.684375,109,100517086.2,0.0,170.0,15354216.64,0,4,False
3172387,-7.05128148181,-0.343159436914,Lawrence Jennifer,41770.99248,7.030075188,26,193549104.4,6969395.251,167.5,89414462.65,1,3,False
3331586,-2.94176675409,-0.170468231993,Moore Julianne,26009.51515,6.649494949,56,15803406.86,2820151.434,157.5,38167583.21,1,1,False
3813241,0.429853173237,-2.1906244117,Winters Shelley,1913.21875,6.599107143,96,0.0,0.0,160.0,14075622.44,2,1,False
3823701,0.302463751375,-2.315157559,Wyman Jane,315.473822,6.513874346,99,0.0,0.0,162.5,13968303.86,1,3,False
3693619,-0.0228130597965,-2.52436629851,Taylor Elizabeth,1330.314935,6.80487013,84,54428135.06,3622112.283,155.0,30748287.21,2,1,False
3665711,-2.04574941496,-3.31492751253,Streisand Barbra,2322.618677,7.237354086,74,131346014.7,13364145.63,162.5,41239787.57,1,2,False
3074527,-4.21678196011,-1.41812555638,Jolie Angelina,17861.864,5.6308,41,83377458.15,12396482.07,167.5,65112775.77,1,3,False
3705358,-2.53339969527,0.666828177146,Thompson Emma,23422.55,7.037222222,57,36838982.29,2429149.798,170.0,58752376.39,1,1,False
2570596,-1.18906957575,-1.68816828294,Bates Kathy,11902.5256,7.083617747,68,60726956.59,0.0,157.5,46822455.4,1,2,False
3035704,2.05331270796,1.64830997298,Hunter Holly,11059.10811,7.564864865,58,23850078.67,0.0,155.0,38010452.9,1,1,False
2491973,-2.76861281816,1.0148319461,Adams Amy,26959.00671,6.951006711,42,37971926.0,0.0,160.0,51252427.88,0,2,False
2588314,-0.460963072626,-0.46535600918,Bergen Candice,1327.381757,7.065033784,70,0.0,0.0,167.5,29395094.07,0,2,False
3423166,-1.13285188128,-1.43046907624,Parker Sarah Jessica,3290.977667,6.993796526,51,50117391.91,5775320.469,157.5,41509227.03,0,4,False
3569394,-1.3927186409,-1.00806008292,Sarandon Susan,8694.872063,6.727154047,70,46763840.05,8029964.995,167.5,22573619.36,1,0,False
3037411,-2.14214256308,-0.597064578659,Huston Anjelica,10506.25,7.022916667,65,50346519.37,1101916.164,175.0,26365709.74,1,1,False
2584478,-1.93530466813,-0.171397176778,Bening Annette,14179.5,6.526666667,58,8234255.479,4417177.914,170.0,38385032.12,0,2,False
2993327,0.898574407306,-2.01584605008,Hayward Susan,790.5795455,6.639772727,99,0.0,0.0,157.5,29048164.73,1,2,False
3677186,-2.18685143155,-0.407720554079,Swank Hilary,11719.55921,6.371710526,42,24811531.06,2034910.723,165.0,25454763.7,2,2,False
2991391,-0.972129747405,-1.44508140856,Hawn Goldie,2219.530516,7.082159624,71,63156675.8,3882319.649,165.0,28952405.46,1,1,False
3801444,0.117290064234,0.778442361829,Wiest Dianne,9060.649425,7.300574713,68,319670.275,0.0,162.5,28958116.36,2,1,False
3315809,2.16450386646,-3.4420684588,Minnelli Liza,1215.295547,7.348987854,70,130543964.1,0.0,160.0,16068398.48,1,2,False
2909701,-0.573928070362,-3.58231684457,Garson Greer,1056.035714,7.025,112,110132727.1,0.0,165.0,18743863.93,1,1,False
3331992,1.62425842467,0.923346601834,Moore Mary Tyler,197.6957364,7.565116279,80,13887442.34,0.0,167.5,9447061.141,0,3,False
3651171,1.00741992892,-1.38979501481,Stapleton Maureen,2320.553191,6.909574468,91,0.0,0.0,157.5,32212066.54,1,1,False
3818416,-0.152306024692,-3.64583560682,Wood Natalie,2555.251852,6.96962963,78,103938032.8,1952193.621,150.0,18858300.95,0,2,False
3814313,-3.23538259492,-1.21765704411,Witherspoon Reese,17396.53125,6.498958333,40,89807107.46,11487040.11,156.0,48934268.86,2,1,False
3541401,0.041707124461,-0.719340995764,Rowlands Gena,7730.02521,7.052941176,86,7570241.842,88343.55828,165.0,22482326.01,0,2,False
3786956,-3.17905977631,0.965492287332,Weaver Sigourney,28100.85776,7.080172414,67,40232498.97,4018374.298,177.5,45313712.78,0,2,False
3076385,-1.16508117404,-3.26565445445,Jones Jennifer,2100.45098,6.835294118,97,117744239.5,0.0,165.0,27932220.78,1,1,False
3110261,-0.708760809432,-2.01829481431,Kerr Deborah,7114.50495,6.923762376,95,72688863.78,1935483.871,165.0,25009521.33,0,1,False
3266786,-0.465971387659,-1.31019371823,Mason Marsha,1830.78022,6.984615385,74,55257394.28,0.0,162.0,21399321.13,0,2,False
3510784,-0.640289606208,0.536488931591,Richardson Miranda,11960.70899,7.068783069,58,7469023.376,0.0,162.5,42224097.89,0,2,False
2705913,-0.355058041286,-0.914836448689,Christie Julie,15831.83673,6.971428571,75,108245.2555,1712593.877,157.5,21442065.91,1,1,False
2931694,-1.02053524634,-0.98478523716,Goldberg Whoopi,4002.579019,6.627111717,61,46187225.19,11324959.81,162.5,21876819.57,1,2,False
2938665,2.63813361532,-1.95455002414,Gordon Ruth,4461.887097,6.919354839,120,0.0,0.0,150.0,15055902.19,1,2,False
3156898,-0.258839010556,1.6651302513,Lahti Christine,580.7769231,7.274230769,66,3974706.34,0.0,175.0,12540286.97,0,2,False
3201649,-1.37579211836,0.880208059277,Linney Laura,13743.76522,7.264347826,52,46328669.98,13937.28223,167.5,50706917.39,0,2,False
3464657,-4.90978133938,2.59156668338,Portman Natalie,53533.66242,6.736305732,35,47386746.4,1000000.0,157.5,48417014.27,1,2,False
2765722,-0.593734928585,-0.327144764461,Davis Judy,6665.405941,6.76039604,61,17058217.38,0.0,162.5,32465045.13,0,2,False
2771091,0.07546259204,-2.55163024989,de Havilland Olivia,3954.639098,7.137593985,100,81583575.9,216214.4349,160.0,24151796.18,2,0,False
2817264,2.79858940413,0.384357727112,Duke Patty,383.9948454,7.48685567,70,0.0,0.0,150.0,11525802.05,1,2,False
2852557,1.41730169713,1.75667939693,Falco Edie,1216.49848,7.742857143,53,0.0,0.0,162.5,8092066.668,0,2,False
2944818,0.590253046085,-1.09957139414,Grant Lee,2539.240964,6.779518072,91,0.0,0.0,162.0,23913612.2,1,0,False
3651157,2.23679568463,1.31106485142,Stapleton Jean,786.7588424,7.79807074,93,0.0,0.0,170.0,39770102.58,0,2,False
2648742,-3.11087249309,-1.4134868047,Bullock Sandra,12662.46082,6.848275862,52,117479045.5,11812675.67,167.5,47377079.02,1,1,False
3605358,-0.523222774357,0.456459041748,Shepherd Cybill,1582.992908,7.257919622,66,31506948.39,85107.98688,170.0,10384766.49,0,3,False
3105845,-0.084664381647,-0.888494720892,Kelly Grace,7515.2125,6.69375,87,0.0,124907.0632,165.0,8734858.837,1,2,False
3278310,1.24060414479,-1.22485574251,McCambridge Mercedes,7137.354839,6.956451613,100,0.0,0.0,157.5,21088486.68,1,2,False
3282777,-2.07644018941,1.18353667985,McDormand Frances,27782.2963,6.887037037,59,16808319.85,0.0,162.5,52340476.39,1,0,False
3332678,2.38909763375,-0.823194349337,Moorehead Agnes,1490.424731,7.451612903,116,0.0,0.0,160.0,27947373.89,0,2,False
3597922,0.854399140201,0.270849904843,Seymour Jane,1195.478261,7.141086957,65,150228.6645,0.0,160.0,11825493.04,0,2,False
2765446,-2.38245031109,-0.141418399186,Davis Geena,5827.89418,6.740740741,60,28106960.83,5192972.647,180.0,56466326.85,1,1,False
3446886,-2.61277926253,-0.396725623025,Pfeiffer Michelle,19584.22059,6.418382353,58,64562445.71,10250780.52,167.5,53726474.7,0,1,False
3688674,1.26937036171,-1.25768699896,Tandy Jessica,5084.8625,6.97375,107,406466.3968,0.0,160.0,27470177.76,1,1,False
3701960,-2.79990623941,0.460134593674,Theron Charlize,20100.69231,6.347692308,41,23661213.23,12288786.48,172.5,65288023.89,1,1,False
3502602,0.399517376726,0.0332951868154,Remick Lee,2107.417582,7.165934066,81,0.0,0.0,167.5,12296434.07,0,2,False
3019376,0.062604768237,-0.945888868178,Holliday Judy,2209.380952,6.971428571,95,12490706.32,1811320.755,170.0,10339862.11,1,1,False
3420208,-1.237539744,2.39754877619,Paquin Anna,23334.68485,7.36,34,12039138.55,306544.73,160.0,65719000.8,1,1,False
3651040,1.92877581337,-0.838707625757,Stanwyck Barbara,733.8184282,7.426558266,109,24320448.18,873605.8077,162.5,7363140.51,0,1,False
2788042,-1.41258303539,1.23519968624,Dern Laura,11496.51795,6.987179487,49,2660729.485,4460.966543,175.0,25057918.78,0,2,False
2928284,1.587750172,0.91954571372,Gless Sharon,152.1674208,7.652941176,73,308089.3252,0.0,162.5,237114.8199,0,2,False
3497099,-1.106449063,-0.135778945464,Redgrave Lynn,2435.785276,6.83006135,73,0.0,0.0,175.0,20361111.68,0,2,False
3603584,1.34811236658,-2.67957919909,Shearer Norma,2340.155556,6.392222222,114,23076560.51,2571516.039,152.5,10416944.68,1,0,False
2735636,-2.80661117122,2.34327092304,Cotillard Marion,36554.184,6.9392,41,3540116.615,0.0,169.0,67642082.02,1,1,False
2989201,-2.94192662429,1.4640462544,Hathaway Anne,29703.55422,6.821686747,34,41229422.1,5583490.652,170.0,51753710.6,1,1,False
3236206,1.5304958289,-1.31769414869,Magnani Anna,2860.356164,6.94109589,108,31215.53122,0.0,157.5,5068937.551,1,1,False
2992432,1.34961925413,-3.76937591031,Hayes Helen,2324.340909,7.045454545,116,100934653.5,0.0,150.0,15176117.81,2,0,False
3516386,2.39281950674,-1.51622299875,Ritter Thelma,12648.02083,7.033333333,114,0.0,0.0,152.5,12841166.54,0,0,False
3730479,-0.881608468307,0.060221211742,Turner Kathleen,6283.743243,6.787162162,62,18098352.64,79207.92079,170.0,32803890.8,0,2,False
2535379,1.57170044932,1.15537252227,Arquette Patricia,4470.676871,7.291496599,48,17199584.44,0.0,155.0,18965030.77,1,1,False
2592092,-2.34315500927,0.231114504682,Berry Halle,21338.31271,6.351202749,50,28214740.75,6893950.143,162.5,73191324.55,1,1,False
2719280,1.15665959548,-1.67724208395,Colbert Claudette,1675.155172,6.872413793,113,24001532.63,2244159.918,160.0,11792337.34,1,1,False
3020068,1.39465711754,-0.369653760445,Holm Celeste,1775.049296,7.322535211,99,0.0,0.0,167.0,17887231.17,1,1,False
3175207,0.973764263901,-0.379595843396,Leachman Cloris,3463.196226,7.259056604,90,15990671.97,0.0,162.5,24387393.39,1,1,False
3616949,1.00158923044,-0.458052336928,Simmons Jean,3457.550898,7.141317365,87,10574753.09,0.0,160.0,34871616.74,0,1,False
2749663,-1.304806523,-0.380657287579,Curtis Jamie Lee,7203.784753,6.615695067,58,45999232.53,1431899.238,167.5,25794440.53,0,2,False
3155340,0.0453807020162,-0.307800943867,Ladd Diane,3533.676329,6.89178744,81,1913979.239,0.0,167.5,18782981.53,0,1,False
3170497,1.143348007,-0.203327089053,Laurie Piper,3250.943038,7.190506329,84,379010.854,42179.26186,160.0,13071317.51,0,1,False
3364982,0.179577250117,-0.415885833116,Neal Patricia,2596.339623,7.038679245,90,0.0,0.0,170.0,11325926.12,1,1,False
3833878,0.70017490655,-1.34368689292,Young Loretta,386.4852071,6.728994083,103,3933609.959,2589928.058,165.0,7196367.645,1,1,False
3183979,0.608691567171,-2.3941875224,Leigh Vivien,4929.014706,7.088235294,103,73846153.85,1023005.771,157.5,8839891.044,2,0,False
3537499,1.51156372826,0.392030507473,Ross Katharine,7665.507463,7.405223881,76,0.0,0.0,157.5,24306787.95,0,2,False
2856085,-0.00637865056547,-0.220849370809,Farrow Mia,5730.589928,6.876258993,71,16264900.29,0.0,163.0,28229398.23,0,1,False
3251546,1.15183417227,1.92860654954,Margulies Julianna,973.7061069,7.785877863,50,0.0,0.0,165.0,26254226.67,0,1,False
3269974,1.60892405232,1.7407014016,Matlin Marlee,548.8780488,7.81010453,51,7831713.131,0.0,160.0,9847805.724,1,1,False
3335791,2.14900927631,0.0685797333094,Moreno Rita,1130.330484,7.486039886,85,0.0,0.0,155.0,10649103.81,1,1,False
3590134,1.11347452547,1.62798876571,Sedgwick Kyra,2419.12844,7.66911315,51,528316.31,0.0,162.5,16222607.98,0,1,False
3640669,-1.9118621673,-0.04838405107,Sorvino Mira,3210.956835,6.484172662,49,20679511.93,4321728.691,175.0,17470167.87,1,1,False
3654112,-0.412909991843,0.868330237047,Steenburgen Mary,8754.494505,7.234065934,63,15648051.74,0.0,170.0,27653631.23,1,1,False
3735032,-0.183788032103,-0.102596024655,Ullmann Liv,2249.396396,6.925225225,78,571549.3535,0.0,170.18,14480798.56,0,1,False
2795559,0.632080757785,-0.501891631379,Dickinson Angie,2547.107527,6.917921147,85,0.0,194726.1663,162.5,17787015.57,0,2,False
3422995,0.107887244699,1.27882468178,Parker Mary-Louise,5345.327511,7.346724891,52,0.0,0.0,167.5,40573328.3,0,2,False
2572882,1.14273983105,-0.463807928625,Baxter Anne,1462.471503,7.13626943,93,0.0,0.0,162.0,16589463.78,1,1,False
3186862,0.283538582364,0.978274818037,Leo Melissa,9560.461017,7.287457627,56,7900930.88,0.0,160.0,15107177.49,1,1,False
3806654,-0.451068204221,1.5155928346,Williams Michelle,10561.86697,7.133944954,36,4713329.044,0.0,160.0,47896091.63,0,1,False
3806656,-2.42823137615,-0.791627769202,Williams Michelle,97.58108108,6.024324324,36,0.0,0.0,167.5,1190047.859,0,1,False
2553218,0.0138906118812,-1.18241123832,Baker Carroll,4677.088235,6.402941176,85,100081.3043,315568.8623,162.5,31827780.7,0,2,False
2602829,-1.75032656611,-1.75437964405,Black Karen,1748.678112,5.863090129,77,33186484.0,0.0,167.5,4749383.336,0,2,False
3011334,1.51507817831,-0.396672899741,Hiller Wendy,5065.961538,7.340384615,104,0.0,0.0,167.5,7830656.956,1,0,False
3485854,1.51562147608,-0.973863613479,Rainer Luise,436.7142857,7.05,106,0.0,0.0,160.0,17100713.1,2,0,False
3714802,-1.53271201709,0.439541889439,Tomei Marisa,17529.3,6.56875,52,12616982.31,1833260.711,164.0,26317232.48,1,0,False
2538135,1.96764615862,-0.648395092913,Ashcroft Peggy,1711.022222,7.337777778,109,7297.379544,0.0,160.0,28874225.75,1,1,False
2569133,-1.95141108649,-0.298595973356,Basinger Kim,14235.66957,6.245217391,63,26929709.0,2591726.335,170.0,40448234.46,1,1,False
2616537,3.28252273235,-0.645833325177,Booth Shirley,71.67058824,7.688823529,118,0.0,0.0,152.5,0.0,1,1,False
2667859,0.391812985267,-0.559766622047,Cannon Dyan,1305.61194,6.751492537,79,212975.6695,0.0,162.5,36578279.45,0,1,False
2817176,0.766716889773,-1.04969363841,Dukakis Olympia,4322.848921,6.660431655,85,90325.8856,0.0,157.5,14110811.82,1,1,False
3391573,-0.642695343034,0.592027368799,O'Neal Tatum,2640.242424,7.121212121,53,42953580.82,781380.3258,167.5,12428330.26,1,1,False
3416958,-3.75069105586,0.772402955572,Paltrow Gwyneth,30533.50777,6.20880829,44,37864925.36,6275964.864,175.0,37959382.7,1,1,False
3790719,-2.17281747488,1.4612509438,Weisz Rachel,27436.65217,6.675652174,46,1182242.731,0.0,165.0,70001145.25,1,1,False
2566967,1.78963962416,-2.38741598943,Barrymore Ethel,1184.848485,6.842424242,137,0.0,789705.6529,167.5,21398881.99,1,0,False
2599629,-1.23681392536,0.275203980711,Binoche Juliette,12184.66038,6.521698113,52,1201510.121,1664300.725,165.0,37136336.89,1,0,False
2865706,0.416858766522,1.14387738568,Fey Tina,2167.635958,7.272362556,46,19410904.23,0.0,160.0,36139802.12,0,2,False
3019403,-0.245387656838,-0.0846878819105,Holliday Polly,4803.768657,6.878358209,79,0.0,0.0,170.0,50520615.1,0,2,False
3210460,0.168560686084,0.355464347783,Long Shelley,640.5350554,7.230627306,67,40024098.73,0.0,165.0,12252048.23,0,2,False
3213067,-1.0732381801,-0.960196443869,Loren Sophia,1133.652406,6.480748663,82,26670002.56,4235130.203,172.5,49573632.87,1,0,False
3811968,-0.000142919791508,0.551286067365,Winger Debra,9868.652632,7.135789474,61,23637695.19,3669526.908,160.0,21434846.38,0,0,False
2721344,-1.09853774032,1.24820491622,Collette Toni,14050.52023,6.972254335,44,312880.7322,771799.7676,170.0,22491457.79,0,1,False
2952307,-1.9338753982,-0.447208166437,Griffith Melanie,2617.981707,6.387804878,59,21902589.47,1722315.323,176.0,28653415.59,0,1,False
3677325,2.73404272934,-1.07081331632,Swanson Gloria,1598.112069,7.315517241,117,0.0,2406724.556,152.5,4972686.238,0,1,False
2504875,0.0359519971644,-0.0640645081273,Alexander Jane,8742.144,6.9216,77,3703908.434,0.0,165.0,32151057.99,0,0,False
2552478,1.834091634,-1.46498601088,Bainter Fay,1120.183673,7.069387755,123,0.0,0.0,162.5,9643524.568,1,0,False
2740567,-0.310075084297,-6.79766477018,Crawford Joan,706.0451613,4.143225806,111,18058718.01,1347388.12,157.5,10450201.94,1,0,False
3077994,0.784552124515,-0.2441048266,Jones Shirley,603.5396825,7.030555556,82,659576.087,0.0,162.5,8806682.506,1,0,False
3230600,-1.77762498479,-2.06188051702,MacGraw Ali,1090.323077,6.876923077,77,101274686.2,100738.7848,170.0,13221258.08,0,2,False
3458015,0.616647797948,-0.769574195653,Plowright Joan,6715.189189,6.760810811,87,285968.6186,459066.5647,160.0,76080633.33,0,2,False
3634072,-0.583384814064,-0.483524363,Snodgress Carrie,4224.920635,6.484126984,71,0.0,0.0,167.0,13638649.46,0,2,False
2509392,-0.317921698232,0.512044655776,Alley Kirstie,931.7049892,7.150976139,65,31727524.8,0.0,170.0,21462195.36,0,1,False
2606841,1.48624568203,0.1498660023,Blethyn Brenda,4907.460317,7.172222222,70,6022945.777,0.0,155.0,15334157.64,0,1,False
2674624,1.36302836929,-1.53558960532,Caron Leslie,2085.953488,6.598449612,85,0.0,0.0,152.5,13451436.21,0,1,False
2695776,-3.30949240063,1.91334861476,Chastain Jessica,34475.23864,7.095454545,39,73752550.04,106.695593,160.0,31654487.34,0,1,False
2722115,1.12406796047,-0.217122603008,Collins Joan,198.3319058,7.148179872,83,7248069.637,552302.6568,160.0,14112314.67,0,1,False
2725528,-3.72236519959,0.554045148353,Connelly Jennifer,31133.18584,5.901769912,46,9586688.923,1956521.739,165.0,49024204.96,1,1,False
2792057,0.0319543557646,0.311604629027,Dey Susan,52.11111111,6.965873016,64,1536989.781,0.0,167.5,7988696.172,0,1,False
2873820,-0.968329719606,-0.393692472011,Fletcher Louise,8060.313609,6.665088757,82,16217705.99,0.0,172.5,24728167.38,1,1,False
2982425,0.716612050191,0.22734058829,Harper Valerie,121.7748092,7.189312977,77,0.0,4329.896907,165.0,2435751.222,0,1,False
3031660,-1.82235066294,0.621201191913,Hudson Jennifer,1685.462069,6.517241379,35,0.0,0.0,172.5,20604535.67,1,1,False
3033808,3.03245300418,-1.93961095892,Hull Josephine,16690.66667,7.166666667,139,0.0,0.0,155.0,15275113.64,1,1,False
3035798,1.55771255265,-0.465319789097,Hunter Kim,3888.298246,7.177192982,94,0.0,0.0,157.5,12510601.43,1,1,False
3291297,-0.384145004584,3.14950355799,McTeer Janet,6937.276423,7.491056911,55,1996570.756,0.0,182.5,6586580.278,0,1,False
3497776,2.04476870365,-0.0921369709426,Reed Donna,1854.640569,7.499644128,95,0.0,0.0,157.5,14503788.41,1,1,False
3544647,-0.976394460876,0.63914111426,Ruehl Mercedes,7374.185185,6.928395062,68,1448604.878,2491349.481,175.0,28400479.29,1,1,False
3548696,1.58339083826,-1.80144433213,Rutherford Margaret,1031.854167,6.802083333,124,0.0,0.0,162.5,16086274.51,1,1,False
3644697,-1.12583315899,2.07358508164,Spencer Octavia,21978.41718,6.991411043,46,0.0,0.0,155.0,20657362.07,1,1,False
2592809,1.4088579681,1.23854562608,Bertinelli Valerie,122.5207469,7.587551867,56,0.0,0.0,160.0,2199710.564,0,2,False
2998784,1.37805830038,-0.878058902597,Helmond Katherine,2124.403382,6.841304348,87,0.0,0.0,155.0,15911355.49,0,2,False
3171455,1.25396958344,-0.249771711236,Lavin Linda,1011.59058,7.046376812,79,0.0,0.0,157.5,421971.8704,0,2,False
3613831,0.519314279325,-0.79053612204,Signoret Simone,2766.391304,6.917391304,95,19793814.43,0.0,165.0,5068937.551,1,0,False
2952522,0.712006640875,2.55980011742,Griffiths Rachel,2698.484962,7.85,48,787725.4355,0.0,172.5,29585756.98,0,1,False
3032293,1.10660682416,1.42789660607,Huffman Felicity,1566.178756,7.621243523,54,81640.74262,0.0,162.5,6825623.779,0,1,False
3663022,-1.30884512489,-0.143257285429,Stone Sharon,5929.253125,6.418125,58,14060683.43,7362201.774,170.0,36017642.45,0,1,False
3708191,-4.48823682802,1.15133652965,Thurman Uma,34109.08148,6.265925926,46,28542251.79,6856085.296,183.0,42650664.89,0,1,False
2878029,1.73116120379,-0.552807346597,Fontaine Joan,1898.118182,7.192727273,99,0.0,0.0,157.5,20123211.01,1,0,False
3242650,0.435239991536,-0.787459998802,Malone Dorothy,2150.537815,6.721848739,91,0.0,639216.1532,165.0,18391695.0,1,0,False
3302626,-0.186509889805,1.56701896331,Messing Debra,1217.071078,7.367401961,48,38988626.73,0.0,170.0,42509919.39,0,0,False
3678762,-2.87414122856,2.0792631176,Swinton Tilda,30520.15267,6.852671756,56,2786363.871,0.0,179.0,40749182.83,1,0,False
3722793,1.27260473125,-1.41399512189,Trevor Claire,2938.755319,6.756382979,106,12949640.29,258992.8058,157.5,13823435.17,1,0,False
3822345,1.44471463016,-0.796072661206,Wright Teresa,2948.855072,6.995652174,98,0.0,0.0,157.5,22573172.83,1,0,False
2518656,1.41800385673,1.84335761733,Anderson Gillian,3172.319048,7.787142857,48,2062052.237,2988957.055,160.0,26088303.61,0,1,False
2609025,-2.47373299232,1.88172509313,Blunt Emily,29966.73034,6.87752809,33,26604419.47,0.0,167.5,54267383.23,0,1,False
2756797,0.856527218858,0.829697762584,Daly Tyne,187.1300236,7.427423168,70,16072.47387,0.0,166.0,9602839.656,0,1,False
2848102,0.809292867197,1.18270418198,Evans Linda,58.17832957,7.490970655,74,0.0,121452.1452,170.0,24249352.12,0,1,False
2874363,0.851756552195,1.1869051676,Flockhart Calista,677.9343284,7.411641791,52,0.0,5669.291339,162.5,12232154.3,0,1,False
2908376,2.86457369519,-0.8495867693,Garland Judy,3302.236715,7.234782609,94,32599172.25,1012169.844,147.5,14840444.64,0,1,False
3341184,-0.798797862749,1.82701379344,Morton Samantha,17128.65854,7.041463415,39,194456.6727,0.0,157.5,33818895.45,0,1,False
3550380,-2.40276219895,1.96750801113,Ryder Winona,31685.41429,6.851428571,45,26996059.16,4186915.888,157.5,28499812.95,0,1,False
3554748,0.934923984179,2.25653767822,Sagal Katey,807.8565517,7.811172414,62,0.0,0.0,172.5,3137248.339,0,1,False
3735012,0.613846705652,0.827227732155,Ullman Tracey,2598.513587,7.280163043,57,1327837.568,0.0,162.5,31832538.06,0,1,False
3778930,1.39916200481,1.45426231966,Walters Julie,14625.71315,7.553784861,66,766132.4468,0.0,157.5,56908129.79,0,1,False
2508535,-1.84130971312,1.8674102757,Allen Joan,25045.11009,7.120183486,60,11534564.83,0.0,175.0,45827756.78,0,0,False
2744536,0.983605350084,-0.043370376797,Crowley Pat,260.3861386,7.153465347,83,0.0,0.0,162.5,3135970.452,0,2,False
2758000,0.231109574706,1.92055624805,Danes Claire,6841.193277,7.535294118,37,24534807.12,266738.9826,162.5,38859398.31,0,2,False
2768071,-0.136197757028,-1.39511946826,Day Doris,671.2636364,6.744545455,94,47626156.59,0.0,167.5,10147466.11,0,0,False
2819561,1.63562937024,-1.34422291421,Dunne Irene,900.0617284,6.987654321,118,0.0,2627737.226,162.5,21372313.69,0,0,False
2943451,0.461654382498,-0.635387126703,Grahame Gloria,6165.983871,6.835483871,93,0.0,452830.1887,165.0,14222868.04,1,0,False
3715065,1.10424778086,0.451581326003,Tomlin Lily,1191.238351,7.410573477,77,8008780.444,0.0,162.5,15900748.43,0,0,False
3731873,-0.496336214657,-0.625515070375,Twiggy,1327.232,6.416,67,0.0,0.0,165.0,18645579.89,0,2,False
2986444,0.438829963617,-0.382780959392,Hartman Elizabeth,3925.538462,6.761538462,73,0.0,0.0,160.0,7988942.554,0,1,False
3005958,-0.0482658985661,0.376614857187,Hershey Barbara,10461.66492,7.108376963,68,25644597.6,0.0,162.5,11755040.09,0,1,False
3234015,0.666915857014,0.523057865226,Madigan Amy,3198.955975,7.225157233,66,921583.739,0.0,162.5,13364177.67,0,1,False
3537250,0.663472216787,-0.496583863272,Ross Diana,681.7304965,7.203546099,72,51635208.88,0.0,160.0,28829949.95,0,1,False
3738665,0.739134343522,-0.00143182496356,Vaccaro Brenda,1024.60804,7.075879397,77,3718748.81,0.0,162.5,34472939.66,0,1,False
3818695,1.05824461641,0.583909432091,Woodard Alfre,5646.388535,7.310191083,64,23669715.31,0.0,157.5,26815787.57,0,1,False
2556222,0.175095792251,-3.64857482725,Ball Lucille,232.6149803,7.439684625,105,117241379.3,1850566.997,165.0,9228933.844,0,0,False
2713617,-0.616968933915,-0.106537439664,Clayburgh Jill,4142.571429,6.81875,72,30540862.94,0.0,170.0,15534994.68,0,0,False
2786817,1.63425540724,-0.125741229574,Dennis Sandy,2686.770833,7.127083333,79,55456.1658,0.0,155.0,12605689.08,1,0,False
3087203,0.916709054288,-0.180552345853,Kahn Madeline,5087.255319,6.973049645,74,3100000.0,0.0,157.5,16580310.96,0,0,False
3761184,-2.12320604011,2.00565056506,Vikander Alicia,26581.05405,6.754054054,28,4070868.808,0.0,162.5,47791041.89,1,0,False
3842233,-2.11182616216,0.109257193193,Zeta-Jones Catherine,14207.39241,6.399367089,47,49843443.13,9047522.346,167.5,58520172.11,1,0,False
2684874,-0.495107059841,0.266154930022,Cattrall Kim,3114.003846,6.753461538,60,60691.84825,0.0,169.0,31566055.36,0,1,False
2831024,-0.216754863381,0.208387576292,Eikenberry Jill,925.5348837,6.873837209,69,0.0,0.0,170.0,27559380.28,0,1,False
2908629,-1.21338388306,0.871553131585,Garner Jennifer,9371.565217,6.95819398,44,39141500.99,4039670.767,170.0,33944725.46,0,1,False
3160957,1.87023613309,-0.921520621957,Lanchester Elsa,3643.188679,7.183962264,114,0.0,31128.57945,160.0,10552224.75,0,1,False
3202586,1.167151894,1.13093180779,Lipton Peggy,1159.271429,7.631904762,70,0.0,46206.89655,165.0,10036557.82,0,1,False
3214971,1.69908031835,1.38538813378,Louis-Dreyfus Julia,1260.110754,7.69117175,55,17815656.28,0.0,157.5,38171053.89,0,1,False
3704078,0.964187770112,-0.2093325491,Thomas Marlo,503.8951613,7.003629032,79,0.0,0.0,160.0,4092634.205,0,1,False
3781476,0.381236421261,1.3389016698,Ward Sela,6809.53125,7.480357143,60,0.0,0.0,167.5,55849819.05,0,1,False
3782777,0.060802631706,0.507187802294,Warren Lesley Ann,1641.922018,7.054587156,70,0.0,0.0,170.0,11204239.56,0,1,False
2812504,1.85610692182,-2.98758429644,Dressler Marie,973.8387097,6.85,148,35036496.35,840000.0,167.5,9840441.534,1,0,False
2912886,2.2522390976,-1.9704477725,Gaynor Janet,847.7391304,6.856521739,110,37984285.38,0.0,150.0,11754866.91,1,0,False
3424883,1.12579729354,-0.441738991009,Parsons Estelle,1404.724409,7.007874016,89,0.0,35928.14371,160.0,15014870.25,1,0,False
3506783,0.569116074777,-1.92668956639,Reynolds Debbie,3231.176955,6.952674897,84,65110346.99,1323529.412,155.0,12898872.3,0,0,False
3638688,1.13877554924,-1.91152420542,Sondergaard Gale,871.9090909,6.545454545,117,0.0,0.0,165.0,11456136.03,1,0,False
2604203,-0.614406047102,-1.74365117792,Blair Linda,4873.05042,6.2,57,11648373.73,0.0,155.0,7890586.623,0,1,False
2631313,-0.794564335613,-1.82552037764,Brennan Eileen,4037.148649,6.886486486,84,84896193.41,0.0,165.0,12870551.84,0,1,False
2984158,-0.750658215366,1.70446129943,Harris Rosemary,24047.60274,7.221917808,89,0.0,0.0,164.0,104957512.6,0,1,False
2991220,-1.44561743298,2.55458224911,Hawkins Sally,28119.95455,7.151515152,40,2557105.817,0.0,157.48,51582619.36,0,1,False
3075484,1.09972751653,0.00384726693444,Jones Carolyn,1212.287356,7.215517241,86,0.0,0.0,162.5,6629307.476,0,1,False
3121362,-1.72003257429,-1.08950559002,Kirkland Sally,3451.964912,6.182807018,75,37573564.95,432432.4324,172.5,4290824.77,0,1,False
3612733,1.7806142239,-1.20898249477,Sidney Sylvia,4392.598039,6.853921569,106,0.0,1250000.0,155.0,8382322.681,0,1,False
3791186,1.17835824005,0.158992818235,Weld Tuesday,5516.95122,7.146341463,73,0.0,152619.1204,157.5,19672808.4,0,1,False
2857514,-0.151514480111,-0.309723341919,Fawcett Farrah,870.7658228,6.713924051,69,21504942.11,1080432.173,165.0,24317662.04,0,0,False
3035237,3.77012277693,0.749515754641,Hunt Linda,2757.546624,7.696463023,71,1587792.254,0.0,142.5,25233234.41,1,0,False
3127726,-3.20829405011,2.66934254065,Knightley Keira,40808.4876,6.805785124,31,16258165.8,5788712.012,167.5,79133107.74,0,0,False
3207347,0.959030507424,1.16351173021,Locklear Heather,442.0057971,7.450434783,55,0.0,0.0,162.5,24423045.31,0,0,False
3387614,-2.08768426246,2.88222750595,Nyong'o Lupita,34765.02273,7.131818182,33,0.0,0.0,162.5,122193211.6,1,0,False
3440206,2.57316890136,0.4798679166,Perlman Rhea,543.8325991,7.445154185,68,15296367.11,0.0,150.0,16679792.31,0,0,False
3527989,0.0162446850841,-2.89980662354,Rogers Ginger,5630.373626,6.737362637,105,93938650.31,0.0,160.0,14773656.74,1,0,False
3785151,-1.82124962211,1.29856667539,Watson Emily,22435.6092,6.72183908,49,6101700.437,0.0,170.0,31734222.0,0,0,False
2508287,1.66006870867,0.260833881306,Allen Debbie,222.9950187,7.155666252,66,3344947.735,2112676.056,155.0,10484069.54,0,1,False
2524205,-0.0593400748862,1.81956797347,Aniston Jennifer,6857.912317,7.429645094,47,41417160.83,31833879.15,164.0,30892135.86,0,1,False
2553575,0.799499173861,1.12905689534,Baker Kathy,5258.936255,7.533864542,66,0.0,0.0,165.0,23950681.63,0,1,False
2566965,-1.80644237327,0.477667718124,Barrymore Drew,14541.23948,6.560841424,41,41490355.25,7517326.057,160.0,37271305.7,0,1,False
2833361,-0.282651636269,2.06680063346,Elfman Jenna,1983.613115,7.31704918,45,15670553.31,0.0,175.0,22732916.69,0,1,False
2864654,1.85097763895,2.15800771507,Ferrera America,3442.315789,7.427863777,32,7797570.65,0.0,152.5,21422786.17,0,1,False
3313587,-3.08155784327,-5.06932245021,Mills Hayley,574.9926471,7.372794118,70,205853135.2,0.0,157.5,1285310.313,0,1,False
3442812,1.58307482069,0.629686072958,Peters Bernadette,1414.650794,7.443386243,68,898010.3226,0.0,157.5,40323291.93,0,1,False
3778703,1.09281939791,1.50146874469,Walter Jessica,516.8225806,7.652995392,75,0.0,0.0,170.0,17712060.1,0,1,False
2625426,0.704303588253,1.87504802351,Bracco Lorraine,4352.759259,7.733703704,62,6166575.583,0.0,170.0,39510513.06,0,0,False
2983095,-0.386297293607,-1.49107632203,Harris Barbara,7878.269231,6.880769231,81,68493729.37,0.0,160.0,10526373.18,0,0,False
3422615,0.380172737277,-1.10605824368,Parker Eleanor,2266.73913,6.541304348,94,2391459.075,0.0,165.0,13235369.25,0,0,False
2548772,0.911065906176,0.531477848195,Bacall Lauren,3551.730469,7.322265625,92,0.0,136217.3854,170.0,16678379.0,0,1,False
2549736,1.9748050182,-0.828959021286,Baddeley Hermione,3076.241667,7.158333333,110,0.0,0.0,157.5,19850069.38,0,1,False
2569544,-0.766446612258,0.236414878466,Bassett Angela,8759.946058,6.976763485,58,52302372.59,4060030.293,160.0,40632793.85,0,1,False
2692913,1.39650723138,0.646669929238,Channing Carol,342.2368421,7.271929825,95,10399.92334,0.0,172.5,9773760.4,0,1,False
2829977,1.2034995592,0.586209217323,Eggar Samantha,1817.563291,7.448101266,77,0.0,1035712.524,162.5,31219192.28,0,1,False
2966959,0.605981130689,0.201014538244,Hackett Joan,415.1551724,7.124137931,82,0.0,0.0,167.5,9655172.414,0,1,False
3031682,-2.34553223546,0.0102795664818,Hudson Kate,10703.91803,6.300819672,37,53652627.98,5002613.156,165.0,39771480.62,0,1,False
3167049,-1.39437291323,1.81519556238,Larson Brie,17035.05882,6.975630252,27,7858932.427,0.0,167.5,26183344.01,0,1,False
3183715,0.116710527934,-1.23604382145,Leigh Janet,4610.896739,6.931521739,89,55789776.99,202702.7027,162.5,20217855.07,0,1,False
3657486,1.27265206842,-0.333314545453,Sterling Jan,1112.273973,7.160273973,95,0.0,0.0,162.5,24743229.36,0,1,False
3710024,0.331373643131,0.811092159584,Tilly Meg,2277.020408,7.157142857,56,1432432.722,0.0,165.0,21640680.59,0,1,False
2540306,1.22983480114,-1.3302808551,Astor Mary,1833.044248,6.752212389,110,0.0,0.0,162.5,13260371.99,1,0,False
2761568,1.87243866258,-2.34451864186,Darwell Jane,2821.977143,6.681714286,137,0.0,0.0,165.0,12233715.22,1,0,False
2766911,0.121960406443,2.04538759323,Davis Viola,16447.08333,7.571875,51,0.0,0.0,162.5,47929075.31,0,0,False
3000810,0.506655799102,0.88477196239,Henner Marilu,721.7816712,7.275202156,64,0.0,0.0,167.5,23371693.94,0,0,False
3103377,-2.72686732395,1.60025626666,Keener Catherine,32519.2766,6.580851064,57,8761001.854,0.0,170.0,26064448.3,0,0,False
3248728,-2.55341492371,3.06956299596,Mara Rooney,38106.86364,7.018181818,31,16762930.15,0.0,157.5,43318837.18,0,0,False
3281781,2.10186457965,-1.80980133749,McDaniel Hattie,2551.973913,6.696521739,121,0.0,17266.18705,155.0,10493254.15,1,0,False
3282679,1.10326767518,1.74838061004,McDonnell Mary,6264.118321,7.842748092,64,9262356.094,0.0,165.0,11866804.73,0,0,False
3321509,-2.18465864495,-1.11415398807,Mo'Nique,2095.573427,5.86013986,49,4394581.8,0.0,165.0,8248733.555,1,0,False
3379437,-0.183115281046,1.1926191889,Nixon Cynthia,3211.619231,7.111923077,50,0.0,0.0,170.0,28856895.34,0,0,False
3450255,2.4816996098,-2.48718576344,Pickford Mary,203.4375,6.471323529,124,12608937.35,4070498.034,150.0,8165537.153,1,0,False
3532159,-2.37169305543,2.29104642618,Ronan Saoirse,29239.64815,6.864814815,22,21065721.32,0.0,165.0,31267820.04,0,0,False
3565568,2.30711046356,-0.0256994445021,Sanford Isabel,186.1813031,7.577053824,99,0.0,0.0,157.5,13034354.32,0,0,False
3664431,0.495866429798,-1.14218154593,Straight Beatrice,4960.26,6.702,102,0.0,0.0,167.5,24912380.53,1,0,False
3745142,1.11366148287,-0.533124043978,Van Fleet Jo,5492.263158,7.118421053,101,0.0,0.0,165.0,20037931.25,1,0,False
2555909,0.684624249944,0.114100535448,Balin Ina,328.5652174,7.076811594,79,0.0,0.0,165.0,81095108.34,0,1,False
2847695,1.76716589516,-1.86057649628,Evans Edith,1474.346154,6.965384615,128,0.0,0.0,167.5,28865979.38,0,1,False
2980820,0.862422914948,2.40150212399,Hargitay Mariska,581.4316547,7.807553957,52,0.0,566626.6507,172.0,21878524.46,0,1,False
2988594,-2.06128020226,-2.18207365463,Hassett Marilyn,700.8888889,6.259259259,69,98624293.44,0.0,165.0,333706.2294,0,1,False
2989088,0.521863472066,1.23209034433,Hatcher Teri,2116.834437,7.352759382,52,0.0,4408681.842,165.0,57752775.6,0,1,False
3067586,-0.0328566522218,0.189798928109,Jillian Ann,367.375,6.8375,66,0.0,0.0,167.5,11384690.65,0,1,False
3120254,-1.7232290603,-0.919597012708,Kinski Nastassja,2740.525773,5.996907216,55,4439306.956,0.0,165.0,36114642.86,0,1,False
3150785,-0.470178164189,-2.65360556192,Kwan Nancy,512.7761194,6.455223881,77,87491638.8,0.0,157.5,13046585.85,0,1,False
3163186,0.43609081216,-0.237248040555,Langdon Sue Ane,732.1363636,6.843939394,80,0.0,0.0,165.0,17244766.13,0,1,False
3224949,-0.276264289773,2.69616990371,Lynch Jane,5291.623762,7.379405941,56,0.0,40204.24317,180.0,28429850.66,0,1,False
3245493,0.249039235332,2.19168430664,Manheim Camryn,1620.169271,7.490625,55,0.0,0.0,175.0,12677690.33,0,1,False
3247350,-0.334159781489,-1.05011060234,Mansfield Jayne,340.9090909,6.377922078,83,0.0,317241.7819,168.0,1742821.973,0,1,False
3327232,-0.0331325033356,-1.51077739315,Monroe Marilyn,4728.13089,6.865968586,90,63038159.98,848913.913,162.5,11365031.91,0,1,False
3731318,0.395745815648,-0.715056370147,Tushingham Rita,1323.529412,6.588235294,74,0.0,0.0,160.0,5606197.159,0,1,False
3791103,-0.605501590592,-1.05134794819,Welch Raquel,1823.189944,6.684357542,76,57485029.94,652844.2318,165.0,21205866.27,0,1,False
2692922,1.45408593573,0.393835907066,Channing Stockard,2139.139785,7.333691756,72,6020528.739,0.0,157.5,29603095.17,0,0,False
2904657,0.871751002929,-1.44087296276,Garbo Greta,2348.232759,6.806896552,111,9504907.821,3367234.154,167.5,9580625.144,0,0,False
3300439,0.878131918355,-0.680161757338,Mercouri Melina,578.8235294,6.894117647,96,0.0,0.0,165.0,26770200.31,0,0,False
2601340,-0.484377331578,-0.703925361292,Bisset Jacqueline,2256.703226,6.432903226,72,20683071.49,2329668.55,165.0,22504207.51,0,0,False
2614798,-2.88051445153,3.97146371513,Bonham Carter Helena,48837.11765,7.078431373,50,3584272.591,0.0,155.0,76332686.42,0,0,False
2749993,-1.23550826167,1.36014674829,Cusack Joan,16541.51136,6.919318182,54,0.0,0.0,172.5,57512185.48,0,0,False
2794516,-3.4286070878,-0.078279528597,Diaz Cameron,19479.24151,6.185283019,44,81379835.09,12383639.1,170.0,60946234.53,0,0,False
2797520,-1.1135586634,-0.0266800269328,Dillon Melinda,12348.26667,6.766666667,77,38676769.2,0.0,170.0,32209808.87,0,0,False
3029107,0.804055828594,0.0997008416766,Howland Beth,107.6963351,7.04921466,75,0.0,0.0,162.5,1983372.955,0,0,False
3052592,0.622020146139,1.23514312928,Jackson Kate,99.4,7.400727273,68,0.0,0.0,170.0,2667245.538,0,0,False
3059214,-0.302121727148,2.8901426893,Janney Allison,9941.605081,7.520092379,57,0.0,114809.7335,180.0,33884655.36,0,0,False
3069831,-4.96551006711,3.24339097933,Johansson Scarlett,56879.30435,6.521195652,32,43829561.64,8987968.896,157.5,102872077.7,0,0,False
3100044,0.619223677129,1.04670708705,Kavner Julie,2096.253508,7.408980355,66,4998592.73,293548.3871,167.5,39273185.57,0,0,False
3175766,1.4313280745,1.37058854037,Learned Michael,184.4605809,7.728215768,77,0.0,0.0,167.5,7831090.335,0,0,False
3309877,0.586290171469,-0.298429663391,Miles Sylvia,5681.016393,6.87704918,84,0.0,0.0,162.5,6295187.293,0,0,False
3329115,1.44037775707,0.786526989366,Montgomery Elizabeth,330.9797101,7.573913043,83,358432.4168,0.0,165.0,33222232.94,0,0,False
3346804,1.0775400492,0.874787766539,Mullally Megan,1203.219873,7.317547569,58,0.0,117791.411,160.0,19024090.19,0,0,False
3497218,2.24608401077,-0.911755315684,Redman Joyce,1029.6,6.986666667,101,0.0,0.0,152.5,7843137.255,0,0,False
3609151,-3.44729522937,0.744844382459,Shire Talia,35386.82828,6.337373737,70,33495310.15,0.0,160.0,22793617.38,0,0,False
3667098,2.58903574389,0.941841556965,Struthers Sally,211.8554779,7.739160839,69,0.0,0.0,152.5,8870359.399,0,0,False
3678819,1.23290163947,0.751185330385,Swit Loretta,190.1111111,7.4925,79,0.0,0.0,165.0,540871.1078,0,0,False
3776149,2.97552664073,-0.549047821124,Walker Nancy,380.0,7.175757576,94,0.0,0.0,147.5,11829768.13,0,0,False
3786015,-2.19745729679,0.964093615916,Watts Naomi,22941.05769,6.662179487,48,48930284.72,3076020.712,160.0,38616674.43,0,0,False
3786819,2.87174593938,0.776557257188,Weaver Jacki,10666.34884,7.389534884,69,0.0,0.0,147.5,19437165.9,0,0,False
3797224,1.86459813735,0.0663765632571,White Betty,884.8355978,7.464945652,94,0.0,0.0,160.0,14477520.83,0,0,False
2510039,2.39378538745,-1.45200748558,Allyson June,447.2991453,6.901709402,99,37767074.64,0.0,150.0,20200128.05,0,1,False
2521257,0.606411822234,-0.269193201772,Andress Ursula,2133.933333,6.848571429,80,0.0,47682.11921,162.5,35463468.82,0,1,False
2523063,1.44941036383,-2.88138927883,Angeli Pier,649.3,6.0525,84,0.0,29629.62963,150.0,19480408.9,0,1,False
2589147,-2.27075860219,-0.984269110439,Bergman Sandahl,4299.166667,5.927777778,65,0.0,0.0,172.5,23331967.37,0,1,False
2656069,1.7411702701,0.288985871003,Buzzi Ruth,497.8547297,7.391554054,80,0.0,0.0,157.5,2408923.541,0,1,False
2681429,-0.200222915047,0.808764234,Cassidy Joanna,3608.810409,7.053531599,71,0.0,0.0,172.5,20125301.65,0,1,False
2726394,0.65374306054,1.88962295251,Conroy Frances,6026.124514,7.7,63,0.0,0.0,170.0,28801245.07,0,1,False
2778635,0.832822367975,-0.150789457582,Dee Sandra,743.0,6.902272727,74,0.0,51245.5516,160.0,12093625.85,0,1,False
2806382,-0.520844572305,0.725652957722,Donohoe Amanda,2834.174757,6.841747573,54,2412811.496,0.0,170.0,15949740.35,0,1,False
2831687,-0.629755786419,-2.12990844883,Ekberg Anita,5110.698795,5.910843373,85,0.0,0.0,165.0,17483958.84,0,1,False
2885183,0.251352854828,-0.138034360434,Francis Anne,537.0680628,6.931937173,86,0.0,0.0,170.0,15539842.45,0,1,False
2995558,0.312401449643,-1.4189012056,Hedren Tippi,2207.276923,6.405384615,86,22713032.08,3921.568627,160.0,7289689.844,0,1,False
3037343,0.776509804596,-0.816845660451,Hussey Olivia,2410.891892,6.728378378,65,18080297.4,0.0,155.0,10102327.98,0,1,False
3215145,0.088807551715,-0.125416135615,Louise Tina,293.3865979,6.864948454,82,0.0,0.0,170.0,1808853.839,0,1,False
3226258,0.260353943312,-1.28501740127,Lyon Sue,2732.555556,6.388888889,70,0.0,630143.923,157.5,14561361.23,0,1,False
3234333,-0.782985531632,-0.869426566773,Madonna,2129.46648,6.384636872,58,29643111.19,1184963.375,160.0,26280574.63,0,1,False
3301067,1.05931269163,1.37239617624,Merkerson S. Epatha,2503.700971,7.647572816,64,0.0,0.0,165.0,16583267.88,0,1,False
3301273,1.61523748927,-0.734456613389,Merman Ethel,2048.215686,7.126470588,108,0.0,0.0,162.5,10383724.33,0,1,False
3316531,-1.71461640219,-0.42833356572,Miracle Irene,3454.652174,6.213043478,62,0.0,0.0,172.5,4565036.646,0,1,False
3321725,0.553607420063,-0.431952275318,Mobley Mary Ann,108.1868132,6.751648352,79,0.0,0.0,162.5,4612888.509,0,1,False
3348451,0.829847285134,0.176062132118,Munro Janet,939.72,7.152,82,0.0,0.0,165.0,16494845.36,0,1,False
3384691,0.145594126459,-0.451506118053,Novak Kim,5784.262136,6.687378641,83,0.0,1361812.495,165.0,2916035.207,0,1,False
3395940,0.935771852869,2.01973089368,Oh Sandra,2628.641096,7.732876712,45,1195894.488,430107.5269,165.0,7640231.684,0,1,False
3547669,0.624695519772,1.80385193042,Russell Keri,5211.386364,7.478181818,40,14074193.87,141657.044,160.0,44456464.4,0,1,False
3602986,0.809437926936,0.227110294131,Shaw Victoria,1338.451613,7.167741935,81,0.0,0.0,165.0,6216216.216,0,1,False
3638264,-0.584881973345,-0.885912092945,Sommer Elke,445.6637931,6.328448276,76,0.0,0.0,167.5,21161157.02,0,1,False
3658327,1.05757333194,0.156995101607,Stevens Inger,1354.085714,7.205714286,82,0.0,5009.601673,162.5,17779014.32,0,1,False
3658692,-0.0892363603681,-1.69018287401,Stevens Stella,624.4480519,6.145454545,80,127654.0541,0.0,162.5,11165490.51,0,1,False
3694950,0.489650059229,1.63892435102,Taylor Regina,1634.992,7.4864,56,0.0,0.0,170.0,43125565.28,0,1,False
3795562,1.33448588188,1.41482557066,Wettig Patricia,520.6017699,7.72300885,65,0.0,0.0,164.0,22746058.04,0,1,False
3823957,0.970654320464,0.186359215603,Wynter Dana,862.2380952,7.211904762,85,0.0,0.0,165.0,15450434.85,0,1,False
3837276,0.579227351518,-3.30844235657,Zadora Pia,4770.166667,5.875,62,2947518.072,0.0,150.0,6130791.979,0,1,False
2607864,2.09696715516,-1.16195047788,Blondell Joan,1379.053659,6.927317073,110,0.0,0.0,155.0,6984746.033,0,0,False
2964035,-2.71537138401,2.20734071147,Gyllenhaal Maggie,32660.75455,6.764545455,39,12566555.93,595238.0952,172.5,37207925.87,0,0,False
2999141,-2.15408771432,0.257737780072,Hemingway Mariel,3286.747664,6.397196262,55,5459431.911,0.0,177.5,16831285.73,0,0,False
3046990,0.138788476071,0.100768003851,Irving Amy,6622.71875,6.814583333,63,9138946.064,0.0,160.0,25651059.24,0,0,False
3162169,-1.77468922968,0.847748332537,Lane Diane,19101.40769,6.703076923,51,39886128.71,5965744.826,167.5,57312505.93,0,0,False
3163274,1.52964183725,-0.0701580115321,Lange Hope,2873.663793,7.159482759,83,0.0,0.0,157.0,15633472.46,0,0,False
3207154,-0.348428564206,-1.37324588539,Locke Sondra,5150.526316,6.197368421,72,0.0,387867.049,160.0,23464990.49,0,0,False
3337679,-1.50975821809,0.594854650284,Moriarty Cathy,11113.55844,6.516883117,56,0.0,0.0,172.5,24170666.19,0,0,False
3480531,-0.102131435811,0.174403325545,Quinlan Kathleen,6705.71831,6.754929577,62,364968.6747,0.0,162.5,24447540.77,0,0,False
3662622,-5.04691349479,1.99481306627,Stone Emma,42597.20792,7.025742574,28,122674877.1,0.0,165.0,59478156.27,0,0,False
3832215,0.03033032525,-0.436006844904,York Susannah,3104.55,6.616666667,77,0.0,0.0,165.0,25959622.32,0,0,False
2494043,-0.435747980191,-0.34062523168,Adjani Isabelle,2478.5375,6.48,61,1820046.583,0.0,163.0,48742426.61,0,0,False
2519201,0.979135408623,0.844998209469,Anderson Loni,559.3604061,7.413705584,71,0.0,73619.6319,165.0,1705999.431,0,0,False
2528551,0.00295429925696,1.03287799151,Applegate Christina,2043.914596,7.069099379,45,23585768.01,0.0,162.5,36276319.17,0,0,False
2604447,2.075202346,1.19980054958,Blake Amanda,73.44850498,7.872923588,87,0.0,0.0,165.0,11006716.29,0,0,False
2614363,2.01416691969,-1.523294446,Bondi Beulah,5170.463415,7.012195122,127,0.0,0.0,162.5,13849290.8,0,0,False
2626840,1.58666702615,0.0145940087533,Braga Sonia,1479.193878,6.885714286,66,29129.0,0.0,155.0,18969950.57,0,0,False
2631489,1.31968822086,2.18145548011,Brenneman Amy,2192.782341,7.949897331,52,4273177.702,115774.2402,165.0,52690706.35,0,0,False
2693399,-0.210648760977,-0.666075346298,Chaplin Geraldine,4633.765363,6.437988827,72,0.0,0.0,162.5,28286146.86,0,0,False
2696131,2.31267956593,-1.87346943658,Chatterton Ruth,395.1785714,6.689285714,124,0.0,0.0,155.0,5280000.0,0,0,False
2743820,1.05741016551,2.28497088421,Cross Marcia,182.5418605,7.842790698,54,0.0,0.0,170.0,4401756.524,0,0,False
2779315,-6.2192234655,-4.44018398189,DeGeneres Ellen,1284.135366,5.91,58,252033781.1,11312245.41,167.5,25353937.3,0,0,False
2974168,0.144360382138,1.10194359799,Hamilton Linda,10348.15169,7.250561798,60,0.0,1762114.537,165.0,41192845.57,0,0,False
2998033,1.01243739448,1.54636252685,Helgenberger Marg,1768.803922,7.647058824,58,0.0,0.0,165.0,32747963.5,0,0,False
3086278,1.05198230369,1.38996062895,Kaczmarek Jane,684.089701,7.601993355,61,0.0,139372.8223,165.0,17911974.38,0,0,False
3106788,2.14464139378,1.12167746408,Kelsey Linda,48.1656051,7.798726115,70,0.0,0.0,157.5,0.0,0,0,False
3172652,1.94515265526,2.08785084144,Lawrence Vicki,36.25824176,8.114285714,67,0.0,0.0,165.0,4772148.009,0,0,False
3230286,-0.00976841195097,1.25858937856,MacDowell Andie,6141.397727,7.25625,58,4268623.586,0.0,170.0,30455673.46,0,0,False
3258431,0.677033969445,0.549771369716,Marshall Penny,3194.284211,7.228684211,73,1056447.619,0.0,165.0,23407638.12,0,0,False
3279448,1.8739926698,0.35136171468,McClanahan Rue,565.8421053,7.465384615,82,0.0,223048.3271,157.5,816926.337,0,0,False
3314620,0.106152023757,-1.43627492136,Mimieux Yvette,1148.140351,6.271929825,74,0.0,0.0,160.0,24271451.56,0,0,False
3425158,2.84745036242,-0.777704370274,Parton Dolly,983.0950226,6.735294118,70,36268736.71,4619826.757,147.5,13027863.73,0,0,False
3487307,1.61467584633,-2.22106450047,Rambeau Marjorie,325.1785714,6.544642857,127,0.0,0.0,165.0,10732753.89,0,0,False
3549789,-2.22902857756,-0.0325579572535,Ryan Meg,13001.57025,6.195867769,55,34504610.0,15461209.61,170.0,39273107.36,0,0,False
3730386,0.968451939487,1.61412601521,Turner Janine,1052.343284,7.621890547,54,0.0,0.0,165.0,26423476.06,0,0,False
3781424,-1.07884219283,0.233809090647,Ward Rachel,998.9166667,6.71,59,26282651.7,0.0,172.5,27550114.06,0,0,False
2530609,0.0150340480253,-0.00885990260567,Archer Anne,3245.055901,6.732298137,69,0.0,0.0,165.0,40962231.58,0,0,False
2656339,2.76514388747,-1.27163039033,Byington Spring,1345.766871,7.271165644,130,0.0,0.0,157.5,15094647.64,0,0,False
2712917,-1.29791404578,1.695520832,Clarkson Patricia,24688.54023,6.991954023,57,5457072.287,0.0,162.5,24144277.95,0,0,False
2722449,2.11961292197,0.542094389713,Collins Pauline,846.1889764,7.545669291,76,12297896.13,0.0,155.0,22753760.67,0,0,False
2757847,1.0717459273,-0.642291484313,Dandridge Dorothy,480.2909091,6.894545455,94,0.0,482225.9056,162.5,20662897.45,0,0,False
2796520,1.69238010654,-1.42082650421,Dietrich Marlene,2917.392308,7.073846154,115,33342345.99,2088976.993,160.0,21240086.43,0,0,False
2813207,-1.08814651175,1.63377490801,Driver Minnie,10050.80203,6.968527919,46,1679831.209,0.0,175.0,26715704.51,0,0,False
2855206,-0.561614379238,2.93220389978,Farmiga Vera,18760.37888,7.827329193,43,37619367.84,0.0,170.0,19028051.87,0,0,False
2907540,0.449528777566,-1.00577861753,Gardner Ava,1497.495726,6.676923077,94,18308823.53,1750294.538,165.0,23789095.8,0,0,False
2926317,1.43353069634,-2.56958222573,Gish Lillian,1409.227941,6.957352941,123,66454150.84,20.0,160.0,14372100.77,0,0,False
2992204,-0.3501854009,1.1425943287,Hayek Salma,9839.251799,6.883093525,50,16850879.72,0.0,155.0,35749571.92,0,0,False
3023816,2.54505751551,-1.19219985664,Hopkins Miriam,1451.571429,7.028571429,114,0.0,0.0,152.5,12308700.62,0,0,False
3062493,2.04441255732,1.29171655371,Jean-Baptiste Marianne,4471.481328,7.302904564,49,0.0,0.0,152.5,56850804.1,0,0,False
3070107,1.10822757363,-0.688418982105,Johns Glynis,4157.795918,6.859183673,93,0.0,0.0,160.0,19678956.7,0,0,False
3076012,-0.491886148513,2.03588236134,Jones Felicity,13114.83582,7.046268657,33,788274.2742,0.0,157.5,56825924.4,0,0,False
3091092,1.10767587703,-0.120030643685,Kane Carol,6837.953704,6.835648148,64,23955512.87,0.0,155.0,29047859.16,0,0,False
3104838,-1.13722857315,-0.382544551444,Kellerman Sally,999.5837104,6.621266968,79,4536397.183,309278.3505,175.0,9026700.514,0,0,False
3107669,-3.71134503541,1.81797860429,Kendrick Anna,32464.95699,6.67311828,31,76725394.71,0.0,155.0,34843052.48,0,0,False
3114996,-1.12010536184,1.70984404869,Kikuchi Rinko,14793.55172,6.965517241,35,628944.2529,0.0,169.0,41950433.44,0,0,False
3192680,-1.08492794357,1.04930579596,Lewis Juliette,12074.0,6.939106145,43,40044087.88,0.0,165.0,30790253.65,0,0,False
3234644,-0.691626250296,0.125192426938,Madsen Virginia,5685.55,6.717727273,55,35346185.01,0.0,162.5,29246112.71,0,0,False
3238428,1.63410239715,-2.00222741883,Main Marjorie,976.7741935,6.777419355,126,0.0,0.0,167.5,14304627.21,0,0,False
3278897,1.57541197313,2.44694030658,McCarthy Melissa,4728.416279,7.364418605,46,74307739.42,8250000.0,155.0,32377126.26,0,0,False
3284594,-0.253488236761,2.04519921195,McGovern Elizabeth,8187.808824,7.344852941,55,2037.33547,0.0,175.0,16838197.27,0,0,False
3309857,0.179661353834,-0.613540443705,Miles Sarah,1991.209302,6.560465116,75,0.0,0.0,162.5,14980429.53,0,0,False
3347235,-1.225795922,2.92449967428,Mulligan Carey,26158.56579,7.509210526,31,7257644.767,0.0,167.5,32102790.81,0,0,False
3397543,-0.466833756591,1.37781279806,Okonedo Sophie,8863.669903,7.103883495,48,0.0,0.0,170.0,40789679.63,0,0,False
3413031,-3.86150951289,2.22464261362,Page Ellen,33769.17273,6.773636364,29,83081471.66,0.0,152.5,31173498.67,0,0,False
3439322,2.18782502729,0.516733805626,Perez Rosie,4447.577703,6.730067568,52,157236.0144,0.0,152.5,16054961.4,0,0,False
3440930,-0.523972944985,-0.113771603219,Perrine Valerie,7451.881579,6.584210526,73,0.0,0.0,167.5,36778261.42,0,0,False
3452162,-1.87316016241,2.33971806736,Pike Rosamund,27633.71429,7.002380952,37,0.0,0.0,170.0,67384800.73,0,0,False
3520103,1.0384860431,-0.198798224417,Roberts Rachel,2785.860465,7.062790698,89,124776.4417,0.0,162.5,4958677.686,0,0,False
3520104,-1.94833252546,2.41750751126,Roberts Rachel,27137.82353,7.194117647,38,27421711.99,0.0,172.5,41209321.89,0,0,False
3549304,0.33545584025,2.49909536059,Ryan Amy,18508.49587,7.55785124,48,0.0,0.0,157.5,23553060.0,0,0,False
3611161,-1.03166634464,0.857592904013,Shue Elisabeth,11713.57432,6.883108108,53,44485094.43,0.0,155.0,36965036.16,0,0,False
3612658,0.444194989469,2.6347414477,Sidibe Gabourey,4356.111111,7.650793651,33,53020964.4,0.0,162.5,6220634.849,0,0,False
3640995,2.1987643982,-1.71766184373,Sothern Ann,278.6603774,6.571698113,107,0.0,213523.1317,152.5,9478827.473,0,0,False
3652899,2.37401906214,1.59151397461,Staunton Imelda,17919.91367,7.115827338,60,2127379.175,0.0,150.0,63432512.35,0,0,False
3667407,1.06434729253,-1.15935887847,Stuart Gloria,8156.163636,6.785454545,106,0.0,0.0,162.5,35187094.52,0,0,False
3675492,1.0911863581,0.393407360619,Suzman Janet,955.2105263,7.268421053,77,0.0,0.0,162.5,34004076.34,0,0,False
3732757,1.43791942484,-0.6120806287,Tyson Cicely,3181.770186,6.933540373,92,0.0,0.0,157.5,15361220.49,0,0,False
3811859,-7.25135163857,21.1357899212,Winfrey Oprah,3529.869806,6.687257618,62,0.0,689781021.9,169.0,28640055.97,0,0,False
3812492,0.564255581955,1.11513168087,Winningham Mare,2928.174194,7.325806452,57,0.0,0.0,165.0,7374016.657,0,0,False
3818456,1.20966491534,-2.36782777528,Wood Peggy,8888.222222,6.422222222,124,0.0,0.0,165.0,14066151.28,0,0,False
2553304,0.359172758797,0.38459629823,Baker Diane,9291.079137,7.066906475,78,0.0,0.0,165.0,18861300.57,0,0,False
2560185,0.602286193362,1.610310779,Baranski Christine,3372.801609,7.532439678,64,0.0,0.0,170.0,51103309.08,0,0,False
2562912,-0.25726406424,0.475785474192,Barkin Ellen,8673.391667,6.866666667,62,8700262.791,0.0,165.0,22600112.83,0,0,False
2587708,-0.796411480154,-0.187645535089,Berenson Marisa,2413.522727,6.509090909,69,0.0,0.0,170.0,15098944.49,0,0,False
2638961,1.0420849845,1.84903469722,Brown Blair,2141.58371,7.733031674,70,1404365.417,0.0,170.0,32617678.05,0,0,False
2654962,0.806705835303,2.23282707033,Butler Brett,67.92481203,7.683082707,58,0.0,0.0,172.5,5699044.042,0,0,False
2656807,-1.20077800702,2.98308101828,Byrne Rose,27672.21918,7.51369863,37,33496.9973,506.8937551,168.0,41801239.02,0,0,False
2675997,-0.325350752007,0.123034576284,Carrera Barbara,1014.646341,6.752439024,71,0.0,0.0,170.0,25909126.1,0,0,False
2678347,2.89118362546,0.188970863642,Carter Nell,579.3170732,7.081300813,68,0.0,0.0,147.5,9758872.412,0,0,False
2765525,-0.452027894143,1.65590635112,Davis Hope,15459.7265,7.294017094,52,4986549.202,0.0,167.5,28083460.83,0,0,False
2781891,0.731052399141,1.5762820811,Delaney Kim,319.5950413,7.498347107,55,0.0,0.0,167.5,13355410.06,0,0,False
2810445,1.80285786805,1.79512048128,Downey Roma,275.2635135,7.871621622,56,0.0,161943.3198,160.0,13270555.55,0,0,False
2812415,1.29490624131,1.13972856612,Drescher Fran,1190.169323,7.511155378,59,17128363.36,0.0,160.0,23716698.27,0,0,False
2818537,0.706892352385,-0.0059191538571,Duncan Sandy,2484.816901,6.887323944,70,0.0,0.0,160.0,7102914.659,0,0,False
2827472,1.61135243114,-0.174736669007,Eden Barbara,163.4275862,7.103103448,85,0.0,0.0,157.5,13074930.51,0,0,False
2877556,-2.26176779104,0.290305360188,Fonda Bridget,17842.58462,6.272307692,52,40971857.86,0.0,165.0,30228431.19,0,0,False
2879072,-0.397431318525,0.666589886106,Ford Faith,274.6200466,6.769230769,52,0.0,0.0,167.5,24255104.23,0,0,False
2886684,1.76141263496,0.583918972334,Franklin Bonnie,106.040293,7.429304029,72,0.0,0.0,157.5,2798570.21,0,0,False
2946437,0.972951398986,0.905173150763,Gray Linda,107.5052632,7.404631579,76,0.0,0.0,167.5,3863919.086,0,0,False
2996464,-0.491801579827,2.37609591949,Heigl Katherine,5037.726073,7.413531353,38,46452782.87,9307130.888,172.5,30447778.99,0,0,False
3034984,-0.962686844159,1.60387556524,Hunt Bonnie,18440.33333,7.093333333,55,0.0,0.0,170.0,52145306.99,0,0,False
3076333,0.560468358212,2.58245629466,Jones January,10737.72,7.816571429,38,0.0,0.0,165.0,35817452.31,0,0,False
3082097,-1.42168678742,1.06205649649,Judd Ashley,17299.15833,6.743333333,48,19204075.86,2511379.906,167.5,30964052.68,0,0,False
3209140,1.13929036361,-1.11348281059,Lollobrigida Gina,345.1680672,6.599159664,89,19097.11267,0.0,158.0,22935865.36,0,0,False
3257763,1.51818818313,0.953431046147,Marsh Jean,1039.936975,7.623109244,82,0.0,0.0,165.0,32773733.2,0,0,False
3290435,0.0737101217646,0.227285711382,McNichol Kristy,291.125,6.798214286,54,19328982.13,0.0,160.0,8917664.872,0,0,False
3301002,0.478529032504,0.486682200476,Meriwether Lee,307.2453988,7.106441718,81,0.0,0.0,170.0,1496213.637,0,0,False
3302928,0.325177403264,0.867786799113,Metcalf Laurie,5865.255172,7.187586207,61,2486735.502,0.0,165.0,54005168.8,0,0,False
3313634,1.90257216589,0.220356582354,Mills Juliet,272.5854922,7.236787565,75,0.0,0.0,155.0,17886150.78,0,0,False
3331159,-2.31408996894,-0.409967964542,Moore Demi,13825.18243,6.02972973,54,30670264.99,6763588.516,162.5,45461955.15,0,0,False
3371178,-1.4153168596,-0.303805883834,Newmar Julie,737.5929204,6.763716814,83,0.0,0.0,177.5,14271366.66,0,0,False
3439854,-0.292241754782,1.23687729552,Perkins Elizabeth,8567.100671,7.143624161,56,3919461.417,0.0,170.0,48217450.54,0,0,False
3457621,1.19672139654,0.209801332004,Pleshette Suzanne,3859.727599,7.192473118,79,0.0,0.0,160.0,11080847.9,0,0,False
3471977,0.937054539982,0.988628401767,Principal Victoria,105.68,7.402461538,66,0.0,68068.29353,165.0,0.0,0,0,False
3480566,2.52085374599,1.13733632978,Quinn Aileen,2957.454545,7.036363636,45,0.0,0.0,150.0,18364663.92,0,0,False
3500372,0.760739162391,-0.137927936005,Reid Kate,1041.333333,6.990277778,86,0.0,0.0,165.0,13906920.41,0,0,False
3510626,-0.145759516365,2.66114790722,Richardson Joely,6168.661017,7.458757062,51,11316.99605,0.0,178.0,63683413.17,0,0,False
3510815,0.682238085587,1.06684522715,Richardson Patricia,173.6595745,7.340780142,65,0.0,0.0,167.5,5210123.68,0,0,False
3548891,0.282358637378,0.186340165906,Ruttan Susan,997.373057,6.866839378,68,0.0,0.0,165.0,27952408.35,0,0,False
3607175,-2.50424939694,0.509901655482,Shields Brooke,1542.073394,6.734862385,51,40726654.25,988554.7729,180.0,13110977.67,0,0,False
3619503,1.44417920514,0.00230678890612,Sinatra Nancy,242.9375,7.053125,76,0.0,0.0,157.5,5070421.936,0,0,False
3635064,-2.61249411115,1.25028032185,Sobieski Leelee,16210.59016,6.368852459,33,12168533.11,1355166.573,175.0,19553258.81,0,0,False
3666216,0.862284079602,1.97731007798,Stringfield Sherry,624.206278,7.658744395,49,0.0,0.0,167.5,24565293.26,0,0,False
3695492,-0.0132120199993,0.467300232483,Taylor-Young Leigh,868.88,6.9352,71,0.0,0.0,170.0,5546263.833,0,0,False
3709336,-0.266459243154,-0.372627549374,Tiffin Pamela,1118.111111,6.574074074,74,0.0,0.0,167.5,28589260.96,0,0,False
3773395,-0.222781583868,0.886911188029,Wagner Lindsay,292.1964286,6.982142857,67,0.0,0.0,172.5,8915625.631,0,0,False
2495776,0.659689933432,1.3295923444,Aghdashloo Shohreh,10461.92793,7.456756757,64,717109.7333,0.0,162.5,12559787.33,0,0,False
2509444,1.96465065993,-2.58492353841,Allgood Sara,1485.065217,6.493478261,137,0.0,0.0,165.0,22017264.57,0,0,False
2518895,1.85514278534,-1.17298358749,Anderson Judith,6392.979592,7.063265306,119,0.0,486486.4865,165.0,13825462.76,0,0,False
2531107,1.66040466327,-0.690095548464,Arden Eve,1311.978632,7.115811966,108,0.0,0.0,167.5,25332599.62,0,0,False
2536434,1.1647944658,-3.26756024495,Arthur Jean,2457.692308,7.015384615,116,96806722.69,372925.7457,157.5,14852555.01,0,0,False
2579330,2.4242291637,0.0652688776101,Bel Geddes Barbara,856.389881,7.511309524,94,0.0,0.0,155.0,10195532.0,0,0,False
2609126,1.58623925651,-1.04496501565,Blyth Ann,555.4375,6.6875,88,4280597.015,640569.395,155.0,17607520.8,0,0,False
2631817,-2.24323562714,2.98903351057,Breslin Abigail,26180.39024,6.797560976,20,41015493.01,2229416.218,152.5,35096461.69,0,0,False
2650849,2.48614528992,-2.10401087846,Burke Billie,4484.367089,6.67721519,132,0.0,3743119.266,155.0,8725146.849,0,0,False
2677012,1.79117326637,-1.29785476925,Carroll Nancy,110.027027,6.837837838,113,0.0,0.0,160.0,15576420.44,0,0,False
2683113,0.853678689077,3.28094746435,Castle-Hughes Keisha,13091.70492,7.82295082,26,35594767.8,0.0,155.0,18164362.52,0,0,False
