id_data,x_data,y_data,z_data,votes,rating,gross,salary,age,heightcm,budget,academy,golden,sample
3665525,-0.00409757604493,-0.319611287939,Streep Meryl,9676.969697,6.967878788,52578475.81,4403975.693,67,165.0,32022998.33,3,8,False
3232396,-0.295104884208,-0.228429173515,MacLaine Shirley,4247.515385,6.958076923,42627361.25,2451406.343,82,167.5,31535455.69,1,4,False
2877563,-0.36896062373,-0.535804289424,Fonda Jane,1936.883041,7.013450292,90190631.16,3330461.758,79,170.0,16658618.44,2,4,False
3002240,-0.56253082279,-0.527461626761,Hepburn Katharine,2457.025974,7.009090909,296668431.9,1735689.699,109,167.5,19827377.69,4,0,False
3163287,0.264500897007,0.342228457055,Lange Jessica,6926.149425,7.372988506,10672473.67,2362204.724,67,170.0,27799055.23,2,4,False
2589066,-0.488563858578,0.0348360502471,Bergman Ingrid,7569.443609,7.047368421,53637621.02,1562206.935,101,172.5,17874048.61,3,3,False
3164453,-0.357900478282,0.40099149331,Lansbury Angela,1615.910299,7.48089701,55173914.86,692974.0135,91,170.0,26331406.24,0,6,False
2605353,0.888596773189,-0.160098705114,Blanchett Cate,49946.34444,6.879444444,35641151.93,4195175.249,47,170.0,62285750.76,2,3,False
2524682,-0.351015601815,-0.0773387934373,Ann-Margret,2847.233333,6.707222222,3091527.607,801975.3893,75,157.5,13415941.2,1,5,False
3812565,0.841836978222,-0.324909459113,Winslet Kate,22795.77457,6.73699422,23336941.07,2990654.206,41,165.0,41774810.24,1,3,False
3631098,0.255674786339,0.726307957368,Smith Maggie,20485.60963,7.549197861,23999910.96,0.0,82,162.5,34461504.44,2,2,False
3497101,0.0742151929661,0.433911553505,Redgrave Vanessa,4969.54,8.082857143,1887431.979,525118.3555,79,180.5,30830354.58,1,2,False
3317421,0.10822188548,0.580813358747,Mirren Helen,7389.621711,6.970065789,24817789.8,0.0,71,160.0,44963694.64,1,3,False
2785879,0.0676306887996,0.795058922497,Dench Judi,13386.51266,7.325949367,20144469.03,0.0,82,152.5,80144438.93,1,2,False
3413053,-0.433225177136,0.307239440371,Page Geraldine,1534.48,7.093333333,15806583.94,0.0,92,170.0,15750927.99,1,2,False
2651772,-0.11094707079,0.695937780072,Burnett Carol,467.8116197,8.261091549,3900466.999,0.0,83,165.0,26259696.63,0,5,False
2866351,0.123730726495,0.780465347351,Field Sally,7647.266846,7.350404313,31827580.64,1734339.796,70,155.0,48875778.79,2,2,False
3642643,0.197308682802,0.7511647272,Spacek Sissy,8723.338028,7.15915493,14360812.03,0.0,67,157.5,22190393.96,1,3,False
3819825,-0.432215067279,0.634822177016,Woodward Joanne,2446.186992,7.154471545,1892754.93,0.0,86,160.0,13482740.38,1,3,False
2818124,-0.172012454531,-0.540293313186,Dunaway Faye,4858.908654,6.492307692,25460394.07,1389079.253,75,167.5,22254898.05,1,3,False
2764915,-0.265844695907,0.732367168048,Davis Bette,2631.819892,8.343817204,13891365.03,895639.44,108,157.5,12631738.79,2,0,False
2521602,-0.379365293387,-0.409670352709,Andrews Julie,8280.596413,7.420179372,80419193.12,4910132.606,81,167.5,69792872.09,1,3,False
3519748,0.408388585713,-0.861275676849,Roberts Julia,15762.42925,6.366509434,112995360.5,11340531.99,49,170.0,50236500.67,1,3,False
2715506,0.0970178587189,-0.816922757566,Close Glenn,7106.657321,6.975077882,33937253.53,6480856.133,69,162.5,50867620.46,0,2,False
2881870,0.330826742324,-0.847975298734,Foster Jodie,14825.2437,6.836554622,69197635.78,13381308.91,54,157.5,45185942.5,2,2,False
3035109,-0.00714753284879,-0.689621998999,Hunt Helen,3674.947781,6.943603133,93553984.15,1710620.1,53,167.5,27785375.77,1,4,False
3114226,0.479392067933,-0.720635299756,Kidman Nicole,11641.85619,6.385284281,41713047.71,9151655.549,49,177.5,53959999.3,1,3,False
2557924,-0.529672693274,0.0538469252957,Bancroft Anne,8990.967742,6.740322581,25322302.87,4494.382022,85,165.0,35945140.08,1,2,False
3102605,0.843977008029,-0.0551806635614,Keaton Diane,21458.02454,6.895092025,22932275.48,2525061.027,70,165.0,39271049.13,1,2,False
2698961,-0.243745578251,-0.620745433947,Cher,1978.09589,6.935616438,63034128.05,2526630.104,70,170.0,27647637.94,1,3,False
3052364,-0.299607232404,0.610103748633,Jackson Glenda,546.012987,7.325974026,2022595.852,1603049.048,80,165.0,5843187.686,2,1,False
3002221,-0.653906563159,-0.368074828048,Hepburn Audrey,5008.590551,7.037795276,85033140.05,2839843.297,87,167.5,23287774.55,1,1,False
2653071,-0.298315901276,0.23066766795,Burstyn Ellen,11745.51037,7.058921162,50523524.52,48681.54158,84,167.5,26451085.78,1,1,False
3307268,-0.0324875697352,0.796759950254,Midler Bette,3173.648148,7.201851852,43021733.75,2229599.615,71,152.5,49851191.02,0,4,False
3547887,-0.698434083319,-0.206301954559,Russell Rosalind,2665.125,6.684375,100517086.2,0.0,109,170.0,15354216.64,0,4,False
3172387,0.771596582917,-0.510781172692,Lawrence Jennifer,41770.99248,7.030075188,193549104.4,6969395.251,26,167.5,89414462.65,1,3,False
3331586,0.888132382536,-0.193850290218,Moore Julianne,26009.51515,6.649494949,15803406.86,2820151.434,56,157.5,38167583.21,1,1,False
3813241,-0.72041076683,0.200788876582,Winters Shelley,1913.21875,6.599107143,0.0,0.0,96,160.0,14075622.44,2,1,False
3823701,-0.706332290557,0.112463237376,Wyman Jane,315.473822,6.513874346,0.0,0.0,99,162.5,13968303.86,1,3,False
3693619,-0.728899288157,-0.406905117896,Taylor Elizabeth,1330.314935,6.80487013,54428135.06,3622112.283,84,155.0,30748287.21,2,1,False
3665711,-0.104442385398,-0.85527586746,Streisand Barbra,2322.618677,7.237354086,131346014.7,13364145.63,74,162.5,41239787.57,1,2,False
3074527,0.4353997434,-0.839237632317,Jolie Angelina,17861.864,5.6308,83377458.15,12396482.07,41,167.5,65112775.77,1,3,False
3705358,0.842789357114,-0.156121049143,Thompson Emma,23422.55,7.037222222,36838982.29,2429149.798,57,170.0,58752376.39,1,1,False
2570596,0.463986604564,0.56563813152,Bates Kathy,11902.5256,7.083617747,60726956.59,0.0,68,157.5,46822455.4,1,2,False
3035704,0.368486113316,0.701121948398,Hunter Holly,11059.10811,7.564864865,23850078.67,0.0,58,155.0,38010452.9,1,1,False
2491973,0.892177307935,0.0271936678634,Adams Amy,26959.00671,6.951006711,37971926.0,0.0,42,160.0,51252427.88,0,2,False
2588314,-0.103680668567,0.346219404052,Bergen Candice,1327.381757,7.065033784,0.0,0.0,70,167.5,29395094.07,0,2,False
3423166,0.141830346919,-0.830890350948,Parker Sarah Jessica,3290.977667,6.993796526,50117391.91,5775320.469,51,157.5,41509227.03,0,4,False
3569394,0.255071305378,-0.854706989981,Sarandon Susan,8694.872063,6.727154047,46763840.05,8029964.995,70,167.5,22573619.36,1,0,False
3037411,0.400233306965,-0.21980406308,Huston Anjelica,10506.25,7.022916667,50346519.37,1101916.164,65,175.0,26365709.74,1,1,False
2584478,0.623709986911,-0.577609037156,Bening Annette,14179.5,6.526666667,8234255.479,4417177.914,58,170.0,38385032.12,0,2,False
2993327,-0.742109056009,0.251360016122,Hayward Susan,790.5795455,6.639772727,0.0,0.0,99,157.5,29048164.73,1,2,False
3677186,0.685962671263,-0.626106184488,Swank Hilary,11719.55921,6.371710526,24811531.06,2034910.723,42,165.0,25454763.7,2,2,False
2991391,-0.355867734482,-0.692221351394,Hawn Goldie,2219.530516,7.082159624,63156675.8,3882319.649,71,165.0,28952405.46,1,1,False
3801444,0.217071292983,0.689034516851,Wiest Dianne,9060.649425,7.300574713,319670.275,0.0,68,162.5,28958116.36,2,1,False
3315809,-0.519785150003,-0.393549678179,Minnelli Liza,1215.295547,7.348987854,130543964.1,0.0,70,160.0,16068398.48,1,2,False
2909701,-0.762231266295,-0.0504454421014,Garson Greer,1056.035714,7.025,110132727.1,0.0,112,165.0,18743863.93,1,1,False
3331992,-0.22175587898,0.588244879515,Moore Mary Tyler,197.6957364,7.565116279,13887442.34,0.0,80,167.5,9447061.141,0,3,False
3651171,-0.64923106741,0.462759024248,Stapleton Maureen,2320.553191,6.909574468,0.0,0.0,91,157.5,32212066.54,1,1,False
3818416,-0.645430872183,-0.464779528837,Wood Natalie,2555.251852,6.96962963,103938032.8,1952193.621,78,150.0,18858300.95,0,2,False
3814313,0.458612470733,-0.837640545616,Witherspoon Reese,17396.53125,6.498958333,89807107.46,11487040.11,40,156.0,48934268.86,2,1,False
3541401,-0.428443231431,0.518490678033,Rowlands Gena,7730.02521,7.052941176,7570241.842,88343.55828,86,165.0,22482326.01,0,2,False
3786956,0.727871232731,-0.223041391186,Weaver Sigourney,28100.85776,7.080172414,40232498.97,4018374.298,67,177.5,45313712.78,0,2,False
3076385,-0.706028358139,-0.278448927984,Jones Jennifer,2100.45098,6.835294118,117744239.5,0.0,97,165.0,27932220.78,1,1,False
3110261,-0.754878872619,-0.155748125995,Kerr Deborah,7114.50495,6.923762376,72688863.78,1935483.871,95,165.0,25009521.33,0,1,False
3266786,-0.708359606688,-0.110439515357,Mason Marsha,1830.78022,6.984615385,55257394.28,0.0,74,162.0,21399321.13,0,2,False
3510784,0.695004458401,0.376046315579,Richardson Miranda,11960.70899,7.068783069,7469023.376,0.0,58,162.5,42224097.89,0,2,False
2705913,0.559610977549,0.532580533088,Christie Julie,15831.83673,6.971428571,108245.2555,1712593.877,75,157.5,21442065.91,1,1,False
2931694,0.194735283275,-0.877293377704,Goldberg Whoopi,4002.579019,6.627111717,46187225.19,11324959.81,61,162.5,21876819.57,1,2,False
2938665,-0.692229122324,0.423942640987,Gordon Ruth,4461.887097,6.919354839,0.0,0.0,120,150.0,15055902.19,1,2,False
3156898,0.129633425678,0.154877471947,Lahti Christine,580.7769231,7.274230769,3974706.34,0.0,66,175.0,12540286.97,0,2,False
3201649,0.691518453134,0.182728122203,Linney Laura,13743.76522,7.264347826,46328669.98,13937.28223,52,167.5,50706917.39,0,2,False
3464657,0.898493565221,-0.0664562961008,Portman Natalie,53533.66242,6.736305732,47386746.4,1000000.0,35,157.5,48417014.27,1,2,False
2765722,0.661667813893,-0.157520740971,Davis Judy,6665.405941,6.76039604,17058217.38,0.0,61,162.5,32465045.13,0,2,False
2771091,-0.788292642965,0.137897564936,de Havilland Olivia,3954.639098,7.137593985,81583575.9,216214.4349,100,160.0,24151796.18,2,0,False
2817264,-0.0953167550459,0.795806701798,Duke Patty,383.9948454,7.48685567,0.0,0.0,70,150.0,11525802.05,1,2,False
2852557,0.251555629209,0.610867249656,Falco Edie,1216.49848,7.742857143,0.0,0.0,53,162.5,8092066.668,0,2,False
2944818,-0.669734514562,0.311542003296,Grant Lee,2539.240964,6.779518072,0.0,0.0,91,162.0,23913612.2,1,0,False
3651157,-0.251948972426,0.589577853647,Stapleton Jean,786.7588424,7.79807074,0.0,0.0,93,170.0,39770102.58,0,2,False
2648742,0.35356844627,-0.860341141319,Bullock Sandra,12662.46082,6.848275862,117479045.5,11812675.67,52,167.5,47377079.02,1,1,False
3605358,0.0699424518704,0.188567554477,Shepherd Cybill,1582.992908,7.257919622,31506948.39,85107.98688,66,170.0,10384766.49,0,3,False
3105845,-0.536375783232,0.178725973092,Kelly Grace,7515.2125,6.69375,0.0,124907.0632,87,165.0,8734858.837,1,2,False
3278310,-0.621108915405,0.485956926519,McCambridge Mercedes,7137.354839,6.956451613,0.0,0.0,100,157.5,21088486.68,1,2,False
3282777,0.83748941382,0.0881352624191,McDormand Frances,27782.2963,6.887037037,16808319.85,0.0,59,162.5,52340476.39,1,0,False
3332678,-0.54260095966,0.555377662219,Moorehead Agnes,1490.424731,7.451612903,0.0,0.0,116,160.0,27947373.89,0,2,False
3597922,-0.136781549906,0.710957089558,Seymour Jane,1195.478261,7.141086957,150228.6645,0.0,65,160.0,11825493.04,0,2,False
2765446,0.362086377944,-0.523519114608,Davis Geena,5827.89418,6.740740741,28106960.83,5192972.647,60,180.0,56466326.85,1,1,False
3446886,0.516455067181,-0.788410426868,Pfeiffer Michelle,19584.22059,6.418382353,64562445.71,10250780.52,58,167.5,53726474.7,0,1,False
3688674,-0.639182380743,0.430378503246,Tandy Jessica,5084.8625,6.97375,406466.3968,0.0,107,160.0,27470177.76,1,1,False
3701960,0.591853494048,-0.711871038487,Theron Charlize,20100.69231,6.347692308,23661213.23,12288786.48,41,172.5,65288023.89,1,1,False
3502602,-0.29007282456,0.461650037664,Remick Lee,2107.417582,7.165934066,0.0,0.0,81,167.5,12296434.07,0,2,False
3019376,-0.518732840919,0.174902870389,Holliday Judy,2209.380952,6.971428571,12490706.32,1811320.755,95,170.0,10339862.11,1,1,False
3420208,0.819809318215,0.238181422887,Paquin Anna,23334.68485,7.36,12039138.55,306544.73,34,160.0,65719000.8,1,1,False
3651040,-0.57032053486,0.508735237401,Stanwyck Barbara,733.8184282,7.426558266,24320448.18,873605.8077,109,162.5,7363140.51,0,1,False
2788042,0.583496306206,-0.0748367071069,Dern Laura,11496.51795,6.987179487,2660729.485,4460.966543,49,175.0,25057918.78,0,2,False
2928284,-0.133759719035,0.678138518986,Gless Sharon,152.1674208,7.652941176,308089.3252,0.0,73,162.5,237114.8199,0,2,False
3497099,0.0897402699936,-0.076878402611,Redgrave Lynn,2435.785276,6.83006135,0.0,0.0,73,175.0,20361111.68,0,2,False
3603584,-0.8154848231,-0.0297950094881,Shearer Norma,2340.155556,6.392222222,23076560.51,2571516.039,114,152.5,10416944.68,1,0,False
2735636,0.85145160834,-0.0125840801566,Cotillard Marion,36554.184,6.9392,3540116.615,0.0,41,169.0,67642082.02,1,1,False
2989201,0.832567651305,-0.418951110806,Hathaway Anne,29703.55422,6.821686747,41229422.1,5583490.652,34,170.0,51753710.6,1,1,False
