id_data,x_data,y_data,z_data,votes,rating,gross,salary,age,heightcm,budget,academy,golden,sample
2908376,-0.841595424588,-0.0191781340702,Garland Judy,3302.236715,7.234782609,32599172.25,1012169.844,94,147.5,14840444.64,0,1,False
3183979,-0.767543599104,0.268461228638,Leigh Vivien,4929.014706,7.088235294,73846153.85,1023005.771,103,157.5,8839891.044,2,0,False
2829977,-0.615568575795,0.253727474065,Eggar Samantha,1817.563291,7.448101266,0.0,1035712.524,77,162.5,31219192.28,0,1,False
3114202,-0.224127613553,0.748204867887,Kidder Margot,2613.638889,6.534259259,10371773.49,1045827.482,68,165.0,29971100.42,0,0,False
3417948,-0.465994455281,-0.534680154581,Panettiere Hayden,2819.205357,7.219940476,13681550.5,1048451.731,27,153.0,46514640.02,0,0,False
3603743,0.328134388581,0.66487328284,Sheedy Ally,8313.070175,6.224561404,33408311.58,1056338.028,54,162.5,4638637.722,0,0,False
2561917,-0.140685440565,0.812152418921,Bardot Brigitte,2221.413462,6.182692308,2115494.071,1056972.929,82,166.0,6444426.981,0,0,False
2857514,-0.345882257022,0.682724408167,Fawcett Farrah,870.7658228,6.713924051,21504942.11,1080432.173,69,165.0,24317662.04,0,0,False
3020570,0.459866239239,0.393735458438,Holmes Katie,8106.700787,6.873228346,11196044.82,1087552.842,38,172.5,27295950.82,0,0,False
3406760,-0.811968090885,0.24244348671,Osbourne Sharon,584.0534884,6.449069767,0.0,1100634.699,64,155.0,18207093.52,0,0,False
3037411,0.186167609766,0.642894967724,Huston Anjelica,10506.25,7.022916667,50346519.37,1101916.164,65,175.0,26365709.74,1,1,False
2658031,0.697216644637,0.467070514799,B_ndchen Gisele,4592.958333,5.218055556,0.0,1108333.333,36,177.5,9362901.396,0,0,False
2929697,-0.734849285373,0.40280674381,Goddard Paulette,4556.280488,6.768292683,0.0,1140288.367,106,157.5,17263093.29,0,0,False
3234333,-0.414403999413,0.584842518284,Madonna,2129.46648,6.384636872,29643111.19,1184963.375,58,160.0,26280574.63,0,1,False
3011837,0.739254972247,0.455674782544,Hilton Paris,1958.905045,4.063204748,30872.95579,1190476.19,35,171.4,7313087.592,0,0,False
3746803,0.129925832741,0.81920873448,Van Susteren Greta,403.8571429,5.45,0.0,1200667.037,62,157.5,371281.1524,0,0,False
3217667,-0.617044072168,0.567402847564,Loy Myrna,1111.028409,6.616477273,23976074.61,1230769.231,111,162.5,12027945.4,0,0,False
3612733,-0.784054247538,0.3179547648,Sidney Sylvia,4392.598039,6.853921569,0.0,1250000.0,106,155.0,8382322.681,0,1,False
3664144,-0.237679445118,0.0449564004306,Stowe Madeleine,6270.398693,7.832026144,25859638.87,1254585.746,58,170.0,40081433.18,0,0,False
3465453,0.428548339723,0.248239752147,Potente Franka,19225.30303,7.224242424,3885847.331,1270513.499,42,174.0,62302129.85,0,0,False
3506783,-0.8091248975,0.0673819777139,Reynolds Debbie,3231.176955,6.952674897,65110346.99,1323529.412,84,155.0,12898872.3,0,0,False
2740567,0.078406809188,0.821669963356,Crawford Joan,706.0451613,4.143225806,18058718.01,1347388.12,111,157.5,10450201.94,1,0,False
3635064,0.686524203103,0.316314952156,Sobieski Leelee,16210.59016,6.368852459,12168533.11,1355166.573,33,175.0,19553258.81,0,0,False
3384691,-0.405161970204,0.688816556639,Novak Kim,5784.262136,6.687378641,0.0,1361812.495,83,165.0,2916035.207,0,1,False
2818124,-0.0414080248241,0.741022121084,Dunaway Faye,4858.908654,6.492307692,25460394.07,1389079.253,75,167.5,22254898.05,1,3,False
2979828,-0.501124898061,-0.176426545512,Harden Marcia Gay,10143.79464,7.096428571,222304.3318,1393728.223,57,160.0,27820064.99,0,0,False
2749663,0.178068737622,0.671700281046,Curtis Jamie Lee,7203.784753,6.615695067,45999232.53,1431899.238,58,167.5,25794440.53,0,2,False
2870617,-0.562985768842,-0.425780512162,Fisher Carrie,21156.4186,6.911162791,0.0,1518878.393,60,152.5,30629701.02,0,0,False
2589066,-0.230307496723,0.700553853224,Bergman Ingrid,7569.443609,7.047368421,53637621.02,1562206.935,101,172.5,17874048.61,3,3,False
2914561,0.0175812684353,-0.218398107901,Gellar Sarah Michelle,2594.336673,6.481563126,51433947.01,1568199.043,39,160.0,27544391.6,0,0,False
3052364,-0.500506464396,0.421613425335,Jackson Glenda,546.012987,7.325974026,2022595.852,1603049.048,80,165.0,5843187.686,2,1,False
3002103,0.297096674376,0.361131912183,Henstridge Natasha,2153.104396,7.101098901,5889521.375,1608376.869,42,172.5,19934410.52,0,0,False
2599629,0.415861301512,0.537286538968,Binoche Juliette,12184.66038,6.521698113,1201510.121,1664300.725,52,165.0,37136336.89,1,0,False
3035109,-0.0110649159486,0.397687742033,Hunt Helen,3674.947781,6.943603133,93553984.15,1710620.1,53,167.5,27785375.77,1,4,False
2705913,-0.677778822421,0.0227685255313,Christie Julie,15831.83673,6.971428571,108245.2555,1712593.877,75,157.5,21442065.91,1,1,False
2952307,0.420708126798,0.650915577155,Griffith Melanie,2617.981707,6.387804878,21902589.47,1722315.323,59,176.0,28653415.59,0,1,False
2866351,-0.721041079044,-0.0950241384342,Field Sally,7647.266846,7.350404313,31827580.64,1734339.796,70,155.0,48875778.79,2,2,False
3002240,-0.30796885139,0.266986505334,Hepburn Katharine,2457.025974,7.009090909,296668431.9,1735689.699,109,167.5,19827377.69,4,0,False
2907540,-0.515886606765,0.643967331235,Gardner Ava,1497.495726,6.676923077,18308823.53,1750294.538,94,165.0,23789095.8,0,0,False
2977588,-0.44311412137,-0.413003779654,Hannigan Alyson,3422.718884,7.67639485,57795745.24,1754901.114,42,160.0,34931662.08,0,0,False
2974168,-0.277173537808,0.0497597632969,Hamilton Linda,10348.15169,7.250561798,0.0,1762114.537,60,165.0,41192845.57,0,0,False
2816267,-0.312683855403,-0.673588524007,Duff Hilary,1943.588933,6.793675889,37246687.41,1768202.304,29,155.0,19824832.15,0,0,False
2787814,-0.108758196612,0.729950197373,Derek Bo,1473.369369,6.326126126,39060167.65,1790286.273,60,162.0,9288624.579,0,0,False
3547579,-0.410855792942,0.6723025179,Russell Jane,7159.55,6.828,12165450.12,1798099.63,95,167.5,16766277.69,0,0,False
3019376,-0.362223858797,0.7022788838,Holliday Judy,2209.380952,6.971428571,12490706.32,1811320.755,95,170.0,10339862.11,1,1,False
3714802,0.451255456071,0.361103997418,Tomei Marisa,17529.3,6.56875,12616982.31,1833260.711,52,164.0,26317232.48,1,0,False
2556222,-0.634656140891,0.298271198434,Ball Lucille,232.6149803,7.439684625,117241379.3,1850566.997,105,165.0,9228933.844,0,0,False
3805368,-0.28732346615,0.734236139152,Williams Esther,455.6962025,6.701265823,0.0,1920415.225,95,170.0,16132349.19,0,0,False
3110261,-0.586985803165,0.535873337089,Kerr Deborah,7114.50495,6.923762376,72688863.78,1935483.871,95,165.0,25009521.33,0,1,False
3818416,-0.777967728255,-0.175104106308,Wood Natalie,2555.251852,6.96962963,103938032.8,1952193.621,78,150.0,18858300.95,0,2,False
2725528,0.751871400023,0.182736677338,Connelly Jennifer,31133.18584,5.901769912,9586688.923,1956521.739,46,165.0,49024204.96,1,1,False
2728196,-0.483307413133,-0.574350300127,Cook Rachael Leigh,1935.073171,6.932195122,6513445.026,2032749.859,37,155.0,24558407.57,0,0,False
3677186,0.545935925323,0.442923848004,Swank Hilary,11719.55921,6.371710526,24811531.06,2034910.723,42,165.0,25454763.7,2,2,False
2796520,-0.756805986591,0.359754451046,Dietrich Marlene,2917.392308,7.073846154,33342345.99,2088976.993,115,160.0,21240086.43,0,0,False
2508287,-0.784071995771,-0.129688383931,Allen Debbie,222.9950187,7.155666252,3344947.735,2112676.056,66,155.0,10484069.54,0,1,False
3618651,0.854460129861,0.0776618050456,Simpson Jessica,1378.304348,5.397826087,17970467.44,2131336.406,36,157.5,14054765.24,0,0,False
3209297,-0.528384806231,0.635133737851,Lombard Carole,1056.990826,6.602752294,0.0,2152044.249,108,165.0,10271073.41,0,0,False
2622740,-0.745606102364,0.393565856209,Bow Clara,208.3797468,6.650632911,0.0,2189781.022,111,157.5,3447299.242,0,0,False
2631817,0.0792076228019,-0.770680140997,Breslin Abigail,26180.39024,6.797560976,41015493.01,2229416.218,20,152.5,35096461.69,0,0,False
3307268,-0.781889021836,-0.147333342405,Midler Bette,3173.648148,7.201851852,43021733.75,2229599.615,71,152.5,49851191.02,0,4,False
3605497,-0.709233323429,-0.467669305783,Shepherd Sherri,2213.077519,6.40620155,0.0,2242990.654,49,152.5,14345303.71,0,0,False
2719280,-0.735043218409,0.434260152019,Colbert Claudette,1675.155172,6.872413793,24001532.63,2244159.918,113,160.0,11792337.34,1,1,False
3667499,-0.48976014942,0.636253841708,Stuart Mary,572.4651163,6.662790698,0.0,2307692.308,90,165.0,19415156.65,0,0,False
2601340,-0.192189337433,0.797967176552,Bisset Jacqueline,2256.703226,6.432903226,20683071.49,2329668.55,72,165.0,22504207.51,0,0,False
2745684,0.827497620936,0.161519763924,Cruz Pen©lope,10107.83251,6.163054187,9474051.471,2338269.491,42,165.0,63805375.96,0,0,False
3163287,-0.101693465514,0.446904551667,Lange Jessica,6926.149425,7.372988506,10672473.67,2362204.724,67,170.0,27799055.23,2,4,False
3677325,-0.827413401689,0.153214760939,Swanson Gloria,1598.112069,7.315517241,0.0,2406724.556,117,152.5,4972686.238,0,1,False
3705358,0.4167392715,0.368212148663,Thompson Emma,23422.55,7.037222222,36838982.29,2429149.798,57,170.0,58752376.39,1,1,False
3232396,-0.208438214709,0.559155068228,MacLaine Shirley,4247.515385,6.958076923,42627361.25,2451406.343,82,167.5,31535455.69,1,4,False
3544647,0.295483423004,0.605642423698,Ruehl Mercedes,7374.185185,6.928395062,1448604.878,2491349.481,68,175.0,28400479.29,1,1,False
3082097,0.621261536056,0.107152290196,Judd Ashley,17299.15833,6.743333333,19204075.86,2511379.906,48,167.5,30964052.68,0,0,False
3102605,0.0597986121343,0.403872402735,Keaton Diane,21458.02454,6.895092025,22932275.48,2525061.027,70,165.0,39271049.13,1,2,False
2698961,-0.0655668397281,0.63214561804,Cher,1978.09589,6.935616438,63034128.05,2526630.104,70,170.0,27647637.94,1,3,False
3603584,-0.810852922196,0.290049931162,Shearer Norma,2340.155556,6.392222222,23076560.51,2571516.039,114,152.5,10416944.68,1,0,False
3833878,-0.555301944369,0.61602303726,Young Loretta,386.4852071,6.728994083,3933609.959,2589928.058,103,165.0,7196367.645,1,1,False
2569133,0.615405721897,0.557212948088,Basinger Kim,14235.66957,6.245217391,26929709.0,2591726.335,63,170.0,40448234.46,1,1,False
2819561,-0.687404621424,0.465483634273,Dunne Irene,900.0617284,6.987654321,0.0,2627737.226,118,162.5,21372313.69,0,0,False
3331586,-0.0524666168333,-0.391446097176,Moore Julianne,26009.51515,6.649494949,15803406.86,2820151.434,56,157.5,38167583.21,1,1,False
3002221,-0.420155779059,0.513014630074,Hepburn Audrey,5008.590551,7.037795276,85033140.05,2839843.297,87,167.5,23287774.55,1,1,False
3638759,-0.367697081883,-0.631580863634,Song Brenda,1947.723549,7.394539249,0.0,2923636.675,28,155.0,12422835.9,0,0,False
3128171,0.812393831318,0.0204644387859,Knowles Beyonc©,1914.625455,6.242545455,0.0,2979372.598,35,165.0,13929337.53,0,0,False
2518656,-0.490387419804,-0.398225958979,Anderson Gillian,3172.319048,7.787142857,2062052.237,2988957.055,48,160.0,26088303.61,0,1,False
3812565,0.375517257131,0.0822272811201,Winslet Kate,22795.77457,6.73699422,23336941.07,2990654.206,41,165.0,41774810.24,1,3,False
3786015,0.230355174036,-0.738293905738,Watts Naomi,22941.05769,6.662179487,48930284.72,3076020.712,48,160.0,38616674.43,0,0,False
3783440,-0.192441525743,-0.627824511896,Washington Kerry,10371.81667,7.314166667,0.0,3135970.452,39,160.0,40820008.83,0,0,False
3634961,0.820304020309,0.31157950972,Sobchak Kseniya,182.1071429,4.089285714,0.0,3176283.748,35,170.0,5500000.0,0,0,False
3349830,-0.314023352234,-0.70318734888,Murphy Brittany,4105.144963,7.099017199,37053033.97,3193200.911,39,157.5,27422186.76,0,0,False
3208520,0.783709775533,-0.344492307543,Lohan Lindsay,7737.529762,6.027380952,51152994.6,3264054.22,30,162.5,19750029.74,0,0,False
2877563,-0.125939139899,0.536041299084,Fonda Jane,1936.883041,7.013450292,90190631.16,3330461.758,79,170.0,16658618.44,2,4,False
2904657,-0.520005541418,0.62356971436,Garbo Greta,2348.232759,6.806896552,9504907.821,3367234.154,111,167.5,9580625.144,0,0,False
3615956,0.84285008225,-0.320592687275,Silverstone Alicia,8024.4,6.194814815,23817245.7,3371108.985,40,162.5,35957510.86,0,0,False
3277037,0.198155951294,-0.703501183941,McAdams Rachel,52347.21429,7.241428571,47238650.27,3374585.353,38,160.0,47123714.05,0,0,False
3204297,-0.413960224376,-0.60365382929,Liu Lucy,8522.512376,7.355693069,0.0,3481049.036,48,157.5,50305929.75,0,0,False
2665694,0.0671870809774,-0.156622385006,Campbell Neve,3100.530612,7.514965986,1589268.566,3524964.286,43,170.0,20473096.89,0,0,False
3693619,-0.81937146824,-0.0434548241573,Taylor Elizabeth,1330.314935,6.80487013,54428135.06,3622112.283,84,155.0,30748287.21,2,1,False
3794356,-0.849883853172,0.0995313710183,West Mae,358.74,6.67,36031720.86,3628700.301,123,150.0,9840654.001,0,0,False
3811968,-0.582684863362,-0.507663444986,Winger Debra,9868.652632,7.135789474,23637695.19,3669526.908,61,160.0,21434846.38,0,0,False
2650849,-0.797653521502,0.264717005178,Burke Billie,4484.367089,6.67721519,0.0,3743119.266,132,155.0,8725146.849,0,0,False
2991391,-0.524032673254,0.0911961637723,Hawn Goldie,2219.530516,7.082159624,63156675.8,3882319.649,71,165.0,28952405.46,1,1,False
3508894,-0.075408117986,-0.849704251682,Ricci Christina,10033.75472,6.682389937,11265458.41,4012769.501,36,153.0,24249495.33,0,0,False
2738264,-0.386895362292,-0.461423249512,Cox Courteney,2407.866667,7.624592593,235095.5453,4012966.836,52,162.5,33925146.17,0,0,False
3786956,0.658857090301,0.29807098852,Weaver Sigourney,28100.85776,7.080172414,40232498.97,4018374.298,67,177.5,45313712.78,0,2,False
2908629,0.627832064024,-0.125197073141,Garner Jennifer,9371.565217,6.95819398,39141500.99,4039670.767,44,170.0,33944725.46,0,1,False
2569544,-0.363421903587,-0.738990365817,Bassett Angela,8759.946058,6.976763485,52302372.59,4060030.293,58,160.0,40632793.85,0,1,False
3450255,-0.841086767176,0.140141534901,Pickford Mary,203.4375,6.471323529,12608937.35,4070498.034,124,150.0,8165537.153,1,0,False
2853851,0.544311757311,-0.695620888206,Fanning Dakota,18302.39669,6.470247934,31700931.96,4181293.936,22,160.0,41800591.89,0,0,False
3550380,0.174023547444,-0.780471166332,Ryder Winona,31685.41429,6.851428571,26996059.16,4186915.888,45,157.5,28499812.95,0,1,False
2605353,0.566379198936,-0.0605372815713,Blanchett Cate,49946.34444,6.879444444,35641151.93,4195175.249,47,170.0,62285750.76,2,3,False
3213067,0.239563795722,0.747886508399,Loren Sophia,1133.652406,6.480748663,26670002.56,4235130.203,82,172.5,49573632.87,1,0,False
3640669,0.704759018205,0.343060904308,Sorvino Mira,3210.956835,6.484172662,20679511.93,4321728.691,49,175.0,17470167.87,1,1,False
3036471,0.635332864606,0.0309987463154,Hurley Elizabeth,5914.342593,6.738888889,0.0,4321728.691,51,170.0,29338860.29,0,0,False
2486733,0.825809007182,-0.18162524244,Aaliyah,3463.83871,6.170967742,40471550.86,4380482.382,37,167.5,31433673.76,0,0,False
3665525,-0.0525579767716,0.260813968926,Streep Meryl,9676.969697,6.967878788,52578475.81,4403975.693,67,165.0,32022998.33,3,8,False
2989088,-0.230682288778,-0.40819063109,Hatcher Teri,2116.834437,7.352759382,0.0,4408681.842,52,165.0,57752775.6,0,1,False
2584478,0.72752940184,0.2942405641,Bening Annette,14179.5,6.526666667,8234255.479,4417177.914,58,170.0,38385032.12,0,2,False
3065585,0.214553702505,-0.430430617054,Jeon Do-yeon,990.7,6.89,158444.0226,4446797.247,43,165.0,4100000.0,0,0,False
3000529,-0.81737131281,0.111001736106,Henie Sonja,223.7857143,6.710714286,33333333.33,4494904.077,104,157.5,12555015.61,0,0,False
3749284,0.359787695306,-0.374324971056,Vardalos Nia,2602.714286,6.533673469,80320879.24,4540744.858,54,165.0,14779200.78,0,0,False
3425158,-0.705697533908,-0.493448445982,Parton Dolly,983.0950226,6.735294118,36268736.71,4619826.757,70,147.5,13027863.73,0,0,False
3479557,0.759108860682,0.0394998137001,Queen Latifah,7415.745223,6.639808917,32295644.39,4675569.505,46,175.0,30954570.81,0,0,False
2521602,-0.562117566545,-0.0317710294559,Andrews Julie,8280.596413,7.420179372,80419193.12,4910132.606,81,167.5,69792872.09,1,3,False
3031682,0.770066716,-0.444266457503,Hudson Kate,10703.91803,6.300819672,53652627.98,5002613.156,37,165.0,39771480.62,0,1,False
3525995,0.305064439145,-0.719265697789,Rodriguez Michelle,31204.51402,7.108411215,1070373.423,5151165.237,38,162.5,60091499.94,0,0,False
2765446,0.660073529354,0.376019232108,Davis Geena,5827.89418,6.740740741,28106960.83,5192972.647,60,180.0,56466326.85,1,1,False
3660496,0.481987111528,-0.635967528281,Stiles Julia,18355.64286,7.050714286,79578580.88,5217391.304,35,167.5,34421071.55,0,0,False
3007335,-0.243552765412,-0.775489905813,Hewitt Jennifer Love,1762.584483,7.324482759,68060089.67,5420666.29,37,155.0,30001428.73,0,0,False
2989201,0.756336218304,-0.402737492997,Hathaway Anne,29703.55422,6.821686747,41229422.1,5583490.652,34,170.0,51753710.6,1,1,False
2805258,0.430545798441,-0.357747055824,Donahue Heather,9148.37037,6.42962963,202457285.5,5762304.922,42,170.0,10496178.96,0,0,False
3423166,-0.288304529012,-0.746438167078,Parker Sarah Jessica,3290.977667,6.993796526,50117391.91,5775320.469,51,157.5,41509227.03,0,4,False
3127726,0.646211782508,-0.508503346379,Knightley Keira,40808.4876,6.805785124,16258165.8,5788712.012,31,167.5,79133107.74,0,0,False
3548277,0.766284184533,-0.265264158538,Russo Rene,49094.30612,6.173469388,25599326.38,5810029.533,62,170.0,65303500.06,0,0,False
3162169,0.716925199422,-0.520439678205,Lane Diane,19101.40769,6.703076923,39886128.71,5965744.826,51,167.5,57312505.93,0,0,False
3219080,-0.541721378431,-0.600781645775,Lucci Susan,544.2352941,7.130481283,0.0,6185567.01,70,155.0,1932658.848,0,0,False
3785157,0.359499663651,-0.711175014672,Watson Emma,49836.93103,7.2,0.0,6273299.729,26,162.5,63252113.84,0,0,False
3416958,0.879076644115,-0.147595686369,Paltrow Gwyneth,30533.50777,6.20880829,37864925.36,6275964.864,44,175.0,37959382.7,1,1,False
2715506,-0.241222939342,-0.52482521761,Close Glenn,7106.657321,6.975077882,33937253.53,6480856.133,69,162.5,50867620.46,0,2,False
2820872,-0.701849513829,-0.367208504699,Durbin Deanna,464.575,7.2325,22892773.11,6530612.245,95,157.5,14099620.54,0,0,False
2976386,0.22996752192,-0.597501728753,Handler Chelsea,1488.0,7.022043011,0.0,6657018.813,41,165.0,6474050.584,0,0,False
3211990,0.655421053672,-0.449362541429,Lopez Jennifer,2378.245981,6.099678457,70726417.31,6756127.892,47,165.0,47540063.26,0,0,False
3331159,0.704630046323,-0.529796920942,Moore Demi,13825.18243,6.02972973,30670264.99,6763588.516,54,162.5,45461955.15,0,0,False
3708191,0.863211113768,-0.0280591582401,Thurman Uma,34109.08148,6.265925926,28542251.79,6856085.296,46,183.0,42650664.89,0,1,False
2592092,0.650347179971,-0.616311355198,Berry Halle,21338.31271,6.351202749,28214740.75,6893950.143,50,162.5,73191324.55,1,1,False
3052449,0.0160784974276,-0.833429435322,Jackson Janet,813.6637555,6.619650655,45700959.45,6968641.115,50,157.5,22847935.03,0,0,False
3172387,0.453426722645,-0.664921140824,Lawrence Jennifer,41770.99248,7.030075188,193549104.4,6969395.251,26,167.5,89414462.65,1,3,False
3663022,0.742631197413,-0.216272202311,Stone Sharon,5929.253125,6.418125,14060683.43,7362201.774,58,170.0,36017642.45,0,1,False
2566965,0.43419338994,-0.788242396713,Barrymore Drew,14541.23948,6.560841424,41490355.25,7517326.057,41,160.0,37271305.7,0,1,False
3389934,0.828956185355,-0.146001651523,O'Dell Nancy,7174.619048,5.801190476,0.0,7920792.079,50,172.5,19642321.4,0,0,False
3569394,0.496850203422,-0.467299171122,Sarandon Susan,8694.872063,6.727154047,46763840.05,8029964.995,70,167.5,22573619.36,1,0,False
2819750,0.628483624525,-0.62779439952,Dunst Kirsten,23840.1875,6.578977273,16520628.52,8035704.279,34,165.0,43574807.12,0,0,False
3278897,-0.14536922821,-0.82386331148,McCarthy Melissa,4728.416279,7.364418605,74307739.42,8250000.0,46,155.0,32377126.26,0,0,False
3069831,0.467801562615,-0.744054208433,Johansson Scarlett,56879.30435,6.521195652,43829561.64,8987968.896,32,157.5,102872077.7,0,0,False
3643847,0.586284490267,-0.623049205932,Spears Britney,2497.868805,5.851020408,49612451.81,9002169.477,35,160.0,3794292.505,0,0,False
3842233,0.6844939699,-0.557810525834,Zeta-Jones Catherine,14207.39241,6.399367089,49843443.13,9047522.346,47,167.5,58520172.11,1,0,False
3114226,0.819241515387,-0.131231187113,Kidman Nicole,11641.85619,6.385284281,41713047.71,9151655.549,49,177.5,53959999.3,1,3,False
2996464,0.408432710101,-0.568453000188,Heigl Katherine,5037.726073,7.413531353,46452782.87,9307130.888,38,172.5,30447778.99,0,0,False
3659661,0.425302496889,-0.757550348732,Stewart Kristen,23995.84921,6.761904762,153769311.3,9467830.893,26,162.5,37327181.39,0,0,False
