id_data,x_data,y_data,z_data,votes,rating,gross,salary,age,heightcm,budget,academy,golden,sample
2524205,-0.0556085095757,-0.986522422193,Aniston Jennifer,6857.912317,7.429645094,41417160.83,31833879.15,47,164.0,30892135.86,0,1,False
3604251,0.782189160316,0.179237984161,Sheindlin Judy,800.6521739,6.743478261,0.0,55066921.61,74,152.5,1554347.826,0,0,False
2736701,-0.653362502183,0.0563794334837,Couric Katie,8192.171642,6.58880597,0.0,126792452.8,59,162.0,16485454.56,0,0,False
3811859,-0.0732181485568,0.750905004549,Winfrey Oprah,3529.869806,6.687257618,0.0,689781021.9,62,169.0,28640055.97,0,0,False
