id_data,x_data,y_data,z_data,votes,rating,age,gross,salary,heightcm,budget,academy,golden,sample
2495637,-0.584138566273,2.11587062566,Agena Keiko,1939.514706,8.041176471,43,0.0,0.0,152.5,22982.56492,0,0,True
3658196,1.19916290431,0.872478764469,Stevens Christie,15.14285714,5.992857143,30,0.0,0.0,155.0,515116.5237,0,0,True
3223182,-7.07351954309,-7.72333156677,Lusha Masiela,183.5873016,7.485714286,31,0.0,600333.5186,162.5,825959.5434,0,0,True
3595239,0.978339981433,-1.52785619989,Serena,217.2857143,6.123809524,65,0.0,0.0,170.0,443844.3276,0,0,True
3656311,-3.71413574926,0.57147989672,Stenovitch Nadine,16160.55556,6.522222222,0,0.0,0.0,162.5,204434.1374,0,0,True
3748715,-0.228825227203,-2.30471938686,Vanity,45.0,6.15,43,0.0,0.0,178.0,64977.84361,0,0,True
2849519,0.0376963863443,-1.70616950583,Evyn Jill,216.2105263,5.978947368,32,0.0,0.0,172.5,37001.93598,0,0,True
3216161,-0.489165327074,-0.016252566007,Love Shy,9.590909091,7.177272727,38,0.0,0.0,165.0,53136.00278,0,0,True
3534825,-3.38944818253,-2.15656212515,Rose Julia,20830.38095,6.704761905,43,0.0,0.0,167.5,39021.73913,0,0,True
3163841,-0.0604322928766,0.141273749855,Langlois Danielle,551.0714286,6.828571429,37,0.0,0.0,162.5,31836.67431,0,0,True
3057331,2.90236505789,-0.243231584,James Rahyndee,8.0,4.6,25,0.0,0.0,155.0,25314.63988,0,0,True
3678090,0.467841361732,1.09126675906,Sweet Shay,18.47916667,6.695833333,38,0.0,0.0,155.0,39599.76604,0,0,True
3044012,0.35904060833,-0.434009782507,Inaba Carrie Ann,881.2355289,6.478842315,48,0.0,0.0,165.0,891220.4534,0,0,True
3050484,0.735973312455,2.32230708064,Ivy Madison,16.26470588,6.538235294,27,0.0,0.0,147.5,88050.77595,0,0,True
3684742,1.06895489054,-0.381950442819,Tait Marissa,334.5,5.75,37,0.0,0.0,162.5,360144.0576,0,0,True
3742379,-1.07737704463,2.26453075645,Vallone Brooke,21.77777778,8.322222222,29,0.0,0.0,152.5,83008.79675,0,0,True
2993490,-0.182257214793,-1.18788804319,Haze Allie,101.3389831,6.296610169,29,0.0,0.0,170.0,115678.2727,0,0,True
2725339,1.44519364207,0.20889799387,Conn Terri,168.5945946,5.7,41,0.0,0.0,157.5,315479.8594,0,0,True
2690502,-0.402322000712,-0.494418887505,Chambers Christina,256.2105263,7.1,47,0.0,0.0,167.5,245775.7296,0,0,True
3108057,-0.686272488258,-0.520444549413,Kennedy Cody,1709.05,6.82,25,0.0,0.0,167.5,439983.6267,0,0,True
2939837,-0.796939411117,0.496584878355,Goss Emily,210.3076923,7.361538462,26,0.0,0.0,162.5,16413.41854,0,0,True
3056481,0.425937284811,-2.34638484608,James Allie,13.125,5.375,23,0.0,0.0,172.5,253446.8775,0,0,True
3291848,0.563309962274,0.240574710782,Meadows Julie,26.29310345,6.420689655,42,0.0,0.0,160.0,22360.24845,0,0,True
2538548,0.573143116043,0.250773528392,Ashley Brooke,19.89473684,6.442105263,43,0.0,11042.94479,160.0,23741.75793,0,0,True
3200848,0.272575045764,-2.49911478863,Lindstr_m Pia,444.1875,7.03125,78,0.0,0.0,173.0,626503.0841,0,0,True
3157371,1.21195767115,0.352563185544,Laine Shannon,99.4,5.88,36,0.0,0.0,157.5,15538.97192,0,0,True
2931307,-0.918943660836,-3.53279373568,Gold Judy,744.3037975,6.750632911,54,0.0,0.0,187.5,275513.0661,0,0,True
3176787,-2.04289507508,-3.56889821423,Lechner Geno,19003.20833,6.489583333,51,0.0,0.0,176.0,807211.0235,0,0,True
3523816,1.89513095493,-0.900938159196,Rochon Debbie,269.7265625,5.05625,48,0.0,746.1139896,162.5,333855.5469,0,0,True
3621153,0.0793196802423,-1.09448606174,Sinn Nikki,11.51086957,6.510869565,49,0.0,0.0,170.0,80000.0,0,0,True
2944086,4.96509292557,1.27323311791,Grandin Ethel,109.1666667,5.75,122,0.0,0.0,147.5,47953.03751,0,0,True
2619273,-1.47804817671,-0.383226327034,Boshinski Krista,31.0,7.7,29,0.0,0.0,170.0,7406.357119,0,0,True
3256512,1.15638474319,-0.442575391866,Marquardt Bridget,2297.0,5.728971963,43,0.0,0.0,162.5,282177.7602,0,0,True
2924014,-1.16003069894,1.48463857146,Gilman Sarah,29.83018868,7.883018868,20,0.0,0.0,157.5,500000.0,0,0,True
3642084,-0.889695475893,-0.806445415881,Southern Taryn,3433.122449,6.967346939,30,0.0,0.0,170.0,937354.3153,0,0,True
3645263,-0.00398348252632,1.91372821018,Spicuzza Jeanne Marie,72.16666667,7.641666667,47,0.0,0.0,152.5,7859.718763,0,0,True
3192819,-0.509317084428,-0.461659851696,Lewis Leona,107.0,6.86097561,31,0.0,0.0,167.5,940791.1357,0,0,True
2702985,0.403456095997,-0.456347863173,Chloe,26.68181818,6.362337662,45,0.0,0.0,165.0,110063.4699,0,0,True
3838859,0.428314284421,-0.88923138031,Zana,11.54545455,6.113636364,42,0.0,0.0,167.5,22210.31008,0,0,True
3741028,0.880199019831,0.570729130515,Valentine Stacy,34.64179104,6.379104478,46,714975.6098,0.0,157.5,288871.2239,0,0,True
3654807,-1.08324855631,0.995726189867,Stehlin Savannah,2867.166667,7.516666667,20,0.0,0.0,160.0,5151.165237,0,0,True
3449118,-1.04452889151,-1.89850501681,Phoenix Lauren,9.573770492,6.931147541,37,0.0,0.0,178.0,89404.7619,0,0,True
2760301,-0.644209317354,-1.35544698109,Darby Daryn,6.0,6.633333333,30,0.0,0.0,173.0,63525.67496,0,0,True
3327095,-0.24297948163,-0.966313315253,Monroe Bridgette,19.54545455,6.814545455,48,0.0,0.0,170.0,22679.26626,0,0,True
3547968,2.33504220948,-0.0802373281135,Russell Tina,167.3333333,5.457777778,68,0.0,0.0,157.5,572261.1257,0,0,True
3057304,-0.499624752781,-0.0541246753545,James Paulina,11.0,7.0,30,0.0,0.0,165.0,57887.12012,0,0,True
3065127,1.00495669484,-0.762737777546,Jensen Jane,453.0,5.82,49,0.0,0.0,165.0,455394.5405,0,0,True
2855770,-1.22919794906,1.15959131823,Farrell Meghan,86.31578947,8.110526316,32,0.0,0.0,160.0,34538.07516,0,0,True
3218014,0.467351677463,0.46300636933,Lozeau Danielle,4185.272727,6.357575758,29,0.0,0.0,160.0,155068.5763,0,0,True
3421875,-0.349720584412,-0.451361649452,Park Greena,415.875,6.7375,31,0.0,0.0,167.0,745666.0,0,0,True
3370909,-0.843176475605,0.992061512955,Newman Jaime Ray,5204.937931,7.589655172,38,0.0,0.0,160.0,915432.6391,0,0,True
3732387,-0.264461181791,-0.530555539581,Tyler Nikki,32.18867925,6.918867925,44,0.0,0.0,167.5,184049.0798,0,0,True
2499437,-0.94337919797,1.44847241337,Akana Anna,6544.636364,7.432727273,27,0.0,0.0,157.5,717632.3406,0,0,True
2681762,1.04596731455,0.868732772029,Castaneda Kat,90.3,6.13,34,0.0,0.0,155.0,780295.6763,0,0,True
3495722,-0.826087224234,-0.398995849576,Reagan Faye,13.34042553,7.1,28,0.0,0.0,168.0,52967.20379,0,0,True
2702747,-0.545604011667,0.976069750856,Chiu Cindy,6603.058824,7.129411765,36,0.0,0.0,160.0,685269.4248,0,0,True
3229673,-0.227835727752,-2.51203507092,Macavei Mariea Luisa,163.8571429,5.8,28,0.0,0.0,177.5,1097.721362,0,0,True
3229218,1.11081403,-2.66741311914,Mabey Morgan,9526.2,5.08,24,0.0,0.0,165.0,923749.6721,0,0,True
2905317,-0.805225876555,-1.09119547076,Garcia Gina,841.0,7.061111111,40,0.0,0.0,172.5,256819.3429,0,0,True
2598865,4.20752178631,-1.57760566584,Billington Francelia,206.4,6.08,121,0.0,0.0,167.5,582658.9595,0,0,True
3183877,0.312312207511,0.486950021515,Leigh Payton,16.46153846,6.884615385,49,0.0,0.0,160.0,70089.23834,0,0,True
3819282,-0.93900398102,0.198880047426,Woods Christine,508.1086957,7.55,33,0.0,0.0,165.0,88013.34052,0,0,True
2525985,-3.16133923388,2.90692584043,Anthony Jasmine Jessica,20071.92105,7.271052632,20,0.0,0.0,152.5,524662.7069,0,0,True
3183303,0.640522566598,1.84848642869,Lei Kaylani,14.31404959,6.725619835,36,0.0,0.0,150.0,267347.2589,0,0,True
3507432,-0.403151719391,1.8950140987,Rhambo JoAnna,8555.764706,7.147058824,37,0.0,0.0,155.0,481376.6059,0,0,True
3376519,-2.39850077867,0.54537866372,Nigri Jessica,86.20833333,8.733333333,27,0.0,0.0,167.5,22855.83585,0,0,True
2923120,0.43163081986,-1.7537754611,Gill Kayla,521.9,5.63,27,0.0,0.0,170.0,785457.8313,0,0,True
3601755,2.50586970343,-0.664428941249,Sharp Dolly,478.1875,5.6625,81,0.0,0.0,162.5,60023.53358,0,0,True
3184432,-0.500231998344,2.39123837383,Leisle Madison,2478.3,7.38,17,0.0,0.0,150.0,278732.1658,0,0,True
2608503,-0.00247872098098,-1.07890022618,Blue Chelsea,56.36,6.368,40,0.0,0.0,170.0,667037.2429,0,0,True
2510913,1.50450749526,0.273609945691,Alonso Nicole,532.2,5.62,31,0.0,0.0,157.5,10000.0,0,0,True
2932129,-2.09965668926,0.864891261654,Golding Meta,11108.56098,7.617073171,45,0.0,0.0,162.5,550317.3497,0,0,True
2847321,0.174056818911,1.24354194828,Evangelista Heart,149.0,6.851612903,31,0.0,0.0,155.0,70000.0,0,0,True
3118792,-1.27795537633,-0.512247627791,King Katharyn R.,9.0,7.4,26,0.0,0.0,170.0,500000.0,0,0,True
2597898,-5.1631475677,-3.9113414466,Bigelow Kathryn,31595.58696,6.906521739,65,0.0,0.0,177.5,553471.9418,0,0,True
2768109,-0.39670081316,0.323495922899,Day Felicia,214.3057143,7.203428571,37,0.0,0.0,162.5,809805.4876,0,0,True
2541462,-0.463137203913,-0.427431705096,Atkinson Kimberly,444.8571429,7.047619048,41,0.0,0.0,167.5,238056.5255,0,0,True
3380630,-0.0318091616064,-1.39854784036,Noelle Karina,925.25,6.0875,27,0.0,0.0,170.0,532999.2706,0,0,True
3635386,-0.936391908893,0.0770062926828,Soderlind Henriette,7.0,7.1,20,0.0,0.0,165.0,10000.0,0,0,True
3381324,-1.9347023084,-0.685580624029,Nolan Tania,4364.5,7.923333333,33,0.0,0.0,172.5,3768.212113,0,0,True
3418496,0.154802888096,2.82803952458,Pansino Rosanna,92.23333333,7.39,31,0.0,0.0,145.0,227176.075,0,0,True
3327137,0.333616939349,-0.985686017976,Monroe Elexis,10.16666667,6.083333333,37,0.0,0.0,168.0,55204.09837,0,0,True
2518103,-1.64655243333,1.41484804326,Anderson Andi,9.0,8.516666667,30,0.0,0.0,160.0,88050.77595,0,0,True
3479460,1.28313343534,2.09894108004,Quatro Suzi,50.6,7.183333333,66,0.0,0.0,150.0,146109.0524,0,0,True
3072272,-1.06730489073,0.169274459588,Johnson Lia Marie,156.969697,7.243939394,20,0.0,0.0,165.0,73438.24287,0,0,True
3431901,0.241790882578,-0.447082556165,Pazmino Annemarie,222.0625,6.28125,32,0.0,0.0,165.0,134357.8513,0,0,True
2774793,0.0787580221591,-0.688880658867,De Sanchez Maria,15.05263158,6.621052632,47,0.0,0.0,167.5,23000.0,0,0,True
3484298,0.666241889191,-0.716751604137,Rae Taija,26.37,6.294,54,0.0,0.0,166.0,120000.0,0,0,True
2609887,-0.999360394015,-0.600544450315,Bocci Anna,6188.714286,7.157142857,43,0.0,0.0,167.5,61443.93241,0,0,True
2691743,0.450343621821,-0.498706918287,Chance Loren,7.5,6.225,41,0.0,0.0,165.0,12000.0,0,0,True
2982199,-0.216715798492,-0.172746907936,Harper Hanna,23.07352941,6.788235294,34,0.0,0.0,165.0,293745.2083,0,0,True
3465754,-0.435482606597,3.42720536562,Potter Lauren,560.8095238,7.958730159,26,0.0,0.0,142.5,8863.30871,0,0,True
3546215,-0.596319568278,0.316497544491,Runaway Faye,52.0,7.2,29,0.0,0.0,163.0,250149.1669,0,0,True
3652104,2.50739649812,-1.1200105236,Starr Blaze,490.0,5.7,84,0.0,0.0,165.0,275158.6748,0,0,True
2839547,0.615369252683,-0.934279141959,England Audie,278.2333333,6.09,49,96289.10134,0.0,167.5,59842.51969,0,0,True
2493607,-1.03746142826,-1.05444220031,Adele,429.3111111,7.046666667,28,0.0,0.0,172.5,139836.019,0,0,True
3832122,0.928661163644,-2.02355598083,York Francine,1047.454545,6.795041322,78,0.0,0.0,170.0,673254.2196,0,0,True
3708174,4.44820125538,0.349377791263,Thurman Mary,88.4,6.33,121,0.0,0.0,157.5,865563.1188,0,0,True
2852012,0.186972048103,0.105483801018,Fairlane Morgan,13.0,6.9,50,0.0,0.0,162.5,23925.23364,0,0,True
2680215,-0.451243173335,-0.452616301858,Case Sharon,385.6538462,7.111538462,45,0.0,0.0,167.5,55735.40545,0,0,True
3118360,1.80543423216,-1.37526921706,King Cheyenne,269.2857143,4.9,41,0.0,0.0,165.0,554662.918,0,0,True
2560235,0.814878915303,1.46156811008,Barash Olivia,1167.235294,6.797058824,51,0.0,0.0,152.5,866971.4375,0,0,True
3553862,-0.0379716589838,-0.783077848479,Sade,385.2727273,7.009090909,57,0.0,0.0,167.5,10000.0,0,0,True
2720800,0.8504561994,0.915747602514,Colette DJ,76.66666667,6.366666667,41,0.0,0.0,155.0,67870.57428,0,0,True
2603192,-1.83985089469,-0.632488054847,Black Victoria Rae,109.0,7.9,28,0.0,0.0,172.5,125871.467,0,0,True
3413779,-0.964890912663,-0.219169954862,Paige Alix,100.25,7.35,30,0.0,0.0,167.5,5573.540545,0,0,True
2542841,0.233408720697,0.885986965922,August,64.94117647,6.790196078,35,0.0,0.0,157.0,97921.10207,0,0,True
2681369,-0.357419211454,-1.38887290873,Cassidy Angel,526.1071429,6.553571429,40,0.0,0.0,173.0,127051.3499,0,0,True
3179843,-1.14502338103,-1.36687386028,Lee Lucy,10.20512821,7.11025641,32,0.0,0.0,175.0,61443.93241,0,0,True
2639580,1.61733783232,-1.25507735885,Brown Erin,197.1165049,5.076699029,37,0.0,0.0,165.0,336219.9816,0,0,True
2944478,-0.596466052149,2.35764725182,Grant Allie,1383.301471,7.674264706,22,0.0,0.0,150.0,80000.0,0,0,True
3503337,-1.54600060358,0.507002580065,Reneau Taryn,95.0,8.175,37,0.0,0.0,165.0,11577.42402,0,0,True
3549973,-0.0445025338174,-1.88262620873,Ryan Tracy,94.29411765,6.176470588,44,0.0,0.0,175.0,809127.7595,0,0,True
3287981,0.751857666953,-1.31791922834,McLachlan Hollis,206.1111111,5.622222222,32,0.0,0.0,167.5,184450.183,0,0,True
3527905,0.112325071648,-1.53748130343,Rogers Danielle,21.52727273,6.298181818,49,0.0,6243.305279,172.5,23831.68938,0,0,True
3247501,-0.319002749418,0.663907921342,Manson Candy,9.157894737,7.173684211,33,0.0,0.0,160.0,16720.62164,0,0,True
2912090,-1.22139915998,-0.097259118962,Gavankar Janina,729.24,7.708,36,0.0,0.0,167.5,305703.523,0,0,True
3108723,-0.784152369169,0.107621975579,Kenner Kinzie,14.40625,7.36875,32,0.0,0.0,165.0,17204.30108,0,0,True
3519938,2.9611522988,0.695766351325,Roberts Lynne,284.4558824,6.502941176,94,0.0,0.0,157.5,815660.1895,0,0,True
3613766,-1.05819872433,-0.559654556968,Sigman April,54.0,7.4,36,0.0,0.0,170.0,5000.0,0,0,True
2779957,-1.33378658041,0.770456745581,DeJesus Elijah,86.66666667,7.8,21,0.0,0.0,162.5,650000.0,0,0,True
3183866,1.55533627282,-2.15501440847,Leigh Myla,102.6666667,4.766666667,37,0.0,0.0,170.0,6352.567496,0,0,True
3494412,0.76889925659,0.594577750561,Ray Rachael,31.66071429,6.491071429,48,0.0,0.0,157.5,139608.4865,0,0,True
3179810,-0.786923820192,0.11807856596,Lee Lorelei,497.5454545,7.427272727,35,0.0,0.0,165.0,329328.3592,0,0,True
2521559,0.838173149031,-2.57994688612,Andrews Jacy,80.14285714,5.092857143,38,0.0,0.0,175.0,19968.58351,0,0,True
3052703,0.851974170687,0.470854552489,Jackson La Toya,83.89156627,6.843373494,60,0.0,0.0,160.0,813803.6724,0,0,True
3643866,-0.468509759724,0.752134512313,Spears Jamie Lynn,404.8350515,7.110309278,25,0.0,0.0,160.0,70490.2703,0,0,True
3019123,-0.512819549342,-0.493750204045,Hollander Audrey,65.59375,6.9875,37,0.0,0.0,168.0,55432.94071,0,0,True
3192619,0.53433564777,1.71519999789,Lewis Jenny,5687.142857,6.783928571,40,0.0,0.0,152.5,7855.707823,0,0,True
2532041,0.330186604504,0.352180788395,Aria,12.67346939,6.646938776,41,0.0,0.0,160.0,22173.91304,0,0,True
3657604,-0.595781343218,-1.7661142914,Stern Beth,720.7777778,6.703703704,44,0.0,0.0,176.0,205978.6709,0,0,True
2980233,1.46464000858,1.0587264208,Harding Tonya,70.05263158,6.036842105,46,0.0,0.0,152.5,162000.0,0,0,True
3812207,-1.21784393819,-1.39643990871,Winkleman Sophie,3438.538462,7.153846154,36,0.0,0.0,175.0,85000.0,0,0,True
3625616,-0.593124165547,2.37211039681,Slattery Bailey,95.0,7.825,26,0.0,0.0,150.0,36866.35945,0,0,True
2633558,0.0480990708024,1.70788015639,Bright Kellie,2013.584615,7.304615385,40,0.0,0.0,152.5,6000.0,0,0,True
3639458,-0.642593659033,1.31029065377,SooHoo Nikki,5355.354839,7.309677419,28,0.0,0.0,157.5,243660.7077,0,0,True
3684476,0.417517758434,0.740760768499,Tai Kobe,802.9607843,6.756862745,44,0.0,0.0,157.5,145691.0811,0,0,True
2667746,-0.540454982863,-1.32831090393,Cannibal Anita,148.1578947,6.910526316,47,0.0,0.0,173.0,23558.28221,0,0,True
3644201,0.212316748682,0.169224514479,Spektor Regina,44.22222222,6.588888889,36,7356.64233,0.0,161.5,94452.36436,0,0,True
3593237,-0.0382925380544,2.14351744127,Selznick Patricia,39.25,7.283333333,28,0.0,0.0,150.0,410209.8408,0,0,True
3297119,-0.684355233829,-0.972063166709,Melton Kate,741.6666667,6.666666667,24,0.0,0.0,170.0,8985.399233,0,0,True
3421342,-4.59032720039,0.0680185937871,Parikh Devika,23314.69444,7.736111111,50,0.0,0.0,165.0,47257.35144,0,0,True
2517515,1.78660915197,0.0412123807425,Anders Avalon,100.5454545,5.577272727,53,0.0,0.0,157.5,80971.65992,0,0,True
3229814,1.08629196675,-0.749949366717,MacColl Catriona,3126.069767,6.26744186,62,125550.4866,0.0,165.0,405515.0041,0,0,True
2802172,1.46166591192,1.49984489505,Dockery Opal,20.8,7.12,71,0.0,0.0,155.0,2229.416218,0,0,True
3823512,-2.50291638411,-1.20570593061,Wydra Karolina,11951.65217,7.541304348,35,0.0,0.0,172.5,679460.2646,0,0,True
2783816,-0.759349081604,0.506206850049,Deloach Nikki,1532.828221,7.555828221,37,0.0,0.0,162.5,12534.46878,0,0,True
2518333,-1.2010945235,0.732207441991,Anderson Carrie,29.5,7.966666667,34,0.0,0.0,162.5,50000.0,0,0,True
3539674,0.0139932283298,0.0220565408687,Rotten Rachel,65.82352941,6.647058824,33,0.0,0.0,163.0,79877.11214,0,0,True
3315730,-1.06320408909,-0.649855145905,Minka,26.61904762,7.504761905,46,0.0,0.0,170.0,28633.21754,0,0,True
3540905,-0.154542244196,0.576953109714,Rowan Grace Anne,1423.846154,7.038461538,36,0.0,0.0,160.0,3685.469482,0,0,True
3465649,0.709023965084,-1.19076580362,Potter Carol,83.59776536,6.898324022,68,0.0,0.0,167.5,508879.3781,0,0,True
2923449,1.05323629581,-1.57562975971,Gillespie Dana,732.6111111,6.111111111,67,0.0,0.0,170.0,150000.0,0,0,True
2869662,0.278193588973,2.01179191513,Fire Jada,32.56122449,7.240816327,40,0.0,0.0,150.0,55069.2142,0,0,True
3485743,0.302993926367,0.357656644682,Rain Taylor,12.09433962,6.556603774,35,0.0,0.0,160.0,66882.48654,0,0,True
3666602,-1.24525262037,-0.891680780909,Strong Delilah,11.54545455,7.409090909,34,0.0,0.0,172.5,140797.3375,0,0,True
3309342,-0.324742006504,-0.105555654071,Milano Mariah,10.0,6.976666667,37,0.0,0.0,165.0,141295.0354,0,0,True
2675611,0.772626209075,-0.192264446403,Carradine Calista,63.12,6.42,54,0.0,0.0,162.5,61367.18644,0,0,True
2585445,0.296478243576,-0.0209590473141,Bennett Jill,177.3703704,6.533333333,41,0.0,0.0,162.5,911339.6598,0,0,True
2783910,1.27083579516,-1.26199301409,Delora Jennifer,619.1785714,5.535714286,54,0.0,0.0,167.5,661055.8531,0,0,True
3102602,1.75502048585,-0.998378649552,Keaton Camille,2071.08,5.716,69,0.0,0.0,165.0,615602.589,0,0,True
3708082,-1.3419510319,-0.43867001159,Thurber C.K.,30.0,7.6,31,0.0,0.0,170.0,2380.952381,0,0,True
3020015,0.668875672836,1.1682220943,Hollywood Ash,58.92307692,6.351282051,27,0.0,0.0,155.0,732521.1577,0,0,True
2731716,-0.366617178016,-0.518815265025,Corinealdi Emayatzy,1555.473684,6.818421053,36,81566.59146,0.0,167.5,700995.646,0,0,True
2614104,-0.108710750868,-0.213960352515,Bond Jezebelle,29.69565217,6.741304348,37,0.0,0.0,165.0,10163.74929,0,0,True
3288552,-0.821614357084,-1.51243336759,McLean Sarah,22.25,6.825,35,0.0,0.0,175.0,8358.519629,0,0,True
3142208,-0.0943663954382,-0.864964442638,Kreutzberg Deja,2995.7,6.39,34,0.0,0.0,168.0,782455.8636,0,0,True
3642908,-0.940127478974,0.195504089244,Spalding Esperanza,499.375,7.53125,32,0.0,0.0,165.0,950466.2446,0,0,True
2926829,0.903155888149,0.914081134747,Givens Victoria,8.666666667,6.422222222,46,0.0,0.0,155.0,55735.40545,0,0,True
3061989,-1.32566491583,-0.0458007897578,Jaye Cassie,195.4516129,7.719354839,30,0.0,0.0,167.5,334191.485,0,0,True
3439215,0.0629048877803,0.473401097337,Perez Melina,165.787037,6.844444444,37,0.0,0.0,160.0,60735.40545,0,0,True
3117663,-0.586544269193,-0.37076749949,Kimsey Rachel,592.75,7.116666667,38,0.0,0.0,167.5,483741.2895,0,0,True
3074546,0.310019043171,1.66274980864,Jolie Jenaveve,86.68181818,6.889393939,32,0.0,0.0,152.0,19749.55612,0,0,True
3541204,0.598784700268,-0.980432032856,Rowe Sue,244.047619,5.957142857,43,0.0,0.0,167.5,228422.0682,0,0,True
3698282,1.25665669017,1.03534319915,Tenuta Judy,385.6103896,6.594805195,60,0.0,0.0,155.0,197210.7916,0,0,True
3075464,1.185216825,1.14429310531,Jones Carol,225.85,6.74,61,0.0,0.0,155.0,751013.7875,0,0,True
3114733,-1.12927952696,-1.10013876043,Kightlinger Laura,2738.377907,7.382848837,47,0.0,0.0,172.5,23613.70905,0,0,True
3795732,-3.26146912857,-1.4563012415,Weyers Carole,15339.94118,7.741176471,32,0.0,0.0,175.0,51511.65237,0,0,True
3614597,0.86690557743,0.632767186076,Silk Alexandra,31.0,6.565882353,53,0.0,0.0,157.5,22357.89257,0,0,True
3453829,-0.864833550209,2.5757221626,Pinky,7.25,8.325,34,0.0,0.0,150.0,88736.79519,0,0,True
3180082,-0.72918843671,-1.1227194767,Lee Miko,13.73584906,6.979245283,39,0.0,0.0,172.5,164517.5295,0,0,True
2699222,-0.204905187884,-0.179038181807,Chernetsky Juliya,31.75,6.775,34,0.0,0.0,165.0,813525.675,0,0,True
2568081,-0.177859587401,0.419215898168,Barton Carrie,318.0714286,7.314285714,53,0.0,0.0,162.5,291148.3341,0,0,True
2847648,3.40861728346,0.639735453255,Evans Dale,62.58992806,6.831654676,104,0.0,0.0,160.0,93541.90158,0,0,True
3554058,2.07837432359,-1.15922291923,Sadler Catt,15.625,4.7875,41,0.0,0.0,162.5,557354.0545,0,0,True
3236067,1.36911802759,-0.546313597368,Magill Rachael Lee,660.1428571,5.5,31,0.0,0.0,162.5,5067.735636,0,0,True
3179076,-0.266369696811,0.637039051291,Lee Jenni,120.3636364,7.136363636,34,0.0,0.0,160.0,15129.8457,0,0,True
3134626,-0.415510777453,-0.460346603522,Kopp Liesel,219.1666667,7.061111111,44,0.0,0.0,167.5,65586.30615,0,0,True
2831592,1.03524248056,0.0190860827071,Ejdus Vanja,337.6,5.93,40,0.0,0.0,160.0,22500.0,0,0,True
3563609,-0.536067613953,1.60519438398,Sandberg Carollani,421.0714286,7.764285714,36,0.0,0.0,155.0,15157.19052,0,0,True
3259523,0.380914444994,0.37498312476,Martin Arianne,3362.576923,6.480769231,35,0.0,0.0,160.0,112591.216,0,0,True
3199950,-0.689797833821,-1.55397057168,Lindgren Anna,12.5,6.8,40,0.0,0.0,175.0,3500.0,0,0,True
3846360,1.39762848775,-1.82441134513,Zottoli Mia,158.7,5.118,48,0.0,0.0,170.0,979566.6141,0,0,True
2493099,-1.42658027154,-1.23758386831,Adamson April,232.8571429,7.528571429,40,0.0,0.0,175.0,40022.23457,0,0,True
3115244,0.0834710536677,0.142758305497,Kilgore Diedre,3883.4,6.87,47,0.0,0.0,162.5,92165.89862,0,0,True
3648978,-0.403287900639,-0.654858518487,Stafford Michelle,2800.145455,7.096363636,51,0.0,0.0,167.5,102349.9223,0,0,True
3484615,-2.24559838099,-0.526788545828,Rafferty Sarah,1050.747899,8.41512605,44,0.0,0.0,172.5,20906.46968,0,0,True
3219948,0.767475023902,-0.477053571596,Ludlam Jennifer,85.8,7.083333333,65,0.0,0.0,165.0,764818.3556,0,0,True
2524204,0.731391118962,-0.123671332557,Aniston Brandy,55.43333333,6.043333333,32,0.0,0.0,162.0,531990.5934,0,0,True
3824097,-0.57228860149,-0.00221385359504,Wyte Allison,10.5,7.133333333,32,0.0,0.0,165.0,65638.34429,0,0,True
2503577,-0.174594252657,1.82031332994,Alderson Kristen,11.625,7.2125,25,0.0,0.0,152.5,506893.7551,0,0,True
2747983,-0.893228249351,-0.3101275921,Cummz Courtney,10.16666667,7.35,35,0.0,0.0,168.0,107846.0052,0,0,True
2553171,-1.19914867088,1.10718921151,Baker Breanna,14.66666667,7.9,24,0.0,0.0,160.0,10125.85595,0,0,True
3425595,-1.17363001624,-1.79655702603,Pascale Lorraine,6.333333333,7.233333333,44,0.0,0.0,177.5,100000.0,0,0,True
2838926,0.108997096965,-2.45033838024,Enea Courtney,8229.0,5.533333333,28,0.0,0.0,170.0,10453.23484,0,0,True
3032543,0.465305584244,2.40692354736,Hughes Ashley,545.8888889,6.755555556,25,0.0,0.0,147.5,5573.540545,0,0,True
3789294,0.436007720717,-0.872651121882,Weigel Teri,1748.821429,6.427380952,54,0.0,0.0,167.5,131990.7396,0,0,True
3054866,0.361852535984,0.331075822601,Jade Jewels,17.64285714,6.592857143,40,0.0,0.0,160.0,22955.50668,0,0,True
3498572,-0.0265709850386,-0.238086735411,Reese Carolyn,15.71875,6.76875,42,0.0,0.0,165.0,16780.32228,0,0,True
3509090,3.37956045373,3.33799006965,Rice Anne,67.30769231,6.861538462,75,0.0,242914.9798,155.0,900108.4739,0,0,True
3134377,0.579610657052,0.245009259467,Kopacz Debbie,45.83333333,6.45,44,0.0,0.0,160.0,91639.67813,0,0,True
3554906,0.327407965818,0.410997779987,Sage Linnea,294.9,6.44,28,0.0,0.0,160.0,102206.4223,0,0,True
2572288,-1.96230474865,0.258834980208,Baumeister Athena,20.75,8.1,19,0.0,0.0,167.5,286010.42,0,0,True
3217578,1.15278095888,-2.1261613113,Lowry Lynn,2494.086207,5.8,69,0.0,0.0,172.5,362355.7524,0,0,True
2767472,-1.46147086116,0.461269781379,Dawn Jessica,8.0,8.1,47,0.0,0.0,165.0,15679.85226,0,0,True
3731941,0.668709451312,-0.176571228225,Twiss Jaci,768.4166667,6.05,29,0.0,0.0,162.5,12807.31994,0,0,True
3122819,-0.354058254899,-1.29696187767,Kitchen Tian,38.70588235,6.664705882,43,0.0,0.0,172.5,60000.0,0,0,True
3171067,0.742056280889,1.01167605403,LaVeaux Shayla,250.0148148,6.616296296,47,0.0,0.0,155.0,229445.5067,0,0,True
3170492,-1.4086569086,-0.808962326262,Laurie Miracle,744.45,7.5825,35,0.0,0.0,172.5,278761.5174,0,0,True
3141213,-0.374059987877,-0.486770864043,Krauss Alison,470.68,7.038,45,0.0,0.0,167.5,205950.0881,0,0,True
2726254,0.408106341147,-1.6788411303,Conrad Kimberley,92.30769231,6.115384615,54,0.0,0.0,172.5,662576.6871,0,0,True
2532255,-0.708545522353,2.07927738549,Arias Silvana,35.125,8.020833333,34,0.0,0.0,152.5,335771.8283,0,0,True
2695433,-1.0643547291,0.657440218395,Chase Ashley,68.0,7.8,32,0.0,0.0,162.5,92619.39219,0,0,True
2742888,2.09514645599,-1.92856857577,Croft Annabel,12.6,4.54,50,0.0,0.0,167.5,89495.05214,0,0,True
3269133,-0.713815980286,-1.33042402928,Mathews Alexandra,133.4,6.62,26,0.0,0.0,172.5,62137.14103,0,0,True
3471160,-1.05336142243,-0.188226785431,Price-Francis Amy,997.5528455,7.596747967,41,0.0,0.0,167.5,50000.0,0,0,True
3165137,-1.56641190184,-1.43738116435,Lapkus Lauren,5979.142857,7.208163265,31,0.0,0.0,175.0,77916.20611,0,0,True
3318359,0.896410498187,1.40514768816,Misty,13.28571429,6.478571429,42,0.0,0.0,152.0,37626.36692,0,0,True
3285469,1.36702950145,0.706011419633,McGuire Maren,260.9333333,5.866666667,36,0.0,0.0,155.0,90609.55863,0,0,True
3830080,-0.185943232222,-0.351874094947,Yennie Ashlynn,4092.043478,6.57826087,31,0.0,0.0,165.0,583804.9516,0,0,True
2972869,0.526141170416,1.90495928014,Halston Holly,10.38461538,7.007692308,42,0.0,0.0,150.0,16004.33895,0,0,True
3769417,-1.23082422755,-0.0895052063972,Von Candace,9.0,7.66,32,0.0,0.0,167.5,330.1904098,0,0,True
3708930,2.49950551423,-0.795385893657,Tidwell Monica,92.0,4.875,62,0.0,0.0,160.0,289962.8253,0,0,True
2851885,0.461466852012,-0.967489521443,Fairchild Nikki,54.5,6.0,38,0.0,0.0,167.5,22347.06589,0,0,True
2564833,-0.505475872587,0.270030767879,Barra Aaralyn,295.8333333,7.15,31,0.0,0.0,163.0,86830.68017,0,0,True
3495044,-0.254071957312,0.179844749359,Rayne Veronica,366.0,7.082758621,40,0.0,0.0,163.0,172226.8839,0,0,True
3393693,0.41793712676,0.304904875348,Obsession,20.84375,6.534375,40,0.0,0.0,160.0,23049.21969,0,0,True
2488932,-0.245770115767,-2.07989891723,Able Whitney,7275.482759,6.006896552,34,0.0,0.0,172.0,583978.1256,0,0,True
3187540,0.151251342536,0.42722707344,Leone Sunny,278.4159292,6.709734513,35,0.0,0.0,160.0,148749.7701,0,0,True
3153537,6.50875722125,-0.943507015214,La Varnie Laura,164.625,6.6,163,0.0,0.0,162.5,999899.2226,0,0,True
3119293,0.189477608894,0.753666334821,King Shelley,1466.538462,7.323076923,61,0.0,0.0,162.0,22294.16218,0,0,True
3549883,-0.400309907191,-1.20648966907,Ryan Samantha,14.26530612,6.632653061,38,0.0,0.0,172.0,94992.69606,0,0,True
2994475,0.477998959809,-1.13259312966,Heart Holly,28.0,5.9,35,0.0,0.0,168.0,15188.78393,0,0,True
2907661,5.03161907889,-1.09802449587,Gardner Helen,163.3333333,5.566666667,132,0.0,0.0,162.5,62717.77003,0,0,True
3132506,-0.476332688885,-0.0660504105113,Komagata Momona,80.91666667,6.975,30,0.0,0.0,165.0,63301.62363,0,0,True
3074609,-0.217854466909,1.10006123643,Jollee Ariana,10.31578947,7.259649123,34,0.0,0.0,157.0,2894.356006,0,0,True
3307236,5.21036965111,0.479982557383,Midgley Fanny,686.6666667,7.183333333,137,0.0,0.0,160.0,457855.2588,0,0,True
3705382,-5.34367046448,0.991206139686,Thompson Evie,27886.94737,6.689473684,21,0.0,0.0,160.0,640183.9181,0,0,True
3097488,0.731710465418,-1.05861249603,Katase Rino,619.96875,6.290625,59,0.0,0.0,168.0,700000.0,0,0,True
2791209,-1.61882819313,0.11176011741,DeVitto Torrey,916.2792208,8.040909091,32,0.0,0.0,167.5,772811.8761,0,0,True
3810999,0.00208617461872,-1.07228787705,Wilson Torrie,236.008547,6.382905983,41,0.0,0.0,170.0,97458.33817,0,0,True
2778648,-0.0690451805811,0.0557347167947,Dee Sophie,507.171875,6.7046875,32,0.0,0.0,163.0,977896.9427,0,0,True
2941862,-0.882022517749,1.34613207333,Grace Amber,10.5,7.7,24,0.0,0.0,157.5,12562.92798,0,0,True
2544122,0.688292758836,0.175940531001,Autumn Emilie,1939.75,6.2375,39,0.0,0.0,160.0,511330.871,0,0,True
3234170,0.821211396468,-1.2514028403,Madison Holly,1452.054264,5.61627907,37,0.0,0.0,167.5,463096.9609,0,0,True
3605536,1.60879828052,0.146661056862,Shepis Tiffany,609.785124,5.526446281,37,24111.0,0.0,157.5,637165.3355,0,0,True
3810119,1.37572012075,-1.03807485531,Wilson Kelli,103.3333333,5.333333333,37,0.0,0.0,165.0,133407.4486,0,0,True
3597745,-1.06510935289,-1.05856455849,Sexx Nikki,12.6,7.193333333,34,0.0,0.0,173.0,10669.5593,0,0,True
3471778,-0.541800946115,-1.23866098683,Prince Diana,1539.285714,6.697142857,37,0.0,0.0,172.5,828082.3497,0,0,True
2693929,-1.6831213103,0.0202522478279,Chappell Crystal,36.04705882,8.107058824,51,0.0,0.0,167.5,81596.36693,0,0,True
2921607,1.1169876346,-0.221563883951,Gifford Kathie Lee,834.8613861,6.508910891,63,0.0,0.0,162.5,33441.24327,0,0,True
2574092,-0.493045985552,-0.827152781142,Beadle Michelle,840.5,6.92,41,0.0,0.0,170.0,144717.8003,0,0,True
2724966,-1.40855009913,-0.0359541197656,Coney Amber,169.7142857,7.65,24,0.0,0.0,167.5,318600.1502,0,0,True
3840895,1.20998232336,-0.737651496627,Zee Ona,23.14503817,6.277099237,65,0.0,0.0,165.0,6670.372429,0,0,True
3252588,-0.180002295901,0.59537155403,Marie Daisy,38.94117647,6.997058824,32,0.0,0.0,160.0,24044.05112,0,0,True
3805920,0.413912790875,-0.844668869401,Williams K.C.,19.85507246,6.223188406,46,0.0,0.0,167.5,600250.0,0,0,True
2861339,4.09375218898,0.753590560767,Ferguson Helen,102.1666667,6.716666667,116,0.0,0.0,157.5,83771.42857,0,0,True
3162646,-0.76538465504,-0.370911754861,Lane Tory,16.27472527,7.196703297,34,0.0,0.0,168.0,103512.3424,0,0,True
3503480,-0.983468499461,0.19927053023,Renee Melia,84.3,7.45,27,0.0,0.0,165.0,15500.0,0,0,True
3218730,-3.26042619417,-0.204044966165,Lucas Christine,15780.0,7.8,41,0.0,0.0,167.5,111840.033,0,0,True
3480768,-0.331228280457,-1.72659911896,Quinn Kayla,5.875,6.55,46,0.0,0.0,175.0,83353.89615,0,0,True
2815694,-1.20940956435,-1.62357045053,DuClos Danielle,8211.0,6.957142857,42,0.0,0.0,172.5,50820.53997,0,0,True
3216155,-0.830765929545,1.32269068128,Love Shayla,193.2,7.78,29,0.0,0.0,157.5,77370.64718,0,0,True
3106525,0.653783605024,2.31483402206,Kelly Shannon,36.22222222,6.844444444,36,0.0,0.0,147.0,210607.0899,0,0,True
3322060,-0.578144270757,1.5969840938,Modesto Julia,44.0,7.5,24,0.0,0.0,155.0,929500.0,0,0,True
3221990,0.524002719185,-0.956466719846,Lund Zo_,2873.384615,6.330769231,54,0.0,3960.39604,167.5,684111.1375,0,0,True
3746803,-8.3748118628,-19.1073365005,Van Susteren Greta,403.8571429,5.45,62,0.0,1200667.037,157.5,371281.1524,0,0,True
2586853,1.55001184544,0.586274073006,Benton Barbi,109.9152542,6.477966102,66,0.0,0.0,157.5,599145.4864,0,0,True
3422967,0.131787022212,0.505632582848,Parker Madison,8.875,6.6,27,0.0,0.0,160.0,10669.5593,0,0,True
2795369,0.608634846729,-0.155548080797,Dickens Sabrina,1978.5,6.092857143,28,0.0,0.0,162.5,20275.7502,0,0,True
3288321,2.34401658699,-0.875624299753,McLaughlin Michelle,39.5,4.716666667,44,0.0,0.0,160.0,2608.695652,0,0,True
2854975,0.376500001111,-1.09609051189,Farley Jenni 'Jwoww',185.1272727,5.955151515,30,0.0,0.0,167.5,598605.6617,0,0,True
2639053,-1.23340344992,-0.490507590713,Brown Candace,1247.176471,7.564705882,36,0.0,0.0,170.0,54961.32741,0,0,True
3336281,1.17813376647,-0.048362327669,Morgan Angelique,19.66666667,5.816666667,41,0.0,0.0,160.0,43905.44438,0,0,True
2922278,1.96276309885,-2.31310575397,Gilbert Glori-Anne,238.40625,4.45,47,0.0,0.0,170.0,273390.4468,0,0,True
3567200,-1.45633116984,-0.826324454802,Santiago Tessie,96.32432432,7.691891892,41,0.0,0.0,172.5,1440.57623,0,0,True
3600351,1.96673828096,0.389678987781,Shannon Colleen,524.75,5.341666667,38,0.0,0.0,155.0,557193.3802,0,0,True
2881897,-0.735298387146,-0.296493515766,Foster Kat,127.4444444,7.275925926,38,0.0,0.0,167.5,184331.7972,0,0,True
3813080,-0.686306565032,1.27141746368,Winters Anne,275.9512195,7.424390244,22,0.0,0.0,157.5,870594.4814,0,0,True
3734044,0.528457095198,1.76855719721,Udy Helene,584.0887097,7.310483871,54,0.0,0.0,152.5,652821.5652,0,0,True
3600019,0.324157690783,-0.87528430838,Shane Nikki,10.05128205,6.369230769,49,0.0,0.0,168.0,45000.0,0,0,True
2650403,-1.48417730819,0.871308225168,Burgess Sara,34.0,8.15,28,0.0,0.0,162.5,2279.613521,0,0,True
3640732,-2.73236265369,-0.557418377809,Sosa Gabriela,124.875,7.775,0,0.0,0.0,172.5,668333.0,0,0,True
2490006,0.970198424011,0.918533614081,Abubo Megan,8766.333333,6.433333333,38,0.0,0.0,160.0,26086.95652,0,0,True
2627520,0.182597781726,0.87848764961,Branch Nicole,6.5,6.7,29,0.0,0.0,157.5,6580.99195,0,0,True
2571203,0.737032225695,-0.600398835092,Batten Susan,311.0833333,6.308333333,55,0.0,0.0,165.0,24577.57296,0,0,True
3485720,0.0916159962126,-0.694541371219,Rain Misty,24.05714286,6.606666667,47,0.0,0.0,167.5,278677.0273,0,0,True
3280643,-0.539230260726,0.359626206021,McCormick Kathryn,1108.913793,7.051724138,26,0.0,0.0,162.5,4801.301686,0,0,True
2581891,-1.76947857693,0.196302097794,Bellisario Troian,464.0606061,8.17979798,31,0.0,0.0,167.5,509193.2237,0,0,True
3471252,-0.730415626386,0.869759603765,Pridemore Jessie,59.75,7.575,31,0.0,0.0,160.0,67318.38721,0,0,True
3441398,-4.22014477827,2.42359967815,Perry Lindsay,20908.66667,9.033333333,32,0.0,0.0,157.5,2115.77424,0,0,True
2848215,-0.010380662533,0.916224759521,Evans Mary Beth,134.25,7.390625,55,0.0,0.0,160.0,303775.6785,0,0,True
2578177,0.129207873862,-0.445921693093,Beesley Shayla,649.7272727,6.318181818,28,0.0,0.0,165.0,392692.6461,0,0,True
2750783,-1.05849807562,0.253365199751,Cypress Tawny,1844.581818,7.711818182,40,0.0,0.0,165.0,800216.9477,0,0,True
3354063,0.57730229502,0.643841574169,Myne Shelbee,12.01639344,6.545901639,42,0.0,2208.588957,157.5,22688.02248,0,0,True
3493852,-1.58773495399,-1.67080785782,Raw Sea J.,9.75,7.35,30,0.0,0.0,178.0,44025.38797,0,0,True
3091284,0.761471295568,-0.574619836088,Kane Sharon,24.01754386,6.559356725,60,0.0,0.0,165.0,52388.9338,0,0,True
2499244,1.26951451572,0.295156322508,Ajemian Andrea,404.7857143,5.860714286,41,0.0,0.0,157.5,130413.6954,0,0,True
3212879,-0.108858531324,-1.00332598442,Lord Rebecca,82.49514563,6.557281553,43,0.0,0.0,170.0,17877.17734,0,0,True
2878885,0.629525749027,-0.250227573901,Ford Alexis,64.55555556,6.061111111,28,0.0,0.0,163.0,55934.40758,0,0,True
3416266,-0.248295618732,-1.76915954426,Palmer Laura,257.7258065,6.474193548,47,0.0,0.0,175.0,299065.4206,0,0,True
3567082,0.0907178018199,-0.399707988438,Santiago Kim,65.4,6.38,29,0.0,0.0,165.0,187235.8361,0,0,True
2790999,-0.377205601738,0.266458675896,Devine Ava,7.7,7.26,42,0.0,0.0,163.0,106598.5985,0,0,True
3617896,0.769033912831,-1.97778932922,Simone Julie,66.0,5.445454545,42,0.0,0.0,172.5,45420.35342,0,0,True
3712845,2.19838891529,-1.01572259001,Todd Trisha,811.0,5.0,55,1328178.27,0.0,162.5,215916.955,0,0,True
3150903,-1.38395729782,1.10787443555,Kwiatkowski Paloma,6762.5,7.457142857,22,0.0,0.0,160.0,775314.6399,0,0,True
3480458,-1.10877956338,1.96582867572,Quin Tegan,105.3571429,8.364285714,36,0.0,0.0,155.0,184331.7972,0,0,True
2566064,0.189535872613,-1.1568384303,Barrington Kristara,27.25384615,6.441538462,51,0.0,0.0,170.0,84758.36431,0,0,True
3446733,1.75065954873,1.4498079055,Pfalzgraff Jennifer,12566.84211,6.294736842,41,0.0,0.0,160.0,805366.3629,0,0,True
2705955,1.10636407329,0.13950366119,Christie Nikki,4481.777778,5.944444444,30,0.0,0.0,160.0,5548.46975,0,0,True
3501515,-1.32140135983,0.217126273049,Reinhart Lili,4039.941176,7.311764706,20,0.0,0.0,165.0,210167.5416,0,0,True
2691193,-0.630871646172,-0.356934647391,Chan Deja,19.38461538,7.084615385,34,0.0,0.0,167.5,12705.13499,0,0,True
3255000,-2.24170317705,0.223097934246,Markle Meghan,6705.520661,8.309090909,35,0.0,0.0,167.5,20906.46968,0,0,True
2847963,0.677981425601,0.302968503401,Evans Judi,492.92,6.592,52,0.0,0.0,160.0,372421.2699,0,0,True
2594212,-1.64294004648,-0.627391449057,Bethell Tabrett,983.1914894,7.827659574,34,0.0,0.0,172.0,35000.0,0,0,True
3653265,1.15351692761,-0.42369056828,Stearns Stephanie,89.33333333,5.7,40,0.0,0.0,162.5,22987.71121,0,0,True
2927579,-1.05103530509,0.63698596657,Glasser Kelsey,204.0,7.7,28,0.0,0.0,162.5,773809.5238,0,0,True
2539657,-0.193884339598,0.68514997575,Aspen Charlene,10.59259259,7.266666667,43,0.0,0.0,160.0,22668.74165,0,0,True
3791418,-2.30275968333,-1.36380747011,Weller Jill,613.6666667,8.1,30,0.0,0.0,178.0,13350.0,0,0,True
3719587,0.319735871045,1.22481230761,Towers Tiffany,382.3076923,7.046153846,45,0.0,0.0,155.0,418129.3936,0,0,True
2699372,0.157760636203,2.04149348685,Cherokee,15.47619048,7.214285714,34,0.0,0.0,150.0,30721.96621,0,0,True
3274248,-0.540321155408,-0.0248778070319,May Kelly,32.71428571,7.071428571,31,0.0,0.0,165.0,37951.87952,0,0,True
2521530,-0.748027115634,-1.53013457383,Andrews Erin,805.5544554,6.799009901,38,0.0,0.0,175.0,11147.08109,0,0,True
3374566,-1.05785837443,1.02973755994,Nicole Brianne,166.2,7.8,26,0.0,0.0,160.0,11904.7619,0,0,True
3542261,1.5427084471,0.0470113746314,Royalle Candida,172.1666667,6.31372549,66,0.0,0.0,160.0,425660.7749,0,0,True
3785900,-3.17683248542,1.89315441072,Watts Carol Anne,18689.5,6.488888889,29,0.0,0.0,157.5,62096.83514,0,0,True
3521269,1.27696910701,1.36587962492,Robinson Anne,257.3235294,7.467647059,72,0.0,0.0,160.0,635256.7496,0,0,True
2692088,-1.16386366042,1.51813325609,Chando Alexandra,91.05128205,8.152564103,30,0.0,0.0,157.5,150000.0,0,0,True
3550287,0.312372707165,-0.0316351198374,Ryder Gina,26.66197183,6.48028169,39,0.0,0.0,162.5,48452.7085,0,0,True
2670256,0.40385013062,-0.486511329021,Caramel,27.0,6.233333333,39,0.0,0.0,165.0,21345.19177,0,0,True
2502360,0.428880815895,7.33041431197,Albert Shari,5254.391304,7.373913043,45,11277763.51,0.0,150.0,948875.5689,0,0,True
3672290,-0.178350170613,-0.577892089088,Summers Gwenn,14.25581395,6.690697674,38,0.0,0.0,167.5,70000.0,0,0,True
2691883,0.493275896741,0.688254170232,Chandler,12.48571429,6.637142857,42,0.0,0.0,157.5,25098.26496,0,0,True
3498391,-1.05318901908,0.284813315283,Reenstra Rachel,364.1428571,7.760714286,46,0.0,0.0,165.0,441263.341,0,0,True
3610656,1.50981537487,-2.19295046277,Shower Kathy,94.65217391,5.22173913,63,0.0,0.0,172.5,673613.7667,0,0,True
3170080,-0.689386063992,0.058712590962,Lauren Melissa,13.27272727,7.265151515,32,0.0,0.0,165.0,56297.40126,0,0,True
3842181,-0.781561191953,0.130756596359,Zerva Dia,7.25,7.475,38,0.0,0.0,165.0,55031.73497,0,0,True
2655924,0.272640474792,-0.956615388983,Buxton Sarah,4184.238095,6.453968254,51,0.0,0.0,167.5,127051.3499,0,0,True
3495004,-0.116269962004,0.970292602494,Rayne Amber,13.25490196,7.064705882,32,0.0,0.0,157.5,37373.76303,0,0,True
2837671,3.13632912738,0.620155783185,Emerson Faye,733.8205128,6.784615385,99,0.0,0.0,160.0,92307.69231,0,0,True
2557741,0.418689697691,-0.46309777484,Bamford Maria,276.8696343,6.367249603,46,0.0,0.0,165.0,360949.0019,0,0,True
2499037,-0.392021796941,0.293313195497,Aitkens Daisy,184.9,7.03,30,0.0,0.0,162.5,78753.14262,0,0,True
2825950,2.25202511032,1.10568813937,Eaton Marion,590.2,6.98,84,0.0,0.0,157.5,165095.2049,0,0,True
3305323,-1.77481976679,-0.24537925662,Michaels Amanda,18.0,8.1,37,0.0,0.0,170.0,5640.142365,0,0,True
3663635,-0.77365078762,-1.20898983305,Storm Randi,14.66666667,7.176666667,49,0.0,0.0,172.5,23272.74812,0,0,True
2953584,-2.06603527185,1.41239800538,Grishina Oksana,27.0,8.9,38,0.0,0.0,162.0,55000.0,0,0,True
2896439,1.14572881251,0.787294632916,Furtado Nelly,1523.824324,6.067567568,38,0.0,0.0,155.0,289435.6006,0,0,True
2518283,-0.485977845644,0.350565553165,Anderson Brooke,1378.483871,7.232258065,35,0.0,0.0,162.5,297325.8629,0,0,True
3823872,-0.614106171719,0.0280231135222,Wynn Tyla,11.55555556,7.225925926,34,0.0,0.0,165.0,82406.93138,0,0,True
3638370,1.36312518361,-0.303254644057,Sommerfeld Sara,570.65,5.575,39,0.0,0.0,161.0,100000.0,0,0,True
3494389,0.825030035011,0.767383464046,Ray Nicole,10.84210526,6.178947368,27,0.0,0.0,157.0,26673.89826,0,0,True
2585213,0.580489838985,1.20674351373,Bennett C.J.,10.44444444,6.95,51,0.0,0.0,155.0,21682.66516,0,0,True
3536938,1.33205600709,1.81842583648,Rosman Mackenzie,70.71314741,5.954183267,27,0.0,0.0,150.0,517367.8028,0,0,True
3841703,0.191302585624,-0.350579606141,Zen Lezley,16.1125,6.52875,42,0.0,0.0,165.0,11904.7619,0,0,True
2671142,0.2232281927,1.2301560479,Cardon Rebecca,38.9375,7.05,41,0.0,0.0,155.0,238095.2381,0,0,True
3262465,0.265233743699,0.373115734931,Martinez Shelly,109.3448276,6.610344828,36,0.0,0.0,160.0,73774.2583,0,0,True
3725922,-3.29973591821,-2.23600348651,Tsai Cheryl,20282.95833,6.741666667,38,0.0,0.0,170.0,24992.92925,0,0,True
3781737,-0.301849230637,0.318597081067,Wardley Niky,124.6969697,7.23030303,43,0.0,0.0,162.5,60000.0,0,0,True
3110359,-0.791031754874,-0.732155006832,Kerr Marion,2351.058824,7.1,37,0.0,0.0,170.0,252236.5331,0,0,True
2511385,0.630239689905,-2.19512787378,Alsou,105.7142857,5.364285714,33,0.0,0.0,173.0,601302.4602,0,0,True
3484040,-0.399387840451,1.50322570603,Rae Chelsie,96.45,7.525,32,0.0,0.0,155.0,75411.94917,0,0,True
3288216,-1.12547635828,1.05566193742,McLaughlin Elizabeth,343.2777778,7.780555556,23,0.0,0.0,160.0,26133.0871,0,0,True
3229480,-1.65310978259,-0.706899810586,Macallan Jes,116.7945205,7.81369863,34,0.0,0.0,172.5,230496.2404,0,0,True
2708456,0.0957018115071,-0.287718062873,Ciccero Mia,14.0,6.7625,47,0.0,0.0,165.0,50000.0,0,0,True
2926320,-1.71491104686,1.40792631171,Gish Lorian,13.5,8.35,19,0.0,0.0,160.0,52905.0375,0,0,True
3102197,1.23210372098,4.90265843681,Keanan Staci,283.4587629,6.548969072,41,7983439.327,0.0,157.5,999284.1191,0,0,True
3391600,0.960854158539,1.01364580728,O'Neil April,28.96875,6.146875,29,0.0,0.0,155.0,125000.0,0,0,True
3700454,-1.07022506475,-1.09142851062,Texas Alexis,1441.956204,7.108759124,31,0.0,0.0,173.0,793592.0135,0,0,True
2960793,1.09170112147,1.70303938784,Gunn Montana,22.26923077,6.569230769,49,0.0,0.0,150.0,23369.60037,0,0,True
3594637,-2.08420827008,0.795755878718,Seohyun,73.8125,8.55625,25,0.0,0.0,165.0,750.0,0,0,True
3619383,-0.568883007509,0.788168826431,Sin Allie,11.875,7.4,31,0.0,0.0,160.0,66882.48654,0,0,True
2812595,1.79858432984,-1.6248456604,Drew Griffin,145.6785714,4.866071429,48,0.0,0.0,167.0,349498.3278,0,0,True
3012859,-1.02397872767,1.05511666833,Hinton Jerrika,628.3252033,7.957723577,35,0.0,0.0,160.0,772235.8874,0,0,True
2570399,-1.66019609271,11.6393136893,Bateman Justine,105.077193,6.958947368,50,16743444.8,0.0,165.0,931124.3975,0,0,True
2740338,2.10154091587,-1.04602254929,Craves Cala,9.0,4.9,52,0.0,0.0,162.5,55031.73497,0,0,True
2606846,0.857205046263,0.61511967176,Bleu Bunny,20.62755102,6.535714286,52,0.0,441.7177914,157.5,278810.4089,0,0,True
3163605,-0.979368384308,0.998168027339,Langford Jayme,12.88888889,7.794444444,29,0.0,0.0,160.0,15248.90236,0,0,True
3179942,0.893024985486,-1.46562303017,Lee Marrie,198.125,5.8875,57,0.0,0.0,170.0,350000.0,0,0,True
3543357,-0.937768582745,-0.572710298468,Rubin Rosalind,5634.0,6.97,32,0.0,0.0,167.5,14118.16988,0,0,True
3325422,0.0921710028181,1.68735587462,Monaco Kelly,626.0457516,7.294771242,40,0.0,0.0,152.5,307219.6621,0,0,True
3791989,-0.82706870304,0.52317420159,Wells No_l,177.8,7.506666667,30,0.0,0.0,162.5,2654.235326,0,0,True
3565180,0.226526969738,-0.360141461916,Sands Lana,17.45348837,6.563953488,45,0.0,0.0,165.0,80000.0,0,0,True
3549584,-1.43825256772,-0.876255144258,Ryan Jeri,550.7733711,7.539093484,48,107953.0,62717.77003,170.0,372922.7729,0,0,True
3187184,0.978602807913,-2.53812591817,Leonard Gloria,71.1025641,6.180769231,76,0.0,0.0,175.0,80136.95344,0,0,True
2856786,0.803855637147,0.14608092637,Fauble Nikki Lee,12.0,6.1,34,0.0,0.0,160.0,100000.0,0,0,True
3517547,-0.382053704162,0.750037660443,Rivero Iracel,16.4,7.4,40,0.0,0.0,160.0,15232.25837,0,0,True
3728348,-0.0596041486575,-1.30635367834,Tuesday Rubee,14.33333333,6.95,60,0.0,0.0,170.0,22679.26626,0,0,True
3547996,-0.482987931542,0.364615401282,Russell Wonder,890.6296296,7.285185185,37,0.0,0.0,162.5,122385.5149,0,0,True
3797838,0.486828710029,0.846283317064,White Karen Malina,183.1908397,6.91221374,51,0.0,0.0,157.5,234399.3769,0,0,True
3564081,2.16910614842,-1.55508057248,Sanders Laura,158.6666667,5.333333333,75,0.0,0.0,167.5,4915.514593,0,0,True
2988636,-1.0937232556,-0.0121252895564,Hassler Marem,6573.409091,7.209090909,38,0.0,0.0,165.0,2919.066845,0,0,True
3281558,0.820326754654,-0.632344665036,McCullough Shanna,43.93719807,6.25942029,56,0.0,0.0,165.0,179620.3046,0,0,True
3206484,0.350846651234,-1.33842441175,Lo Siboney,483.8666667,5.946666667,38,0.0,0.0,170.0,104247.6072,0,0,True
3507730,-0.178308763066,0.614576948231,Rhodes Alicia,14.36363636,7.134090909,38,0.0,0.0,160.0,88472.97824,0,0,True
3192794,-2.02809466034,-0.375883010624,Lewis Laura Fay,13.66666667,8.233333333,56,0.0,0.0,170.0,720000.0,0,0,True
3629287,2.41912349241,-4.06387172124,Smith Elizabeth G,12.0,8.5,116,0.0,0.0,170.0,2550.0,0,0,True
2630669,1.07147417974,0.475454262017,Breeze Crystal,132.8045977,6.3,52,0.0,0.0,157.5,22944.55067,0,0,True
3821772,-1.99970123236,-1.99907820116,Wright Jerusha,14.33333333,7.35,17,0.0,0.0,180.0,1800.0,0,0,True
3671514,-0.325648006899,0.812207380729,Sullivan Nicole,681.4844904,7.454062038,46,0.0,0.0,160.0,615652.0418,0,0,True
3769220,0.149552823096,0.905180907263,Von Teese Dita,122.1698113,7.062264151,44,0.0,0.0,157.5,100854.6996,0,0,True
3118717,-1.37017468779,0.414944443039,King Joanne,328.4827586,7.968965517,33,0.0,0.0,165.0,100000.0,0,0,True
3550281,-1.10595944735,-0.953156056238,Ryder Dylan,13.47368421,7.284210526,35,0.0,0.0,172.5,17857.14286,0,0,True
3761517,-0.625704478819,0.427654798138,Vilaysack Kulap,3515.032787,7.296721311,36,0.0,0.0,162.5,27128.09791,0,0,True
3162335,0.916822354331,-0.673671550183,Lane Krista,17.08108108,6.186486486,57,0.0,0.0,165.0,12705.13499,0,0,True
3535505,-0.0329986654982,-0.231564569131,Rose Tommi,21.14285714,6.8,43,0.0,0.0,165.0,23346.3035,0,0,True
3791750,2.62871057255,1.1724325034,Wells Dawn,135.7484663,6.849693252,78,0.0,116622.9962,160.0,92500.0,0,0,True
2577777,4.06451813768,-0.248244638056,Beebe Marjorie,97.29032258,5.493548387,108,0.0,0.0,157.5,100000.0,0,0,True
3216113,0.838936896832,0.505394866629,Love Rebecca,76.8125,6.234375,39,0.0,0.0,157.5,79663.05812,0,0,True
2631040,1.20617919146,1.42324625804,Bremers Beverly,104.5,7.0625,66,0.0,0.0,155.0,4648.25264,0,0,True
2954019,0.128900078442,1.62882349593,Grogan Clare,408.8387097,7.558064516,54,0.0,0.0,155.0,255735.4055,0,0,True
2760742,-1.23009113187,-0.898638082911,Dark Angel,11.85,7.393333333,34,0.0,0.0,172.5,100000.0,0,0,True
2783361,3.72843822077,-0.706336508133,Dell Claudia,254.7179487,5.856410256,107,0.0,0.0,162.5,525547.4453,0,0,True
3212862,-1.36219274022,-1.75762933137,Lord Marsha,13.88888889,7.288888889,38,0.0,0.0,178.0,405209.8408,0,0,True
3743729,-0.769323261539,0.582032070627,van den Blink Kieren,746.96,7.672,44,0.0,0.0,162.5,20327.49859,0,0,True
3837798,0.956783567489,0.0818039738974,Zaik Kristen,146.75,5.9625,34,0.0,0.0,160.0,79791.88202,0,0,True
3731773,-0.063850468441,-1.02539115357,Tweeden Leeann,120.6875,6.50625,43,0.0,0.0,170.0,401563.3635,0,0,True
2627852,1.48395080936,-0.644217563509,Brandes Rebekah,1941.526316,5.394736842,31,0.0,0.0,162.5,812697.0972,0,0,True
2929344,-0.773209537963,0.110926134986,Goad Melissa,40.72727273,7.4,34,0.0,0.0,165.0,32746.23878,0,0,True
2719730,-0.489283168465,-1.34866462228,Cole Jayden,28.46875,6.525,31,0.0,0.0,172.5,73893.51905,0,0,True
3658718,0.666114916192,-0.195891884087,Stevens Tabitha,146.8596491,6.253508772,46,0.0,0.0,162.5,778005.0779,0,0,True
3111770,-0.344915534512,0.180832595837,Keyes London,13.07692308,6.873076923,27,0.0,0.0,163.0,10669.5593,0,0,True
3330885,-0.123708554567,-0.172816143998,Moore Barrett,13.65853659,6.965853659,46,0.0,0.0,165.0,11577.42402,0,0,True
3485330,2.29331057129,-0.857639598977,Rahmer Charity,388.125,4.7375,37,0.0,0.0,160.0,263478.2609,0,0,True
3727722,-0.732882249901,-0.380445537881,Tucci Flower,9.079365079,7.26031746,39,0.0,0.0,168.0,83180.74054,0,0,True
3305401,-1.65593345164,-1.61471220889,Michaels Gianna,991.04,7.473333333,33,0.0,0.0,178.0,50689.37551,0,0,True
3141180,2.77966196606,-0.284665947672,Krause Tina,137.4390244,4.652439024,46,0.0,0.0,155.0,187446.7953,0,0,True
2795602,0.547845401576,-1.78433588266,Dickinson Janice,421.2526316,6.222105263,61,0.0,0.0,172.5,883794.1891,0,0,True
3546434,1.69544984963,0.410604271559,Runyon Jennifer,6077.16,6.034,56,0.0,0.0,157.5,634927.7164,0,0,True
2580572,1.12530644337,-0.829362028373,Bell Lauralee,88.27777778,5.688888889,48,0.0,0.0,165.0,76096.79301,0,0,True
3058958,3.28008925457,1.63349112067,Janiss Vivi,207.0461538,7.487692308,105,0.0,0.0,157.5,895522.3881,0,0,True
3687509,0.43185753658,1.56535153044,Tame Jasmine,10.66666667,6.7,30,0.0,0.0,152.5,64429.5942,0,0,True
3161303,-0.215305087342,2.19207854518,Lander Natalie,1426.981481,7.57037037,33,0.0,0.0,150.0,11563.70105,0,0,True
3083340,0.208382326536,1.61380350073,June Katie,33.5,7.1,37,0.0,0.0,152.5,139372.8223,0,0,True
2603055,-0.862313223985,1.38000299721,Black Pippa,47.8875,7.928125,34,0.0,0.0,157.5,292455.7264,0,0,True
3618577,-0.750711504434,-0.308182431717,Simpson England,12.5,7.166666667,32,0.0,0.0,167.5,370146.292,0,0,True
3231602,3.8635316806,1.67914252763,Mack Marion,6135.777778,7.411111111,114,0.0,0.0,157.5,750000.0,0,0,True
3327249,-2.55115936819,-0.793891738049,Monroe Mellanie,12.66666667,8.566666667,40,0.0,0.0,175.0,53347.79651,0,0,True
2971683,-0.199415416428,-0.969122518946,Hall Roxanne,21.83333333,6.588690476,40,0.0,0.0,170.0,36446.30468,0,0,True
2747517,1.33303497111,-1.80791781985,Culton Leslie,68.9375,5.15,46,0.0,0.0,170.0,505000.0,0,0,True
2635116,0.0441807791625,0.49474275518,Britton Zoe,29.9,6.91,39,0.0,0.0,160.0,59523.80952,0,0,True
3439715,0.521992663069,1.09309992781,Perino Dana,282.5,6.78,44,0.0,0.0,155.0,430522.0992,0,0,True
3032983,1.1114048442,0.386844663412,Hughes Martine,176.75,5.975,37,0.0,0.0,157.5,185200.104,0,0,True
3075344,1.12048727852,-1.88113532742,Jones Bibi,22.44444444,5.185185185,25,0.0,0.0,168.0,16004.33895,0,0,True
3708744,-1.33661376503,-0.793089222736,Tibrin Ramona,288.0,7.4,28,0.0,0.0,172.0,507500.0,0,0,True
2776997,-2.40673320247,1.18433113647,Dearden Taylor,7271.0,8.6,23,0.0,0.0,162.5,52.2661742,0,0,True
3136661,1.16346967343,-1.15347883218,Koslow Lauren,24.57142857,6.002040816,63,0.0,0.0,167.5,220858.8957,0,0,True
3309769,-0.803008961758,-0.846152215759,Miles Kelsey Murphy,163.5,6.85,25,0.0,0.0,170.0,111178.178,0,0,True
3108776,-1.83993304585,1.85226968571,Kenney Emma,1736.197531,8.572839506,17,0.0,0.0,157.5,20256.50071,0,0,True
3657751,-1.2399365408,-0.174186473224,Stern Savannah,8.0,7.6,30,0.0,0.0,168.0,53347.79651,0,0,True
2840628,-0.332365011018,-0.504554194633,Envy,13.81481481,7.011111111,45,0.0,0.0,167.5,23454.82876,0,0,True
2897854,-0.296340149362,1.93532849394,Gabriel Andrea,4797.933333,7.506666667,38,0.0,0.0,152.5,61004.20647,0,0,True
2765256,-0.143282837182,-0.236533824303,Davis Dina,129.0,6.64,31,0.0,0.0,165.0,3356.064455,0,0,True
3587008,-0.490259649273,-0.0294000502962,Scott Avy,37.90697674,7.113953488,35,0.0,0.0,165.0,47978.32108,0,0,True
3498955,0.66750449723,1.09387556645,Reeves Melissa,46.05882353,6.773529412,49,0.0,0.0,155.0,506893.7551,0,0,True
3711540,-0.191003266833,2.27413922955,Tishler Adair,936.5333333,7.204444444,20,0.0,0.0,150.0,25039.917,0,0,True
3035901,-0.179898454409,-0.667930123845,Hunter Nicki,24.88235294,6.633333333,37,0.0,0.0,168.0,223383.589,0,0,True
2720363,-1.22209181555,1.92417695969,Coleman Jenna,7702.489583,7.8125,30,0.0,0.0,155.0,101258.5595,0,0,True
2489187,-0.744066877832,-0.43976484856,Abraham Farrah,711.5384615,6.923076923,25,0.0,0.0,167.5,41209.32189,0,0,True
3632351,0.239417989714,0.802545988795,Smith Stacy A.,9.0,6.825,38,0.0,0.0,157.5,6130.66002,0,0,True
3327035,0.959520831286,-0.690709608962,Monreale Cinzia,865.0857143,6.214285714,59,0.0,0.0,165.0,405515.0041,0,0,True
3305716,-2.10640483826,0.592529200478,Michalka AJ,4188.454545,7.684545455,25,2582903.454,0.0,165.0,683755.7604,0,0,True
3471114,0.55787167689,0.236702670921,Price Tara,532.875,6.416666667,42,0.0,0.0,160.0,163924.5815,0,0,True
3054880,-0.184345912267,0.284767111274,Jade Layla,16.15384615,6.982051282,36,0.0,0.0,162.0,22679.26626,0,0,True
2585630,0.64570537202,-1.58938100924,Bennett Melany,14.0,5.6,23,0.0,0.0,167.5,30377.56785,0,0,True
3541669,-0.0604989630625,1.81260218002,Roxx Rachel,107.1612903,7.325806452,33,0.0,0.0,152.0,99837.9258,0,0,True
2754838,0.0452957765151,-1.12348320729,Dahm Erica,513.3333333,6.283333333,39,0.0,0.0,170.0,317628.3748,0,0,True
3424470,-0.885160488587,1.73111687375,Parrish Janel,861.4770115,7.936206897,28,0.0,0.0,155.0,401206.8556,0,0,True
3108423,-1.17496726918,1.0898774345,Kennedy Marny,8.380952381,7.80952381,22,0.0,0.0,160.0,27967.20379,0,0,True
3833899,0.0359831754902,0.978611347567,Young Madison,33.42857143,7.021428571,36,0.0,0.0,157.0,148735.3446,0,0,True
2860643,-1.53120682867,-1.94739040883,Fenner Shelby,10944.34783,6.865217391,38,0.0,0.0,172.5,245775.7296,0,0,True
3280125,1.99397609617,-1.01397189626,McComas Lorissa,203.8139535,4.923255814,46,0.0,0.0,162.5,208933.4655,0,0,True
3223916,-1.77471811971,-1.61500927229,Lux Venus,77.0,7.45,26,0.0,0.0,178.0,275515.1165,0,0,True
2901186,-1.01773817235,0.104872369057,Gallagher Megan,2952.580838,7.558682635,56,0.0,0.0,165.0,50000.0,0,0,True
2493297,1.20905079986,-0.0368552602705,Addams Ava,11.0,5.755555556,35,0.0,0.0,160.0,18707.99509,0,0,True
3423242,0.270586010803,1.58044120618,Parker Taya,83.25,7.0,36,0.0,0.0,152.5,233171.1273,0,0,True
3740945,2.34562459881,5.42270124059,Valentine Karen,41.31343284,7.604477612,69,0.0,0.0,160.0,942126.466,0,0,True
3791877,-0.471491520702,-0.0540445520162,Wells Kelly,11.08823529,7.023529412,32,0.0,0.0,165.0,57267.68253,0,0,True
3691707,-0.474293552058,-0.587222041804,Tate Elizabeth,98.0,6.7,27,0.0,0.0,167.5,17708.61865,0,0,True
2932653,0.105534170648,-3.10305004441,Goldston Jackie,13552.625,5.675,48,0.0,0.0,170.0,209096.8931,0,0,True
3598152,-0.854878130085,1.71132594108,Sgambati Alex,770.5384615,7.853846154,26,0.0,0.0,155.0,21073.53339,0,0,True
3339760,1.34136774857,-0.499367694299,Morris Sherry,61.71428571,5.714285714,52,0.0,0.0,162.5,300689.3755,0,0,True
3603343,0.0212440904117,-0.267287701413,Shea Beth,130.1785714,6.689285714,41,0.0,0.0,165.0,175701.2902,0,0,True
3331167,-0.903634336627,0.497996100053,Moore Desire,5.875,7.625,33,0.0,0.0,163.0,24577.57296,0,0,True
3155518,0.335778657607,1.9985866336,Ladnier Kavi,2239.6875,7.18125,42,0.0,0.0,150.0,69437.03898,0,0,True
2676040,0.502079015635,-1.53565604298,Carrera Mercedes,35.4,5.72,34,0.0,0.0,170.0,50629.27976,0,0,True
3372970,0.588970352208,-0.560572393521,Nice Alexandra,25.65217391,6.134782609,44,0.0,0.0,165.0,23575.63945,0,0,True
3652144,0.459265971404,-0.479143794423,Starr Elizabeth,30.65,6.355,47,0.0,0.0,165.0,366615.4027,0,0,True
3286032,-0.798141118915,-2.01916571751,McIntosh Pollyanna,6861.153846,6.5,37,0.0,0.0,175.0,535116.5237,0,0,True
3389877,1.20952622272,-1.29042330313,O'Dea Judith,2827.588235,6.423529412,71,0.0,0.0,167.5,44556.19037,0,0,True
3405313,0.779160221022,-1.25311673761,Ortega Asun,607.1818182,5.636363636,35,0.0,0.0,167.5,737172.1279,0,0,True
3393195,1.27889226182,0.647992979078,Obenreder Morgan,835.5714286,5.885714286,21,0.0,0.0,157.5,300609.2789,0,0,True
3796679,-5.90430196154,-0.193128638849,Whillans Ashley,30532.0,6.157142857,28,0.0,0.0,162.5,400.0,0,0,True
3678819,-8.13109334837,20.8926928466,Swit Loretta,190.1111111,7.4925,79,0.0,0.0,165.0,540871.1078,0,0,True
3604675,1.04581646404,1.05707996052,Shelly Adrienne,3167.514286,6.465714286,50,815561.2753,0.0,155.0,760821.0019,0,0,True
2993624,-2.42758853518,-0.231226035067,Hazell Keeley,11078.45455,7.595454545,30,0.0,0.0,168.0,522661.742,0,0,True
3113881,0.0726600991286,0.591372550463,Kianna,22.61904762,7.080952381,47,0.0,0.0,160.0,28341.13376,0,0,True
3238105,1.23589063507,-1.60576908406,Maier Brigitte,57.92307692,5.769230769,64,0.0,0.0,170.0,682620.8178,0,0,True
3114718,1.99392829221,-2.07213168579,Kiger Susan,531.0833333,4.816666667,63,0.0,0.0,170.0,991735.5372,0,0,True
3515028,-15.9539850113,0.940226942046,Rionda Sasha,82433.0,7.1,39,0.0,0.0,170.0,25314.63988,0,0,True
3262267,1.66965442245,0.623847067913,Martinez Megan,5.0,5.6,33,0.0,0.0,155.0,16004.33895,0,0,True
3625257,1.03346883044,1.45877824576,Sladen Elisabeth,211.1462264,7.54245283,70,0.0,0.0,160.0,13340.74486,0,0,True
3279689,0.72522934613,0.161479018794,McClendon Yvette,44.16666667,6.225,40,0.0,0.0,160.0,312347.2558,0,0,True
2780643,1.56348154276,-1.81341418608,Del Monacco Alex,53.2,4.9,36,0.0,0.0,168.0,32008.67791,0,0,True
3209887,0.411448686136,-0.453270901951,London Nicole,13.10091743,6.408256881,47,0.0,0.0,165.0,59292.60774,0,0,True
3056575,-0.280217316939,-1.42492753458,James Brenda,9.6,6.62,46,0.0,0.0,173.0,55031.73497,0,0,True
3676199,2.15375129247,-2.34023660085,Sveen Carey,325.6666667,4.233333333,35,0.0,0.0,167.5,15709.34693,0,0,True
3215729,-1.27982811342,0.330384449709,Love Caitlyn Taylor,76.42741935,7.60483871,22,0.0,0.0,165.0,76034.06326,0,0,True
3466363,-0.696270030325,-1.90651580821,Poundstone Paula,8431.159091,6.909090909,57,0.0,0.0,170.0,44077.71179,0,0,True
2834626,0.0412181294913,1.29657889241,Elle Jamie,11.8125,7.0,31,0.0,0.0,155.0,92619.39219,0,0,True
2629858,-1.50118325468,0.00194743620708,Bray Deanne,118.3548387,7.992473118,45,0.0,0.0,167.5,40000.0,0,0,True
2931316,0.778443799349,0.140069566074,Gold Katie,11.75438596,6.150877193,38,0.0,0.0,160.0,38000.0,0,0,True
2880832,-0.47448779234,-1.83685134571,Forsythe Rebecca,4799.0,6.183333333,26,0.0,0.0,172.5,77267.47855,0,0,True
3201158,-0.144189344625,0.223977244495,Ling Lisa,172.5762712,7.061016949,43,0.0,0.0,162.5,324218.7397,0,0,True
3382657,0.545736074549,0.262805921493,Norholt Mathilde,120.375,6.303125,33,0.0,0.0,160.0,13000.0,0,0,True
3212146,-0.0133138831657,-0.278912362131,Lopez Luscious,88.9375,6.59375,35,0.0,0.0,165.0,297619.0476,0,0,True
3801000,1.24451662541,1.94025952771,Wiedlin Jane,3510.68254,6.79047619,58,13440.47619,32608.69565,150.0,333139.759,0,0,True
2911241,-0.0408611361066,0.523421160521,Gatschet Stephanie,1891.5,6.84,33,0.0,0.0,160.0,34294.30147,0,0,True
2518828,-0.752751115883,-1.57620189343,Anderson Jennifer Marie,6.0,6.7,33,0.0,0.0,175.0,11660.03768,0,0,True
3413191,-0.3551245153,0.678095440283,Page Marianne,130.75,7.1875,32,0.0,0.0,160.0,262745.3116,0,0,True
3556165,4.76696394675,0.0670413443422,Sais Marin,143.015625,6.0734375,126,0.0,0.0,157.5,644794.6987,0,0,True
2817193,1.32377633692,0.819756924342,Duke Augie,1231.777778,5.881481481,30,0.0,0.0,155.0,722850.9061,0,0,True
3705751,3.75547642696,2.50392794459,Thompson Leah Catherine,58.66666667,7.633333333,114,0.0,0.0,150.0,202757.502,0,0,True
2634520,0.998699282979,-0.0909529761604,Brisley Holly,3748.0,5.952380952,38,0.0,0.0,161.0,30000.0,0,0,True
3108507,-0.109540715258,-0.230895467952,Kennedy Paris,6.25,6.675,34,0.0,0.0,165.0,15416.60316,0,0,True
2615315,0.142958061361,-0.303867757367,Bonner Gillian,59.66666667,6.8,50,0.0,0.0,165.0,128743.0663,0,0,True
3670853,2.13104668697,-1.69687643269,Suleman Nadya,28.4,4.54,41,0.0,0.0,165.0,26133.0871,0,0,True
3112337,2.16499840865,-0.255804579578,Khan A.J.,1073.354167,5.020833333,39,0.0,0.0,157.5,548153.0024,0,0,True
2777300,2.92347273881,-0.447432256196,Debbie D,86.91428571,4.502857143,44,0.0,0.0,155.0,936937.2104,0,0,True
3196728,0.152265127209,-1.35603746115,Light Judith,117.7112172,7.196420048,67,0.0,0.0,167.5,863189.0505,0,0,True
2677549,0.530660850773,-2.13937816574,Carstensen Margit,1024.869565,6.884782609,76,0.0,0.0,171.0,16780.32228,0,0,True
3534920,-0.155270065679,1.37836085892,Rose Kristina,75.91566265,7.245783133,32,0.0,0.0,155.0,88050.77595,0,0,True
3507568,1.12959215843,-1.17528842982,Rhey Ashlie,106.9836066,5.719672131,55,0.0,0.0,167.5,752020.5322,0,0,True
3007795,3.85840048791,0.490333007625,Hiatt Ruth,170.0,6.368965517,110,0.0,0.0,157.5,853057.3612,0,0,True
2780966,1.16306013485,-0.727118842694,del Rio Vanessa,106.1454545,6.27,64,0.0,669.1449814,165.0,375547.3413,0,0,True
3574998,-1.16938294307,-0.0756170463189,Sayre Bernadette,272.6666667,7.45,25,0.0,0.0,167.0,2450.922387,0,0,True
3241346,0.501827568643,-0.11355100061,Malhotra Sahaj,79.0,6.2,31,0.0,0.0,162.5,679460.2646,0,0,True
3762055,-0.175289191302,0.591431958637,Villalobos Akasha,121.0,7.0375,34,0.0,0.0,160.0,41545.91305,0,0,True
3534182,-0.379165375835,-0.515501843161,Rose Amber,84.35135135,6.786486486,33,0.0,0.0,167.5,800000.0,0,0,True
3128516,-0.393763704405,2.84089463331,Knudsen Kari,6.0,8.5,77,0.0,0.0,160.0,274509.8039,0,0,True
3644274,2.32410324902,0.0387573521085,Spelvin Georgina,1400.824742,6.129896907,80,0.0,0.0,160.0,262155.7483,0,0,True
3640899,12.4134541611,14.9601877047,Sossaman Heather,3053.117647,6.323529412,29,31375283.63,0.0,162.5,736057.7823,0,0,True
3561713,0.929265565378,-0.567240070674,Sampson Holly,1551.162162,5.845945946,43,0.0,0.0,164.0,533477.9651,0,0,True
2740467,0.301196861222,-0.107608603012,Crawford Cindy,61.94285714,6.411428571,36,0.0,0.0,163.0,88148.80797,0,0,True
2858021,-0.726980659285,1.04982536318,Fazzino Christine,148.0833333,7.841666667,46,0.0,0.0,160.0,21021.77231,0,0,True
3693928,0.427891194718,-1.83647501499,Taylor Jay,30.0,5.6,25,0.0,0.0,170.0,10344.39196,0,0,True
3512924,-1.78211118363,0.17953124487,Riesgraf Beth,879.6062992,8.249606299,38,0.0,0.0,167.5,579595.7878,0,0,True
3651921,-0.554869367154,-0.967077008344,Starlet Heather,26.66666667,6.638888889,27,0.0,0.0,170.0,54610.75035,0,0,True
3242752,-2.07482126086,1.74114554179,Malone Melissa,10.80769231,9.003846154,32,0.0,0.0,160.0,1012.585595,0,0,True
2970920,0.929675404825,-1.15239185929,Hall Deidre,61.46902655,6.776106195,69,0.0,0.0,167.5,668671.791,0,0,True
2603125,-1.06469236075,1.11253261165,Black Skyy,5.666666667,8.033333333,37,0.0,0.0,160.0,16004.33895,0,0,True
