id_data,x_data,y_data,z_data,votes,rating,age,gross,salary,heightcm,budget,academy,golden,sample
3071214,1.24638876201,-0.466628074797,Johnson Elarica,21342.5625,6.8625,27,0.0,0.0,172.5,250000000.0,0,0,False
3597797,2.57957870815,0.517099184843,Seydoux L©a,74167.55263,6.734210526,31,784015.2882,0.0,165.0,248083470.8,0,0,False
2897995,-1.37898410334,-1.71415664995,Gabriel Seychelle,2618.430108,8.068817204,25,0.0,0.0,157.5,165095204.9,0,0,False
3586308,1.61667617669,3.14381360578,Sch_tt Sophie,3826.075,5.17,42,0.0,0.0,174.0,164485981.3,0,0,False
3000662,-5.0249768537,-5.512526558,Henley Georgie,34951.9375,6.99375,21,236682119.3,0.0,160.0,160904611.3,0,0,False
3629806,-1.87251659802,0.0306472333938,Smith Jaclyn,583.5424528,7.180660377,71,0.0,0.0,167.5,156521739.1,0,0,False
2800312,-0.0128819177935,0.678047228237,Dixon Alesha,96.39583333,6.610416667,38,0.0,0.0,165.0,152068126.5,0,0,False
3824531,-0.308175839065,1.32239707431,XCX Charli,2045.809524,6.752380952,24,0.0,0.0,157.5,152068126.5,0,0,False
3039030,-0.686658886072,-0.557206080664,Hynes Jessica,4872.669951,7.594581281,44,0.0,0.0,165.0,150000000.0,0,0,False
3068740,1.80169232691,0.375179700145,Jo Samantha,50962.81818,6.9,25,0.0,0.0,160.0,150000000.0,0,0,False
2604715,-0.186220425753,0.119876772506,Blake Rachael,2863.761194,6.985074627,45,0.0,0.0,167.5,140000000.0,0,0,False
2597239,-0.377789729647,1.13869430576,Bidewell Victoria,12803.09091,6.7,38,0.0,0.0,157.5,139372822.3,0,0,False
2782004,0.159351887468,2.13410158076,Delano Nikki,4577.857143,6.085714286,30,0.0,0.0,157.0,134877242.6,0,0,False
2854024,-0.0511498229935,0.067169030299,Fantone Elisabetta,5936.533333,6.973333333,34,0.0,0.0,165.0,133407448.6,0,0,False
3463482,-1.00203439216,-0.383229017649,Popplewell Anna,7319.0,7.515053763,28,0.0,0.0,157.5,132418304.7,0,0,False
3810729,-0.436515308889,-0.832045942183,Wilson Ruth,6586.051282,7.656410256,34,0.0,0.0,165.0,128779130.9,0,0,False
3438082,-0.5794611804,-1.54663425203,Peregrym Missy,938.3653846,8.032692308,34,0.0,0.0,167.5,127051349.9,0,0,False
3822585,1.0455008845,2.33074890918,Wu Annie,6936.2,5.572,38,0.0,0.0,167.0,123772073.3,0,0,False
3387614,1.33412732359,0.0424080376241,Nyong'o Lupita,34765.02273,7.131818182,33,0.0,0.0,162.5,122193211.6,1,0,False
3509894,0.0832681781423,-0.600554109075,Richards Dakota Blue,4460.027027,7.216216216,22,0.0,0.0,165.0,121806971.4,0,0,False
3036095,2.27817316337,-0.629404039879,Huntington-Whiteley Rosie,56983.9375,7.0625,29,0.0,0.0,175.0,121525071.8,0,0,False
3587961,0.568833454426,-1.05191165843,Scott Naomi,24985.54545,7.518181818,23,0.0,0.0,167.0,120000000.0,0,0,False
2542871,0.374179280284,0.977899783024,August Pernilla,14999.36486,6.564864865,58,10213.76551,0.0,170.0,119344500.6,0,0,False
3786473,-0.913337287795,2.22357723259,Wayne Taylor,1017.512195,6.329268293,48,0.0,0.0,152.5,118466899.0,0,0,False
3698060,-0.421415548574,0.36450849421,Tenison Renee,820.6349206,6.906349206,48,0.0,0.0,165.0,117073170.7,0,0,False
2947768,0.255044488079,-0.577488830261,Green Eva,25038.02439,7.412195122,36,21971464.73,0.0,165.0,114300040.1,0,0,False
2732504,-2.47934682395,0.426276523263,Cornwell Judy,581.0860215,7.450537634,76,0.0,0.0,157.5,111524163.6,0,0,False
2996709,-0.674809868688,0.568494283254,Heim Carrie Kei,1265.375,6.95,43,0.0,0.0,160.0,111524163.6,0,0,False
3069907,-2.22746066013,0.131751775741,John Caroline,4129.423529,7.444705882,76,0.0,0.0,162.5,111524163.6,0,0,False
2571360,-2.15282391294,0.322474809025,Battle Kathleen,1199.333333,7.575,68,0.0,0.0,157.5,111498257.8,0,0,False
2516442,-0.471420936265,-0.909153419391,Amuka-Bird Nikki,3635.455882,7.647058824,40,0.0,0.0,167.5,111481295.4,0,0,False
3434116,-3.79531164737,0.926069869728,Peel Eileen,2382.0,7.144444444,107,0.0,0.0,162.5,111171662.1,0,0,False
2601155,1.68634826357,0.896934587558,Bishop Sarah,28516.0,6.184615385,32,0.0,0.0,172.5,108174470.0,0,0,False
3638159,0.685549739196,-0.518675125439,Somerville Geraldine,42586.74074,7.558024691,49,0.0,0.0,163.0,107358448.5,0,0,False
2699973,-0.0921909580277,-1.38783091072,Cheung Cindy,14408.97368,7.689473684,46,0.0,119047.619,172.5,104974105.7,0,0,False
2984158,-2.96295301753,1.27117585094,Harris Rosemary,24047.60274,7.221917808,89,0.0,0.0,164.0,104957512.6,0,1,False
3396152,-0.517941607532,-2.79298586393,Ohgo Suzuka,6211.15,6.725,23,70059419.97,0.0,157.0,104454685.1,0,0,False
3069831,7.24275166183,-2.21617981971,Johansson Scarlett,56879.30435,6.521195652,32,43829561.64,8987968.896,157.5,102872077.7,0,0,False
2548187,-2.4960942868,-0.514577351793,Babcock Barbara,752.2157676,7.55560166,79,0.0,0.0,170.0,102637206.0,0,0,False
2762696,0.0572961591391,-1.44108283653,Davalos Alexa,16492.89583,7.852083333,34,0.0,0.0,170.0,102260425.2,0,0,False
2855169,-1.66693317106,-1.27590858434,Farmer Mylïne,1033.375,8.22,55,0.0,0.0,167.0,99565846.6,0,0,False
3307202,0.0509057932346,-0.96056256049,Middleton Tuppence,11589.38356,7.55890411,29,0.0,0.0,167.5,99409862.84,0,0,False
3633334,-0.119527914449,-1.54565536291,Smulders Cobie,11135.81749,7.924714829,34,0.0,0.0,170.0,97820244.3,0,0,False
2917987,-1.01104916655,-0.0558524661863,Gertz Jami,1843.308756,7.405990783,51,0.0,0.0,162.5,97735551.49,0,0,False
2651022,-1.28694569832,0.476659554032,Burke Kathy,2415.926966,7.296629213,52,0.0,0.0,157.5,96434403.08,0,0,False
3291185,-1.18632520783,-1.42032444588,McShera Sophie,1682.88764,8.050561798,31,0.0,0.0,160.0,96195631.54,0,0,False
2582131,0.961053969668,1.25598282644,Bellucci Monica,21621.12381,6.220952381,52,2814877.276,0.0,171.0,95357428.86,0,0,False
3494041,0.44535627902,0.258731894137,Raworth Sophie,6109.823529,6.861764706,48,0.0,0.0,172.5,94781440.35,0,0,False
3559885,-1.02421468136,0.890786591955,Salonga Lea,13191.5102,7.193877551,45,0.0,0.0,155.0,93470900.07,0,0,False
3531783,1.1015882404,-1.37564093303,Romijn Rebecca,13094.43096,7.169874477,44,8794356.42,0.0,177.5,90775483.13,0,0,False
3274488,-1.15193890204,0.47362885974,May Teresa,6863.111111,7.294444444,50,0.0,0.0,157.5,89719626.17,0,0,False
2524615,-1.15828718348,0.940405283328,Ann Lisa,219.556962,7.090506329,44,0.0,0.0,155.0,89679905.89,0,0,False
3172387,4.73500454548,-8.43224976392,Lawrence Jennifer,41770.99248,7.030075188,26,193549104.4,6969395.251,167.5,89414462.65,1,3,False
2836169,0.0753186571087,-0.169505654639,Ellison Jennifer,6371.823529,7.058823529,33,0.0,0.0,167.0,88935944.94,0,0,False
2923274,0.507862938501,-2.05236384023,Gillan Karen,7299.829114,7.697468354,29,28071242.9,0.0,175.0,88706407.14,0,0,False
2712444,-1.76478148909,-2.01067306962,Clarke Emilia,15157.70787,8.373033708,30,0.0,0.0,155.0,88475383.62,0,0,False
2781747,3.11372458191,0.860900055165,Delaloye Catherine,79587.28571,6.285714286,29,0.0,0.0,170.0,88418643.78,0,0,False
3027829,2.22558848356,-0.966894248699,Howard Bryce Dallas,56037.90476,7.050793651,35,55125526.16,674159.7136,167.5,88155357.25,0,0,False
2561598,-0.995856428224,-2.03123729626,Barclay Emily,2720.787879,7.309090909,32,61276002.13,0.0,160.0,88050775.95,0,0,False
3582316,2.36568368634,1.15008119677,Schooley Emily,61651.31579,6.142105263,32,0.0,0.0,167.5,87477168.57,0,0,False
3325323,0.28228917174,-1.44704698304,Momsen Taylor,3142.445378,7.538655462,23,134043.8021,0.0,170.0,87386347.88,0,0,False
2536338,0.714385912645,-0.254329627266,Arterton Gemma,26922.11111,7.031481481,30,616466.5957,0.0,167.5,87381167.59,0,0,False
2977774,-1.03710529499,1.61680664858,Hanratty Sammi,8843.914894,7.382978723,21,0.0,0.0,152.5,86818597.1,0,0,False
3596308,0.163947876826,-1.03471373498,Serratos Christian,12498.18487,7.552941176,26,0.0,0.0,167.5,85405461.74,0,0,False
3690889,-2.05906734528,1.4441659925,Tarnow Toby,70.46153846,6.553846154,79,0.0,0.0,162.5,84507042.25,0,0,False
2693946,-1.75372433672,-0.51391239772,Chappell Jan,662.2419355,7.417741935,67,0.0,0.0,170.0,83333333.33,0,0,False
3648745,0.960321550231,0.756739598289,Staden Alexandra,3629.0,6.40625,37,0.0,0.0,172.5,83333333.33,0,0,False
3796531,-0.685389585249,-0.856509632776,Whelan Gemma,9784.0,7.764912281,35,0.0,0.0,162.5,82567602.45,0,0,False
3589676,-0.126265715491,2.69204382709,Sebastien Little,36980.0,6.4,42,0.0,0.0,150.0,82547602.45,0,0,False
3349963,-1.0065786285,-0.793688098602,Murphy Donna,13110.85321,7.585321101,57,0.0,0.0,170.0,82480145.71,0,0,False
3744532,1.18003401874,0.9688649734,Van Der Wal Frederique,13686.86667,6.393333333,49,0.0,0.0,175.0,82333424.36,0,0,False
3454521,-0.368309271025,-0.698297395892,Piper Billie,1191.794239,7.483950617,34,0.0,0.0,166.0,82242990.65,0,0,False
2763909,1.03892702475,-0.826448076994,Davidtz Embeth,41728.12162,7.467567568,51,1876817.497,0.0,170.0,81508559.03,0,0,False
3803533,4.33249251,2.32638444046,Wilkins Stacy Ann,113359.6667,5.633333333,38,0.0,0.0,170.0,81213517.67,0,0,False
2555909,-2.47857560314,0.825398006744,Balin Ina,328.5652174,7.076811594,79,0.0,0.0,165.0,81095108.34,0,1,False
2785879,-3.46955918768,7.42142779048,Dench Judi,13386.51266,7.325949367,82,20144469.03,0.0,152.5,80144438.93,1,2,False
3572599,-1.39223230248,0.238191581956,Saunders Jennifer,2640.646875,7.369375,58,0.0,0.0,160.0,80077238.77,0,0,False
2772236,-1.87232479202,-0.332729749958,de la Tour Frances,19814.40187,7.499065421,72,0.0,0.0,167.5,79575621.96,0,0,False
3127726,4.45902100746,-2.17770934175,Knightley Keira,40808.4876,6.805785124,31,16258165.8,5788712.012,167.5,79133107.74,0,0,False
2896813,-1.55200144862,2.20325494906,Futerman Samantha,13073.07692,7.5,29,0.0,0.0,147.5,78276546.6,0,0,False
3270345,0.0149692571124,-0.203826572883,Matsu Takako,17479.14815,7.196296296,39,0.0,0.0,166.0,77622205.13,0,0,False
2868847,3.04981390818,2.09034630501,Finley Aliza,93041.66667,6.866666667,33,0.0,0.0,155.0,77586251.55,0,0,False
3653401,0.960033437906,1.41020864422,Stedman Anne,41621.66667,6.377777778,40,0.0,0.0,162.5,77267478.55,0,0,False
3719809,-0.458448528819,-0.501097754355,Townsend Katy,4172.0,7.447619048,29,0.0,0.0,162.5,77135719.47,0,0,False
3397188,2.04559514544,-2.75677515793,Okamoto Tao,69500.09091,8.245454545,31,0.0,0.0,177.0,76813982.84,0,0,False
2710850,1.85897017266,1.92492020956,Clare Jillian,49244.82609,5.973913043,24,0.0,0.0,160.0,76767036.18,0,0,False
2951257,-0.613943997145,0.113247172583,Grey Skylar,169.5,7.183333333,30,0.0,0.0,160.0,76567541.23,0,0,False
2984034,1.1646699576,-0.291150036558,Harris Naomie,40597.30769,7.072307692,40,352664.1445,0.0,170.0,76448406.5,0,0,False
2614798,-0.309095267836,2.15972587023,Bonham Carter Helena,48837.11765,7.078431373,50,3584272.591,0.0,155.0,76332686.42,0,0,False
3400595,2.73010362614,0.702712755273,Olsen Elizabeth,75199.05556,6.561111111,27,5524909.635,0.0,165.0,76109503.35,0,0,False
3458015,-2.88558306823,2.27316868098,Plowright Joan,6715.189189,6.760810811,87,285968.6186,459066.5647,160.0,76080633.33,0,2,False
3193369,-1.33124755926,1.08151579398,Lewis Vicki,9190.125581,7.026046512,56,0.0,0.0,155.0,75355996.62,0,0,False
3353973,-0.255494666726,-0.627183921629,Myles Sophia,13673.02899,7.553623188,36,0.0,0.0,165.0,75141699.85,0,0,False
3407930,1.29598907308,0.718554840046,Osvrt Andrea,4921.787234,6.404255319,37,0.0,0.0,175.0,75008637.01,0,0,False
3209322,-0.198347971819,-1.10451405491,Lombard Karina,5604.583333,7.435,47,2675363.875,0.0,172.5,74864877.07,0,0,False
3538640,0.0736179828478,-1.28706647883,Rossum Emmy,7577.115646,7.662585034,30,13403.91742,0.0,170.0,74831118.21,0,0,False
3715107,0.271016730364,-1.35215879861,Tomlinson Eleanor,17294.88889,7.757777778,24,0.0,0.0,167.5,74314354.42,0,0,False
3072417,-0.102893595956,3.32175736322,Johnson Lynn-Holly,4108.35,5.375,58,0.0,0.0,157.5,73927392.74,0,0,False
3602574,0.712589532865,-0.090739914942,Shaw Fiona,32983.23457,7.224691358,58,0.0,0.0,170.0,73786340.37,0,0,False
3271611,0.538884093683,0.493078918881,Matthews Lisa,3688.125,6.7,47,0.0,0.0,172.5,73450650.34,0,0,False
