id_data,x_data,y_data,z_data,votes,rating,age,gross,salary,heightcm,budget,academy,golden,sample
2971196,-0.186878322687,-0.572507136543,Hall Jessica,145.75,6.7875,34,0.0,0.0,162.5,1626573.199,0,0,True
2828924,2.5253230362,1.00883016158,Edwards Kelsey,235.4,5.68,22,0.0,0.0,150.0,78308.17062,0,0,True
2561917,-0.0739744510022,-1.7136689203,Bardot Brigitte,2221.413462,6.182692308,82,2115494.071,1056972.929,166.0,6444426.981,0,0,True
3700668,-0.095014276929,-1.06493975908,Thai Lily,11.18181818,6.972727273,35,0.0,0.0,160.0,0.0,0,0,True
3051216,-1.72695550509,-0.111859367025,Izzo Lorenza,3767.12,6.92,27,7282810.263,0.0,173.0,3555814.551,0,0,True
3661472,-0.742221978288,2.91456284637,Stockwood Kathryn,2029.5,5.8,0,0.0,0.0,180.0,5348794.904,0,0,True
3097718,0.447579012946,1.10075409475,Kates Naama,3051.2,5.915,31,0.0,0.0,165.0,1049733.898,0,0,True
3528937,1.29391508029,0.648066999451,Rohrer Krystal,585.3333333,6.033333333,25,0.0,0.0,157.5,44588.32436,0,0,True
3091284,-0.0362872508636,-0.521424459357,Kane Sharon,24.01754386,6.559356725,60,0.0,0.0,165.0,52388.9338,0,0,True
2714998,0.92953806407,-2.84233728378,Clifford Ruth,3337.7,6.801818182,116,0.0,0.0,157.5,16873961.66,0,0,True
2838826,-0.268314133287,0.257643529672,Endre Lena,5771.56962,6.321518987,61,995501.2987,0.0,168.0,6326922.889,0,0,True
2869503,-0.294057782984,-0.277027971205,Fiorentino Jessica,11.2972973,6.67027027,37,0.0,0.0,165.0,0.0,0,0,True
2796754,1.84648938122,2.25815112855,Digard Uschi,475.7606838,5.109401709,68,0.0,0.0,167.5,291733.9499,0,0,True
3577385,3.84791356825,-1.35407146961,Scheff Fritzi,12.0,5.5,137,0.0,0.0,157.5,0.0,0,0,True
3619057,-1.31266264542,0.0531673048919,Sims Jena,6437.083333,6.795833333,28,0.0,0.0,170.0,1584970.389,0,0,True
2509906,-0.278900572116,0.0457146927821,Allsopp Kirstie,14.66666667,6.466666667,45,0.0,0.0,167.5,0.0,0,0,True
3758994,-1.52530013372,-0.210528932613,Vicca,47.8627451,6.805882353,42,0.0,0.0,175.0,299000.0,0,0,True
2695654,1.56480974218,1.47540072788,Chase Vicki,16.35897436,5.51025641,31,0.0,0.0,160.0,2027575.02,0,0,True
3350346,-1.13572458263,0.491398335213,Murphy Mallory Rae,8.5,6.55,25,0.0,0.0,173.0,0.0,0,0,True
3271461,-1.31882149385,-0.700170788438,Matthews DeLane,274.0555556,6.908333333,55,0.0,0.0,172.5,1309267.664,0,0,True
2799110,1.700035954,-0.9961312208,Dior Beauty,7.166666667,6.75,39,0.0,0.0,150.0,16004.33895,0,0,True
3326070,0.675560622625,0.236777867627,Monet Alicia,12.94230769,6.136538462,52,0.0,0.0,162.5,0.0,0,0,True
3280677,0.413833327747,-1.41947958372,McCormick Maureen,1522.131356,6.941949153,60,0.0,0.0,157.5,7596731.224,0,0,True
2735235,-0.516837251679,-0.119357360491,Costello Angelica,33.07692308,6.636538462,38,0.0,0.0,167.5,284937.8882,0,0,True
3108510,-0.393693017632,-0.221958188913,Kennedy Patricia,19.82894737,6.589473684,49,0.0,0.0,167.5,0.0,0,0,True
2887675,0.340198229358,-1.62506299803,Fraser Liz,395.7,6.61125,86,0.0,0.0,162.5,8512110.727,0,0,True
3829049,0.827486924261,-0.211229738907,Yates Yvette,3617.333333,6.425641026,38,0.0,0.0,157.5,2113063.824,0,0,True
2777810,3.69715272482,-1.49451733142,DeCarlton Grace,13.25,5.625,126,0.0,0.0,150.0,0.0,0,0,True
2981680,-0.046425317292,-1.49290937811,Harmon Joy,4818.689655,6.806896552,76,0.0,0.0,162.5,11839178.79,0,0,True
3636012,-1.02009523642,0.96583745625,Soko,13354.10714,6.471428571,30,0.0,0.0,165.0,3037.756785,0,0,True
2710464,1.29979979491,-2.72569170124,Claire Ina,1896.444444,6.455555556,123,1440736.634,0.0,160.0,4559677.631,0,0,True
2990719,-0.0454886812118,-2.45241055932,Havoc June,548.0625,6.858333333,104,0.0,0.0,165.0,22634562.56,0,0,True
2798904,-0.755241700209,-0.656280771111,Dion C©line,373.5522388,6.88880597,48,0.0,0.0,167.5,17838059.04,0,0,True
3755263,0.292624495056,-0.596832143395,Venter Dora,43.94444444,6.696296296,40,0.0,0.0,160.0,7373271.889,0,0,True
2495828,0.803406233803,1.33232754707,Agischewa Marijam,18.4,5.724444444,58,0.0,0.0,168.0,0.0,0,0,True
2613306,0.66639962283,1.32687395607,Bolter Samantha,1680.25,5.775,30,0.0,0.0,165.0,0.0,0,0,True
3678020,-0.710319602972,0.913531919035,Sweet Leanna,15.75,6.275,29,0.0,0.0,173.0,0.0,0,0,True
3340329,-0.921682563227,-1.9550202444,Morriss Ann,677.4705882,6.423529412,97,0.0,0.0,172.5,9866513.306,0,0,True
3341106,1.45390055489,-0.886362481289,Morton Katie,10.0,6.8,30,0.0,0.0,152.5,0.0,0,0,True
2812975,0.956973708846,2.0710442427,Drimla,5.0,5.4,34,0.0,0.0,168.0,0.0,0,0,True
3006487,-0.282420202737,0.42040183159,Hesme Annelise,4872.609756,6.351219512,40,0.0,0.0,167.5,13424257.82,0,0,True
3052703,0.231865862074,-1.15948755494,Jackson La Toya,83.89156627,6.843373494,60,0.0,0.0,160.0,813803.6724,0,0,True
3801000,1.48416597307,-1.46210221932,Wiedlin Jane,3510.68254,6.79047619,58,13440.47619,32608.69565,150.0,333139.759,0,0,True
2586270,0.549845022143,0.648204165194,Benson Breanne,33.26190476,6.107142857,32,0.0,0.0,163.0,56028.65713,0,0,True
3182177,0.534239132418,0.0109808474581,Leg Lung,191.2307692,6.261538462,53,0.0,0.0,162.5,68040.82766,0,0,True
2944537,0.80550814134,-1.22702255193,Grant Brea,3223.236559,6.949462366,35,0.0,0.0,155.0,2525068.122,0,0,True
3592866,-1.41777291242,-0.99821806424,Sellecca Connie,44.38990826,6.976146789,61,0.0,0.0,172.5,0.0,0,0,True
2566796,1.00611037153,-2.96957066798,Barry Joan,2543.0,6.957142857,113,0.0,0.0,155.0,0.0,0,0,True
3614597,0.76519121109,-0.672590351144,Silk Alexandra,31.0,6.565882353,53,0.0,0.0,157.5,22357.89257,0,0,True
3777781,1.13368435062,-4.43822917421,Wallis Quvenzhan©,23892.83333,6.841666667,113,13363830.41,400422.0282,147.5,13245410.43,0,0,True
3081088,-1.35553404288,1.60123375468,Jover Arly,14776.975,6.1075,45,0.0,0.0,175.0,16790468.56,0,0,True
2731716,-0.785022575888,-0.348991839267,Corinealdi Emayatzy,1555.473684,6.818421053,36,81566.59146,0.0,167.5,700995.646,0,0,True
2658675,-1.27004504892,-0.496300631552,Cable Tawnni,48.3,6.86,49,0.0,0.0,172.5,0.0,0,0,True
3065022,1.58302525975,0.489838355044,Jensen Dani,19.53846154,6.030769231,29,0.0,0.0,155.0,0.0,0,0,True
3075191,-0.348473934205,-1.04633826553,Jones Annie,1605.266667,6.986666667,49,0.0,0.0,162.5,0.0,0,0,True
3484252,0.646179834536,3.06324356661,Rae Rilynn,11.25,5.175,23,0.0,0.0,175.0,0.0,0,0,True
3019123,-1.04742429282,-0.629706314781,Hollander Audrey,65.59375,6.9875,37,0.0,0.0,168.0,55432.94071,0,0,True
3668436,-0.709533132284,0.0731868203041,Style Sandy,3625.512821,6.602564103,37,0.0,0.0,169.0,0.0,0,0,True
3797458,-0.00678771529409,0.274431183553,White Debbie,10.6,6.4,32,0.0,0.0,165.0,0.0,0,0,True
3548286,-0.801586588541,0.0645479536089,Russo Sandra,12.0,6.576315789,42,0.0,0.0,171.0,0.0,0,0,True
2617078,-0.39179422293,0.506257014105,Borden Lizzy,63.17142857,6.317142857,40,0.0,0.0,170.0,25853.26477,0,0,True
2982767,0.669326773998,0.862326902707,Harrington Cate,17.0,6.0,29,0.0,0.0,163.0,0.0,0,0,True
3498830,-0.0365610254334,0.390734659667,Reeves Chelsea,69.66666667,6.4,27,0.0,0.0,165.0,0.0,0,0,True
2508268,-0.537132025667,0.320222488935,Allen Crystal,2997.081081,6.413513514,44,0.0,0.0,170.0,7124807.267,0,0,True
2845637,1.6020623354,-1.24008881309,Estefan Gloria,1115.390244,6.660162602,59,0.0,0.0,150.0,8728948.045,0,0,True
2831466,0.216386360154,0.583934909852,Eisinger Claudia,204.0666667,6.203333333,32,0.0,0.0,165.0,0.0,0,0,True
2974566,0.653038654753,-0.658074663494,Hamm Lorri,29.33333333,6.7,36,0.0,0.0,157.5,29629.3611,0,0,True
2697459,1.63648967849,-0.149534828875,Cheesbrough Meredith,100.0,6.325,33,0.0,0.0,152.5,0.0,0,0,True
2703459,1.18821366936,1.42161672433,Choi Charlene,1127.823529,5.594117647,34,0.0,0.0,162.5,10903850.47,0,0,True
2550130,1.64432356409,-0.952550721048,Badu Erykah,2306.084746,6.659322034,45,0.0,0.0,150.0,9502427.944,0,0,True
2886856,-2.66951549995,0.153030080913,Franklin Missy,93.0,6.814285714,21,798180.2514,0.0,182.5,0.0,0,0,True
3691707,-0.748940506612,-0.0588894159553,Tate Elizabeth,98.0,6.7,27,0.0,0.0,167.5,17708.61865,0,0,True
3223866,2.42395336852,1.3451428295,Luvv Sara,18.8125,5.48125,23,0.0,0.0,152.5,0.0,0,0,True
3209308,-0.781934994339,0.147073399051,Lombard Eloa,6.5,6.6,33,0.0,0.0,170.0,0.0,0,0,True
3392334,-0.405588872341,1.29175823038,O'Rourke Mary,4058.75,6.0375,33,0.0,0.0,172.5,7853105.0,0,0,True
3064102,0.132899011184,-2.33373528637,Jenkins Megs,1389.311475,6.903278689,99,0.0,0.0,162.5,0.0,0,0,True
2990572,0.967053121724,-2.16004866539,Haver June,196.4210526,6.863157895,90,0.0,0.0,155.0,16766666.67,0,0,True
3602813,0.531894522674,-0.988803319268,Shaw Morgana,4458.693878,6.740816327,54,0.0,0.0,157.5,1392230.412,0,0,True
3119907,-0.546151901657,1.09721821698,Kinne Natasha,6300.5,6.1,49,0.0,0.0,172.5,15246161.99,0,0,True
3092420,1.9215046162,0.349896339314,Kapadia Dimple,1544.746988,5.784337349,59,0.0,0.0,155.0,9370000.0,0,0,True
3548696,-1.08682164741,-4.4945870809,Rutherford Margaret,1031.854167,6.802083333,124,0.0,0.0,162.5,16086274.51,1,1,True
3410653,0.451381128051,-0.343175969792,Oyamada Sayuri,316.1176471,6.535294118,41,0.0,0.0,160.0,0.0,0,0,True
3106114,-0.659376030284,-0.275031153937,Kelly Lara,109.6842105,6.747368421,37,0.0,0.0,167.5,2062265.73,0,0,True
2752576,-2.59069192865,5.0532777953,D'Elia Ilaria,45798.71429,5.428571429,41,0.0,0.0,160.0,2083936.324,0,0,True
3381055,0.903191146612,0.595246401368,Noire Belle,34.0,6.1,28,0.0,0.0,160.0,30413.6253,0,0,True
2529637,0.783338695428,0.98395417274,Aranda Rene Michelle,190.3333333,5.946666667,26,0.0,0.0,162.5,61314.93761,0,0,True
3476241,1.08481778542,-2.74049334009,Purcell Irene,237.5714286,6.585714286,120,0.0,0.0,160.0,0.0,0,0,True
2526229,1.2114560786,-1.28298450289,Antistia Azlea,17.31818182,6.909090909,42,0.0,0.0,152.5,0.0,0,0,True
3015661,-0.763062918495,-0.685527083511,Hodge Kate,323.3297872,6.85106383,50,7520298.261,0.0,167.5,3078551.174,0,0,True
2827265,-0.073424412469,-2.84648702997,Eddy Helen Jerome,1980.956522,6.611594203,119,0.0,0.0,167.5,8363291.039,0,0,True
2967262,-0.634694730126,-0.648827708176,Haddish Tiffany,1592.76,6.912,37,0.0,0.0,165.0,4953568.831,0,0,True
3144036,0.178887804168,0.660347121529,Kross Kayden,2311.641304,6.181521739,31,0.0,0.0,165.0,1223788.215,0,0,True
3704790,-1.68406325266,0.582683721722,Thomass Rosalie,233.6,6.557777778,29,29495.0,0.0,178.0,1000000.0,0,0,True
2673562,0.522575132179,0.138521139469,Carmen Julie,1052.315068,6.171232877,62,0.0,0.0,165.0,14151969.38,0,0,True
2699144,1.07328543928,-0.0202993721128,Cheriton Shirley,9.064516129,6.112903226,61,0.0,0.0,160.0,0.0,0,0,True
3207271,0.0117752055653,-2.16235481486,Lockhart June,528.1804734,6.975739645,91,0.0,0.0,162.5,14679601.26,0,0,True
3494329,0.105516919415,-0.892284989099,Ray Lisa,1367.826087,6.856521739,44,31404.43774,0.0,160.0,3720581.752,0,0,True
2889195,0.589634116079,-2.23528944394,Freeman Mona,719.4716981,6.977358491,90,0.0,0.0,157.5,18535332.88,0,0,True
3087203,-1.20751619267,-3.15277431271,Kahn Madeline,5087.255319,6.973049645,74,3100000.0,0.0,157.5,16580310.96,0,0,True
3804574,1.55753067341,1.34830021628,Williams Ashley C.,11159.0,5.753846154,32,2744.106963,0.0,157.5,10139741.74,0,0,True
3291285,-0.602936556164,-0.229038761044,McTavish Alexandra,240.8181818,6.709090909,38,0.0,0.0,167.5,0.0,0,0,True
3723417,1.80821956617,0.735820945772,Trina,80.2,5.77,38,0.0,0.0,155.0,269493.1467,0,0,True
3273977,-0.444878334274,-0.373072520617,May Alexa,12.24137931,6.755172414,33,0.0,0.0,165.0,0.0,0,0,True
2755856,0.579336491541,-1.2435497164,Daley Sandy,18.5,6.8,62,0.0,0.0,157.5,0.0,0,0,True
3180136,-0.672054035372,0.322676232895,Lee Mona,32.0,6.5,32,0.0,0.0,170.0,0.0,0,0,True
3661874,-0.222564452889,-1.05829028002,Stokely Charlotte,1213.181818,6.972727273,30,0.0,0.0,160.0,733770.1978,0,0,True
3306569,-0.570532255668,0.347252648331,Michelsen Claudia,394.8598131,6.389719626,47,0.0,0.0,171.0,4536735.229,0,0,True
2956047,-0.430195907214,0.374005230224,Gruszka Karolina,1414.722222,6.405555556,36,0.0,0.0,169.0,4013195.0,0,0,True
3422100,0.175419626617,-0.573738520864,Park Megan,2726.872727,6.72969697,30,0.0,0.0,160.0,10132039.98,0,0,True
2598686,0.748166496122,0.438225027995,Billham Scarlet,1553.333333,6.266666667,24,0.0,0.0,160.0,0.0,0,0,True
2793706,0.484486117958,1.50561264399,Diamond Aleska,12.05882353,5.770588235,28,0.0,0.0,167.5,0.0,0,0,True
3598889,0.757799981354,1.64037660324,Shah Kashmira,2450.894737,5.581578947,45,0.0,0.0,167.5,969294.5788,0,0,True
3486029,-0.25772587247,-0.0851141057687,Rainone Trish,762.8,6.6,32,0.0,0.0,165.0,1289041.309,0,0,True
3695492,-1.17515267616,-1.37696306505,Taylor-Young Leigh,868.88,6.9352,71,0.0,0.0,170.0,5546263.833,0,0,True
3712983,0.398089123127,0.57665464623,Todosey Jordan,412.8938053,6.30840708,21,0.0,0.0,162.5,0.0,0,0,True
2884150,0.550028765674,-0.413145214101,Foxxx Leanna,17.86666667,6.475555556,52,0.0,0.0,160.0,0.0,0,0,True
3683340,-0.714014435276,-0.441065084481,Tabitha Totally,6.0,6.8,44,0.0,0.0,168.0,86830.68017,0,0,True
2636635,1.28937227465,0.497438055185,Bronstein Mary,100.625,5.9875,37,0.0,0.0,157.5,223.7376303,0,0,True
3566915,1.2317718025,0.89279822513,Santhiago Monica,10.0,5.8,38,0.0,0.0,160.0,0.0,0,0,True
2749730,0.00983022469849,-0.545014459286,Curtis Liane,4592.6875,6.6375,51,0.0,0.0,162.5,6200161.066,0,0,True
3371511,-1.27312602066,0.546455483396,Newton Tipper,2193.925926,6.514814815,30,0.0,0.0,175.0,41289.16169,0,0,True
3518132,0.555035864533,1.10662254532,Rizzo Jessica,29.0,5.842857143,52,0.0,0.0,167.5,0.0,0,0,True
2948595,-0.769553908892,-0.436890399081,Green-Gaber Renata,59.52173913,6.669565217,56,0.0,0.0,170.0,119338.0756,0,0,True
2900346,2.13692167468,-1.27890475801,Gale Lorena,10404.04636,6.622516556,58,0.0,0.0,147.5,9628166.715,0,0,True
2630308,1.49774591306,0.228134759123,Brecher Amaya,96.71428571,6.071428571,39,0.0,0.0,155.0,0.0,0,0,True
3172332,2.94134633973,-1.77269915364,Lawrence Florence,68.46728972,5.845794393,126,0.0,12121.21212,157.5,4962262.641,0,0,True
2674223,-0.665886347437,-0.0571957628363,Caro Katy,12.6,6.665,32,0.0,0.0,168.0,0.0,0,0,True
3791471,2.02480359449,-0.578029548432,Welles Jennifer,135.375,6.01875,82,0.0,0.0,155.0,446076.8555,0,0,True
2929810,0.764724040831,0.274898850052,Godet H©lose,648.3333333,6.211111111,36,0.0,0.0,160.0,0.0,0,0,True
3600393,0.693762686892,0.139830778414,Shannon Jessica,326.0,6.3,35,0.0,0.0,160.0,0.0,0,0,True
2621805,-1.45276089723,0.712366594707,Bourgoin Louise,2385.238095,6.438095238,35,0.0,0.0,177.5,0.0,0,0,True
2691115,0.802615159798,1.99087939912,Chan Bobo,93.0,5.466666667,37,0.0,0.0,169.0,0.0,0,0,True
3726250,-1.67434933497,-0.205370269593,Tschirner Nora,778.6268657,6.886567164,35,90610.30008,0.0,175.0,0.0,0,0,True
2790884,1.9496410563,2.27378431112,DeVille Cherie,10.55555556,5.044444444,38,0.0,0.0,162.5,15188.78393,0,0,True
3500405,0.0965276660963,1.06513467552,Reid Leila,2094.071429,6.035714286,28,0.0,0.0,167.5,20404907.98,0,0,True
3812677,0.0657424465162,0.998909835587,Winstead Lizz,84.88888889,6.0,55,0.0,0.0,170.0,277649.7696,0,0,True
3674717,-1.70126869215,0.0225158635625,Sutherland Anna-Marie,8527.666667,6.733333333,47,0.0,0.0,175.0,0.0,0,0,True
2991385,1.21338215886,-2.87214639788,Hawley Wanda,250.4,6.7,121,0.0,0.0,157.5,1052837.086,0,0,True
3627682,-0.384182938521,-0.0404535751513,Smiley Tava,2082.888889,6.535185185,45,0.0,0.0,167.5,2636079.986,0,0,True
3257831,1.5162267691,-2.1011779131,Marsh Marian,294.5609756,6.482926829,103,0.0,0.0,155.0,0.0,0,0,True
3225354,0.410815533787,-1.75132397844,Lynn Ann,574.9166667,6.8,83,0.0,0.0,160.0,0.0,0,0,True
2818073,2.32859796161,-1.51293439408,Duna Steffi,440.7857143,6.057142857,106,0.0,0.0,155.0,4642656.897,0,0,True
3498627,0.556524069825,-1.10836168793,Reese Kylee,113.6363636,6.936363636,31,0.0,0.0,157.0,104532.3484,0,0,True
3234169,-1.28848965625,-2.1914887501,Madison Helene,13.66666667,6.266666667,103,0.0,0.0,175.0,7268326.154,0,0,True
3515326,0.909634959006,-0.957976913864,Ripa Kelly,843.9487179,6.75025641,46,0.0,73034.65765,155.0,4915397.256,0,0,True
3713404,-0.971486270264,0.0143674959902,Tokareva Masha,398.6666667,6.683333333,35,0.0,0.0,171.0,3000000.0,0,0,True
3433223,0.545133403202,0.61851061022,Pechukas Maria,260.2,6.02,50,0.0,0.0,165.0,0.0,0,0,True
3651799,2.25687381033,-1.86379845369,Starke Pauline,534.4,6.076,115,0.0,0.0,157.5,7500708.314,0,0,True
3339556,2.00079707301,2.01656739246,Morris Marianne,373.9,5.13,66,0.0,0.0,165.0,0.0,0,0,True
2557052,-0.304877532932,-0.425967367588,Baloch Mahnoor,2285.0,6.7,46,412093.2189,0.0,165.0,463604.8713,0,0,True
3074546,1.45758060864,-1.10163556108,Jolie Jenaveve,86.68181818,6.889393939,32,0.0,0.0,152.0,19749.55612,0,0,True
3684243,0.759512002732,-1.79587303534,Tagore Sharmila,520.0550459,6.968807339,70,740781.457,0.0,155.0,0.0,0,0,True
3755854,0.0326218352914,-0.182539791676,Veracruz Vanessa,251.6666667,6.6,29,0.0,0.0,162.5,0.0,0,0,True
3591628,-0.238882647251,-1.02919603009,Seidman Michele,2627.208333,6.9125,55,0.0,0.0,162.5,6283065.422,0,0,True
3816723,1.32097350764,-0.914508563206,Womack Lee Ann,28.79411765,6.629411765,50,0.0,0.0,152.5,1434578.438,0,0,True
3125744,-0.387313654391,0.20938779335,Klinge Jana,19.89473684,6.468421053,36,0.0,0.0,168.0,0.0,0,0,True
2714875,-0.92657823131,0.265541253556,Cliche Karen,1068.9375,6.525,40,0.0,0.0,172.5,16046202.22,0,0,True
2515950,-0.365866819938,-0.108546131171,Amore Gianna,1513.916667,6.541666667,48,0.0,0.0,167.5,0.0,0,0,True
2876112,-1.36373289336,-0.425102089992,Flynn Ciara,4141.555556,6.977777778,24,0.0,0.0,167.5,1012.585595,0,0,True
3731773,-0.597505175502,0.132067879188,Tweeden Leeann,120.6875,6.50625,43,0.0,0.0,170.0,401563.3635,0,0,True
3802484,-0.172010337965,-0.31204681426,Wilde Nikki,24.64285714,6.614285714,46,0.0,0.0,165.0,0.0,0,0,True
2778528,0.549225689046,-2.59671064778,Dee Frances,543.7580645,6.875806452,107,0.0,789.4736842,160.0,10112088.49,0,0,True
3691143,0.908371373611,0.599017538029,Tarttelin Abigail,180.8571429,6.085714286,29,0.0,0.0,160.0,0.0,0,0,True
3836046,0.661413131461,-0.70554087461,Yung Kitty,16.0,6.656521739,46,0.0,0.0,157.5,0.0,0,0,True
2591270,-1.65388120809,-0.840110765712,Bernhard Sandra,1726.237885,6.94845815,61,1124121.542,0.0,175.0,15399356.57,0,0,True
3715321,-0.459240709001,-1.12912289997,Tompkins Angel,592.6833333,6.593333333,74,0.0,0.0,167.5,4627050.552,0,0,True
3489753,0.481548623359,-1.17761437275,Randall Anne,1546.185185,6.633333333,72,0.0,0.0,160.0,374799.887,0,0,True
3277505,2.17695662271,-2.89130692498,McAvoy May,3880.314815,6.646296296,117,0.0,28070.17544,147.5,17211591.24,0,0,True
2968259,-0.975228899089,-0.314966497187,Hager Kelly Frances,15.5,6.85,27,0.0,0.0,167.5,447000.052,0,0,True
3199950,-1.52891336086,-0.16013687836,Lindgren Anna,12.5,6.8,40,0.0,0.0,175.0,3500.0,0,0,True
3459435,0.293573847262,0.263147563478,Poirier Kim,3827.220339,6.323728814,36,0.0,0.0,162.5,2003173.973,0,0,True
3837974,0.694685862134,1.30686051757,Zak Chloe,6.0,5.8,28,0.0,0.0,165.0,6418.771793,0,0,True
3374602,1.15142533861,0.608072016658,Nicole Cleo,15.0,5.9,46,0.0,0.0,160.0,0.0,0,0,True
3605263,1.97069233607,1.06324015983,Shepard Sally,113.7142857,5.621428571,32,0.0,0.0,155.0,4521055.735,0,0,True
3731941,0.642989947131,0.769700120209,Twiss Jaci,768.4166667,6.05,29,0.0,0.0,162.5,12807.31994,0,0,True
3725815,0.0785359640272,1.81131700249,Trzyna Heather,14127.38462,6.169230769,25,0.0,0.0,157.5,19043367.3,0,0,True
3754201,2.6560126475,-1.7451608642,Velez Lupe,147.8928571,6.092857143,108,0.0,0.0,150.0,3434051.985,0,0,True
2549019,-0.850445885875,1.36399225113,Bachar Carmit,14905.06667,6.186666667,42,0.0,0.0,167.5,75784.60503,0,0,True
2514188,-0.544553646446,0.812645501315,Amato Kimberly,87.47058824,6.223529412,40,0.0,0.0,172.5,7987.814947,0,0,True
3470414,1.89145927976,-2.93557047665,Prevost Marie,171.0,6.741269841,118,0.0,0.0,150.0,3577851.295,0,0,True
3274355,0.0123280512208,0.0542963882711,May Michaela,41.31531532,6.289189189,64,0.0,0.0,168.0,0.0,0,0,True
2669528,0.673763831225,0.939781669183,Capotondi Cristiana,367.122449,5.910204082,36,37601.35349,0.0,164.0,1591279.131,0,0,True
3562650,-1.32897746792,0.111429421763,Sanches Stacy,115.0769231,6.630769231,43,0.0,0.0,175.0,86434.57383,0,0,True
3732197,0.736529147925,-0.65825763922,Tyler Aimee,8.7,6.67,39,0.0,0.0,157.0,0.0,0,0,True
3326409,-0.461385160847,0.0503808611373,Monic,15.27272727,6.545454545,38,0.0,0.0,168.0,0.0,0,0,True
3653542,0.224844500756,-0.189683116846,Steel J.A.,2106.809524,6.461904762,47,0.0,0.0,162.5,13209116.39,0,0,True
3248790,0.0780141600287,0.394101200653,Maraffino Sara,1344.538462,6.307692308,34,0.0,0.0,165.0,6947988.047,0,0,True
2633163,-0.808155716112,2.04126428454,Briefjes Anouk,467.0,5.966666667,34,0.0,0.0,180.0,0.0,0,0,True
3771420,0.196533061889,0.577111546528,Vyona,13.0,6.22,31,0.0,0.0,165.0,0.0,0,0,True
2602961,-0.234145542765,-2.37844952378,Black Mary,13529.4,6.905882353,81,0.0,0.0,157.5,11784468.11,0,0,True
3471373,1.04414521224,0.915493370764,Priestley Justine,185.375,5.79375,47,0.0,0.0,162.5,0.0,0,0,True
3428109,1.59932378565,-0.229378513077,Patrick Danica,73.2,6.365,34,0.0,0.0,152.5,0.0,0,0,True
3595354,-0.964513131377,0.626189236976,Serfaty Jessica,680.5882353,6.458823529,25,0.0,0.0,172.5,10413.89762,0,0,True
3508906,-1.16527311044,-0.366357221551,Ricci Danni,5.333333333,6.9,34,0.0,0.0,170.0,0.0,0,0,True
3157788,0.988315253586,-0.00832967737932,Lake Arcadia,110.8648649,6.143243243,58,0.0,0.0,160.0,0.0,0,0,True
3846360,1.29129821992,2.55269238396,Zottoli Mia,158.7,5.118,48,0.0,0.0,170.0,979566.6141,0,0,True
2921875,-0.517320051339,1.09220329667,Gil Ariadna,6723.232558,6.101162791,47,0.0,0.0,172.0,9359453.998,0,0,True
2597774,1.72858152466,0.992768690336,Biesi Sascha,228.2,5.62,43,0.0,0.0,157.5,0.0,0,0,True
2603073,0.540445422273,-0.141462520666,Black Renata,9.625,6.4875,32,0.0,0.0,160.0,0.0,0,0,True
2890861,2.39854868669,1.66677733825,Friday Dallas,25.0,5.25,30,0.0,0.0,155.0,595238.0952,0,0,True
2602812,0.100683103762,-0.468677395851,Black Johnnie,34.73846154,6.626153846,48,0.0,0.0,162.5,100497.242,0,0,True
3781676,0.158958801972,-0.130529848331,Warden Pisha,32.83333333,6.516666667,36,0.0,0.0,162.5,21851.72233,0,0,True
3348425,0.223213798287,0.20949462083,Munro Caroline,2323.573529,6.197058824,67,0.0,0.0,167.5,17022918.18,0,0,True
2782602,0.236989530412,0.758918588031,Delfino Marieh,4957.636364,6.090909091,39,0.0,0.0,165.0,7274841.9,0,0,True
3247350,-1.0711732913,-2.10360873068,Mansfield Jayne,340.9090909,6.377922078,83,0.0,317241.7819,168.0,1742821.973,0,1,True
2953026,-0.627439691333,0.270459460288,Grimaudo Nicole,687.9333333,6.49,36,0.0,0.0,170.0,0.0,0,0,True
2707822,0.344694274467,-2.2852872379,Churchill Marguerite,726.7272727,6.495454545,106,0.0,0.0,165.0,2524868.939,0,0,True
3185557,-0.81865756523,0.910746983464,Lemmertz J_lia,398.5869565,6.204347826,53,0.0,0.0,175.0,1500000.0,0,0,True
3506235,-0.524301345829,-0.944114593225,Reyes Margarita,2927.133333,6.996666667,39,0.0,0.0,162.5,3153754.155,0,0,True
3807722,-1.42015572283,-0.217468456554,Williams Wendy,1746.490196,6.705882353,52,0.0,0.0,175.0,1350752.082,0,0,True
2509016,1.5705286115,0.439682094073,Allen Rusty,362.2,5.8,72,0.0,0.0,162.5,87417.21854,0,0,True
2615179,0.039054559696,-0.431264841381,Bonnaire Sandrine,1114.445946,6.610810811,49,1593588.4,0.0,163.0,10000000.0,0,0,True
3069233,-2.18333290057,0.831009008411,Joelson Tsianina,18685.1875,6.59375,41,0.0,0.0,173.0,6119027.554,0,0,True
3449142,-0.789640390352,0.113026556436,Phoenix Summer,7588.636364,6.604545455,38,0.0,0.0,167.5,1750555.864,0,0,True
3120782,0.939280475215,1.86791403592,Kirchberger Sonja,108.6025641,5.474358974,52,0.0,0.0,169.0,0.0,0,0,True
3783396,-0.281210026624,-0.862716518416,Washington Gail,5942.5,6.83,51,0.0,0.0,162.5,20569792.94,0,0,True
3813241,1.29660077821,8.46940341929,Winters Shelley,1913.21875,6.599107143,96,0.0,0.0,160.0,14075622.44,2,1,True
2740466,-1.0122156306,-0.065221786357,Crawford Cindy,952.7922078,6.609090909,50,0.0,0.0,172.5,21674644.51,0,0,True
3339760,1.2097845002,0.994811704642,Morris Sherry,61.71428571,5.714285714,52,0.0,0.0,162.5,300689.3755,0,0,True
2717728,1.87807888707,-1.97384032007,Coffey Denise,669.0,6.7025,80,0.0,0.0,147.5,2962962.963,0,0,True
3785769,0.190495125631,0.748948454615,Wattanapanich Marsha,2071.0,6.06,46,0.0,0.0,167.0,0.0,0,0,True
3175712,-0.189873293028,2.24169708982,Lear Amanda,894.1612903,5.774193548,77,0.0,0.0,177.0,0.0,0,0,True
3694992,2.29718242357,-1.64810557005,Taylor Ruth,31.81818182,6.090909091,108,0.0,0.0,155.0,4940350.877,0,0,True
3805843,-2.10920790951,-1.60192367632,Williams JoBeth,2933.106952,6.865240642,68,37657779.54,0.0,170.0,12498620.5,0,0,True
3221747,6.24432997769,-2.70560971117,Luna Selene,1956.035714,6.792857143,45,0.0,0.0,115.0,2047694.595,0,0,True
3765528,-0.206471287352,-1.45707559817,Vitti Monica,1307.273973,6.408219178,85,0.0,0.0,167.5,22222222.22,0,0,True
2968774,1.22577301131,0.660545216781,Hahn Samantha,6036.818182,6.027272727,31,0.0,0.0,157.5,1683183.393,0,0,True
3811673,0.427877816978,-2.96718736656,Windsor Claire,2231.315789,6.547368421,124,0.0,0.0,165.0,2395383.221,0,0,True
3439322,1.33424246231,-1.31727605194,Perez Rosie,4447.577703,6.730067568,52,157236.0144,0.0,152.5,16054961.4,0,0,True
2602273,0.617059778895,1.00173946514,Bj_rklund Irina,2114.918367,5.863265306,43,0.0,0.0,165.0,5227460.646,0,0,True
2719623,0.572229483338,1.14615180993,Cole Danni,89.5,5.9,28,0.0,0.0,165.0,0.0,0,0,True
3415710,-2.52714584573,3.27062254894,Palm Cortney,34563.2,5.912,29,0.0,0.0,167.5,15237844.99,0,0,True
3211246,0.710855388968,0.443342243672,LoPachin Paydin,3622.111111,6.233333333,28,0.0,0.0,160.0,20472440.94,0,0,True
3550287,0.209495691706,-0.113246641398,Ryder Gina,26.66197183,6.48028169,39,0.0,0.0,162.5,48452.7085,0,0,True
3782696,0.330767990753,-1.14425042224,Warren Heather,1178.555556,6.955555556,32,0.0,0.0,157.5,12705.13499,0,0,True
3787408,2.15878141171,0.648768922176,Webb Tamilee,45.5,5.6,58,0.0,0.0,155.0,0.0,0,0,True
3015259,0.130083515379,0.678684442195,Hobmeier Brigitte,157.4230769,6.126923077,40,0.0,0.0,167.0,0.0,0,0,True
2578753,-0.519468614058,-0.800474426587,Behr Emily,39.4375,6.94375,40,0.0,0.0,164.0,0.0,0,0,True
3260080,0.726631485293,-0.484864581331,Martin Holly,527.0,6.6,36,0.0,0.0,157.5,3913.043478,0,0,True
3509749,1.17855332155,0.200466395204,Richard Wendy,76.23831776,5.987850467,73,0.0,0.0,165.0,0.0,0,0,True
3578783,1.38031635289,2.21601533632,Schilling Vivian,292.0,5.208,48,0.0,0.0,167.5,716882.8588,0,0,True
3203769,-1.72888177036,-0.328161948485,Little Tawny,8687.0,6.678947368,60,0.0,0.0,175.0,0.0,0,0,True
3590782,0.0787499300922,-0.273440173387,Segal Blair,12.68421053,6.594736842,37,0.0,0.0,162.5,0.0,0,0,True
2800138,-0.00619419655942,-0.0524965288479,Divine Maya,41.51785714,6.457142857,45,0.0,0.0,165.0,811784.3246,0,0,True
3015418,-0.625371335064,-0.224339708599,Hochscheid Aline,41.17647059,6.7,40,0.0,0.0,168.0,0.0,0,0,True
3181054,-0.655368867872,-0.408883141139,Lee Theresa,219.8148148,6.759259259,46,0.0,0.0,168.0,2000000.0,0,0,True
2619864,-0.574493769386,-1.461721477,Bos© Lucia,527.1666667,6.374074074,85,0.0,0.0,170.0,1.0,0,0,True
2532311,-0.0632718512762,0.524777220231,Ariel,12.5,6.25,38,0.0,0.0,167.5,0.0,0,0,True
3758243,0.838069296867,-1.28463954759,Vessey Tricia,9300.291667,6.833333333,44,0.0,0.0,155.0,11545.34957,0,0,True
3099047,0.943443412634,2.71991889546,Kauffman Diana,767.9,5.16,40,0.0,0.0,172.5,1466280.753,0,0,True
2709644,0.934671673382,1.69010783836,Ciral Karen,350.5,5.6375,71,0.0,0.0,170.0,395209.5808,0,0,True
3652320,2.07399734086,-1.80801094673,Starr Sally,135.5714286,6.2,107,0.0,0.0,155.0,35928.14371,0,0,True
3280265,2.95400224537,-0.89348156082,McConnell Gladys,33.0,5.683333333,111,0.0,0.0,157.5,0.0,0,0,True
2676029,-1.25633417814,-0.0936950726487,Carrera Kayla,12.18181818,6.754545455,38,0.0,0.0,173.0,15679.85226,0,0,True
3163777,0.374256772285,1.77623491215,Langley Emma,24.0,5.7,28,0.0,0.0,170.0,0.0,0,0,True
3786034,0.396325896645,-0.29700333985,Watts Rolonda,277.4861111,6.406944444,57,0.0,0.0,162.5,2070260.76,0,0,True
2813175,-0.0439612981103,-1.91664633169,Driver Betty,19.4,6.37,96,0.0,0.0,167.5,0.0,0,0,True
3171980,1.30383551398,2.36879245286,Lawler Kate,10.16666667,5.183333333,36,0.0,0.0,167.5,0.0,0,0,True
3337150,1.01347038103,0.50354717017,Morgan Ryli,22.66666667,6.0,42,0.0,0.0,160.0,114249.8547,0,0,True
3457373,-0.887646328425,-0.20270202536,Player Sayra,233.2,6.74,40,0.0,0.0,170.0,288437.9892,0,0,True
2756595,2.16069387848,0.207758382965,Dalush Ava,12.0,6.133333333,27,0.0,0.0,150.0,0.0,0,0,True
2559562,-0.928118570448,0.174413319157,Banxx Naomi,12.27272727,6.536363636,44,0.0,0.0,172.5,181477.5338,0,0,True
3602948,1.28038866212,-0.150584051504,Shaw Suzanne,30.66666667,6.346666667,35,0.0,0.0,155.0,0.0,0,0,True
3162335,0.436018444721,0.202747357367,Lane Krista,17.08108108,6.186486486,57,0.0,0.0,165.0,12705.13499,0,0,True
2917046,0.893167152627,-0.511830717977,Gere Ashlyn,2059.25,6.417142857,57,0.0,0.0,157.5,9661829.913,0,0,True
2632693,-1.34236264727,0.729997024756,Brice Lauren,11.4,6.3175,54,0.0,0.0,177.5,0.0,0,0,True
3491283,0.373777464668,0.000266295702123,Rapaport Alexandra,2529.538462,6.351282051,45,0.0,0.0,162.0,3852392.539,0,0,True
3638264,-0.739940449749,-1.65012422389,Sommer Elke,445.6637931,6.328448276,76,0.0,0.0,167.5,21161157.02,0,1,True
3658718,0.481571098247,0.144464493314,Stevens Tabitha,146.8596491,6.253508772,46,0.0,0.0,162.5,778005.0779,0,0,True
3843924,3.47900659251,-1.00168396411,Ziegler Mackenzie,16.79041916,5.613772455,112,0.0,0.0,150.0,179408.4107,0,0,True
3830023,1.85475871324,-0.519761998796,Yen Tricia,29.25,6.36,48,0.0,0.0,150.0,0.0,0,0,True
3327099,-0.660335566307,0.548619206687,Monroe Carolyn,36.54054054,6.321621622,48,0.0,0.0,172.5,3730051.285,0,0,True
3212879,-0.65279659405,0.0448042870367,Lord Rebecca,82.49514563,6.557281553,43,0.0,0.0,170.0,17877.17734,0,0,True
2564798,0.141044827902,-1.44202319947,Barr Roseanne,363.5799701,6.963527653,64,0.0,0.0,160.0,16742508.26,0,0,True
3438576,-0.15835413687,0.638271958941,Peresild Yuliya,642.0,6.25625,32,0.0,0.0,168.0,4904000.0,0,0,True
2655421,1.29950163788,2.54332583093,Butler Yancy,6446.566372,5.10619469,46,0.0,0.0,167.5,14837228.31,0,0,True
3729929,-3.09295204017,0.896714038313,Turnage Kira,27383.83333,6.741666667,32,0.0,0.0,162.5,4687241.74,0,0,True
3712380,1.3417279715,-2.60229442063,Tobin Genevieve,510.59375,6.5625,117,0.0,0.0,157.5,8633093.525,0,0,True
3389861,2.49259218133,-1.28078313111,O'Day Molly,99.18181818,5.963636364,105,0.0,0.0,155.0,11929824.56,0,0,True
3422748,1.04032089938,1.64921913843,Parker Jenna,120.75,5.55,32,0.0,0.0,165.0,328534.3285,0,0,True
2834259,-1.34912370581,1.43379919555,Elizabeth Shannon,14626.67647,6.197058824,43,0.0,627194.0904,172.5,13479285.85,0,0,True
3435101,0.0399442033603,-0.953803872102,Pelkonen Jaana,118.6,6.91,39,0.0,0.0,160.0,0.0,0,0,True
2595846,-1.00725110804,-1.41569853135,Bhatt Alia,7946.846154,6.992307692,23,536431.468,0.0,157.5,5900000.0,0,0,True
3151021,0.356553550595,0.650347892361,Kwon Judy Jean,318.25,6.1,38,0.0,0.0,165.0,2921105.576,0,0,True
3199926,-0.184863266641,2.37521890855,Lindfors Lillemor 'Lill',235.5714286,5.742857143,76,0.0,0.0,178.0,5503173.497,0,0,True
2553762,-0.227011455664,0.0260500957082,Baker Marina,70.8,6.44,49,0.0,0.0,167.5,0.0,0,0,True
3053446,0.932391201321,-0.294076091484,Jacme Janet,11.65116279,6.360465116,49,0.0,0.0,157.5,0.0,0,0,True
3451005,0.109923226064,0.292772889119,Pierce Nellie,11.7,6.32,38,0.0,0.0,165.0,0.0,0,0,True
2703914,0.0640729052145,-1.0059204602,Chong Annabel,155.2,6.916,44,324844.5993,15748.0315,160.0,0.0,0,0,True
3812774,-0.202294035315,-0.98231424229,Winstone Jaime,2806.520833,6.941666667,31,0.0,0.0,160.0,4462284.918,0,0,True
2675611,0.360319214592,-0.260165115475,Carradine Calista,63.12,6.42,54,0.0,0.0,162.5,61367.18644,0,0,True
3056504,-2.31158561982,0.406755291754,James Andrea,2209.470588,6.452941176,49,10732503.57,0.0,182.5,300988.084,0,0,True
3421061,2.05727892005,2.10775030326,Parent Monique,346.8813559,5.054237288,51,0.0,0.0,162.5,832449.0617,0,0,True
2800233,-0.796356156399,0.345301929415,Dix Emily,21.0,6.55,27,0.0,0.0,170.0,0.0,0,0,True
2680685,0.155626801008,0.240038352618,Cash Tabatha,34.66666667,6.3,43,0.0,0.0,165.0,0.0,0,0,True
2599473,0.702920156259,1.38870629746,Bingham Traci,249.84375,5.70625,48,0.0,115774.2402,167.5,2104181.573,0,0,True
3242766,4.3091094772,-0.804987738095,Malone Molly,178.125,5.28125,128,0.0,0.0,150.0,0.0,0,0,True
3538063,-1.21659819813,-1.06804564469,Rossellini Isabella,3929.979058,6.943455497,64,7200346.0,0.0,170.0,20333718.04,0,0,True
3678585,0.24751089463,1.5727258427,Swift Sarah,6.0,5.8,30,0.0,0.0,170.0,0.0,0,0,True
3353825,-1.43902303413,-1.77401746602,Myerson Bess,194.1818182,6.681818182,92,0.0,0.0,175.0,0.0,0,0,True
2651174,2.61390068453,1.75331516263,Burke Stacy,403.3529412,5.094117647,41,0.0,0.0,155.0,0.0,0,0,True
3107192,-0.445122827337,-0.121081227813,Kemp Valerie,9.0,6.6,42,0.0,0.0,167.5,12735.16643,0,0,True
2893845,3.03583594581,-0.587762664235,Fuentes Lupe,89.42857143,6.685714286,29,0.0,0.0,142.5,0.0,0,0,True
3203816,-1.08054203684,-0.57232895808,Littleford Beth,2426.060345,6.909482759,48,0.0,0.0,170.0,15815489.97,0,0,True
3617868,0.407779684306,0.0546024949675,Simone Dominique,73.8115942,6.31884058,45,0.0,0.0,162.5,1619431.579,0,0,True
3810999,-0.46893331648,0.377477498167,Wilson Torrie,236.008547,6.382905983,41,0.0,0.0,170.0,97458.33817,0,0,True
2806066,-1.07525041655,-0.249415559479,Donna Princess,822.6666667,6.833333333,34,0.0,0.0,170.0,47983.54907,0,0,True
2745245,1.43487709847,0.165518103101,Cruz Cassandra,98.5,6.1625,34,0.0,0.0,155.0,422121.1678,0,0,True
2509665,2.1638687476,-2.55329719017,Allison May,186.0,6.3,126,0.0,0.0,155.0,352293.578,0,0,True
3589468,0.218522063369,0.533131292767,Seaton Alisha,2929.689655,6.168965517,40,0.0,0.0,165.0,113139.269,0,0,True
2515946,0.334364457434,-0.159244049027,Amore Anna,20.1875,6.4125,49,0.0,0.0,162.5,0.0,0,0,True
2879177,0.33568801139,0.562922664893,Ford Kate,69.75,6.13125,40,0.0,0.0,165.0,0.0,0,0,True
3129910,0.230335257946,-0.0844642305594,Kodetov Barbora,4253.315789,6.421052632,46,0.0,0.0,162.5,0.0,0,0,True
2822404,-1.24796651653,-1.01825601624,Duvall Shelley,7782.833333,6.872916667,67,0.0,0.0,170.0,13843242.18,0,0,True
3298948,-1.22973192938,1.73851637042,Meng Jessey,16675.625,6.0375,49,0.0,0.0,172.5,0.0,0,0,True
3763996,0.282875203804,-2.43816175058,Vinson Helen,713.5405405,6.578378378,109,0.0,0.0,165.0,4998710.716,0,0,True
3558323,0.808723043817,-2.63992350452,Sale Virginia,377.2740741,6.521481481,117,0.0,0.0,162.5,11094103.36,0,0,True
3207351,-1.54046746237,-0.178030208897,Locklear Lexus,24.3,6.81,40,0.0,0.0,175.0,0.0,0,0,True
2994269,-2.72885297311,1.40414056561,Heard Amber,26089.0,6.571666667,30,0.0,421911.0022,167.5,18832381.61,0,0,True
3099976,-0.473165789914,-0.661152126768,Kavelaars Ingrid,901.2621359,6.859223301,45,0.0,0.0,165.0,0.0,0,0,True
2871531,0.721498677833,-3.87863658954,Fitzgerald Cissy,206.1,6.95,143,0.0,0.0,160.0,4112280.702,0,0,True
3184078,-1.60204443383,-2.06187725659,Leighton Margaret,599.0909091,6.931818182,94,0.0,0.0,175.0,18220358.72,0,0,True
2852012,-0.182390458786,-0.928586426694,Fairlane Morgan,13.0,6.9,50,0.0,0.0,162.5,23925.23364,0,0,True
3584955,-0.355677946341,1.01225087529,Schwamborn Hanna,9810.0,6.341666667,24,0.0,0.0,164.0,111868.8152,0,0,True
2768401,0.468970464139,-0.964251600251,Day Sujata,391.7,6.86,37,0.0,0.0,157.5,114701.3576,0,0,True
3313308,3.4152939977,0.575810008429,Millington Mary,148.15,5.295,71,0.0,0.0,147.5,0.0,0,0,True
2606820,0.615003615413,2.94400879045,Blessing Nicole,27.83333333,5.216666667,27,0.0,0.0,175.0,832432.9248,0,0,True
3382657,0.704965820182,0.169004632363,Norholt Mathilde,120.375,6.303125,33,0.0,0.0,160.0,13000.0,0,0,True
2847963,0.422141750377,-0.589363231842,Evans Judi,492.92,6.592,52,0.0,0.0,160.0,372421.2699,0,0,True
3134886,-0.384854917181,0.124569439646,Korbee Jenn,343.2307692,6.507692308,36,0.0,0.0,167.5,0.0,0,0,True
3054877,0.190518403004,0.152816720218,Jade Kimberly,16.625,6.3,48,0.0,0.0,165.0,38000.0,0,0,True
3427480,0.474892197769,1.24704688439,Paterson Jodi Ann,9939.0,5.925,41,0.0,0.0,162.5,0.0,0,0,True
3605222,0.0920530878436,1.44271611522,Shepard Jewel,9433.448276,5.85862069,58,0.0,0.0,167.5,9105120.934,0,0,True
3635100,-0.338811499025,1.75863934579,Sobocan Stephanie,35.0,5.9,30,0.0,0.0,175.0,0.0,0,0,True
2514300,-3.11664618582,2.97317203702,Amaya Vanessa,36848.38462,6.230769231,25,0.0,0.0,162.5,18989665.44,0,0,True
3107669,-5.67401814734,1.7814082665,Kendrick Anna,32464.95699,6.67311828,31,76725394.71,0.0,155.0,34843052.48,0,0,True
2779315,-6.90771091645,18.0697789675,DeGeneres Ellen,1284.135366,5.91,58,252033781.1,11312245.41,167.5,25353937.3,0,0,True
3101352,-2.58399350438,-2.12724861167,Kaye Caren,507.7111111,6.775555556,65,54426506.02,0.0,167.5,0.0,0,0,True
3519748,-14.7180741633,9.50361894322,Roberts Julia,15762.42925,6.366509434,49,112995360.5,11340531.99,170.0,50236500.67,1,3,True
3416474,-4.78955620016,1.38989627716,Palmer Teresa,27816.26471,6.626470588,30,67235683.0,0.0,164.0,45410848.76,0,0,True
3383070,7.78042290735,2.26429104207,Normand Mabel,176.965812,5.820512821,124,127152317.9,0.0,152.5,1429866.514,0,0,True
2576995,0.379107211187,0.28795787921,Beckham Victoria,2221.731481,6.237962963,42,0.0,0.0,163.0,26461816.53,0,0,True
3274281,-1.36881531547,2.00286874587,May Liliya,20771.0,6.081818182,33,0.0,0.0,167.5,35179164.31,0,0,True
3422738,1.295960956,-1.97255534701,Parker Jean,976.474359,6.435897436,101,0.0,0.0,157.5,23430574.78,0,0,True
2952307,-4.15398415235,-1.80887523836,Griffith Melanie,2617.981707,6.387804878,59,21902589.47,1722315.323,176.0,28653415.59,0,1,True
3749452,-0.184356989522,0.19551652287,Varela Leonor,7562.092308,6.429230769,44,0.0,0.0,165.0,23092813.92,0,0,True
3213067,-5.33967553643,-3.6158804794,Loren Sophia,1133.652406,6.480748663,82,26670002.56,4235130.203,172.5,49573632.87,1,0,True
2619842,-1.80134714666,1.14296272192,Bosworth Kate,14805.57143,6.505194805,33,25650604.72,0.0,162.5,29742159.66,0,0,True
2870617,-0.86091612484,-3.50276867595,Fisher Carrie,21156.4186,6.911162791,60,0.0,1518878.393,152.5,30629701.02,0,0,True
3153944,-1.68178075038,0.244086116093,Labed Ariane,11539.66667,6.772222222,32,3014.467317,0.0,171.0,44685050.01,0,0,True
3020570,-2.13622224357,-0.355396661662,Holmes Katie,8106.700787,6.873228346,38,11196044.82,1087552.842,172.5,27295950.82,0,0,True
3747876,-0.525392283376,0.79994733322,Vander Musetta,8014.454545,6.224242424,53,0.0,0.0,170.0,30537687.46,0,0,True
2857514,-2.01291661882,-2.39381368833,Fawcett Farrah,870.7658228,6.713924051,69,21504942.11,1080432.173,165.0,24317662.04,0,0,True
3849436,1.36684876484,-1.42620392626,tani Ikue,214.392146,6.87704646,51,0.0,0.0,151.0,24463202.18,0,0,True
2745684,-1.32568780551,2.47615925369,Cruz Pen©lope,10107.83251,6.163054187,42,9474051.471,2338269.491,165.0,63805375.96,0,0,True
2913522,-1.08272118351,-0.0143668405567,Gedeck Martina,3889.831858,6.553982301,55,4796548.251,0.0,172.5,54729170.97,0,0,True
3317421,4.54998292944,11.1791046314,Mirren Helen,7389.621711,6.970065789,71,24817789.8,0.0,160.0,44963694.64,1,3,True
3800026,0.636830731812,-0.793413203111,Whitton Margaret,7142.615385,6.457692308,66,0.0,0.0,160.0,28518323.18,0,0,True
3347080,1.24276828967,0.913338753533,Muller Greta,1901.888889,5.733333333,58,0.0,0.0,162.5,32055749.13,0,0,True
2771279,0.0867197774435,-1.14781657037,De Jesus Wanda,7032.421875,6.8015625,58,0.0,0.0,160.0,34161930.62,0,0,True
3589736,0.778996960633,-1.59066449315,Seberg Jean,3764.042553,6.612765957,78,370589.2064,618556.701,157.5,50559888.5,0,0,True
3105140,-1.06026812959,-0.663110666953,Kelley Sheila,4261.409639,6.862650602,55,0.0,0.0,170.0,29170445.34,0,0,True
2592369,-0.0729281868727,-0.02723881554,Berrymore Dru,4181.485437,6.450485437,47,0.0,0.0,165.0,37752893.13,0,0,True
3678645,0.2249753506,-2.90323931265,Swinburne Nora,556.8490566,6.967924528,114,0.0,0.0,162.5,28123779.27,0,0,True
3084024,-9.75269289764,1.54540549455,Jurdi Kate,82655.26087,6.352173913,39,0.0,0.0,167.5,40285213.93,0,0,True
2994746,-5.3938936902,3.98669555737,Heathcote Bella,57053.71429,6.35,29,0.0,0.0,165.0,38143069.84,0,0,True
3114202,-0.511543717773,-1.3607419485,Kidder Margot,2613.638889,6.534259259,68,10371773.49,1045827.482,165.0,29971100.42,0,0,True
2577005,-2.64225937523,1.20059178217,Beckinsale Kate,22580.19811,6.474528302,43,26158909.26,67758.32863,167.5,48368161.63,0,0,True
2811601,-0.333035103367,-2.72024353818,Drake Fabia,1223.022222,6.857777778,112,0.0,0.0,167.5,35220155.4,0,0,True
2943018,-1.34588576116,1.10568240725,Graham Heather,15617.36242,6.353691275,46,42257.21579,0.0,170.0,26126072.37,0,0,True
2609025,-4.90658837041,0.00659214588638,Blunt Emily,29966.73034,6.87752809,33,26604419.47,0.0,167.5,54267383.23,0,1,True
3777117,-0.809170303676,1.18615128836,Wallace Laurie,12058.17391,6.2,41,0.0,0.0,170.0,26280870.4,0,0,True
2667157,-2.0087212903,0.484113888312,Candell MarLee,18458.76923,6.638461538,47,0.0,0.0,167.5,46897746.9,0,0,True
3752314,-1.14496714993,2.09628164039,Vayda Krystal,20558.0,6.05,32,0.0,0.0,165.0,26102173.45,0,0,True
3232936,-2.19621169334,-0.262644904255,Macpherson Elle,5043.983607,6.81147541,52,0.0,0.0,180.0,52749164.23,0,0,True
3388965,1.30661595766,2.67879055347,O'Brien Shauna,1789.178571,5.055357143,46,0.0,0.0,170.0,39304114.97,0,0,True
3269563,-0.758333880852,-1.0897369269,Mathis Samantha,8531.261261,6.971171171,46,1347.735192,0.0,162.5,23037623.72,0,0,True
2877556,-2.53939324361,1.66317127371,Fonda Bridget,17842.58462,6.272307692,52,40971857.86,0.0,165.0,30228431.19,0,0,True
2752086,-4.30759226933,1.09959696492,D'Amico Tamela,37217.77419,6.848387097,37,0.0,0.0,170.0,29333110.86,0,0,True
3674733,-0.58308795705,0.186542777967,Sutherland Catherine,607.828877,6.485026738,42,0.0,0.0,170.0,48744680.56,0,0,True
3125089,0.00344228522271,1.11459690907,Klementieff Pom,5030.533333,6.026666667,30,0.0,0.0,167.5,30906991.42,0,0,True
3116240,-1.1384835175,-0.811959494584,Kim Jacqueline,8495.535714,6.932142857,51,0.0,0.0,167.5,31474030.73,0,0,True
2510039,1.12695515285,-3.88537918354,Allyson June,447.2991453,6.901709402,99,37767074.64,0.0,150.0,20200128.05,0,1,True
3786015,-5.20803884343,-1.38900416183,Watts Naomi,22941.05769,6.662179487,48,48930284.72,3076020.712,160.0,38616674.43,0,0,True
