id_data,x_data,y_data,z_data,votes,rating,age,gross,salary,heightcm,budget,academy,golden,sample
3519273,1.92253748723,-7.75701283649,Roberts Annabelle,361606.0,7.8,18,0.0,0.0,155.0,0.0,0,0,False
3451495,-1.36847363971,-2.58813771603,Piesse Bonnie,167333.8333,6.4,33,0.0,0.0,168.0,671889.8531,0,0,False
3157297,1.44020687506,-2.23321105826,Laine Catherine,162567.8824,6.941176471,29,0.0,0.0,157.5,0.0,0,0,False
3498123,0.808787454563,-2.68515677943,Reed Renn,158272.5,7.1,63,0.0,0.0,167.5,17013949.87,0,0,False
2986701,-1.07118287448,-2.20476477974,Hartnett Danielle,132147.9643,6.864285714,38,0.0,0.0,175.0,2636116.773,0,0,False
2663047,0.257665935244,-2.43451526407,Calvey Mhairi,125322.1667,7.783333333,28,0.0,0.0,170.0,3250000.0,0,0,False
3106124,0.451283241628,-1.12572048457,Kelly Laura Michelle,115583.4,6.96,35,0.0,0.0,162.5,57887120.12,0,0,False
3187705,1.25110080887,-1.19998011486,Leonidas Georgina,114711.2727,7.354545455,26,0.0,0.0,157.5,0.0,0,0,False
3803533,-2.41562752723,-0.221532555995,Wilkins Stacy Ann,113359.6667,5.633333333,38,0.0,0.0,170.0,81213517.67,0,0,False
2575500,-0.389162990041,-1.51843853055,Beaumont Natasha,107904.6429,7.007142857,42,0.0,0.0,170.0,0.0,0,0,False
3772313,0.591960137085,-0.697029639753,Wachsberger Justine,104253.9375,6.8375,28,0.0,0.0,160.0,11556346.33,0,0,False
2626052,-1.14604034556,-1.60753654136,Bradley Denise,100196.6667,6.844444444,34,0.0,0.0,175.0,71355647.13,0,0,False
2819439,-0.53033700779,-1.22901014733,Dunn Sarah Jayne,95100.0,6.955555556,35,0.0,0.0,170.0,0.0,0,0,False
2884199,4.14249201579,0.330799556615,Foy Mackenzie,94323.16667,7.211111111,116,0.0,0.0,155.0,54880396.91,0,0,False
3763468,-1.33193247206,-0.189015840986,Vincent Mariah-Rae,94219.33333,6.2,38,0.0,0.0,167.5,19404510.32,0,0,False
2868847,0.956159930963,0.40516761562,Finley Aliza,93041.66667,6.866666667,33,0.0,0.0,155.0,77586251.55,0,0,False
3586777,3.14573940948,2.10788954744,Scorsese Catherine,89673.6,7.235,104,0.0,0.0,150.0,12019385.55,0,0,False
3587061,-1.00062274841,-1.56632210769,Scott Caileigh,86463.875,7.0125,32,0.0,0.0,175.0,8375729.846,0,0,False
3296108,-1.67257477789,-0.189913763401,Melim Julia,83908.75,6.0125,31,0.0,0.0,170.0,5461113.013,0,0,False
3084024,-1.00932064704,-0.203831556911,Jurdi Kate,82655.26087,6.352173913,39,0.0,0.0,167.5,40285213.93,0,0,False
3106098,-2.03519123097,0.0970523491289,Kelly Kristen Marie,82528.44444,5.688888889,32,0.0,0.0,170.0,64239475.48,0,0,False
3641046,-0.902288243707,-0.443355900658,Sotiropoulou Tonia,82466.5,6.5,29,0.0,0.0,168.0,0.0,0,0,False
3515028,-0.401188092577,-1.15439497107,Rionda Sasha,82433.0,7.1,39,0.0,0.0,170.0,25314.63988,0,0,False
2781747,-1.34055861022,-0.399037248256,Delaloye Catherine,79587.28571,6.285714286,29,0.0,0.0,170.0,88418643.78,0,0,False
2993414,-0.175573828541,-1.40890394478,Hayworth Kara Lily,77618.25,7.35,28,0.0,0.0,170.0,0.0,0,0,False
2728624,0.224391631107,0.677533655873,Cookson Sophie,77183.66667,6.6,26,0.0,0.0,157.5,0.0,0,0,False
3558849,-0.837623339335,2.51899248586,Salih Met,77086.92308,5.446153846,41,0.0,0.0,150.0,16046429.8,0,0,False
3400595,-0.423825739436,-0.106782719836,Olsen Elizabeth,75199.05556,6.561111111,27,5524909.635,0.0,165.0,76109503.35,0,0,False
3177659,-1.77445034396,-1.77458585977,Lee Abbey,74646.22222,6.944444444,29,0.0,0.0,180.0,7000000.0,0,0,False
2911094,-0.145716936855,0.0611184985539,Gates Victoria,74293.18182,6.663636364,33,0.0,0.0,162.5,14672579.27,0,0,False
3597797,-0.303174400786,-0.24873904466,Seydoux L©a,74167.55263,6.734210526,31,784015.2882,0.0,165.0,248083470.8,0,0,False
3058906,-0.216427667721,-3.49016334566,Janine Alia,73201.6,8.38,38,0.0,0.0,180.0,4677214.269,0,0,False
3718277,-0.458217932704,0.828142136564,Torrice Carey,71109.44444,6.2,39,0.0,0.0,160.0,17947222.51,0,0,False
3282844,-1.84782977314,-1.63579097686,McDowall Rachel,70578.71429,6.842857143,32,0.0,0.0,180.0,58171783.89,0,0,False
2504868,0.881162721446,-1.42074060438,Alexander Jaden,69816.18182,7.172727273,0,0.0,0.0,162.5,7739282.949,0,0,False
3397188,-0.151487767557,-3.06632360715,Okamoto Tao,69500.09091,8.245454545,31,0.0,0.0,177.0,76813982.84,0,0,False
2979937,2.72163818133,2.54784468962,Hardick Taylor,68883.55556,7.177777778,116,0.0,0.0,160.0,14986049.71,0,0,False
3725126,-1.23378559896,-0.753352131072,Trudy Deena,67016.29412,6.570588235,30,0.0,0.0,172.5,53831717.68,0,0,False
3123941,0.254573760843,-0.247770281537,Klaren Sarah,66777.41667,7.083333333,32,0.0,0.0,162.5,33387379.5,0,0,False
3476513,0.6001439544,0.375625679607,Purnell Ella,65183.63636,6.890909091,20,0.0,0.0,157.5,55703276.33,0,0,False
3197695,7.72076487834,-0.544849109721,Lily Morgan,64478.92,7.568,116,105095771.5,0.0,162.5,72733876.68,0,0,False
3514125,-0.898862853973,-1.1842711257,Riley Talulah,63613.18919,7.016216216,31,0.0,0.0,173.0,16377723.05,0,0,False
2839530,3.5109193242,2.74944394368,Engineer Aryana,63160.25,7.275,115,0.0,0.0,147.5,67946026.46,0,0,False
3118136,0.266062492928,-0.532673436356,King Adrienne,62955.2439,6.919512195,61,0.0,2286.407767,165.0,6221672.952,0,0,False
2525355,0.821594429421,0.134829274367,Anoai Vale,61969.09091,7.190909091,31,0.0,0.0,157.5,17802155.34,0,0,False
2684083,-0.126269996183,-0.301220597991,Cataldi Dina,61903.65,6.925,36,0.0,0.0,165.0,333624.4128,0,0,False
3109314,-1.15283466431,-0.241781244424,Kenville Krystal,61850.625,6.375,40,0.0,0.0,170.0,34357095.37,0,0,False
3582316,-1.17696111299,0.199006089184,Schooley Emily,61651.31579,6.142105263,32,0.0,0.0,167.5,87477168.57,0,0,False
3773842,-0.725276363194,-0.190957689926,Wahlquist Heather,61471.45455,6.563636364,39,0.0,0.0,167.5,14854289.34,0,0,False
3212240,-1.05043556868,0.0973383186166,Lopez Meagan,60626.57143,6.257142857,34,0.0,0.0,167.5,35092580.76,0,0,False
3311987,-0.241688003527,0.670243444267,Miller Lauren,58519.36364,6.395454545,34,1300341.647,0.0,160.0,310399.6255,0,0,False
3535171,-0.675452542821,0.270467402301,Rose Nectar,58287.03333,6.396666667,42,0.0,0.0,165.0,13116658.6,0,0,False
2833491,-1.67727449184,0.681911157341,Elia Antonella,57994.0,5.8,53,0.0,0.0,168.0,71999098.29,0,0,False
3797725,0.618468935716,-0.428120698497,White Jasmine Brooke,57487.33333,7.4,37,0.0,0.0,162.5,60380134.23,0,0,False
2994746,-0.740128243903,0.288190836145,Heathcote Bella,57053.71429,6.35,29,0.0,0.0,165.0,38143069.84,0,0,False
3036095,-1.16298736221,-1.3806544077,Huntington-Whiteley Rosie,56983.9375,7.0625,29,0.0,0.0,175.0,121525071.8,0,0,False
3069831,2.47068854492,6.75845304472,Johansson Scarlett,56879.30435,6.521195652,32,43829561.64,8987968.896,157.5,102872077.7,0,0,False
2712200,-0.331522730956,-0.978764506966,Clark Teri,56616.66667,7.091666667,50,0.0,0.0,170.0,2836322.415,0,0,False
2497012,-3.17564004217,2.11137470812,Aguirre Tricia,56246.0,4.333333333,29,0.0,0.0,160.0,17877045.37,0,0,False
3027829,3.05589847215,-1.45434265094,Howard Bryce Dallas,56037.90476,7.050793651,35,55125526.16,674159.7136,167.5,88155357.25,0,0,False
3484165,0.0671715511632,0.0221254007609,Rae Lacey,54658.33333,6.9,34,0.0,0.0,162.5,1460409.56,0,0,False
3374188,1.85124102668,-0.02911712062,Nicodemou Ada,54096.91304,7.865217391,39,0.0,0.0,155.0,0.0,0,0,False
3412236,-0.827817834089,-0.0971556975971,Padilla Snchez Marisol,53801.33333,6.525,43,0.0,0.0,168.0,4071644.111,0,0,False
3464657,4.46552334277,2.09708130007,Portman Natalie,53533.66242,6.736305732,35,47386746.4,1000000.0,157.5,48417014.27,1,2,False
3639394,-0.156598210689,-0.181355750566,Soo Katie,52811.5,6.878571429,31,0.0,0.0,165.0,33283193.5,0,0,False
3201449,1.04025161334,-0.428964026661,Linklater Lorelei,52654.57143,7.485714286,22,0.0,0.0,160.0,18250379.41,0,0,False
3277037,3.66503068717,0.519997499121,McAdams Rachel,52347.21429,7.241428571,38,47238650.27,3374585.353,160.0,47123714.05,0,0,False
3717406,-0.442140605968,0.107454861993,Torres Allison Nichole,52171.0,6.6,24,0.0,0.0,165.0,37343457.56,0,0,False
2565314,-0.580493234241,-0.822583725407,Barrese Sasha,51873.51282,7.017948718,35,0.0,0.0,170.0,30583389.65,0,0,False
3620111,-0.354561862358,-0.497763836711,Singer Iva Franks,51812.18182,6.845454545,54,0.0,0.0,167.5,31068239.69,0,0,False
2971073,-0.579082169862,0.195527312021,Hall Hanna,51674.27586,6.482758621,32,0.0,0.0,165.0,1723533.941,0,0,False
2730375,-0.327509348392,0.490469464882,Coppola Sofia,51579.83951,6.522222222,45,0.0,0.0,162.5,28011625.76,0,0,False
2971650,-1.34720431914,-1.16806363495,Hall Rebecca,51325.97959,6.86122449,34,7587721.234,0.0,175.0,44183230.14,0,0,False
3459852,-0.894754414759,0.831500059169,Poland Priscilla,51029.25,6.0125,36,0.0,0.0,162.5,21958267.83,0,0,False
3068740,0.333682152499,0.257429890256,Jo Samantha,50962.81818,6.9,25,0.0,0.0,160.0,150000000.0,0,0,False
3118723,1.97449264898,-0.857070160443,King Joey,50932.45161,7.446774194,17,28794151.23,0.0,160.0,64363928.93,0,0,False
2515600,-1.38984313029,0.102377483996,Amis Suzy,50512.28125,6.375,54,765526.9204,0.0,170.0,29624226.82,0,0,False
3077498,-1.66725056925,1.62683293007,Jones Natalie,50403.78571,5.292857143,34,0.0,0.0,160.0,25430135.12,0,0,False
2581011,-0.513832706976,-0.850107205365,Bell Zo_,50150.83929,7.058928571,38,0.0,0.0,170.0,34488361.44,0,0,False
2605353,-1.32350376567,9.72801886567,Blanchett Cate,49946.34444,6.879444444,47,35641151.93,4195175.249,170.0,62285750.76,2,3,False
3785157,0.383527527426,4.55707219359,Watson Emma,49836.93103,7.2,26,0.0,6273299.729,162.5,63252113.84,0,0,False
3141372,1.08684416802,0.895808420031,Kravitz Zo_,49609.52273,7.045454545,28,0.0,0.0,152.5,61301935.38,0,0,False
3539011,-1.83291239657,1.10051592929,Roth Brenna,49579.9,5.42,33,0.0,10000.0,165.0,25690784.29,0,0,False
2488662,2.81346217185,0.81210932224,Aberlin Betty,49436.33333,7.344444444,74,32100957.97,0.0,155.0,28542243.13,0,0,False
3099024,-1.35691128547,-0.893870156589,Kaufer Penelope,49333.0,6.7,35,0.0,0.0,174.0,8383947.665,0,0,False
2710850,-0.795921925182,1.16621253955,Clare Jillian,49244.82609,5.973913043,24,0.0,0.0,160.0,76767036.18,0,0,False
2575045,1.05836382841,-0.0408450690096,Beatty Jordana,49153.0,6.98,18,16005399.51,0.0,160.0,21339118.61,0,0,False
3548277,-0.677859364876,4.6524175136,Russo Rene,49094.30612,6.173469388,62,25599326.38,5810029.533,170.0,65303500.06,0,0,False
3697627,0.740489395972,0.759741228609,Temple Juno,49089.58182,6.94,27,6590.529557,0.0,155.0,34271983.25,0,0,False
3008463,0.60871258861,0.085256607386,Hickson Taylor,48958.90909,7.063636364,19,0.0,0.0,160.0,33000000.0,0,0,False
2614798,1.11939783393,1.22882533537,Bonham Carter Helena,48837.11765,7.078431373,50,3584272.591,0.0,155.0,76332686.42,0,0,False
2612357,-0.529531534077,-0.810781205569,Bokor Katia,48538.27273,7.027272727,41,0.0,0.0,170.0,51467328.24,0,0,False
3538070,0.786243710319,1.01008492674,Rossen Cali T.,48222.46667,6.986666667,48,0.0,0.0,155.0,8159610.748,0,0,False
3332473,-2.36895282083,0.792062190679,Moore Summer,47944.875,5.3125,40,0.0,0.0,170.0,19478589.68,0,0,False
3380505,-1.80621960733,0.341846610086,Noel Jamie,47681.86667,5.84,30,0.0,0.0,170.0,12938175.34,0,0,False
3242679,2.31469400375,-0.504105116787,Malone Jena,46244.6129,6.944086022,32,40547707.66,478527.6074,162.5,34558216.66,0,0,False
3605581,-3.22272718923,0.665698357117,Sheppard Delia,46231.94444,5.063888889,55,0.0,0.0,175.0,38210998.21,0,0,False
2697186,0.183049274015,0.543497938079,Chbosky Stacy,45802.5,6.821428571,44,0.0,0.0,160.0,0.0,0,0,False
2752576,-1.4346757473,1.59398225722,D'Elia Ilaria,45798.71429,5.428571429,41,0.0,0.0,160.0,2083936.324,0,0,False
2894016,-0.858165591611,0.125117656425,Fugit Lanette,45658.9,6.5,46,0.0,0.0,167.5,50893225.26,0,0,False
