id_data,x_data,y_data,z_data,votes,rating,age,gross,salary,heightcm,budget,academy,golden,sample
3818085,1.01645625085,2.01372597559,Wood Evan Rachel,7237.650685,7.455479452,29,5832246.943,0.0,167.5,19106584.14,0,0,False
2738264,1.71078937219,0.792140003104,Cox Courteney,2407.866667,7.624592593,52,235095.5453,4012966.836,162.5,33925146.17,0,0,False
3555951,1.0790485477,-0.911642293081,Saint Eva Marie,5314.534351,7.104580153,92,0.0,0.0,160.0,42923817.27,0,0,False
2943167,1.99604498642,2.03432270495,Graham Lauren,2309.516949,7.95819209,49,0.0,104529.6167,172.5,32549294.37,0,0,False
3804961,1.49874189468,-0.0308411162784,Williams Cindy,912.0640569,7.43202847,69,15273451.98,0.0,160.0,5502538.009,0,0,False
3691794,0.889719633347,0.0677418587308,Tate Sharon,917.0,7.25,73,0.0,433729.0935,165.0,20720748.42,0,0,False
2759608,0.0992966895021,0.448311765704,Danner Blythe,8665.337079,6.953932584,73,3927452.826,0.0,167.5,43861990.28,0,0,False
3805843,-0.603984950391,0.847590937636,Williams JoBeth,2933.106952,6.865240642,68,37657779.54,0.0,170.0,12498620.5,0,0,False
2993418,0.409438282683,-1.243322029,Hayworth Rita,13183.7482,6.926618705,98,31702131.35,400363.4117,165.0,16874591.32,0,0,False
2560618,1.4054481263,-0.272623659403,Barbeau Adrienne,5240.549254,7.250746269,71,14871140.28,0.0,157.5,18623555.57,0,0,False
3615956,-1.43913636184,1.50137505739,Silverstone Alicia,8024.4,6.194814815,40,23817245.7,3371108.985,162.5,35957510.86,0,0,False
2870777,0.336201927791,0.876941758522,Fisher Joely,1341.40942,6.986956522,49,3044.0,0.0,167.5,47967142.25,0,0,False
2945876,0.881203204606,1.57065533686,Graves Teresa,33.8372093,7.397674419,68,0.0,0.0,175.0,0.0,0,0,False
3810729,1.57719142456,1.73038464005,Wilson Ruth,6586.051282,7.656410256,34,0.0,0.0,165.0,128779130.9,0,0,False
3371528,0.707747674094,0.176339097237,Newton-John Olivia,1456.848101,7.153164557,68,2874703.806,460122.6994,165.0,12820242.13,0,0,False
2588342,0.852033730002,-0.652798776779,Bergen Polly,895.2440945,7.063779528,86,0.0,0.0,162.5,10522576.79,0,0,False
2797326,1.55020794067,-1.92692407408,Diller Phyllis,1349.724299,6.899065421,99,0.0,0.0,152.5,15989736.78,0,0,False
3442297,2.16478321507,-0.589994263041,Pescow Donna,416.1777778,7.309444444,62,0.0,0.0,152.5,3301904.098,0,0,False
3292055,0.535694579177,-0.505791442909,Meara Anne,3574.51269,6.972081218,87,0.0,0.0,165.0,13099165.56,0,0,False
3648117,0.419485826355,-0.143620356986,St. John Jill,1364.209524,6.963809524,76,14088017.41,0.0,165.0,42666666.67,0,0,False
3592866,-0.116337696559,0.939069808512,Sellecca Connie,44.38990826,6.976146789,61,0.0,0.0,172.5,0.0,0,0,False
3437555,1.40969843473,2.27589568425,Perabo Piper,10862.37423,7.656441718,40,47816315.78,0.0,162.5,31948391.59,0,0,False
2971650,-0.760403403619,6.00876738558,Hall Rebecca,51325.97959,6.86122449,34,7587721.234,0.0,175.0,44183230.14,0,0,False
3664800,1.89324641349,-1.63957677436,Strasberg Susan,530.5102041,6.813265306,78,0.0,0.0,150.0,13047166.63,0,0,False
3104708,-0.121468617923,0.355979139283,Keller Marthe,1957.988889,6.847777778,71,0.0,0.0,170.0,16034790.61,0,0,False
3484633,-1.36734820363,0.668213831433,Raffin Deborah,536.255814,6.391860465,63,0.0,0.0,172.5,13111585.8,0,0,False
2916094,0.824216687395,1.51023318541,George Melissa,6331.863014,7.35890411,40,0.0,0.0,167.5,10944716.45,0,0,False
3250436,0.626891704199,-0.641130079006,Marcovicci Andrea,718.5208333,6.654166667,68,0.0,0.0,160.0,13575997.68,0,0,False
2581971,0.268511162901,1.34885667538,Bello Maria,13679.70625,6.949375,49,3143845.655,0.0,162.5,38813585.61,0,0,False
2694348,0.312273247162,-0.877195926576,Charisse Cyd,1890.263158,6.903508772,95,0.0,0.0,167.5,14019902.8,0,0,False
2535380,0.184296761268,0.579313082743,Arquette Rosanna,9285.840376,6.727699531,57,13126811.84,0.0,160.0,14936063.57,0,0,False
3181812,1.81170502141,2.0882170742,Leeves Jane,757.9275654,7.81971831,55,0.0,0.0,175.0,20308681.96,0,0,False
3283201,0.984708255857,0.739641108249,McEntire Reba,825.5589888,7.404213483,61,0.0,0.0,167.5,24724552.77,0,0,False
2914561,-1.30766918472,1.63919435394,Gellar Sarah Michelle,2594.336673,6.481563126,39,51433947.01,1568199.043,160.0,27544391.6,0,0,False
3025218,2.1227149389,0.176063022903,Horrocks Jane,3997.005495,7.432967033,52,0.0,0.0,155.0,41916498.49,0,0,False
2891422,1.06632478671,1.21978375979,Friel Anna,6429.586777,7.3,40,0.0,0.0,162.5,38053674.99,0,0,False
3505075,1.01333661371,1.05154260029,Reuben Gloria,1986.039007,7.427659574,52,0.0,0.0,167.5,34648807.57,0,0,False
3074015,1.34752005324,2.73982727699,Johnston Kristen,2147.788889,7.581481481,49,0.0,53347.79651,180.0,33839935.96,0,0,False
2983963,-0.308443799819,0.617075548342,Harris Mel,787.5765766,6.748648649,60,0.0,0.0,170.0,17963648.01,0,0,False
3183731,1.30625441196,0.239774718777,Leigh Jennifer Jason,12537.59732,6.788590604,54,2805488.767,0.0,157.5,23450643.34,0,0,False
3072417,-2.97947993138,-2.54193912808,Johnson Lynn-Holly,4108.35,5.375,58,0.0,0.0,157.5,73927392.74,0,0,False
3184067,2.72474247352,1.00104302916,Leighton Laura,251.8065476,8.066666667,48,0.0,0.0,160.0,2021140.556,0,0,False
3026912,0.287810515431,0.0176376448167,Houghton Katharine,9208.217391,6.77826087,71,0.0,0.0,162.5,65910747.73,0,0,False
2541251,1.75933429005,0.253547245674,Atkins Eileen,4723.544041,7.68238342,82,0.0,0.0,165.0,69859209.42,0,0,False
2912896,0.783007100771,-0.4237784041,Gaynor Mitzi,355.25,7.113461538,85,0.0,0.0,165.0,27784308.21,0,0,False
3660496,-0.734740789413,3.28573766519,Stiles Julia,18355.64286,7.050714286,35,79578580.88,5217391.304,167.5,34421071.55,0,0,False
3508894,2.60115638321,0.464343687045,Ricci Christina,10033.75472,6.682389937,36,11265458.41,4012769.501,153.0,24249495.33,0,0,False
2541988,0.731889130902,3.13390451504,Atwell Hayley,24335.98876,7.458426966,34,0.0,0.0,167.5,45560619.65,0,0,False
3186768,2.52173950459,-0.304047780273,Lenz Kay,690.1845238,7.586904762,63,0.0,0.0,152.5,13791952.36,0,0,False
2773293,1.89951194458,1.347289184,de Matteo Drea,2217.951111,7.800888889,44,1133.963313,0.0,165.0,21363735.66,0,0,False
3027829,-0.895815586509,6.44957465567,Howard Bryce Dallas,56037.90476,7.050793651,35,55125526.16,674159.7136,167.5,88155357.25,0,0,False
3783238,0.866217895036,-2.08492918037,Washbourne Mona,2320.485294,6.779411765,113,0.0,0.0,160.0,37564090.05,0,0,False
3575189,-0.296155858631,0.843978291557,Scacchi Greta,3500.520408,6.763265306,56,3360814.238,0.0,170.0,20353032.61,0,0,False
3284220,-1.85917283546,1.35130867461,McGillis Kelly,6961.859375,6.34375,59,32996593.74,0.0,175.0,21305481.15,0,0,False
3513235,1.40378262051,0.791159941008,Rigg Diana,2886.797814,7.579781421,78,0.0,0.0,170.0,24605008.76,0,0,False
2534209,-0.519486545535,0.71674260675,Arnaz Lucie,132.878453,6.783977901,65,0.0,145287.3563,172.5,9443829.522,0,0,False
3494632,1.33633032247,-1.51362818146,Raye Martha,388.8734177,7.107594937,100,0.0,0.0,157.5,16009228.77,0,0,False
2765920,0.866573995625,0.760860399456,Davis Kristin,1903.25974,7.25974026,51,0.0,0.0,165.0,50976932.09,0,0,False
2787814,-1.31979709403,0.484410511004,Derek Bo,1473.369369,6.326126126,60,39060167.65,1790286.273,162.0,9288624.579,0,0,False
3412045,-3.55504680871,0.112045774399,Pacula Joanna,2321.9125,5.62,59,3792016.23,0.0,175.0,12192338.28,0,0,False
3801728,0.280951476002,1.76673585514,Wiig Kristen,8961.632689,7.093673111,43,45623008.17,0.0,162.5,51517685.43,0,0,False
3715321,-0.306560672003,-0.137660019009,Tompkins Angel,592.6833333,6.593333333,74,0.0,0.0,167.5,4627050.552,0,0,False
3605946,0.850062327584,0.9114241137,Sheridan Nicollette,875.3201754,7.314035088,53,0.0,112440.4447,167.5,14137740.9,0,0,False
3496929,0.960591916516,-0.8367130562,Reddy Helen,1863.3125,6.821875,75,9470644.851,0.0,157.5,12745691.41,0,0,False
3430087,1.59753756345,1.47178806349,Paulson Sarah,6194.635246,7.692213115,42,0.0,0.0,165.0,19390632.03,0,0,False
3799208,0.402968888092,-0.0978828640132,Whitfield Lynn,1801.573427,6.755244755,63,92830.17896,0.0,162.5,14571492.42,0,0,False
2526416,-1.90226851202,0.928027563514,Anton Susan,538.5846154,6.481538462,66,4123557.025,0.0,177.5,4327360.021,0,0,False
3514800,-1.21291589788,1.36496048698,Ringwald Molly,2815.174359,6.577948718,48,44037647.05,0.0,170.0,13450593.77,0,0,False
2599898,-0.425499534764,2.19981591037,Birch Thora,15368.62353,6.567058824,34,8701534.912,0.0,160.0,24309032.59,0,0,False
2851884,0.481358134279,-0.552452213022,Fairchild Morgan,1367.861224,6.608979592,66,12157355.44,0.0,160.0,6516594.755,0,0,False
3687445,0.492927585238,2.14623479667,Tamblyn Amber,10018.90588,7.302352941,33,32370201.59,0.0,167.5,14832201.15,0,0,False
3007335,2.78379763454,1.4732139522,Hewitt Jennifer Love,1762.584483,7.324482759,37,68060089.67,5420666.29,155.0,30001428.73,0,0,False
3498581,2.62938459837,-0.679010581378,Reese Della,318.124183,7.820261438,85,0.0,0.0,155.0,8903987.557,0,0,False
2784145,-0.754463862263,1.92288714268,Delpy Julie,15869.56731,6.613461538,47,22272.0,0.0,170.0,12017624.17,0,0,False
3197576,2.33813231539,2.42159277813,Lilly Evangeline,12995.77473,8.184615385,37,0.0,88935.94494,165.0,40412699.01,0,0,False
2852450,0.423309483379,-0.588033542941,Falana Lola,74.95,6.69,74,0.0,0.0,162.5,8503982.278,0,0,False
3500205,1.21702861676,-1.45863328523,Reid Beryl,527.5555556,7.02037037,97,0.0,0.0,157.5,9251205.042,0,0,False
2552312,0.918414279454,1.57767012249,Bain Barbara,326.0362694,7.320207254,85,0.0,0.0,176.0,1674981.488,0,0,False
3776237,1.62293697943,1.43278460872,Walker Polly,4778.180556,7.766666667,50,22889.81595,0.0,167.5,45218943.45,0,0,False
3101801,-0.0268563931384,-0.277130555464,Kazan Lainie,4731.76,6.62,76,70627.95173,0.0,165.0,20627594.6,0,0,False
3589736,0.836965791629,-1.12653825745,Seberg Jean,3764.042553,6.612765957,78,370589.2064,618556.701,157.5,50559888.5,0,0,False
2860570,1.26088375073,0.320420898354,Fenn Sherilyn,1464.144444,7.197777778,51,1571460.416,0.0,160.0,5310624.242,0,0,False
3678321,1.68271221334,0.886426498474,Swenson Inga,173.4055944,7.532167832,84,0.0,0.0,172.5,3973509.934,0,0,False
3458133,-0.385776952435,1.99092468555,Plummer Amanda,20210.45299,6.670940171,59,0.0,0.0,160.0,20889282.88,0,0,False
2675272,1.51593465082,0.336736027084,Carr Darleen,2209.978102,7.552554745,66,0.0,0.0,162.5,8834355.828,0,0,False
3467499,0.38094744552,-0.688928193224,Powers Mala,202.6805556,6.822222222,85,0.0,0.0,165.0,1996701.245,0,0,False
2918072,-0.14729512873,2.0199200995,Gerwig Greta,6960.238806,6.913432836,33,2285878.248,0.0,172.5,10172122.58,0,0,False
3215771,-0.328603344863,0.990847891261,Love Courtney,4198.820225,6.743820225,52,0.0,0.0,170.0,14290344.67,0,0,False
3734427,0.935274136686,0.314621290932,Uggams Leslie,5960.097826,7.338043478,73,0.0,0.0,165.0,2627192.959,0,0,False
2951574,-1.15233518804,1.26582522211,Grier Pam,4517.783654,6.861538462,67,59286123.36,0.0,170.0,16967466.63,0,0,False
2577357,1.98601710691,0.333533783248,Bedelia Bonnie,4686.050691,7.732258065,68,656091.5663,0.0,160.0,41163119.47,0,0,False
2577291,-6.62542870557,3.32690464835,Bedard Irene,5148.140845,7.007042254,49,222960272.4,0.0,150.0,10778785.72,0,0,False
2922412,1.94535147618,0.553902361782,Gilbert Melissa,116.6413994,7.61516035,52,0.0,365111.5619,160.0,3075368.692,0,0,False
3342273,2.37444043505,1.06975050307,Moss Elisabeth,2864.995745,7.661276596,34,45705.13395,0.0,157.5,12899757.18,0,0,False
2607930,3.67044015145,-0.21187379389,Blonsky Nikki,3000.933333,6.78,28,0.0,0.0,145.0,1329446.526,0,0,False
2752197,1.5494101718,-0.657896559463,D'Angelo Beverly,10346.8024,6.765269461,65,1472280.176,0.0,155.0,21544139.69,0,0,False
3469886,0.754502256584,1.03364351661,Pressly Jaime,2347.907143,7.040714286,39,556079.8842,0.0,162.5,11741601.99,0,0,False
3146018,1.79361762506,1.58081744153,Kudrow Lisa,2356.975749,7.79871612,53,967390.3476,20242914.98,170.0,39003143.24,0,0,False
3242679,-0.53072497168,5.33019566959,Malone Jena,46244.6129,6.944086022,32,40547707.66,478527.6074,162.5,34558216.66,0,0,False
2994818,0.526256120873,-0.330275304315,Heatherton Joey,1473.363636,6.833333333,72,0.0,0.0,162.5,0.0,0,0,False
2574253,-6.82567757311,3.00749941286,Beals Jennifer,2792.791667,7.243055556,53,228674698.8,587741.2998,173.0,15275811.71,0,0,False
2951127,-1.26942385923,1.93900517517,Grey Jennifer,6525.553191,6.771276596,56,74040909.99,0.0,157.5,18604466.54,0,0,False
2574060,1.14140989543,0.533108738613,Beacham Stephanie,180.3529412,7.458823529,69,0.0,0.0,167.5,12626862.1,0,0,False
3740945,1.83215573551,0.0339844094609,Valentine Karen,41.31343284,7.604477612,69,0.0,0.0,160.0,942126.466,0,0,False
3147920,1.04397781079,2.91276914706,Kunis Mila,5972.987076,7.234894992,33,80531409.85,0.0,160.0,41390319.31,0,0,False
3149324,1.02933127767,-0.302479123633,Kurtz Swoosie,2623.824742,7.119587629,72,0.0,0.0,160.0,26555371.96,0,0,False
3537656,1.00766121239,-0.657780639735,Ross Marion,494.25625,7.172291667,88,0.0,0.0,162.5,14716468.56,0,0,False
2810269,-0.779210707008,-0.253529526411,Down Lesley-Anne,527.9259259,6.275308642,62,2649197.472,988175.5047,162.5,19054795.74,0,0,False
3629806,0.639368369764,0.283146574567,Smith Jaclyn,583.5424528,7.180660377,71,0.0,0.0,167.5,156521739.1,0,0,False
2608323,-0.867645438593,0.893796181079,Blount Lisa,2503.945455,6.596363636,59,459655.211,0.0,172.5,11178970.65,0,0,False
2819750,-0.833242258541,2.85892679397,Dunst Kirsten,23840.1875,6.578977273,34,16520628.52,8035704.279,165.0,43574807.12,0,0,False
2581623,1.76750094731,0.325911232247,Beller Kathleen,9623.965517,7.396551724,60,0.0,0.0,157.5,0.0,0,0,False
3312527,-0.26412006073,1.0667857874,Miller Penelope Ann,7375.582734,6.794964029,52,20624890.61,0.0,167.5,21609730.1,0,0,False
3461544,2.20379066211,1.47111565213,Pompeo Ellen,3247.70122,7.997865854,47,0.0,430107.5269,165.0,28094645.44,0,0,False
3038054,-5.58782901319,-0.757082245232,Hutton Betty,561.2962963,7.005555556,95,172149353.3,653461.3577,160.0,11934967.56,0,0,False
3464964,-0.023122496475,1.04079187023,Posey Parker,9259.139706,6.661029412,48,573783.4485,0.0,162.5,24110062.87,0,0,False
3584553,0.455341344291,1.44345583353,Schumer Amy,1831.75,7.029310345,35,0.0,25755.82618,167.5,12505082.55,0,0,False
3844431,1.35443869144,0.352070044635,Zimbalist Stephanie,108.873494,7.419277108,60,0.0,0.0,162.5,0.0,0,0,False
3346645,1.3768168526,0.364950152982,Mulgrew Kate,808.4255319,7.44893617,61,0.0,0.0,162.5,22038521.87,0,0,False
2904381,0.577865947527,2.35506751798,Garai Romola,8159.691176,7.35,34,1531485.652,0.0,174.0,17536107.37,0,0,False
2920487,1.57926888467,0.418933283947,Gibbs Marla,351.254065,7.52703252,85,0.0,0.0,170.0,8745987.42,0,0,False
3465908,1.29237777331,-0.207169260941,Potts Annie,5422.490385,7.119551282,64,0.0,0.0,157.5,33965088.9,0,0,False
3842878,-1.48726996015,2.15655694509,Zhang Ziyi,14402.64615,6.087692308,37,456424.0731,393321.7363,162.5,31309083.43,0,0,False
2816498,2.51603118678,-0.788938558471,Duffy Julia,600.700361,7.385920578,65,0.0,0.0,150.0,26651482.96,0,0,False
3729800,-2.53460083068,1.09113563618,Turkel Ann,6405.04878,6.343902439,70,0.0,0.0,180.0,3550295.858,0,0,False
3140126,1.79065327029,0.670636563687,Krakowski Jane,2489.22365,7.527506427,48,0.0,0.0,160.0,39743879.34,0,0,False
3127354,1.11306222121,-0.704227036719,Knight Gladys,995.0857143,6.923571429,72,0.0,0.0,157.5,11584494.72,0,0,False
2749499,1.19308854192,0.0752237817999,Curtin Jane,1018.091346,7.361538462,69,0.0,0.0,162.5,40940139.06,0,0,False
2492387,0.525719696584,1.27231161215,Adams Jane,13258.26549,7.110619469,51,4043857.178,0.0,162.5,23677823.43,0,0,False
3538640,1.31711931771,2.26779754051,Rossum Emmy,7577.115646,7.662585034,30,13403.91742,0.0,170.0,74831118.21,0,0,False
2492449,0.210378945425,1.02606345592,Adams Joey Lauren,9841.949495,6.711111111,48,0.0,0.0,160.0,14934939.18,0,0,False
3389525,0.462070921079,1.50500788198,O'Connor Frances,8935.903614,7.253012048,49,0.0,0.0,170.0,45660929.64,0,0,False
3244847,1.32712177934,-1.25515287557,Mandrell Barbara,28.91935484,6.590322581,68,0.0,0.0,155.0,0.0,0,0,False
3538063,-0.0218538712927,0.684992172293,Rossellini Isabella,3929.979058,6.943455497,64,7200346.0,0.0,170.0,20333718.04,0,0,False
3671623,1.07498763837,0.375257691763,Sullivan Susan,424.3717105,7.420065789,74,0.0,0.0,167.5,17532492.83,0,0,False
3581416,0.644536423585,-0.707653172051,Schneider Romy,1110.538462,6.792307692,78,40895.55435,0.0,161.0,27011744.24,0,0,False
3392694,2.19163888043,0.38683489442,O'Toole Annette,978.3985765,7.812811388,64,0.0,0.0,160.0,47093767.71,0,0,False
2669980,-0.579563579253,-1.5314034068,Capucine,2071.2,6.257777778,88,0.0,0.0,167.5,26295431.15,0,0,False
3532518,1.93592229703,-0.17362451319,Ronstadt Linda,811.4918033,7.567213115,70,0.0,0.0,157.5,1133603.239,0,0,False
3211990,-2.69229005153,1.34305128376,Lopez Jennifer,2378.245981,6.099678457,47,70726417.31,6756127.892,165.0,47540063.26,0,0,False
2508874,-0.579476717588,0.554413312605,Allen Nancy,10563.61017,6.503389831,66,259613.5922,2530.755712,165.0,14248649.87,0,0,False
3210792,2.36320357567,0.523655749462,Longoria Eva,1521.052174,7.48,41,8431284.283,0.0,155.0,15236353.35,0,0,False
3209840,2.95787192964,-0.738549951676,London Julie,119.0542169,7.984939759,90,0.0,0.0,155.0,11492735.68,0,0,False
3241446,-0.019825061218,1.3343556681,Malick Wendie,1114.221284,7.125168919,66,0.0,0.0,175.0,14986639.05,0,0,False
3698128,0.452966302704,-0.208529639943,Tennant Victoria,1256.367647,6.773529412,66,0.0,0.0,162.5,6553833.344,0,0,False
3749284,-1.98687774727,1.66775669955,Vardalos Nia,2602.714286,6.533673469,54,80320879.24,4540744.858,165.0,14779200.78,0,0,False
3700431,0.737807386806,0.27777877822,Tewes Lauren,112.1260163,7.147154472,63,1443495.71,0.0,165.0,763209.3023,0,0,False
3638123,0.465636216337,-0.35300922009,Somers Suzanne,589.3478261,6.76548913,70,0.0,126537.7856,162.5,13550067.61,0,0,False
2712005,1.30574272057,-1.35508891092,Clark Petula,239.7183099,6.861971831,84,0.0,0.0,155.0,9544042.158,0,0,False
3589394,0.836002181199,-1.52767115212,Sears Heather,608.9285714,6.457142857,81,0.0,0.0,157.5,4054054.054,0,0,False
2670098,0.57173613472,-0.386752199492,Cara Irene,761.9361702,6.553191489,57,0.0,0.0,160.0,20939581.66,0,0,False
2949570,1.68541915893,-2.18850703062,Greenwood Joan,1601.5,6.679310345,95,0.0,0.0,150.0,14283685.26,0,0,False
3448568,-0.0340198778763,0.00895525525672,Phillips Michelle,353.1493506,6.753896104,72,0.0,0.0,167.5,10702789.48,0,0,False
3450351,1.81231368473,-2.68270103276,Picon Molly,2989.296296,6.918518519,118,0.0,0.0,150.0,15183252.72,0,0,False
3819037,-2.64959862202,3.21527571259,Woodley Shailene,6143.259067,6.84507772,25,115201919.5,0.0,170.0,44061610.0,0,0,False
2962896,1.07770907763,-1.25715427732,Gutteridge Lucy,3167.105263,6.3,60,0.0,0.0,157.5,0.0,0,0,False
2712155,-0.821766449561,0.333867462567,Clark Susan,1085.9375,6.67875,76,0.0,0.0,172.5,14072147.63,0,0,False
2570399,0.364159373359,0.716936570931,Bateman Justine,105.077193,6.958947368,50,16743444.8,0.0,165.0,931124.3975,0,0,False
2501878,-2.13574237862,2.24802795201,Alba Jessica,10110.78621,6.154137931,35,65643860.26,0.0,165.0,35558454.38,0,0,False
3268030,1.56399550235,0.757757059515,Mastrantonio Mary Elizabeth,11303.59406,7.446534653,58,2877993.277,0.0,160.0,64368660.49,0,0,False
2945133,1.93706724888,-1.77790622602,Granville Bonita,292.9146341,7.204878049,93,0.0,0.0,150.0,21388863.75,0,0,False
3180328,-6.56110061848,0.940220095955,Lee Peggy,5352.424242,7.422727273,96,204963503.7,0.0,165.0,7068743.202,0,0,False
3709138,-0.0294586438409,-0.83184915687,Tierney Gene,1959.084746,6.96440678,96,17439875.0,0.0,167.5,16835990.69,0,0,False
2631817,0.027446798627,3.94225218592,Breslin Abigail,26180.39024,6.797560976,20,41015493.01,2229416.218,152.5,35096461.69,0,0,False
2708929,-0.201081550878,-0.465476814975,Cilento Diane,2002.046512,6.723255814,83,0.0,0.0,167.5,29044908.79,0,0,False
2579330,1.92038593598,-1.2369825312,Bel Geddes Barbara,856.389881,7.511309524,94,0.0,0.0,155.0,10195532.0,0,0,False
3655532,-0.487465913084,2.68142512286,Steinfeld Hailee,17901.34091,6.756818182,20,0.0,0.0,167.5,28332920.04,0,0,False
3277037,-0.129359895594,6.00118847557,McAdams Rachel,52347.21429,7.241428571,38,47238650.27,3374585.353,160.0,47123714.05,0,0,False
2536434,-0.116815091771,-3.84273147411,Arthur Jean,2457.692308,7.015384615,116,96806722.69,372925.7457,157.5,14852555.01,0,0,False
3575997,0.593838058335,0.124174284483,Scarwid Diana,2859.191489,7.09787234,61,0.0,0.0,162.5,25588772.27,0,0,False
2908910,-0.163860951727,0.203782191829,Garr Teri,5010.401826,6.826484018,69,8894621.598,158415.8416,167.5,25909123.13,0,0,False
2915961,0.795104993529,-2.280377359,George Gladys,5157.472222,6.769444444,116,0.0,0.0,157.5,16930445.69,0,0,False
2983629,1.33585568774,-1.06515597677,Harris Julie,1008.0,7.30472973,91,20517647.06,66115.70248,157.5,10738197.22,0,0,False
2871563,1.03508154247,-1.64723166256,Fitzgerald Geraldine,1283.192308,7.048717949,103,0.0,0.0,157.5,23751100.18,0,0,False
2952210,-0.968418641271,-3.3435183993,Griffith Corinne,75.33333333,5.92,122,0.0,56250.0,165.0,0.0,0,0,False
2778630,0.763352123959,-1.34322513956,Dee Ruby,3595.406667,6.876,94,0.0,0.0,158.0,8954942.459,0,0,False
3301057,0.51019771237,-2.19909718548,Merkel Una,785.6481481,6.647222222,113,0.0,0.0,160.0,7220158.615,0,0,False
3522872,-1.1605006902,-2.37442207422,Robson Flora,1774.372881,6.728813559,114,0.0,0.0,175.0,27218558.3,0,0,False
3710020,-0.868649223036,0.669813662908,Tilly Jennifer,6455.118943,6.547577093,58,26735096.2,0.0,167.5,21880479.53,0,0,False
3038784,0.176090764494,-1.25582523922,Hyer Martha,1089.445545,6.606930693,92,0.0,0.0,162.5,13547287.16,0,0,False
3522897,0.966407440152,-4.13353193572,Robson May,1374.387097,6.687096774,158,0.0,0.0,155.0,11245399.63,0,0,False
2650849,0.955057425595,-3.10747038181,Burke Billie,4484.367089,6.67721519,132,0.0,3743119.266,155.0,8725146.849,0,0,False
2531107,0.437247475097,-1.54232338392,Arden Eve,1311.978632,7.115811966,108,0.0,0.0,167.5,25332599.62,0,0,False
2711188,-1.54633158459,0.721544709834,Clark Candy,7978.973333,6.428,69,49635285.95,0.0,167.5,11071582.79,0,0,False
2683113,2.49226118905,2.29692363226,Castle-Hughes Keisha,13091.70492,7.82295082,26,35594767.8,0.0,155.0,18164362.52,0,0,False
3232680,-0.335641688891,-2.3054694292,MacMahon Aline,746.877551,6.73877551,117,0.0,0.0,170.0,11345795.04,0,0,False
3609246,0.907768299999,-1.98505660758,Shirley Anne,511.0491803,6.62295082,98,0.0,0.0,155.0,3827070.057,0,0,False
3366878,0.306113988751,0.178947516412,Nelligan Kate,4562.148148,7.027160494,66,680524.9071,0.0,165.0,58270802.59,0,0,False
3037344,0.194728999171,-1.86585721834,Hussey Ruth,1575.75,6.551785714,105,0.0,0.0,162.5,28658195.52,0,0,False
2509444,0.00501077376736,-3.2917459572,Allgood Sara,1485.065217,6.493478261,137,0.0,0.0,165.0,22017264.57,0,0,False
2677012,0.672363283763,-2.06524568749,Carroll Nancy,110.027027,6.837837838,113,0.0,0.0,160.0,15576420.44,0,0,False
3730545,0.167499006464,-2.46011416549,Turner Lana,824.4814815,6.615555556,95,61215039.54,8980.837425,157.5,14098895.21,0,0,False
2744164,0.712717796485,0.381537352828,Crouse Lindsay,5328.108108,7.342342342,68,5462617.606,0.0,165.0,45840146.33,0,0,False
2724252,0.797180911995,-2.83779491777,Compson Betty,229.6162791,6.490697674,119,0.0,17348.34329,155.0,8069729.932,0,0,False
2980061,0.942724982068,-2.47036559848,Harding Ann,328.4489796,6.675510204,114,0.0,0.0,155.0,11144628.01,0,0,False
3670954,1.13880072406,-2.01897956967,Sullavan Margaret,1094.068966,6.931034483,107,0.0,0.0,155.0,6546938.776,0,0,False
2929697,0.75568334998,-1.89219114562,Goddard Paulette,4556.280488,6.768292683,106,0.0,1140288.367,157.5,17263093.29,0,0,False
2495776,1.07016163883,0.657491829817,Aghdashloo Shohreh,10461.92793,7.456756757,64,717109.7333,0.0,162.5,12559787.33,0,0,False
3586851,-0.0221518876691,0.934601394803,Scott Thomas Kristin,12594.87395,6.91092437,56,3225712.972,0.0,165.0,31946221.18,0,0,False
2739692,0.159108383104,-1.63771274647,Crain Jeanne,770.4354839,6.646774194,91,42352941.18,0.0,160.0,9062595.201,0,0,False
2812493,0.522606536322,-3.16011264836,Dresser Louise,377.6470588,7.064705882,138,0.0,0.0,167.5,8716029.903,0,0,False
2785992,-0.206391004414,-0.331249483673,Deneuve Catherine,2424.028571,6.6,73,3651009.558,0.0,165.0,14128912.87,0,0,False
3393375,0.854389684817,-2.21489821728,Oberon Merle,559.3150685,6.617808219,105,10254630.22,544065.9638,155.0,26144437.37,0,0,False
2518895,0.509549180056,-2.07882262118,Anderson Judith,6392.979592,7.063265306,119,0.0,486486.4865,165.0,13825462.76,0,0,False
2876473,-0.616159923803,-0.231812073165,Foch Nina,2279.452703,6.967567568,92,0.0,0.0,172.5,18898314.36,0,0,False
3215708,1.50094057482,-2.7874693864,Love Bessie,2094.935065,6.827272727,118,0.0,0.0,150.0,10113756.78,0,0,False
2609126,0.91212662452,-1.62536808692,Blyth Ann,555.4375,6.6875,88,4280597.015,640569.395,155.0,17607520.8,0,0,False
3209297,0.0505504539159,-1.89707356004,Lombard Carole,1056.990826,6.602752294,108,0.0,2152044.249,165.0,10271073.41,0,0,False
3332539,1.21437578786,-1.86290684772,Moore Terry,844.6370968,6.635483871,87,0.0,0.0,152.5,9850254.708,0,0,False
3331354,0.509703198368,-2.44826066499,Moore Grace,101.7142857,6.607142857,118,0.0,0.0,160.0,0.0,0,0,False
3488902,0.174368444453,0.0867512538888,Rampling Charlotte,5910.681818,6.944318182,70,2971262.893,0.0,165.0,17949977.17,0,0,False
3184078,-1.29220664699,-0.12361456214,Leighton Margaret,599.0909091,6.931818182,94,0.0,0.0,175.0,18220358.72,0,0,False
3285402,0.665167434557,-1.41928379929,McGuire Dorothy,954.925,7.14,100,37238434.16,0.0,162.5,16626166.0,0,0,False
3823977,-0.189676047012,-2.19787908012,Wynyard Diana,518.6111111,6.416666667,110,5569145.046,0.0,165.0,10216522.66,0,0,False
2678347,2.23643355259,-1.49114899251,Carter Nell,579.3170732,7.081300813,68,0.0,0.0,147.5,9758872.412,0,0,False
3331159,-2.22773889034,0.837613370085,Moore Demi,13825.18243,6.02972973,54,30670264.99,6763588.516,162.5,45461955.15,0,0,False
2818537,0.302607547343,-0.543438080051,Duncan Sandy,2484.816901,6.887323944,70,0.0,0.0,160.0,7102914.659,0,0,False
3301002,-0.210759038772,-0.148683704444,Meriwether Lee,307.2453988,7.106441718,81,0.0,0.0,170.0,1496213.637,0,0,False
3548891,-0.0514632723868,-0.195038479678,Ruttan Susan,997.373057,6.866839378,68,0.0,0.0,165.0,27952408.35,0,0,False
3471977,0.807247403437,0.217433596362,Principal Victoria,105.68,7.402461538,66,0.0,68068.29353,165.0,0.0,0,0,False
2675997,-0.594229599175,-0.0125362892865,Carrera Barbara,1014.646341,6.752439024,71,0.0,0.0,170.0,25909126.1,0,0,False
2656807,0.37472613495,3.36517651528,Byrne Rose,27672.21918,7.51369863,37,33496.9973,506.8937551,168.0,41801239.02,0,0,False
2810445,2.1771800237,0.541614766873,Downey Roma,275.2635135,7.871621622,56,0.0,161943.3198,160.0,13270555.55,0,0,False
3290435,0.0443573106979,-0.137846161531,McNichol Kristy,291.125,6.798214286,54,19328982.13,0.0,160.0,8917664.872,0,0,False
3635064,-1.79696976916,2.31099613744,Sobieski Leelee,16210.59016,6.368852459,33,12168533.11,1355166.573,175.0,19553258.81,0,0,False
2827472,0.869035014383,-1.0944843925,Eden Barbara,163.4275862,7.103103448,85,0.0,0.0,157.5,13074930.51,0,0,False
3607175,-2.23906279977,1.50718963475,Shields Brooke,1542.073394,6.734862385,51,40726654.25,988554.7729,180.0,13110977.67,0,0,False
2654962,1.19664963501,1.51513054393,Butler Brett,67.92481203,7.683082707,58,0.0,0.0,172.5,5699044.042,0,0,False
3619503,0.819389396469,-0.880755411685,Sinatra Nancy,242.9375,7.053125,76,0.0,0.0,157.5,5070421.936,0,0,False
2946437,0.667944838695,0.107533152642,Gray Linda,107.5052632,7.404631579,76,0.0,0.0,167.5,3863919.086,0,0,False
2812415,1.39742227994,0.178948382428,Drescher Fran,1190.169323,7.511155378,59,17128363.36,0.0,160.0,23716698.27,0,0,False
3457621,0.753189792036,-0.570508273397,Pleshette Suzanne,3859.727599,7.192473118,79,0.0,0.0,160.0,11080847.9,0,0,False
3439854,-0.114165494717,1.00881935933,Perkins Elizabeth,8567.100671,7.143624161,56,3919461.417,0.0,170.0,48217450.54,0,0,False
3500372,0.0843325310755,-0.677413114893,Reid Kate,1041.333333,6.990277778,86,0.0,0.0,165.0,13906920.41,0,0,False
3313634,1.39711819472,-0.904073403008,Mills Juliet,272.5854922,7.236787565,75,0.0,0.0,155.0,17886150.78,0,0,False
2781891,0.87764999248,0.852139916558,Delaney Kim,319.5950413,7.498347107,55,0.0,0.0,167.5,13355410.06,0,0,False
3302928,0.318554729009,0.38991115288,Metcalf Laurie,5865.255172,7.187586207,61,2486735.502,0.0,165.0,54005168.8,0,0,False
3480566,2.37222196989,-0.689482926453,Quinn Aileen,2957.454545,7.036363636,45,0.0,0.0,150.0,18364663.92,0,0,False
3082097,-0.855111749672,1.63729353108,Judd Ashley,17299.15833,6.743333333,48,19204075.86,2511379.906,167.5,30964052.68,0,0,False
3695492,-0.367017112617,0.0729810203348,Taylor-Young Leigh,868.88,6.9352,71,0.0,0.0,170.0,5546263.833,0,0,False
3371178,-1.83024514842,0.119351103354,Newmar Julie,737.5929204,6.763716814,83,0.0,0.0,177.5,14271366.66,0,0,False
3709336,-0.600486721427,-0.361354422212,Tiffin Pamela,1118.111111,6.574074074,74,0.0,0.0,167.5,28589260.96,0,0,False
2879072,-0.427436274622,0.349144048729,Ford Faith,274.6200466,6.769230769,52,0.0,0.0,167.5,24255104.23,0,0,False
3034984,-0.413791284876,1.82272140614,Hunt Bonnie,18440.33333,7.093333333,55,0.0,0.0,170.0,52145306.99,0,0,False
3510815,0.53380534012,0.399839633745,Richardson Patricia,173.6595745,7.340780142,65,0.0,0.0,167.5,5210123.68,0,0,False
2886684,1.4587457524,-0.521678654412,Franklin Bonnie,106.040293,7.429304029,72,0.0,0.0,157.5,2798570.21,0,0,False
2560185,0.707597882605,0.955194402937,Baranski Christine,3372.801609,7.532439678,64,0.0,0.0,170.0,51103309.08,0,0,False
2562912,-0.211765426027,0.322472145818,Barkin Ellen,8673.391667,6.866666667,62,8700262.791,0.0,165.0,22600112.83,0,0,False
3666216,1.26601201577,1.20515759627,Stringfield Sherry,624.206278,7.658744395,49,0.0,0.0,167.5,24565293.26,0,0,False
3510626,0.221139901409,2.33024009555,Richardson Joely,6168.661017,7.458757062,51,11316.99605,0.0,178.0,63683413.17,0,0,False
2587708,-0.967895793039,0.0024824158113,Berenson Marisa,2413.522727,6.509090909,69,0.0,0.0,170.0,15098944.49,0,0,False
2996464,0.0274870622025,2.34077191108,Heigl Katherine,5037.726073,7.413531353,38,46452782.87,9307130.888,172.5,30447778.99,0,0,False
3257763,1.34705566237,-0.0941114853372,Marsh Jean,1039.936975,7.623109244,82,0.0,0.0,165.0,32773733.2,0,0,False
2765525,0.0867047705875,1.6061758343,Davis Hope,15459.7265,7.294017094,52,4986549.202,0.0,167.5,28083460.83,0,0,False
3076333,1.4546486434,1.94552132153,Jones January,10737.72,7.816571429,38,0.0,0.0,165.0,35817452.31,0,0,False
2553304,0.0781538585873,-0.0451801055311,Baker Diane,9291.079137,7.066906475,78,0.0,0.0,165.0,18861300.57,0,0,False
3773395,-0.565876475022,0.361799007775,Wagner Lindsay,292.1964286,6.982142857,67,0.0,0.0,172.5,8915625.631,0,0,False
2638961,1.31649227978,1.0532288684,Brown Blair,2141.58371,7.733031674,70,1404365.417,0.0,170.0,32617678.05,0,0,False
3209140,0.290012071283,-1.56054166454,Lollobrigida Gina,345.1680672,6.599159664,89,19097.11267,0.0,158.0,22935865.36,0,0,False
2877556,-1.86289318054,1.60050484207,Fonda Bridget,17842.58462,6.272307692,52,40971857.86,0.0,165.0,30228431.19,0,0,False
3091092,0.159819006791,-0.990587469466,Kane Carol,6837.953704,6.835648148,64,23955512.87,0.0,155.0,29047859.16,0,0,False
3062493,2.14727023968,-0.337669730898,Jean-Baptiste Marianne,4471.481328,7.302904564,49,0.0,0.0,152.5,56850804.1,0,0,False
3675492,0.356119989439,-0.537710104599,Suzman Janet,955.2105263,7.268421053,77,0.0,0.0,162.5,34004076.34,0,0,False
3439322,1.65009314425,-1.08615789297,Perez Rosie,4447.577703,6.730067568,52,157236.0144,0.0,152.5,16054961.4,0,0,False
3347235,0.160302421557,3.33446036457,Mulligan Carey,26158.56579,7.509210526,31,7257644.767,0.0,167.5,32102790.81,0,0,False
3652899,2.83985577743,-0.359214572216,Staunton Imelda,17919.91367,7.115827338,60,2127379.175,0.0,150.0,63432512.35,0,0,False
2992204,1.39857857419,-0.367196661111,Hayek Salma,9839.251799,6.883093525,50,16850879.72,0.0,155.0,35749571.92,0,0,False
3612658,1.16303918418,2.34373240983,Sidibe Gabourey,4356.111111,7.650793651,33,53020964.4,0.0,162.5,6220634.849,0,0,False
3104838,-1.67652012992,-0.113096570886,Kellerman Sally,999.5837104,6.621266968,79,4536397.183,309278.3505,175.0,9026700.514,0,0,False
3732757,0.356497053181,-1.46287007355,Tyson Cicely,3181.770186,6.933540373,92,0.0,0.0,157.5,15361220.49,0,0,False
2530609,-0.472629484393,-0.361650175467,Archer Anne,3245.055901,6.732298137,69,0.0,0.0,165.0,40962231.58,0,0,False
3070107,0.0382395403696,-1.31895842728,Johns Glynis,4157.795918,6.859183673,93,0.0,0.0,160.0,19678956.7,0,0,False
2855206,0.490186294652,3.04280278633,Farmiga Vera,18760.37888,7.827329193,43,37619367.84,0.0,170.0,19028051.87,0,0,False
2907540,-0.495137166755,-1.20059377044,Gardner Ava,1497.495726,6.676923077,94,18308823.53,1750294.538,165.0,23789095.8,0,0,False
2722449,1.8322174492,-0.851144117563,Collins Pauline,846.1889764,7.545669291,76,12297896.13,0.0,155.0,22753760.67,0,0,False
3192680,-0.82495471981,1.45273337231,Lewis Juliette,12074.0,6.939106145,43,40044087.88,0.0,165.0,30790253.65,0,0,False
2813207,-0.963993046493,1.60472761005,Driver Minnie,10050.80203,6.968527919,46,1679831.209,0.0,175.0,26715704.51,0,0,False
3114996,-0.619187932543,1.88651984445,Kikuchi Rinko,14793.55172,6.965517241,35,628944.2529,0.0,169.0,41950433.44,0,0,False
2656339,0.998287015784,-2.87239160308,Byington Spring,1345.766871,7.271165644,130,0.0,0.0,157.5,15094647.64,0,0,False
3413031,-1.8727082582,4.51634038224,Page Ellen,33769.17273,6.773636364,29,83081471.66,0.0,152.5,31173498.67,0,0,False
3452162,-0.877901433804,3.09670461528,Pike Rosamund,27633.71429,7.002380952,37,0.0,0.0,170.0,67384800.73,0,0,False
3284594,-0.33818992696,1.67830092214,McGovern Elizabeth,8187.808824,7.344852941,55,2037.33547,0.0,175.0,16838197.27,0,0,False
2712917,-0.720595216529,2.27972661021,Clarkson Patricia,24688.54023,6.991954023,57,5457072.287,0.0,162.5,24144277.95,0,0,False
3023816,1.0881550157,-2.5698998687,Hopkins Miriam,1451.571429,7.028571429,114,0.0,0.0,152.5,12308700.62,0,0,False
3611161,-1.2195439621,1.08797642115,Shue Elisabeth,11713.57432,6.883108108,53,44485094.43,0.0,155.0,36965036.16,0,0,False
3309857,-0.473937878235,-0.830153961773,Miles Sarah,1991.209302,6.560465116,75,0.0,0.0,162.5,14980429.53,0,0,False
3520103,0.052903891964,-0.965654955611,Roberts Rachel,2785.860465,7.062790698,89,124776.4417,0.0,162.5,4958677.686,0,0,False
3520104,-0.943979786325,3.24712643778,Roberts Rachel,27137.82353,7.194117647,38,27421711.99,0.0,172.5,41209321.89,0,0,False
3238428,-0.56210631739,-2.60472972875,Main Marjorie,976.7741935,6.777419355,126,0.0,0.0,167.5,14304627.21,0,0,False
2926317,-0.487127809336,-3.1832442094,Gish Lillian,1409.227941,6.957352941,123,66454150.84,20.0,160.0,14372100.77,0,0,False
3076012,0.356174302709,1.9087356305,Jones Felicity,13114.83582,7.046268657,33,788274.2742,0.0,157.5,56825924.4,0,0,False
3278897,2.75134905823,1.29189889747,McCarthy Melissa,4728.416279,7.364418605,46,74307739.42,8250000.0,155.0,32377126.26,0,0,False
2757847,-0.0696001257718,-1.26386747265,Dandridge Dorothy,480.2909091,6.894545455,94,0.0,482225.9056,162.5,20662897.45,0,0,False
3440930,-0.917582818147,-0.192267527413,Perrine Valerie,7451.881579,6.584210526,73,0.0,0.0,167.5,36778261.42,0,0,False
3667407,-0.232415111222,-1.70572411442,Stuart Gloria,8156.163636,6.785454545,106,0.0,0.0,162.5,35187094.52,0,0,False
3397543,-0.396908043765,1.19318675124,Okonedo Sophie,8863.669903,7.103883495,48,0.0,0.0,170.0,40789679.63,0,0,False
3234644,-0.921335120595,0.263449909796,Madsen Virginia,5685.55,6.717727273,55,35346185.01,0.0,162.5,29246112.71,0,0,False
3107669,-1.94028352665,4.1279619507,Kendrick Anna,32464.95699,6.67311828,31,76725394.71,0.0,155.0,34843052.48,0,0,False
3640995,0.567356525941,-2.69458841341,Sothern Ann,278.6603774,6.571698113,107,0.0,213523.1317,152.5,9478827.473,0,0,False
3811859,16.97739893,-11.1981196004,Winfrey Oprah,3529.869806,6.687257618,62,0.0,689781021.9,169.0,28640055.97,0,0,False
3818456,-0.881725527969,-2.69006062065,Wood Peggy,8888.222222,6.422222222,124,0.0,0.0,165.0,14066151.28,0,0,False
3549304,1.80228567631,1.88268239989,Ryan Amy,18508.49587,7.55785124,48,0.0,0.0,157.5,23553060.0,0,0,False
2796520,0.143113827839,-2.28508713513,Dietrich Marlene,2917.392308,7.073846154,115,33342345.99,2088976.993,160.0,21240086.43,0,0,False
3812492,0.43215909929,0.470708875416,Winningham Mare,2928.174194,7.325806452,57,0.0,0.0,165.0,7374016.657,0,0,False
2494043,-1.07973773997,-0.558115466253,Adjani Isabelle,2478.5375,6.48,61,1820046.583,0.0,163.0,48742426.61,0,0,False
2743820,1.59823731952,1.62846262511,Cross Marcia,182.5418605,7.842790698,54,0.0,0.0,170.0,4401756.524,0,0,False
3425158,1.8165469833,-2.38515075521,Parton Dolly,983.0950226,6.735294118,70,36268736.71,4619826.757,147.5,13027863.73,0,0,False
3172652,2.64562725515,0.734876283992,Lawrence Vicki,36.25824176,8.114285714,67,0.0,0.0,165.0,4772148.009,0,0,False
2696131,0.220345044115,-3.07830750045,Chatterton Ruth,395.1785714,6.689285714,124,0.0,0.0,155.0,5280000.0,0,0,False
2631489,2.04542239541,1.2667641605,Brenneman Amy,2192.782341,7.949897331,52,4273177.702,115774.2402,165.0,52690706.35,0,0,False
3258431,-0.300464305704,-0.421012307613,Marshall Penny,3194.284211,7.228684211,73,1056447.619,0.0,165.0,23407638.12,0,0,False
3230286,-0.631796906976,0.750547692757,MacDowell Andie,6141.397727,7.25625,58,4268623.586,0.0,170.0,30455673.46,0,0,False
2604447,2.25536651971,-0.435836231397,Blake Amanda,73.44850498,7.872923588,87,0.0,0.0,165.0,11006716.29,0,0,False
3730386,1.22634496202,0.930352494862,Turner Janine,1052.343284,7.621890547,54,0.0,0.0,165.0,26423476.06,0,0,False
3279448,1.44108648442,-1.11708517435,McClanahan Rue,565.8421053,7.465384615,82,0.0,223048.3271,157.5,816926.337,0,0,False
3314620,-1.05922786944,-1.54381717658,Mimieux Yvette,1148.140351,6.271929825,74,0.0,0.0,160.0,24271451.56,0,0,False
2693399,-1.01293372884,-0.83537791707,Chaplin Geraldine,4633.765363,6.437988827,72,0.0,0.0,162.5,28286146.86,0,0,False
2519201,0.034580072142,-0.349160718612,Anderson Loni,559.3604061,7.413705584,71,0.0,73619.6319,165.0,1705999.431,0,0,False
2614363,-0.251229841854,-2.68931305677,Bondi Beulah,5170.463415,7.012195122,127,0.0,0.0,162.5,13849290.8,0,0,False
2528551,-0.706661197353,0.446471695313,Applegate Christina,2043.914596,7.069099379,45,23585768.01,0.0,162.5,36276319.17,0,0,False
2998033,1.24296128401,0.840969012593,Helgenberger Marg,1768.803922,7.647058824,58,0.0,0.0,165.0,32747963.5,0,0,False
3781424,-1.6482737871,0.250431240474,Ward Rachel,998.9166667,6.71,59,26282651.7,0.0,172.5,27550114.06,0,0,False
2626840,0.10262696598,-1.35028172096,Braga Sonia,1479.193878,6.885714286,66,29129.0,0.0,155.0,18969950.57,0,0,False
3086278,1.1671632606,0.627563000299,Kaczmarek Jane,684.089701,7.601993355,61,0.0,139372.8223,165.0,17911974.38,0,0,False
2779315,-8.40080126325,0.295223031404,DeGeneres Ellen,1284.135366,5.91,58,252033781.1,11312245.41,167.5,25353937.3,0,0,False
3549789,-2.46328290723,0.699206579032,Ryan Meg,13001.57025,6.195867769,55,34504610.0,15461209.61,170.0,39273107.36,0,0,False
2974168,-0.255880520708,0.633086469281,Hamilton Linda,10348.15169,7.250561798,60,0.0,1762114.537,165.0,41192845.57,0,0,False
3106788,2.27621589839,-0.483464377401,Kelsey Linda,48.1656051,7.798726115,70,0.0,0.0,157.5,0.0,0,0,False
3487307,-0.813226028486,-2.83467641082,Rambeau Marjorie,325.1785714,6.544642857,127,0.0,0.0,165.0,10732753.89,0,0,False
3163274,-0.16454070052,-1.61624914789,Lange Hope,2873.663793,7.159482759,83,0.0,0.0,157.0,15633472.46,0,0,False
3832215,-1.18663656952,-0.939021772918,York Susannah,3104.55,6.616666667,77,0.0,0.0,165.0,25959622.32,0,0,False
3337679,-2.15598406803,0.408925224865,Moriarty Cathy,11113.55844,6.516883117,56,0.0,0.0,172.5,24170666.19,0,0,False
2607864,0.0407286622816,-2.69120290641,Blondell Joan,1379.053659,6.927317073,110,0.0,0.0,155.0,6984746.033,0,0,False
3207154,-1.6667416475,-1.47267939741,Locke Sondra,5150.526316,6.197368421,72,0.0,387867.049,160.0,23464990.49,0,0,False
3480531,-1.10217557149,-0.504052416851,Quinlan Kathleen,6705.71831,6.754929577,62,364968.6747,0.0,162.5,24447540.77,0,0,False
3046990,-0.972941310217,-0.667044202095,Irving Amy,6622.71875,6.814583333,63,9138946.064,0.0,160.0,25651059.24,0,0,False
2999141,-2.71369640274,0.21653845158,Hemingway Mariel,3286.747664,6.397196262,55,5459431.911,0.0,177.5,16831285.73,0,0,False
3162169,-2.1427606668,1.43064106918,Lane Diane,19101.40769,6.703076923,51,39886128.71,5965744.826,167.5,57312505.93,0,0,False
3662622,-3.32913847996,5.23329690668,Stone Emma,42597.20792,7.025742574,28,122674877.1,0.0,165.0,59478156.27,0,0,False
2964035,-2.09033125577,3.42918998314,Gyllenhaal Maggie,32660.75455,6.764545455,39,12566555.93,595238.0952,172.5,37207925.87,0,0,False
3301273,-0.686038696732,-2.1711632694,Merman Ethel,2048.215686,7.126470588,108,0.0,0.0,162.5,10383724.33,0,1,False
3638264,-1.90270495036,-1.15476315304,Sommer Elke,445.6637931,6.328448276,76,0.0,0.0,167.5,21161157.02,0,1,False
3823957,-0.870581415555,-1.21463192825,Wynter Dana,862.2380952,7.211904762,85,0.0,0.0,165.0,15450434.85,0,1,False
3395940,1.53233666409,1.76580375424,Oh Sandra,2628.641096,7.732876712,45,1195894.488,430107.5269,165.0,7640231.684,0,1,False
2521257,-0.953752025433,-1.2242174328,Andress Ursula,2133.933333,6.848571429,80,0.0,47682.11921,162.5,35463468.82,0,1,False
2510039,-0.16736002226,-3.19651850167,Allyson June,447.2991453,6.901709402,99,37767074.64,0.0,150.0,20200128.05,0,1,False
3321725,-1.03500259877,-1.31578611186,Mobley Mary Ann,108.1868132,6.751648352,79,0.0,0.0,162.5,4612888.509,0,1,False
2589147,-2.99957496307,-0.66975278407,Bergman Sandahl,4299.166667,5.927777778,65,0.0,0.0,172.5,23331967.37,0,1,False
2831687,-2.34339429158,-1.81518957832,Ekberg Anita,5110.698795,5.910843373,85,0.0,0.0,165.0,17483958.84,0,1,False
2885183,-1.51116225672,-0.982891286129,Francis Anne,537.0680628,6.931937173,86,0.0,0.0,170.0,15539842.45,0,1,False
3234333,-2.00286577913,-0.932112035779,Madonna,2129.46648,6.384636872,58,29643111.19,1184963.375,160.0,26280574.63,0,1,False
3547669,0.934447396977,1.86162995422,Russell Keri,5211.386364,7.478181818,40,14074193.87,141657.044,160.0,44456464.4,0,1,False
2806382,-1.68750608982,-0.00535841429043,Donohoe Amanda,2834.174757,6.841747573,54,2412811.496,0.0,170.0,15949740.35,0,1,False
2523063,-1.35812597741,-3.26839767124,Angeli Pier,649.3,6.0525,84,0.0,29629.62963,150.0,19480408.9,0,1,False
3301067,1.55405787544,0.918717051422,Merkerson S. Epatha,2503.700971,7.647572816,64,0.0,0.0,165.0,16583267.88,0,1,False
2656069,-0.222740821944,-1.82694279598,Buzzi Ruth,497.8547297,7.391554054,80,0.0,0.0,157.5,2408923.541,0,1,False
2726394,0.175998418356,1.95640776424,Conroy Frances,6026.124514,7.7,63,0.0,0.0,170.0,28801245.07,0,1,False
3316531,-2.57191976262,-0.421420988443,Miracle Irene,3454.652174,6.213043478,62,0.0,0.0,172.5,4565036.646,0,1,False
2995558,-1.4376444563,-1.78845686522,Hedren Tippi,2207.276923,6.405384615,86,22713032.08,3921.568627,160.0,7289689.844,0,1,False
3226258,-1.42265508131,-1.68724051659,Lyon Sue,2732.555556,6.388888889,70,0.0,630143.923,157.5,14561361.23,0,1,False
3215145,-1.54268052168,-0.886231211593,Louise Tina,293.3865979,6.864948454,82,0.0,0.0,170.0,1808853.839,0,1,False
3795562,2.19610112036,0.0495753235877,Wettig Patricia,520.6017699,7.72300885,65,0.0,0.0,164.0,22746058.04,0,1,False
3037343,-1.06270555179,-1.69685970452,Hussey Olivia,2410.891892,6.728378378,65,18080297.4,0.0,155.0,10102327.98,0,1,False
3348451,-0.90899152397,-1.10808056482,Munro Janet,939.72,7.152,82,0.0,0.0,165.0,16494845.36,0,1,False
2778635,-0.806183344885,-1.31666435534,Dee Sandra,743.0,6.902272727,74,0.0,51245.5516,160.0,12093625.85,0,1,False
3384691,-1.32087988179,-1.08004403728,Novak Kim,5784.262136,6.687378641,83,0.0,1361812.495,165.0,2916035.207,0,1,False
3694950,-1.54742763682,0.341285361418,Taylor Regina,1634.992,7.4864,56,0.0,0.0,170.0,43125565.28,0,1,False
3602986,-0.906890924346,-1.06426018175,Shaw Victoria,1338.451613,7.167741935,81,0.0,0.0,165.0,6216216.216,0,1,False
2681429,-1.72469788049,-0.230059971938,Cassidy Joanna,3608.810409,7.053531599,71,0.0,0.0,172.5,20125301.65,0,1,False
3837276,-2.29016475804,-2.87789155761,Zadora Pia,4770.166667,5.875,62,2947518.072,0.0,150.0,6130791.979,0,1,False
3658327,-0.70673186676,-1.27044353596,Stevens Inger,1354.085714,7.205714286,82,0.0,5009.601673,162.5,17779014.32,0,1,False
3658692,-1.82013829828,-1.76779961207,Stevens Stella,624.4480519,6.145454545,80,127654.0541,0.0,162.5,11165490.51,0,1,False
3346804,-1.19162952763,-0.883509519404,Mullally Megan,1203.219873,7.317547569,58,0.0,117791.411,160.0,19024090.19,0,0,False
3678819,-1.20175460054,-1.24185401848,Swit Loretta,190.1111111,7.4925,79,0.0,0.0,165.0,540871.1078,0,0,False
3175766,-1.83264922232,-0.796510588514,Learned Michael,184.4605809,7.728215768,77,0.0,0.0,167.5,7831090.335,0,0,False
3609151,-3.8537784576,2.01034893742,Shire Talia,35386.82828,6.337373737,70,33495310.15,0.0,160.0,22793617.38,0,0,False
3069831,-2.81732259242,6.2043219883,Johansson Scarlett,56879.30435,6.521195652,32,43829561.64,8987968.896,157.5,102872077.7,0,0,False
2749993,-2.31025427919,1.01775925598,Cusack Joan,16541.51136,6.919318182,54,0.0,0.0,172.5,57512185.48,0,0,False
3100044,-1.51795432214,-0.389994620847,Kavner Julie,2096.253508,7.408980355,66,4998592.73,293548.3871,167.5,39273185.57,0,0,False
2614798,0.295914601273,5.7269884132,Bonham Carter Helena,48837.11765,7.078431373,50,3584272.591,0.0,155.0,76332686.42,0,0,False
3667098,2.79712067078,-1.37763724807,Struthers Sally,211.8554779,7.739160839,69,0.0,0.0,152.5,8870359.399,0,0,False
3776149,1.55127258326,-3.07276846392,Walker Nancy,380.0,7.175757576,94,0.0,0.0,147.5,11829768.13,0,0,False
2601340,-1.90403359285,-1.03901079026,Bisset Jacqueline,2256.703226,6.432903226,72,20683071.49,2329668.55,165.0,22504207.51,0,0,False
3029107,-1.05209438498,-1.23284969343,Howland Beth,107.6963351,7.04921466,75,0.0,0.0,162.5,1983372.955,0,0,False
2797520,-2.3800549614,-0.114855575924,Dillon Melinda,12348.26667,6.766666667,77,38676769.2,0.0,170.0,32209808.87,0,0,False
3329115,-1.14714358452,-1.52869284648,Montgomery Elizabeth,330.9797101,7.573913043,83,358432.4168,0.0,165.0,33222232.94,0,0,False
3052592,-1.75189792387,-0.412377865003,Jackson Kate,99.4,7.400727273,68,0.0,0.0,170.0,2667245.538,0,0,False
2794516,-3.78557157953,1.64177106309,Diaz Cameron,19479.24151,6.185283019,44,81379835.09,12383639.1,170.0,60946234.53,0,0,False
3497218,-0.0472203392378,-2.91906762893,Redman Joyce,1029.6,6.986666667,101,0.0,0.0,152.5,7843137.255,0,0,False
3059214,-2.45570574109,2.01565600568,Janney Allison,9941.605081,7.520092379,57,0.0,114809.7335,180.0,33884655.36,0,0,False
3309877,-1.1804032905,-1.33546879854,Miles Sylvia,5681.016393,6.87704918,84,0.0,0.0,162.5,6295187.293,0,0,False
3786819,2.87487705416,-1.76756227506,Weaver Jacki,10666.34884,7.389534884,69,0.0,0.0,147.5,19437165.9,0,0,False
3786015,-2.78786251268,1.77200917105,Watts Naomi,22941.05769,6.662179487,48,48930284.72,3076020.712,160.0,38616674.43,0,0,False
3797224,-0.563985846472,-2.16980141305,White Betty,884.8355978,7.464945652,94,0.0,0.0,160.0,14477520.83,0,0,False
3300439,-1.55651692928,-1.96592701938,Mercouri Melina,578.8235294,6.894117647,96,0.0,0.0,165.0,26770200.31,0,0,False
2904657,-1.80928396259,-2.32236768154,Garbo Greta,2348.232759,6.806896552,111,9504907.821,3367234.154,167.5,9580625.144,0,0,False
2692922,-1.19179321811,-1.97180172834,Channing Stockard,2139.139785,7.333691756,72,6020528.739,0.0,157.5,29603095.17,0,0,False
2847695,-1.77912383422,-3.14471363767,Evans Edith,1474.346154,6.965384615,128,0.0,0.0,167.5,28865979.38,0,1,False
3224949,-3.38778718704,0.610823954199,Lynch Jane,5291.623762,7.379405941,56,0.0,40204.24317,180.0,28429850.66,0,1,False
3163186,-1.89511070151,-1.53298961296,Langdon Sue Ane,732.1363636,6.843939394,80,0.0,0.0,165.0,17244766.13,0,1,False
3791103,-2.73680838546,-1.24129128322,Welch Raquel,1823.189944,6.684357542,76,57485029.94,652844.2318,165.0,21205866.27,0,1,False
2988594,-4.02752124536,-1.2157606059,Hassett Marilyn,700.8888889,6.259259259,69,98624293.44,0.0,165.0,333706.2294,0,1,False
3731318,-1.89233829186,-1.84612168505,Tushingham Rita,1323.529412,6.588235294,74,0.0,0.0,160.0,5606197.159,0,1,False
2989088,-2.28073675567,-0.520988293584,Hatcher Teri,2116.834437,7.352759382,52,0.0,4408681.842,165.0,57752775.6,0,1,False
2980820,-3.075985046,0.360329157433,Hargitay Mariska,581.4316547,7.807553957,52,0.0,566626.6507,172.0,21878524.46,0,1,False
2555909,-1.82770682268,-1.49277802802,Balin Ina,328.5652174,7.076811594,79,0.0,0.0,165.0,81095108.34,0,1,False
3245493,-2.99633049088,0.115794554029,Manheim Camryn,1620.169271,7.490625,55,0.0,0.0,175.0,12677690.33,0,1,False
3247350,-2.40884686581,-1.65981794078,Mansfield Jayne,340.9090909,6.377922078,83,0.0,317241.7819,168.0,1742821.973,0,1,False
3150785,-3.39524951934,-2.02018671789,Kwan Nancy,512.7761194,6.455223881,77,87491638.8,0.0,157.5,13046585.85,0,1,False
3120254,-3.0698925646,-1.22045468188,Kinski Nastassja,2740.525773,5.996907216,55,4439306.956,0.0,165.0,36114642.86,0,1,False
3067586,-2.19939980357,-1.00893319485,Jillian Ann,367.375,6.8375,66,0.0,0.0,167.5,11384690.65,0,1,False
3327232,-2.66576713523,-1.714458882,Monroe Marilyn,4728.13089,6.865968586,90,63038159.98,848913.913,162.5,11365031.91,0,1,False
