id_data,x_data,y_data,z_data,votes,rating,age,gross,salary,heightcm,budget,academy,golden,sample
2495637,0.394369118714,-0.777247931211,Agena Keiko,1939.514706,8.041176471,43,0.0,0.0,152.5,22982.56492,0,0,True
3658196,-0.467209969571,-0.673048356182,Stevens Christie,15.14285714,5.992857143,30,0.0,0.0,155.0,515116.5237,0,0,True
3223182,-0.0458691680875,-0.247020504244,Lusha Masiela,183.5873016,7.485714286,31,0.0,600333.5186,162.5,825959.5434,0,0,True
3595239,-0.652620568698,0.535852902322,Serena,217.2857143,6.123809524,65,0.0,0.0,170.0,443844.3276,0,0,True
3656311,0.196548604288,-0.0918603845485,Stenovitch Nadine,16160.55556,6.522222222,0,0.0,0.0,162.5,204434.1374,0,0,True
3748715,-0.138424290243,0.797884653872,Vanity,45.0,6.15,43,0.0,0.0,178.0,64977.84361,0,0,True
2849519,-0.154257690598,0.786084352722,Evyn Jill,216.2105263,5.978947368,32,0.0,0.0,172.5,37001.93598,0,0,True
3216161,0.726606518693,0.157015754208,Love Shy,9.590909091,7.177272727,38,0.0,0.0,165.0,53136.00278,0,0,True
3534825,-0.193960549841,-0.0115968780613,Rose Julia,20830.38095,6.704761905,43,0.0,0.0,167.5,39021.73913,0,0,True
3163841,0.708291907532,-0.248700061872,Langlois Danielle,551.0714286,6.828571429,37,0.0,0.0,162.5,31836.67431,0,0,True
3057331,-0.808433525524,-0.0796422076597,James Rahyndee,8.0,4.6,25,0.0,0.0,155.0,25314.63988,0,0,True
3678090,-0.0410245645572,-0.888705853504,Sweet Shay,18.47916667,6.695833333,38,0.0,0.0,155.0,39599.76604,0,0,True
3044012,-0.696462766943,0.51203629427,Inaba Carrie Ann,881.2355289,6.478842315,48,0.0,0.0,165.0,891220.4534,0,0,True
3050484,-0.00179120726213,-0.876710351457,Ivy Madison,16.26470588,6.538235294,27,0.0,0.0,147.5,88050.77595,0,0,True
3684742,-0.78749942019,0.311277878015,Tait Marissa,334.5,5.75,37,0.0,0.0,162.5,360144.0576,0,0,True
3742379,0.559039573784,-0.637074875735,Vallone Brooke,21.77777778,8.322222222,29,0.0,0.0,152.5,83008.79675,0,0,True
2993490,0.0298318106428,0.768025165941,Haze Allie,101.3389831,6.296610169,29,0.0,0.0,170.0,115678.2727,0,0,True
2725339,-0.859728035051,-0.266948010605,Conn Terri,168.5945946,5.7,41,0.0,0.0,157.5,315479.8594,0,0,True
2690502,0.357809972411,0.548782439949,Chambers Christina,256.2105263,7.1,47,0.0,0.0,167.5,245775.7296,0,0,True
3108057,0.502797282234,0.522265722676,Kennedy Cody,1709.05,6.82,25,0.0,0.0,167.5,439983.6267,0,0,True
2939837,0.761622309167,-0.159084365327,Goss Emily,210.3076923,7.361538462,26,0.0,0.0,162.5,16413.41854,0,0,True
3056481,-0.255971043955,0.752574573318,James Allie,13.125,5.375,23,0.0,0.0,172.5,253446.8775,0,0,True
3291848,-0.693694225308,-0.554709613994,Meadows Julie,26.29310345,6.420689655,42,0.0,0.0,160.0,22360.24845,0,0,True
2538548,-0.663636132998,-0.556348249448,Ashley Brooke,19.89473684,6.442105263,43,0.0,11042.94479,160.0,23741.75793,0,0,True
3200848,-0.367067817455,0.516835695408,Lindstr_m Pia,444.1875,7.03125,78,0.0,0.0,173.0,626503.0841,0,0,True
3157371,-0.777021884885,-0.38541945281,Laine Shannon,99.4,5.88,36,0.0,0.0,157.5,15538.97192,0,0,True
2931307,0.0070119646451,0.79270765323,Gold Judy,744.3037975,6.750632911,54,0.0,0.0,187.5,275513.0661,0,0,True
3176787,-0.253180320344,0.469795894829,Lechner Geno,19003.20833,6.489583333,51,0.0,0.0,176.0,807211.0235,0,0,True
3523816,-0.868605301984,0.24293582364,Rochon Debbie,269.7265625,5.05625,48,0.0,746.1139896,162.5,333855.5469,0,0,True
3621153,-0.24630789604,0.76955113262,Sinn Nikki,11.51086957,6.510869565,49,0.0,0.0,170.0,80000.0,0,0,True
2944086,-0.746309307194,-0.486819898368,Grandin Ethel,109.1666667,5.75,122,0.0,0.0,147.5,47953.03751,0,0,True
2619273,0.688423632616,0.30917450568,Boshinski Krista,31.0,7.7,29,0.0,0.0,170.0,7406.357119,0,0,True
3256512,-0.875778211421,0.204978138828,Marquardt Bridget,2297.0,5.728971963,43,0.0,0.0,162.5,282177.7602,0,0,True
2924014,0.684015424237,-0.445698831865,Gilman Sarah,29.83018868,7.883018868,20,0.0,0.0,157.5,500000.0,0,0,True
3642084,0.449951095572,0.609975982949,Southern Taryn,3433.122449,6.967346939,30,0.0,0.0,170.0,937354.3153,0,0,True
3645263,0.244809786441,-0.836199549803,Spicuzza Jeanne Marie,72.16666667,7.641666667,47,0.0,0.0,152.5,7859.718763,0,0,True
3192819,0.470640479851,0.572614263621,Lewis Leona,107.0,6.86097561,31,0.0,0.0,167.5,940791.1357,0,0,True
2702985,-0.62565491,0.572532080367,Chloe,26.68181818,6.362337662,45,0.0,0.0,165.0,110063.4699,0,0,True
3838859,-0.45742439772,0.706642940806,Zana,11.54545455,6.113636364,42,0.0,0.0,167.5,22210.31008,0,0,True
3741028,-0.58094473955,-0.668479013068,Valentine Stacy,34.64179104,6.379104478,46,714975.6098,0.0,157.5,288871.2239,0,0,True
3654807,0.707706261078,-0.366902323057,Stehlin Savannah,2867.166667,7.516666667,20,0.0,0.0,160.0,5151.165237,0,0,True
3449118,0.213843586881,0.743052383614,Phoenix Lauren,9.573770492,6.931147541,37,0.0,0.0,178.0,89404.7619,0,0,True
2760301,0.201023371442,0.74227934302,Darby Daryn,6.0,6.633333333,30,0.0,0.0,173.0,63525.67496,0,0,True
3327095,0.016089181883,0.759979983349,Monroe Bridgette,19.54545455,6.814545455,48,0.0,0.0,170.0,22679.26626,0,0,True
3547968,-0.898932858606,-0.188778219087,Russell Tina,167.3333333,5.457777778,68,0.0,0.0,157.5,572261.1257,0,0,True
3057304,0.683696530312,0.262733178842,James Paulina,11.0,7.0,30,0.0,0.0,165.0,57887.12012,0,0,True
3065127,-0.79705188028,0.407666762167,Jensen Jane,453.0,5.82,49,0.0,0.0,165.0,455394.5405,0,0,True
2855770,0.707175165905,-0.402658363137,Farrell Meghan,86.31578947,8.110526316,32,0.0,0.0,160.0,34538.07516,0,0,True
3218014,-0.176781048867,-0.403605415297,Lozeau Danielle,4185.272727,6.357575758,29,0.0,0.0,160.0,155068.5763,0,0,True
3421875,0.390080884661,0.627185512205,Park Greena,415.875,6.7375,31,0.0,0.0,167.0,745666.0,0,0,True
3370909,0.565252720843,-0.614045127878,Newman Jaime Ray,5204.937931,7.589655172,38,0.0,0.0,160.0,915432.6391,0,0,True
3732387,0.252162548835,0.67905341902,Tyler Nikki,32.18867925,6.918867925,44,0.0,0.0,167.5,184049.0798,0,0,True
2499437,0.501606475353,-0.631626750322,Akana Anna,6544.636364,7.432727273,27,0.0,0.0,157.5,717632.3406,0,0,True
2681762,-0.448933503405,-0.741430667073,Castaneda Kat,90.3,6.13,34,0.0,0.0,155.0,780295.6763,0,0,True
3495722,0.599722757729,0.439328867167,Reagan Faye,13.34042553,7.1,28,0.0,0.0,168.0,52967.20379,0,0,True
2702747,0.343054285256,-0.648421475081,Chiu Cindy,6603.058824,7.129411765,36,0.0,0.0,160.0,685269.4248,0,0,True
3229673,-0.103039376066,0.790938539871,Macavei Mariea Luisa,163.8571429,5.8,28,0.0,0.0,177.5,1097.721362,0,0,True
3229218,-0.57262926698,0.311315412377,Mabey Morgan,9526.2,5.08,24,0.0,0.0,165.0,923749.6721,0,0,True
2905317,0.311899289064,0.699716321873,Garcia Gina,841.0,7.061111111,40,0.0,0.0,172.5,256819.3429,0,0,True
2598865,-0.807397929583,0.0447307553119,Billington Francelia,206.4,6.08,121,0.0,0.0,167.5,582658.9595,0,0,True
3183877,-0.195969416592,-0.803565628318,Leigh Payton,16.46153846,6.884615385,49,0.0,0.0,160.0,70089.23834,0,0,True
3819282,0.774757704141,-0.00547091536691,Woods Christine,508.1086957,7.55,33,0.0,0.0,165.0,88013.34052,0,0,True
2525985,0.153154770731,-0.627500529343,Anthony Jasmine Jessica,20071.92105,7.271052632,20,0.0,0.0,152.5,524662.7069,0,0,True
3183303,-0.0222979569618,-0.893717053892,Lei Kaylani,14.31404959,6.725619835,36,0.0,0.0,150.0,267347.2589,0,0,True
3507432,0.130347195284,-0.81191527264,Rhambo JoAnna,8555.764706,7.147058824,37,0.0,0.0,155.0,481376.6059,0,0,True
3376519,0.776432181245,-0.0321242261145,Nigri Jessica,86.20833333,8.733333333,27,0.0,0.0,167.5,22855.83585,0,0,True
2923120,-0.28536693596,0.743463462372,Gill Kayla,521.9,5.63,27,0.0,0.0,170.0,785457.8313,0,0,True
3601755,-0.891167041663,0.0132430671447,Sharp Dolly,478.1875,5.6625,81,0.0,0.0,162.5,60023.53358,0,0,True
3184432,0.41238546109,-0.74425325,Leisle Madison,2478.3,7.38,17,0.0,0.0,150.0,278732.1658,0,0,True
2608503,-0.143573515293,0.791845410723,Blue Chelsea,56.36,6.368,40,0.0,0.0,170.0,667037.2429,0,0,True
2510913,-0.773859272923,-0.218057653045,Alonso Nicole,532.2,5.62,31,0.0,0.0,157.5,10000.0,0,0,True
2932129,0.33589385371,-0.501468535617,Golding Meta,11108.56098,7.617073171,45,0.0,0.0,162.5,550317.3497,0,0,True
2847321,0.233055737547,-0.828845119134,Evangelista Heart,149.0,6.851612903,31,0.0,0.0,155.0,70000.0,0,0,True
3118792,0.632610625636,0.402574589903,King Katharyn R.,9.0,7.4,26,0.0,0.0,170.0,500000.0,0,0,True
2597898,-0.249463662603,0.182921860223,Bigelow Kathryn,31595.58696,6.906521739,65,0.0,0.0,177.5,553471.9418,0,0,True
2768109,0.738288504422,-0.273825542842,Day Felicia,214.3057143,7.203428571,37,0.0,0.0,162.5,809805.4876,0,0,True
2541462,0.479243956717,0.566338007703,Atkinson Kimberly,444.8571429,7.047619048,41,0.0,0.0,167.5,238056.5255,0,0,True
3380630,-0.073528152267,0.767702717064,Noelle Karina,925.25,6.0875,27,0.0,0.0,170.0,532999.2706,0,0,True
3635386,0.698851210924,0.183943207129,Soderlind Henriette,7.0,7.1,20,0.0,0.0,165.0,10000.0,0,0,True
3381324,0.682453769723,0.346495121684,Nolan Tania,4364.5,7.923333333,33,0.0,0.0,172.5,3768.212113,0,0,True
3418496,0.211087151343,-0.858581107356,Pansino Rosanna,92.23333333,7.39,31,0.0,0.0,145.0,227176.075,0,0,True
3327137,-0.329141491449,0.749268816678,Monroe Elexis,10.16666667,6.083333333,37,0.0,0.0,168.0,55204.09837,0,0,True
2518103,0.721126630289,-0.370822644935,Anderson Andi,9.0,8.516666667,30,0.0,0.0,160.0,88050.77595,0,0,True
3479460,-0.210402649715,-0.860377248692,Quatro Suzi,50.6,7.183333333,66,0.0,0.0,150.0,146109.0524,0,0,True
3072272,0.72893474652,0.128990237716,Johnson Lia Marie,156.969697,7.243939394,20,0.0,0.0,165.0,73438.24287,0,0,True
3431901,-0.173875886416,0.706257187254,Pazmino Annemarie,222.0625,6.28125,32,0.0,0.0,165.0,134357.8513,0,0,True
2774793,-0.22146008377,0.751858747482,De Sanchez Maria,15.05263158,6.621052632,47,0.0,0.0,167.5,23000.0,0,0,True
3484298,-0.717551366786,0.456446172628,Rae Taija,26.37,6.294,54,0.0,0.0,166.0,120000.0,0,0,True
2609887,0.392554049275,0.321605439361,Bocci Anna,6188.714286,7.157142857,43,0.0,0.0,167.5,61443.93241,0,0,True
2691743,-0.570807903352,0.621722560997,Chance Loren,7.5,6.225,41,0.0,0.0,165.0,12000.0,0,0,True
2982199,0.517959987208,0.494254824381,Harper Hanna,23.07352941,6.788235294,34,0.0,0.0,165.0,293745.2083,0,0,True
3465754,0.327254948309,-0.81309609652,Potter Lauren,560.8095238,7.958730159,26,0.0,0.0,142.5,8863.30871,0,0,True
3546215,0.75976924429,-0.091693656658,Runaway Faye,52.0,7.2,29,0.0,0.0,163.0,250149.1669,0,0,True
3652104,-0.868460068381,0.111729447274,Starr Blaze,490.0,5.7,84,0.0,0.0,165.0,275158.6748,0,0,True
2839547,-0.614957997946,0.609265625381,England Audie,278.2333333,6.09,49,96289.10134,0.0,167.5,59842.51969,0,0,True
2493607,0.429841805905,0.623191608732,Adele,429.3111111,7.046666667,28,0.0,0.0,172.5,139836.019,0,0,True
3832122,-0.596571095473,0.346108898317,York Francine,1047.454545,6.795041322,78,0.0,0.0,170.0,673254.2196,0,0,True
3708174,-0.762753470143,-0.333547019483,Thurman Mary,88.4,6.33,121,0.0,0.0,157.5,865563.1188,0,0,True
2852012,-0.281514606067,-0.499097108037,Fairlane Morgan,13.0,6.9,50,0.0,0.0,162.5,23925.23364,0,0,True
2680215,0.445651731334,0.541252828006,Case Sharon,385.6538462,7.111538462,45,0.0,0.0,167.5,55735.40545,0,0,True
3118360,-0.772646238931,0.417355360999,King Cheyenne,269.2857143,4.9,41,0.0,0.0,165.0,554662.918,0,0,True
2560235,-0.227902396517,-0.884692263168,Barash Olivia,1167.235294,6.797058824,51,0.0,0.0,152.5,866971.4375,0,0,True
3553862,-0.145275339969,0.466010022156,Sade,385.2727273,7.009090909,57,0.0,0.0,167.5,10000.0,0,0,True
2720800,-0.397076107983,-0.815229578719,Colette DJ,76.66666667,6.366666667,41,0.0,0.0,155.0,67870.57428,0,0,True
2603192,0.665936674806,0.354875162708,Black Victoria Rae,109.0,7.9,28,0.0,0.0,172.5,125871.467,0,0,True
3413779,0.690671698778,0.296906021774,Paige Alix,100.25,7.35,30,0.0,0.0,167.5,5573.540545,0,0,True
2542841,0.170891759134,-0.848541832676,August,64.94117647,6.790196078,35,0.0,0.0,157.0,97921.10207,0,0,True
2681369,0.0134795799101,0.793767178436,Cassidy Angel,526.1071429,6.553571429,40,0.0,0.0,173.0,127051.3499,0,0,True
3179843,0.366133487219,0.667258334872,Lee Lucy,10.20512821,7.11025641,32,0.0,0.0,175.0,61443.93241,0,0,True
2639580,-0.733032206692,0.452678018832,Brown Erin,197.1165049,5.076699029,37,0.0,0.0,165.0,336219.9816,0,0,True
2944478,0.442624446788,-0.738126242228,Grant Allie,1383.301471,7.674264706,22,0.0,0.0,150.0,80000.0,0,0,True
3503337,0.766887418429,-0.133098419309,Reneau Taryn,95.0,8.175,37,0.0,0.0,165.0,11577.42402,0,0,True
3549973,-0.189341275172,0.793148425423,Ryan Tracy,94.29411765,6.176470588,44,0.0,0.0,175.0,809127.7595,0,0,True
3287981,-0.449206359309,0.681672549077,McLachlan Hollis,206.1111111,5.622222222,32,0.0,0.0,167.5,184450.183,0,0,True
3527905,-0.283683298247,0.771728490448,Rogers Danielle,21.52727273,6.298181818,49,0.0,6243.305279,172.5,23831.68938,0,0,True
3247501,0.633353536701,-0.516186545195,Manson Candy,9.157894737,7.173684211,33,0.0,0.0,160.0,16720.62164,0,0,True
2912090,0.747771516293,0.152932741145,Gavankar Janina,729.24,7.708,36,0.0,0.0,167.5,305703.523,0,0,True
3108723,0.759700980306,0.0701306156977,Kenner Kinzie,14.40625,7.36875,32,0.0,0.0,165.0,17204.30108,0,0,True
3519938,-0.73081388797,-0.417270323535,Roberts Lynne,284.4558824,6.502941176,94,0.0,0.0,157.5,815660.1895,0,0,True
3613766,0.596066245151,0.453364764326,Sigman April,54.0,7.4,36,0.0,0.0,170.0,5000.0,0,0,True
2779957,0.766605807883,-0.172572418447,DeJesus Elijah,86.66666667,7.8,21,0.0,0.0,162.5,650000.0,0,0,True
3183866,-0.594668321081,0.615556377044,Leigh Myla,102.6666667,4.766666667,37,0.0,0.0,170.0,6352.567496,0,0,True
3494412,-0.535624786074,-0.733509434348,Ray Rachael,31.66071429,6.491071429,48,0.0,0.0,157.5,139608.4865,0,0,True
3179810,0.770507874389,0.0258970740422,Lee Lorelei,497.5454545,7.427272727,35,0.0,0.0,165.0,329328.3592,0,0,True
2521559,-0.426164550651,0.725101357254,Andrews Jacy,80.14285714,5.092857143,38,0.0,0.0,175.0,19968.58351,0,0,True
3052703,-0.530938273222,-0.607532955769,Jackson La Toya,83.89156627,6.843373494,60,0.0,0.0,160.0,813803.6724,0,0,True
3643866,0.673375825192,-0.396453765167,Spears Jamie Lynn,404.8350515,7.110309278,25,0.0,0.0,160.0,70490.2703,0,0,True
3019123,0.46132361531,0.587453015945,Hollander Audrey,65.59375,6.9875,37,0.0,0.0,168.0,55432.94071,0,0,True
3192619,-0.0871061452284,-0.891225364568,Lewis Jenny,5687.142857,6.783928571,40,0.0,0.0,152.5,7855.707823,0,0,True
2532041,-0.238903351012,-0.830724467011,Aria,12.67346939,6.646938776,41,0.0,0.0,160.0,22173.91304,0,0,True
3657604,0.0456650257264,0.789274391766,Stern Beth,720.7777778,6.703703704,44,0.0,0.0,176.0,205978.6709,0,0,True
2980233,-0.581635806586,-0.712124815868,Harding Tonya,70.05263158,6.036842105,46,0.0,0.0,152.5,162000.0,0,0,True
3812207,0.347122148175,0.692379914585,Winkleman Sophie,3438.538462,7.153846154,36,0.0,0.0,175.0,85000.0,0,0,True
3625616,0.448373689909,-0.734723835919,Slattery Bailey,95.0,7.825,26,0.0,0.0,150.0,36866.35945,0,0,True
2633558,0.206374519359,-0.869317587807,Bright Kellie,2013.584615,7.304615385,40,0.0,0.0,152.5,6000.0,0,0,True
3639458,0.489773002453,-0.656742175086,SooHoo Nikki,5355.354839,7.309677419,28,0.0,0.0,157.5,243660.7077,0,0,True
3684476,-0.157980832376,-0.89399446153,Tai Kobe,802.9607843,6.756862745,44,0.0,0.0,157.5,145691.0811,0,0,True
2667746,0.111413302929,0.760923406672,Cannibal Anita,148.1578947,6.910526316,47,0.0,0.0,173.0,23558.28221,0,0,True
3644201,0.0122951847053,-0.459310652716,Spektor Regina,44.22222222,6.588888889,36,7356.64233,0.0,161.5,94452.36436,0,0,True
3593237,0.307070849359,-0.814442724469,Selznick Patricia,39.25,7.283333333,28,0.0,0.0,150.0,410209.8408,0,0,True
3297119,0.335749921876,0.664364778767,Melton Kate,741.6666667,6.666666667,24,0.0,0.0,170.0,8985.399233,0,0,True
3421342,0.0850618290325,-0.31602888093,Parikh Devika,23314.69444,7.736111111,50,0.0,0.0,165.0,47257.35144,0,0,True
2517515,-0.896632278964,-0.213933977872,Anders Avalon,100.5454545,5.577272727,53,0.0,0.0,157.5,80971.65992,0,0,True
3229814,-0.879542619277,0.165206894949,MacColl Catriona,3126.069767,6.26744186,62,125550.4866,0.0,165.0,405515.0041,0,0,True
2802172,-0.35670892981,-0.773191655442,Dockery Opal,20.8,7.12,71,0.0,0.0,155.0,2229.416218,0,0,True
3823512,0.451366212709,0.346926813126,Wydra Karolina,11951.65217,7.541304348,35,0.0,0.0,172.5,679460.2646,0,0,True
2783816,0.743911330967,-0.324982942632,Deloach Nikki,1532.828221,7.555828221,37,0.0,0.0,162.5,12534.46878,0,0,True
2518333,0.748999184919,-0.266289696116,Anderson Carrie,29.5,7.966666667,34,0.0,0.0,162.5,50000.0,0,0,True
3539674,0.453402862156,0.235204158707,Rotten Rachel,65.82352941,6.647058824,33,0.0,0.0,163.0,79877.11214,0,0,True
3315730,0.558069959144,0.446826772315,Minka,26.61904762,7.504761905,46,0.0,0.0,170.0,28633.21754,0,0,True
3540905,0.518384125856,-0.680746656525,Rowan Grace Anne,1423.846154,7.038461538,36,0.0,0.0,160.0,3685.469482,0,0,True
3465649,-0.520848624314,0.23812209277,Potter Carol,83.59776536,6.898324022,68,0.0,0.0,167.5,508879.3781,0,0,True
2923449,-0.678537644852,0.511726958184,Gillespie Dana,732.6111111,6.111111111,67,0.0,0.0,170.0,150000.0,0,0,True
2869662,0.145320872522,-0.877089497886,Fire Jada,32.56122449,7.240816327,40,0.0,0.0,150.0,55069.2142,0,0,True
3485743,-0.0452332865925,-0.736612378645,Rain Taylor,12.09433962,6.556603774,35,0.0,0.0,160.0,66882.48654,0,0,True
3666602,0.528504191254,0.536133029942,Strong Delilah,11.54545455,7.409090909,34,0.0,0.0,172.5,140797.3375,0,0,True
3309342,0.652019077043,0.329620851211,Milano Mariah,10.0,6.976666667,37,0.0,0.0,165.0,141295.0354,0,0,True
2675611,-0.857245391873,-0.0491430303493,Carradine Calista,63.12,6.42,54,0.0,0.0,162.5,61367.18644,0,0,True
2585445,-0.770360804859,0.0624036892899,Bennett Jill,177.3703704,6.533333333,41,0.0,0.0,162.5,911339.6598,0,0,True
2783910,-0.750093016533,0.481029812004,Delora Jennifer,619.1785714,5.535714286,54,0.0,0.0,167.5,661055.8531,0,0,True
3102602,-0.883694108019,0.192915783511,Keaton Camille,2071.08,5.716,69,0.0,0.0,165.0,615602.589,0,0,True
3708082,0.666229998108,0.349766383785,Thurber C.K.,30.0,7.6,31,0.0,0.0,170.0,2380.952381,0,0,True
3020015,-0.0609784222768,-0.800275788848,Hollywood Ash,58.92307692,6.351282051,27,0.0,0.0,155.0,732521.1577,0,0,True
2731716,0.350905858086,0.68173880699,Corinealdi Emayatzy,1555.473684,6.818421053,36,81566.59146,0.0,167.5,700995.646,0,0,True
2614104,0.37178766565,0.612449125652,Bond Jezebelle,29.69565217,6.741304348,37,0.0,0.0,165.0,10163.74929,0,0,True
3288552,0.216522562146,0.741194570013,McLean Sarah,22.25,6.825,35,0.0,0.0,175.0,8358.519629,0,0,True
3142208,-0.083929252588,0.768193754645,Kreutzberg Deja,2995.7,6.39,34,0.0,0.0,168.0,782455.8636,0,0,True
3642908,0.774262111852,0.0046163617654,Spalding Esperanza,499.375,7.53125,32,0.0,0.0,165.0,950466.2446,0,0,True
2926829,-0.443377089794,-0.798778841574,Givens Victoria,8.666666667,6.422222222,46,0.0,0.0,155.0,55735.40545,0,0,True
3061989,0.746450940906,0.156448419117,Jaye Cassie,195.4516129,7.719354839,30,0.0,0.0,167.5,334191.485,0,0,True
3439215,0.358855088623,-0.756249622915,Perez Melina,165.787037,6.844444444,37,0.0,0.0,160.0,60735.40545,0,0,True
3117663,0.574475837384,0.484073272738,Kimsey Rachel,592.75,7.116666667,38,0.0,0.0,167.5,483741.2895,0,0,True
3074546,0.148892488717,-0.866884771079,Jolie Jenaveve,86.68181818,6.889393939,32,0.0,0.0,152.0,19749.55612,0,0,True
3541204,-0.544786756657,0.660931064073,Rowe Sue,244.047619,5.957142857,43,0.0,0.0,167.5,228422.0682,0,0,True
3698282,-0.518140391364,-0.739362414738,Tenuta Judy,385.6103896,6.594805195,60,0.0,0.0,155.0,197210.7916,0,0,True
3075464,-0.445416040218,-0.773594577613,Jones Carol,225.85,6.74,61,0.0,0.0,155.0,751013.7875,0,0,True
3114733,0.405647506103,0.637963726102,Kightlinger Laura,2738.377907,7.382848837,47,0.0,0.0,172.5,23613.70905,0,0,True
3795732,0.440640465739,0.335168069337,Weyers Carole,15339.94118,7.741176471,32,0.0,0.0,175.0,51511.65237,0,0,True
3614597,-0.548567584435,-0.710616682241,Silk Alexandra,31.0,6.565882353,53,0.0,0.0,157.5,22357.89257,0,0,True
3453829,0.47101048767,-0.71898751421,Pinky,7.25,8.325,34,0.0,0.0,150.0,88736.79519,0,0,True
3180082,0.279785901623,0.709883617179,Lee Miko,13.73584906,6.979245283,39,0.0,0.0,172.5,164517.5295,0,0,True
2699222,0.502966878614,0.507278761717,Chernetsky Juliya,31.75,6.775,34,0.0,0.0,165.0,813525.675,0,0,True
2568081,0.26564616161,-0.520532051948,Barton Carrie,318.0714286,7.314285714,53,0.0,0.0,162.5,291148.3341,0,0,True
2847648,-0.69460789456,-0.364331601869,Evans Dale,62.58992806,6.831654676,104,0.0,0.0,160.0,93541.90158,0,0,True
3554058,-0.835129005644,0.292306724433,Sadler Catt,15.625,4.7875,41,0.0,0.0,162.5,557354.0545,0,0,True
3236067,-0.718620871817,0.343966987283,Magill Rachael Lee,660.1428571,5.5,31,0.0,0.0,162.5,5067.735636,0,0,True
3179076,0.612696699083,-0.548791850772,Lee Jenni,120.3636364,7.136363636,34,0.0,0.0,160.0,15129.8457,0,0,True
3134626,0.418030922575,0.572887651744,Kopp Liesel,219.1666667,7.061111111,44,0.0,0.0,167.5,65586.30615,0,0,True
2831592,-0.881028622462,-0.0971574401413,Ejdus Vanja,337.6,5.93,40,0.0,0.0,160.0,22500.0,0,0,True
3563609,0.491564763329,-0.702223930795,Sandberg Carollani,421.0714286,7.764285714,36,0.0,0.0,155.0,15157.19052,0,0,True
3259523,-0.290616109103,-0.624448388789,Martin Arianne,3362.576923,6.480769231,35,0.0,0.0,160.0,112591.216,0,0,True
3199950,0.146709747386,0.763451475589,Lindgren Anna,12.5,6.8,40,0.0,0.0,175.0,3500.0,0,0,True
3846360,-0.650645934437,0.58477989203,Zottoli Mia,158.7,5.118,48,0.0,0.0,170.0,979566.6141,0,0,True
2493099,0.465909672826,0.589691506302,Adamson April,232.8571429,7.528571429,40,0.0,0.0,175.0,40022.23457,0,0,True
3115244,-0.258196621836,-0.648083444029,Kilgore Diedre,3883.4,6.87,47,0.0,0.0,162.5,92165.89862,0,0,True
3648978,0.173412758631,0.547746531892,Stafford Michelle,2800.145455,7.096363636,51,0.0,0.0,167.5,102349.9223,0,0,True
3484615,0.707413695508,0.237742382254,Rafferty Sarah,1050.747899,8.41512605,44,0.0,0.0,172.5,20906.46968,0,0,True
3219948,-0.435040961584,-0.0799739366267,Ludlam Jennifer,85.8,7.083333333,65,0.0,0.0,165.0,764818.3556,0,0,True
2524204,-0.625168734579,0.25780928157,Aniston Brandy,55.43333333,6.043333333,32,0.0,0.0,162.0,531990.5934,0,0,True
3824097,0.724913278673,0.183683272753,Wyte Allison,10.5,7.133333333,32,0.0,0.0,165.0,65638.34429,0,0,True
2503577,0.387467204869,-0.760991152686,Alderson Kristen,11.625,7.2125,25,0.0,0.0,152.5,506893.7551,0,0,True
2747983,0.658646161829,0.354470932986,Cummz Courtney,10.16666667,7.35,35,0.0,0.0,168.0,107846.0052,0,0,True
2553171,0.728221567536,-0.346532177713,Baker Breanna,14.66666667,7.9,24,0.0,0.0,160.0,10125.85595,0,0,True
3425595,0.267953996804,0.71285284042,Pascale Lorraine,6.333333333,7.233333333,44,0.0,0.0,177.5,100000.0,0,0,True
2838926,-0.382980639985,0.628499942539,Enea Courtney,8229.0,5.533333333,28,0.0,0.0,170.0,10453.23484,0,0,True
3032543,0.104617659254,-0.868846895268,Hughes Ashley,545.8888889,6.755555556,25,0.0,0.0,147.5,5573.540545,0,0,True
3789294,-0.623820153315,0.586031761537,Weigel Teri,1748.821429,6.427380952,54,0.0,0.0,167.5,131990.7396,0,0,True
3054866,-0.302530288474,-0.804026079721,Jade Jewels,17.64285714,6.592857143,40,0.0,0.0,160.0,22955.50668,0,0,True
3498572,0.177591160236,0.663468181084,Reese Carolyn,15.71875,6.76875,42,0.0,0.0,165.0,16780.32228,0,0,True
3509090,-0.441785710373,-0.550461045257,Rice Anne,67.30769231,6.861538462,75,0.0,242914.9798,155.0,900108.4739,0,0,True
3134377,-0.699665797286,-0.560359528056,Kopacz Debbie,45.83333333,6.45,44,0.0,0.0,160.0,91639.67813,0,0,True
3554906,0.0895800541448,-0.419689974605,Sage Linnea,294.9,6.44,28,0.0,0.0,160.0,102206.4223,0,0,True
2572288,0.764134282587,0.07728429937,Baumeister Athena,20.75,8.1,19,0.0,0.0,167.5,286010.42,0,0,True
3217578,-0.67248943391,0.557595426957,Lowry Lynn,2494.086207,5.8,69,0.0,0.0,172.5,362355.7524,0,0,True
2767472,0.719456875083,-0.177800440618,Dawn Jessica,8.0,8.1,47,0.0,0.0,165.0,15679.85226,0,0,True
3731941,-0.450634123027,0.349212205099,Twiss Jaci,768.4166667,6.05,29,0.0,0.0,162.5,12807.31994,0,0,True
3122819,0.0309570325767,0.785518257257,Kitchen Tian,38.70588235,6.664705882,43,0.0,0.0,172.5,60000.0,0,0,True
3171067,-0.313799640616,-0.855304258337,LaVeaux Shayla,250.0148148,6.616296296,47,0.0,0.0,155.0,229445.5067,0,0,True
3170492,0.583225177282,0.48022937484,Laurie Miracle,744.45,7.5825,35,0.0,0.0,172.5,278761.5174,0,0,True
3141213,0.358051844144,0.611039889603,Krauss Alison,470.68,7.038,45,0.0,0.0,167.5,205950.0881,0,0,True
2726254,-0.42746950661,0.721887658444,Conrad Kimberley,92.30769231,6.115384615,54,0.0,0.0,172.5,662576.6871,0,0,True
2532255,0.48446461333,-0.707503917689,Arias Silvana,35.125,8.020833333,34,0.0,0.0,152.5,335771.8283,0,0,True
2695433,0.755470184642,-0.246321041717,Chase Ashley,68.0,7.8,32,0.0,0.0,162.5,92619.39219,0,0,True
2742888,-0.767948362309,0.447486267193,Croft Annabel,12.6,4.54,50,0.0,0.0,167.5,89495.05214,0,0,True
3269133,0.245182272722,0.720752212765,Mathews Alexandra,133.4,6.62,26,0.0,0.0,172.5,62137.14103,0,0,True
3471160,0.727441143454,0.19611140783,Price-Francis Amy,997.5528455,7.596747967,41,0.0,0.0,167.5,50000.0,0,0,True
3165137,0.40758666692,0.650154550358,Lapkus Lauren,5979.142857,7.208163265,31,0.0,0.0,175.0,77916.20611,0,0,True
3318359,-0.264196119793,-0.869008998952,Misty,13.28571429,6.478571429,42,0.0,0.0,152.0,37626.36692,0,0,True
3285469,-0.656796492755,-0.590988774042,McGuire Maren,260.9333333,5.866666667,36,0.0,0.0,155.0,90609.55863,0,0,True
3830080,0.134264650126,0.403187826071,Yennie Ashlynn,4092.043478,6.57826087,31,0.0,0.0,165.0,583804.9516,0,0,True
2972869,0.0220154929953,-0.896103136509,Halston Holly,10.38461538,7.007692308,42,0.0,0.0,150.0,16004.33895,0,0,True
3769417,0.737955133668,0.17774737531,Von Candace,9.0,7.66,32,0.0,0.0,167.5,330.1904098,0,0,True
3708930,-0.914313297705,0.0599505315416,Tidwell Monica,92.0,4.875,62,0.0,0.0,160.0,289962.8253,0,0,True
2851885,-0.419955826952,0.716084293338,Fairchild Nikki,54.5,6.0,38,0.0,0.0,167.5,22347.06589,0,0,True
2564833,0.762566067831,-0.104086213529,Barra Aaralyn,295.8333333,7.15,31,0.0,0.0,163.0,86830.68017,0,0,True
3495044,0.731104808665,-0.231626619696,Rayne Veronica,366.0,7.082758621,40,0.0,0.0,163.0,172226.8839,0,0,True
3393693,-0.436499912942,-0.742737867218,Obsession,20.84375,6.534375,40,0.0,0.0,160.0,23049.21969,0,0,True
2488932,-0.25171129131,0.729094886319,Able Whitney,7275.482759,6.006896552,34,0.0,0.0,172.0,583978.1256,0,0,True
3187540,0.265614542067,-0.755908284953,Leone Sunny,278.4159292,6.709734513,35,0.0,0.0,160.0,148749.7701,0,0,True
3153537,-0.748527954269,-0.219798421046,La Varnie Laura,164.625,6.6,163,0.0,0.0,162.5,999899.2226,0,0,True
3119293,-0.0956050666085,-0.647596903073,King Shelley,1466.538462,7.323076923,61,0.0,0.0,162.0,22294.16218,0,0,True
3549883,0.0936316562478,0.775416087967,Ryan Samantha,14.26530612,6.632653061,38,0.0,0.0,172.0,94992.69606,0,0,True
2994475,-0.377345500803,0.727038770434,Heart Holly,28.0,5.9,35,0.0,0.0,168.0,15188.78393,0,0,True
2907661,-0.85005036754,-0.0849108151922,Gardner Helen,163.3333333,5.566666667,132,0.0,0.0,162.5,62717.77003,0,0,True
3132506,0.675171394023,0.277950415934,Komagata Momona,80.91666667,6.975,30,0.0,0.0,165.0,63301.62363,0,0,True
3074609,0.466631501737,-0.713445636778,Jollee Ariana,10.31578947,7.259649123,34,0.0,0.0,157.0,2894.356006,0,0,True
3307236,-0.66784496831,-0.367774045405,Midgley Fanny,686.6666667,7.183333333,137,0.0,0.0,160.0,457855.2588,0,0,True
3705382,-0.0371460456664,-0.310345723485,Thompson Evie,27886.94737,6.689473684,21,0.0,0.0,160.0,640183.9181,0,0,True
3097488,-0.666137353395,0.521547677111,Katase Rino,619.96875,6.290625,59,0.0,0.0,168.0,700000.0,0,0,True
2791209,0.770771947579,0.0604074097644,DeVitto Torrey,916.2792208,8.040909091,32,0.0,0.0,167.5,772811.8761,0,0,True
3810999,-0.158419595473,0.793009020539,Wilson Torrie,236.008547,6.382905983,41,0.0,0.0,170.0,97458.33817,0,0,True
2778648,0.570600754465,0.154945218177,Dee Sophie,507.171875,6.7046875,32,0.0,0.0,163.0,977896.9427,0,0,True
2941862,0.657313025266,-0.493642124498,Grace Amber,10.5,7.7,24,0.0,0.0,157.5,12562.92798,0,0,True
2544122,-0.793576633296,-0.390214770428,Autumn Emilie,1939.75,6.2375,39,0.0,0.0,160.0,511330.871,0,0,True
3234170,-0.55541644144,0.642214680824,Madison Holly,1452.054264,5.61627907,37,0.0,0.0,167.5,463096.9609,0,0,True
3605536,-0.855474205441,-0.188455249933,Shepis Tiffany,609.785124,5.526446281,37,24111.0,0.0,157.5,637165.3355,0,0,True
3810119,-0.709568276724,0.478033139823,Wilson Kelli,103.3333333,5.333333333,37,0.0,0.0,165.0,133407.4486,0,0,True
3597745,0.430070402217,0.622219816927,Sexx Nikki,12.6,7.193333333,34,0.0,0.0,173.0,10669.5593,0,0,True
3471778,0.13540745482,0.774744194886,Prince Diana,1539.285714,6.697142857,37,0.0,0.0,172.5,828082.3497,0,0,True
2693929,0.694866517168,-0.00299457459268,Chappell Crystal,36.04705882,8.107058824,51,0.0,0.0,167.5,81596.36693,0,0,True
2921607,-0.826296412757,-0.165667974405,Gifford Kathie Lee,834.8613861,6.508910891,63,0.0,0.0,162.5,33441.24327,0,0,True
2574092,0.25947178183,0.723964667263,Beadle Michelle,840.5,6.92,41,0.0,0.0,170.0,144717.8003,0,0,True
2724966,0.738844207601,0.176460068252,Coney Amber,169.7142857,7.65,24,0.0,0.0,167.5,318600.1502,0,0,True
3840895,-0.817459505466,0.177817536369,Zee Ona,23.14503817,6.277099237,65,0.0,0.0,165.0,6670.372429,0,0,True
3252588,0.599477136625,-0.537616470214,Marie Daisy,38.94117647,6.997058824,32,0.0,0.0,160.0,24044.05112,0,0,True
3805920,-0.497775073055,0.684707598626,Williams K.C.,19.85507246,6.223188406,46,0.0,0.0,167.5,600250.0,0,0,True
2861339,-0.704234782385,-0.403061863316,Ferguson Helen,102.1666667,6.716666667,116,0.0,0.0,157.5,83771.42857,0,0,True
3162646,0.61034251965,0.431514975445,Lane Tory,16.27472527,7.196703297,34,0.0,0.0,168.0,103512.3424,0,0,True
3503480,0.76265016819,0.0545264647889,Renee Melia,84.3,7.45,27,0.0,0.0,165.0,15500.0,0,0,True
3218730,0.360609957242,-0.136804510673,Lucas Christine,15780.0,7.8,41,0.0,0.0,167.5,111840.033,0,0,True
3480768,-0.0557651907888,0.794463256397,Quinn Kayla,5.875,6.55,46,0.0,0.0,175.0,83353.89615,0,0,True
2815694,0.125600204657,0.68256993879,DuClos Danielle,8211.0,6.957142857,42,0.0,0.0,172.5,50820.53997,0,0,True
3216155,0.637124548357,-0.534153368103,Love Shayla,193.2,7.78,29,0.0,0.0,157.5,77370.64718,0,0,True
3106525,0.00849414656267,-0.895686735933,Kelly Shannon,36.22222222,6.844444444,36,0.0,0.0,147.0,210607.0899,0,0,True
3322060,0.552466462312,-0.630292861503,Modesto Julia,44.0,7.5,24,0.0,0.0,155.0,929500.0,0,0,True
3221990,-0.688100866964,0.548310518813,Lund Zo_,2873.384615,6.330769231,54,0.0,3960.39604,167.5,684111.1375,0,0,True
3746803,-0.361825899202,-0.237247988465,Van Susteren Greta,403.8571429,5.45,62,0.0,1200667.037,157.5,371281.1524,0,0,True
2586853,-0.696944249946,-0.53676137622,Benton Barbi,109.9152542,6.477966102,66,0.0,0.0,157.5,599145.4864,0,0,True
3422967,0.378393876619,-0.42635238413,Parker Madison,8.875,6.6,27,0.0,0.0,160.0,10669.5593,0,0,True
2795369,-0.385912761417,0.270905816156,Dickens Sabrina,1978.5,6.092857143,28,0.0,0.0,162.5,20275.7502,0,0,True
3288321,-0.885358089963,0.140397280485,McLaughlin Michelle,39.5,4.716666667,44,0.0,0.0,160.0,2608.695652,0,0,True
2854975,-0.266403775472,0.736787319889,Farley Jenni 'Jwoww',185.1272727,5.955151515,30,0.0,0.0,167.5,598605.6617,0,0,True
2639053,0.655708348007,0.379294161426,Brown Candace,1247.176471,7.564705882,36,0.0,0.0,170.0,54961.32741,0,0,True
3336281,-0.888087969797,-0.040411943554,Morgan Angelique,19.66666667,5.816666667,41,0.0,0.0,160.0,43905.44438,0,0,True
2922278,-0.702417658813,0.53093561447,Gilbert Glori-Anne,238.40625,4.45,47,0.0,0.0,170.0,273390.4468,0,0,True
3567200,0.580151443041,0.464170778662,Santiago Tessie,96.32432432,7.691891892,41,0.0,0.0,172.5,1440.57623,0,0,True
3600351,-0.837981460306,-0.315917361042,Shannon Colleen,524.75,5.341666667,38,0.0,0.0,155.0,557193.3802,0,0,True
2881897,0.643037019489,0.373547558421,Foster Kat,127.4444444,7.275925926,38,0.0,0.0,167.5,184331.7972,0,0,True
3813080,0.638675577813,-0.506838404039,Winters Anne,275.9512195,7.424390244,22,0.0,0.0,157.5,870594.4814,0,0,True
3734044,-0.00235888658403,-0.886394057141,Udy Helene,584.0887097,7.310483871,54,0.0,0.0,152.5,652821.5652,0,0,True
3600019,-0.457504173822,0.695160217966,Shane Nikki,10.05128205,6.369230769,49,0.0,0.0,168.0,45000.0,0,0,True
2650403,0.760232308135,-0.235107040436,Burgess Sara,34.0,8.15,28,0.0,0.0,162.5,2279.613521,0,0,True
3640732,0.670272676376,0.316527872607,Sosa Gabriela,124.875,7.775,0,0.0,0.0,172.5,668333.0,0,0,True
2490006,-0.379545903947,-0.453315200585,Abubo Megan,8766.333333,6.433333333,38,0.0,0.0,160.0,26086.95652,0,0,True
2627520,0.283528403011,-0.747760228029,Branch Nicole,6.5,6.7,29,0.0,0.0,157.5,6580.99195,0,0,True
2571203,-0.800844284208,0.32513725553,Batten Susan,311.0833333,6.308333333,55,0.0,0.0,165.0,24577.57296,0,0,True
3485720,-0.2362140328,0.75240154595,Rain Misty,24.05714286,6.606666667,47,0.0,0.0,167.5,278677.0273,0,0,True
3280643,0.738235994702,-0.115726157017,McCormick Kathryn,1108.913793,7.051724138,26,0.0,0.0,162.5,4801.301686,0,0,True
2581891,0.771630779907,0.03768775589,Bellisario Troian,464.0606061,8.17979798,31,0.0,0.0,167.5,509193.2237,0,0,True
3471252,0.692443167564,-0.430282845207,Pridemore Jessie,59.75,7.575,31,0.0,0.0,160.0,67318.38721,0,0,True
3441398,0.486136502616,-0.554526786742,Perry Lindsay,20908.66667,9.033333333,32,0.0,0.0,157.5,2115.77424,0,0,True
2848215,0.146968983488,-0.728680356598,Evans Mary Beth,134.25,7.390625,55,0.0,0.0,160.0,303775.6785,0,0,True
2578177,0.00402213761564,0.65113050787,Beesley Shayla,649.7272727,6.318181818,28,0.0,0.0,165.0,392692.6461,0,0,True
2750783,0.777353749241,-0.113538046195,Cypress Tawny,1844.581818,7.711818182,40,0.0,0.0,165.0,800216.9477,0,0,True
3354063,-0.338906575632,-0.832200720749,Myne Shelbee,12.01639344,6.545901639,42,0.0,2208.588957,157.5,22688.02248,0,0,True
3493852,0.409781684958,0.640487081811,Raw Sea J.,9.75,7.35,30,0.0,0.0,178.0,44025.38797,0,0,True
3091284,-0.745150353822,0.175509826716,Kane Sharon,24.01754386,6.559356725,60,0.0,0.0,165.0,52388.9338,0,0,True
2499244,-0.829665770638,-0.362385952039,Ajemian Andrea,404.7857143,5.860714286,41,0.0,0.0,157.5,130413.6954,0,0,True
3212879,-0.0768438366096,0.792169668104,Lord Rebecca,82.49514563,6.557281553,43,0.0,0.0,170.0,17877.17734,0,0,True
2878885,-0.34983912844,0.469100339949,Ford Alexis,64.55555556,6.061111111,28,0.0,0.0,163.0,55934.40758,0,0,True
3416266,-0.108503800512,0.796464475069,Palmer Laura,257.7258065,6.474193548,47,0.0,0.0,175.0,299065.4206,0,0,True
3567082,0.0596847779944,0.657849921145,Santiago Kim,65.4,6.38,29,0.0,0.0,165.0,187235.8361,0,0,True
2790999,0.695050420864,-0.268533481883,Devine Ava,7.7,7.26,42,0.0,0.0,163.0,106598.5985,0,0,True
3617896,-0.459271900001,0.712180026779,Simone Julie,66.0,5.445454545,42,0.0,0.0,172.5,45420.35342,0,0,True
3712845,-0.88270829138,0.145634611494,Todd Trisha,811.0,5.0,55,1328178.27,0.0,162.5,215916.955,0,0,True
3150903,0.607039474978,-0.442834173249,Kwiatkowski Paloma,6762.5,7.457142857,22,0.0,0.0,160.0,775314.6399,0,0,True
3480458,0.580218620435,-0.60760598502,Quin Tegan,105.3571429,8.364285714,36,0.0,0.0,155.0,184331.7972,0,0,True
2566064,-0.34090729863,0.740573070491,Barrington Kristara,27.25384615,6.441538462,51,0.0,0.0,170.0,84758.36431,0,0,True
3446733,-0.464413877358,-0.362543047613,Pfalzgraff Jennifer,12566.84211,6.294736842,41,0.0,0.0,160.0,805366.3629,0,0,True
2705955,-0.598835627354,-0.162409599308,Christie Nikki,4481.777778,5.944444444,30,0.0,0.0,160.0,5548.46975,0,0,True
3501515,0.725001001632,0.0484242584404,Reinhart Lili,4039.941176,7.311764706,20,0.0,0.0,165.0,210167.5416,0,0,True
2691193,0.582061292824,0.466504246766,Chan Deja,19.38461538,7.084615385,34,0.0,0.0,167.5,12705.13499,0,0,True
3255000,0.779190644506,-0.0673105900885,Markle Meghan,6705.520661,8.309090909,35,0.0,0.0,167.5,20906.46968,0,0,True
2847963,-0.669359164956,-0.581321413312,Evans Judi,492.92,6.592,52,0.0,0.0,160.0,372421.2699,0,0,True
2594212,0.658829090304,0.371784369323,Bethell Tabrett,983.1914894,7.827659574,34,0.0,0.0,172.0,35000.0,0,0,True
3653265,-0.827444767563,0.28463310457,Stearns Stephanie,89.33333333,5.7,40,0.0,0.0,162.5,22987.71121,0,0,True
2927579,0.763375076853,-0.212352986466,Glasser Kelsey,204.0,7.7,28,0.0,0.0,162.5,773809.5238,0,0,True
2539657,0.469881947683,-0.669493564869,Aspen Charlene,10.59259259,7.266666667,43,0.0,0.0,160.0,22668.74165,0,0,True
3791418,0.5904425381,0.472392742145,Weller Jill,613.6666667,8.1,30,0.0,0.0,178.0,13350.0,0,0,True
3719587,0.0481078853328,-0.889634757591,Towers Tiffany,382.3076923,7.046153846,45,0.0,0.0,155.0,418129.3936,0,0,True
2699372,0.214448110307,-0.855628161401,Cherokee,15.47619048,7.214285714,34,0.0,0.0,150.0,30721.96621,0,0,True
3274248,0.708224609958,0.220339540024,May Kelly,32.71428571,7.071428571,31,0.0,0.0,165.0,37951.87952,0,0,True
2521530,0.166741069991,0.762707380789,Andrews Erin,805.5544554,6.799009901,38,0.0,0.0,175.0,11147.08109,0,0,True
3374566,0.721536038916,-0.367718283464,Nicole Brianne,166.2,7.8,26,0.0,0.0,160.0,11904.7619,0,0,True
3542261,-0.821084137212,-0.302388646629,Royalle Candida,172.1666667,6.31372549,66,0.0,0.0,160.0,425660.7749,0,0,True
3785900,-0.145795227145,-0.454306715045,Watts Carol Anne,18689.5,6.488888889,29,0.0,0.0,157.5,62096.83514,0,0,True
3521269,-0.213639052237,-0.678525977286,Robinson Anne,257.3235294,7.467647059,72,0.0,0.0,160.0,635256.7496,0,0,True
2692088,0.65881813141,-0.501069328351,Chando Alexandra,91.05128205,8.152564103,30,0.0,0.0,157.5,150000.0,0,0,True
3550287,-0.663772960239,0.177611475515,Ryder Gina,26.66197183,6.48028169,39,0.0,0.0,162.5,48452.7085,0,0,True
2670256,-0.500813558707,0.657420011437,Caramel,27.0,6.233333333,39,0.0,0.0,165.0,21345.19177,0,0,True
2502360,-0.12757403443,-0.593837425008,Albert Shari,5254.391304,7.373913043,45,11277763.51,0.0,150.0,948875.5689,0,0,True
3672290,0.166097460995,0.745674854187,Summers Gwenn,14.25581395,6.690697674,38,0.0,0.0,167.5,70000.0,0,0,True
2691883,-0.224698860125,-0.867150780745,Chandler,12.48571429,6.637142857,42,0.0,0.0,157.5,25098.26496,0,0,True
3498391,0.719557871864,-0.133140600916,Reenstra Rachel,364.1428571,7.760714286,46,0.0,0.0,165.0,441263.341,0,0,True
3610656,-0.669793999313,0.565764481295,Shower Kathy,94.65217391,5.22173913,63,0.0,0.0,172.5,673613.7667,0,0,True
3170080,0.748615369594,0.114237815536,Lauren Melissa,13.27272727,7.265151515,32,0.0,0.0,165.0,56297.40126,0,0,True
3842181,0.759106255581,0.00401998359786,Zerva Dia,7.25,7.475,38,0.0,0.0,165.0,55031.73497,0,0,True
2655924,-0.597252629304,0.600422295693,Buxton Sarah,4184.238095,6.453968254,51,0.0,0.0,167.5,127051.3499,0,0,True
3495004,0.448908090101,-0.714861613198,Rayne Amber,13.25490196,7.064705882,32,0.0,0.0,157.5,37373.76303,0,0,True
2837671,-0.705382302471,-0.371637955148,Emerson Faye,733.8205128,6.784615385,99,0.0,0.0,160.0,92307.69231,0,0,True
2557741,-0.663593706571,0.54766447467,Bamford Maria,276.8696343,6.367249603,46,0.0,0.0,165.0,360949.0019,0,0,True
2499037,0.744333053574,-0.129579131356,Aitkens Daisy,184.9,7.03,30,0.0,0.0,162.5,78753.14262,0,0,True
2825950,-0.58056621026,-0.578461010562,Eaton Marion,590.2,6.98,84,0.0,0.0,157.5,165095.2049,0,0,True
3305323,0.727399950955,0.198215000818,Michaels Amanda,18.0,8.1,37,0.0,0.0,170.0,5640.142365,0,0,True
3663635,0.246859580979,0.692463417369,Storm Randi,14.66666667,7.176666667,49,0.0,0.0,172.5,23272.74812,0,0,True
2953584,0.728478912274,-0.320240022845,Grishina Oksana,27.0,8.9,38,0.0,0.0,162.0,55000.0,0,0,True
2896439,-0.572668059237,-0.696914341252,Furtado Nelly,1523.824324,6.067567568,38,0.0,0.0,155.0,289435.6006,0,0,True
2518283,0.75470041956,-0.290017364808,Anderson Brooke,1378.483871,7.232258065,35,0.0,0.0,162.5,297325.8629,0,0,True
3823872,0.743334490881,0.131158764379,Wynn Tyla,11.55555556,7.225925926,34,0.0,0.0,165.0,82406.93138,0,0,True
3638370,-0.866522173812,0.132618159171,Sommerfeld Sara,570.65,5.575,39,0.0,0.0,161.0,100000.0,0,0,True
3494389,-0.274868201543,-0.632319926037,Ray Nicole,10.84210526,6.178947368,27,0.0,0.0,157.0,26673.89826,0,0,True
2585213,-0.14560834602,-0.876518373914,Bennett C.J.,10.44444444,6.95,51,0.0,0.0,155.0,21682.66516,0,0,True
3536938,-0.309758775081,-0.798889128924,Rosman Mackenzie,70.71314741,5.954183267,27,0.0,0.0,150.0,517367.8028,0,0,True
3841703,-0.347198068018,0.716070853074,Zen Lezley,16.1125,6.52875,42,0.0,0.0,165.0,11904.7619,0,0,True
2671142,0.141676112521,-0.872684132189,Cardon Rebecca,38.9375,7.05,41,0.0,0.0,155.0,238095.2381,0,0,True
3262465,0.00591454848216,-0.787259200396,Martinez Shelly,109.3448276,6.610344828,36,0.0,0.0,160.0,73774.2583,0,0,True
3725922,-0.0942670035413,0.128562113917,Tsai Cheryl,20282.95833,6.741666667,38,0.0,0.0,170.0,24992.92925,0,0,True
3781737,0.641203286379,-0.382942487324,Wardley Niky,124.6969697,7.23030303,43,0.0,0.0,162.5,60000.0,0,0,True
3110359,0.457713975113,0.617575827094,Kerr Marion,2351.058824,7.1,37,0.0,0.0,170.0,252236.5331,0,0,True
2511385,-0.364454223791,0.742083375996,Alsou,105.7142857,5.364285714,33,0.0,0.0,173.0,601302.4602,0,0,True
3484040,0.482467925536,-0.706868704623,Rae Chelsie,96.45,7.525,32,0.0,0.0,155.0,75411.94917,0,0,True
3288216,0.727826960843,-0.346396447911,McLaughlin Elizabeth,343.2777778,7.780555556,23,0.0,0.0,160.0,26133.0871,0,0,True
3229480,0.637858785945,0.397498282181,Macallan Jes,116.7945205,7.81369863,34,0.0,0.0,172.5,230496.2404,0,0,True
2708456,-0.208750651518,0.544543098543,Ciccero Mia,14.0,6.7625,47,0.0,0.0,165.0,50000.0,0,0,True
2926320,0.741557250208,-0.311507365342,Gish Lorian,13.5,8.35,19,0.0,0.0,160.0,52905.0375,0,0,True
3102197,-0.271744882585,-0.398434653187,Keanan Staci,283.4587629,6.548969072,41,7983439.327,0.0,157.5,999284.1191,0,0,True
3391600,-0.315495578291,-0.745652633208,O'Neil April,28.96875,6.146875,29,0.0,0.0,155.0,125000.0,0,0,True
3700454,0.42169541368,0.637792370576,Texas Alexis,1441.956204,7.108759124,31,0.0,0.0,173.0,793592.0135,0,0,True
2960793,-0.286076445976,-0.866618595255,Gunn Montana,22.26923077,6.569230769,49,0.0,0.0,150.0,23369.60037,0,0,True
3594637,0.776817132592,-0.121272417305,Seohyun,73.8125,8.55625,25,0.0,0.0,165.0,750.0,0,0,True
3619383,0.680034405107,-0.447750780199,Sin Allie,11.875,7.4,31,0.0,0.0,160.0,66882.48654,0,0,True
2812595,-0.759780292111,0.457832145372,Drew Griffin,145.6785714,4.866071429,48,0.0,0.0,167.0,349498.3278,0,0,True
3012859,0.688270851533,-0.447573219872,Hinton Jerrika,628.3252033,7.957723577,35,0.0,0.0,160.0,772235.8874,0,0,True
2570399,-0.27436084968,-0.287208673492,Bateman Justine,105.077193,6.958947368,50,16743444.8,0.0,165.0,931124.3975,0,0,True
2740338,-0.875604731727,0.230304155087,Craves Cala,9.0,4.9,52,0.0,0.0,162.5,55031.73497,0,0,True
2606846,-0.558174772088,-0.707419940248,Bleu Bunny,20.62755102,6.535714286,52,0.0,441.7177914,157.5,278810.4089,0,0,True
3163605,0.710669900655,-0.39343436085,Langford Jayme,12.88888889,7.794444444,29,0.0,0.0,160.0,15248.90236,0,0,True
3179942,-0.625505826434,0.597361272395,Lee Marrie,198.125,5.8875,57,0.0,0.0,170.0,350000.0,0,0,True
3543357,0.459373570077,0.413159378882,Rubin Rosalind,5634.0,6.97,32,0.0,0.0,167.5,14118.16988,0,0,True
3325422,0.21370296019,-0.860109994325,Monaco Kelly,626.0457516,7.294771242,40,0.0,0.0,152.5,307219.6621,0,0,True
3791989,0.761282673165,-0.212010046084,Wells No_l,177.8,7.506666667,30,0.0,0.0,162.5,2654.235326,0,0,True
3565180,-0.464477118382,0.637060076504,Sands Lana,17.45348837,6.563953488,45,0.0,0.0,165.0,80000.0,0,0,True
3549584,0.480022095113,0.338589785005,Ryan Jeri,550.7733711,7.539093484,48,107953.0,62717.77003,170.0,372922.7729,0,0,True
3187184,-0.551398625131,0.602199376983,Leonard Gloria,71.1025641,6.180769231,76,0.0,0.0,175.0,80136.95344,0,0,True
2856786,-0.719192933016,-0.170495937834,Fauble Nikki Lee,12.0,6.1,34,0.0,0.0,160.0,100000.0,0,0,True
3517547,0.584752530126,-0.577898382226,Rivero Iracel,16.4,7.4,40,0.0,0.0,160.0,15232.25837,0,0,True
3728348,-0.180599710499,0.615600045772,Tuesday Rubee,14.33333333,6.95,60,0.0,0.0,170.0,22679.26626,0,0,True
3547996,0.744193800528,-0.306588063757,Russell Wonder,890.6296296,7.285185185,37,0.0,0.0,162.5,122385.5149,0,0,True
3797838,-0.193563281615,-0.854763927708,White Karen Malina,183.1908397,6.91221374,51,0.0,0.0,157.5,234399.3769,0,0,True
3564081,-0.833559987579,0.315074505058,Sanders Laura,158.6666667,5.333333333,75,0.0,0.0,167.5,4915.514593,0,0,True
2988636,0.509255423026,-0.086635414574,Hassler Marem,6573.409091,7.209090909,38,0.0,0.0,165.0,2919.066845,0,0,True
3281558,-0.803889851163,0.3122091896,McCullough Shanna,43.93719807,6.25942029,56,0.0,0.0,165.0,179620.3046,0,0,True
3206484,-0.340276755862,0.756235088203,Lo Siboney,483.8666667,5.946666667,38,0.0,0.0,170.0,104247.6072,0,0,True
3507730,0.540518899672,-0.630566300638,Rhodes Alicia,14.36363636,7.134090909,38,0.0,0.0,160.0,88472.97824,0,0,True
3192794,0.638659129164,0.137557076097,Lewis Laura Fay,13.66666667,8.233333333,56,0.0,0.0,170.0,720000.0,0,0,True
3629287,-0.210476264062,-0.117537100938,Smith Elizabeth G,12.0,8.5,116,0.0,0.0,170.0,2550.0,0,0,True
2630669,-0.714450715482,-0.571133690381,Breeze Crystal,132.8045977,6.3,52,0.0,0.0,157.5,22944.55067,0,0,True
3821772,0.442865528504,0.613634208668,Wright Jerusha,14.33333333,7.35,17,0.0,0.0,180.0,1800.0,0,0,True
3671514,0.473682373968,-0.668839098866,Sullivan Nicole,681.4844904,7.454062038,46,0.0,0.0,160.0,615652.0418,0,0,True
3769220,0.150687538546,-0.858252104422,Von Teese Dita,122.1698113,7.062264151,44,0.0,0.0,157.5,100854.6996,0,0,True
3118717,0.775791767078,-0.089284317296,King Joanne,328.4827586,7.968965517,33,0.0,0.0,165.0,100000.0,0,0,True
3550281,0.474769732246,0.585273575389,Ryder Dylan,13.47368421,7.284210526,35,0.0,0.0,172.5,17857.14286,0,0,True
3761517,0.714398169674,-0.380581259496,Vilaysack Kulap,3515.032787,7.296721311,36,0.0,0.0,162.5,27128.09791,0,0,True
3162335,-0.814705351506,0.301629776434,Lane Krista,17.08108108,6.186486486,57,0.0,0.0,165.0,12705.13499,0,0,True
3535505,0.182026111495,0.626902689148,Rose Tommi,21.14285714,6.8,43,0.0,0.0,165.0,23346.3035,0,0,True
3791750,-0.600315949621,-0.466534374809,Wells Dawn,135.7484663,6.849693252,78,0.0,116622.9962,160.0,92500.0,0,0,True
2577777,-0.860529034423,-0.210980888208,Beebe Marjorie,97.29032258,5.493548387,108,0.0,0.0,157.5,100000.0,0,0,True
3216113,-0.601692868758,-0.656314635366,Love Rebecca,76.8125,6.234375,39,0.0,0.0,157.5,79663.05812,0,0,True
2631040,-0.326135790956,-0.800551700282,Bremers Beverly,104.5,7.0625,66,0.0,0.0,155.0,4648.25264,0,0,True
2954019,0.151217595803,-0.841464555169,Grogan Clare,408.8387097,7.558064516,54,0.0,0.0,155.0,255735.4055,0,0,True
2760742,0.522902549247,0.541752575595,Dark Angel,11.85,7.393333333,34,0.0,0.0,172.5,100000.0,0,0,True
2783361,-0.850761281754,-0.0856555339926,Dell Claudia,254.7179487,5.856410256,107,0.0,0.0,162.5,525547.4453,0,0,True
3212862,0.332356349106,0.685665805368,Lord Marsha,13.88888889,7.288888889,38,0.0,0.0,178.0,405209.8408,0,0,True
3743729,0.683270046084,-0.381774033882,van den Blink Kieren,746.96,7.672,44,0.0,0.0,162.5,20327.49859,0,0,True
3837798,-0.772898999839,-0.0838822581351,Zaik Kristen,146.75,5.9625,34,0.0,0.0,160.0,79791.88202,0,0,True
3731773,-0.116373203629,0.792454643772,Tweeden Leeann,120.6875,6.50625,43,0.0,0.0,170.0,401563.3635,0,0,True
2627852,-0.73728092516,0.315166309115,Brandes Rebekah,1941.526316,5.394736842,31,0.0,0.0,162.5,812697.0972,0,0,True
2929344,0.76256866679,0.0501838670709,Goad Melissa,40.72727273,7.4,34,0.0,0.0,165.0,32746.23878,0,0,True
2719730,0.134953973008,0.762003636918,Cole Jayden,28.46875,6.525,31,0.0,0.0,172.5,73893.51905,0,0,True
3658718,-0.884940767679,0.126632766906,Stevens Tabitha,146.8596491,6.253508772,46,0.0,0.0,162.5,778005.0779,0,0,True
3111770,0.687896815193,0.0563606483141,Keyes London,13.07692308,6.873076923,27,0.0,0.0,163.0,10669.5593,0,0,True
3330885,0.309174198624,0.348951893199,Moore Barrett,13.65853659,6.965853659,46,0.0,0.0,165.0,11577.42402,0,0,True
3485330,-0.859444281441,0.161240381372,Rahmer Charity,388.125,4.7375,37,0.0,0.0,160.0,263478.2609,0,0,True
3727722,0.604405554874,0.427028084476,Tucci Flower,9.079365079,7.26031746,39,0.0,0.0,168.0,83180.74054,0,0,True
3305401,0.430857077356,0.629649174003,Michaels Gianna,991.04,7.473333333,33,0.0,0.0,178.0,50689.37551,0,0,True
3141180,-0.900709274663,-0.120333807623,Krause Tina,137.4390244,4.652439024,46,0.0,0.0,155.0,187446.7953,0,0,True
2795602,-0.491341973742,0.675818679375,Dickinson Janice,421.2526316,6.222105263,61,0.0,0.0,172.5,883794.1891,0,0,True
3546434,-0.805890064031,-0.449415040941,Runyon Jennifer,6077.16,6.034,56,0.0,0.0,157.5,634927.7164,0,0,True
2580572,-0.788845397191,0.414248184531,Bell Lauralee,88.27777778,5.688888889,48,0.0,0.0,165.0,76096.79301,0,0,True
3058958,-0.507508769372,-0.569295353011,Janiss Vivi,207.0461538,7.487692308,105,0.0,0.0,157.5,895522.3881,0,0,True
3687509,0.0900385664257,-0.864780833293,Tame Jasmine,10.66666667,6.7,30,0.0,0.0,152.5,64429.5942,0,0,True
3161303,0.324403857129,-0.817952234554,Lander Natalie,1426.981481,7.57037037,33,0.0,0.0,150.0,11563.70105,0,0,True
3083340,0.181127902151,-0.865355869669,June Katie,33.5,7.1,37,0.0,0.0,152.5,139372.8223,0,0,True
2603055,0.619068448676,-0.557631265193,Black Pippa,47.8875,7.928125,34,0.0,0.0,157.5,292455.7264,0,0,True
3618577,0.629601870507,0.400844991737,Simpson England,12.5,7.166666667,32,0.0,0.0,167.5,370146.292,0,0,True
3231602,-0.586054304088,-0.560088785221,Mack Marion,6135.777778,7.411111111,114,0.0,0.0,157.5,750000.0,0,0,True
3327249,0.682612576417,0.301892515262,Monroe Mellanie,12.66666667,8.566666667,40,0.0,0.0,175.0,53347.79651,0,0,True
2971683,0.0190984568135,0.785807845169,Hall Roxanne,21.83333333,6.588690476,40,0.0,0.0,170.0,36446.30468,0,0,True
2747517,-0.629143165008,0.601991231967,Culton Leslie,68.9375,5.15,46,0.0,0.0,170.0,505000.0,0,0,True
2635116,0.345790484076,-0.765555964844,Britton Zoe,29.9,6.91,39,0.0,0.0,160.0,59523.80952,0,0,True
3439715,-0.120896093426,-0.894107738167,Perino Dana,282.5,6.78,44,0.0,0.0,155.0,430522.0992,0,0,True
3032983,-0.744967518003,-0.458474451297,Hughes Martine,176.75,5.975,37,0.0,0.0,157.5,185200.104,0,0,True
3075344,-0.444076251633,0.662967379655,Jones Bibi,22.44444444,5.185185185,25,0.0,0.0,168.0,16004.33895,0,0,True
3708744,0.570950344075,0.492189272221,Tibrin Ramona,288.0,7.4,28,0.0,0.0,172.0,507500.0,0,0,True
2776997,0.750654503189,-0.301340406478,Dearden Taylor,7271.0,8.6,23,0.0,0.0,162.5,52.2661742,0,0,True
3136661,-0.756334498781,0.420064868002,Koslow Lauren,24.57142857,6.002040816,63,0.0,0.0,167.5,220858.8957,0,0,True
3309769,0.429766087501,0.607220639902,Miles Kelsey Murphy,163.5,6.85,25,0.0,0.0,170.0,111178.178,0,0,True
3108776,0.709805259583,-0.413465742275,Kenney Emma,1736.197531,8.572839506,17,0.0,0.0,157.5,20256.50071,0,0,True
3657751,0.720351225396,0.231608479457,Stern Savannah,8.0,7.6,30,0.0,0.0,168.0,53347.79651,0,0,True
2840628,0.319746303428,0.617881752444,Envy,13.81481481,7.011111111,45,0.0,0.0,167.5,23454.82876,0,0,True
2897854,0.278935934618,-0.841498916292,Gabriel Andrea,4797.933333,7.506666667,38,0.0,0.0,152.5,61004.20647,0,0,True
2765256,0.378199025967,0.565019978339,Davis Dina,129.0,6.64,31,0.0,0.0,165.0,3356.064455,0,0,True
3587008,0.719088498804,0.200885273797,Scott Avy,37.90697674,7.113953488,35,0.0,0.0,165.0,47978.32108,0,0,True
3498955,-0.230726834261,-0.870302220694,Reeves Melissa,46.05882353,6.773529412,49,0.0,0.0,155.0,506893.7551,0,0,True
3711540,0.358589750477,-0.77686191086,Tishler Adair,936.5333333,7.204444444,20,0.0,0.0,150.0,25039.917,0,0,True
3035901,0.126002097592,0.759045163861,Hunter Nicki,24.88235294,6.633333333,37,0.0,0.0,168.0,223383.589,0,0,True
2720363,0.470864310585,-0.698546341849,Coleman Jenna,7702.489583,7.8125,30,0.0,0.0,155.0,101258.5595,0,0,True
2489187,0.555764380392,0.476983868032,Abraham Farrah,711.5384615,6.923076923,25,0.0,0.0,167.5,41209.32189,0,0,True
3632351,0.1282254092,-0.864685936325,Smith Stacy A.,9.0,6.825,38,0.0,0.0,157.5,6130.66002,0,0,True
3327035,-0.839067520227,0.256394329801,Monreale Cinzia,865.0857143,6.214285714,59,0.0,0.0,165.0,405515.0041,0,0,True
3305716,0.615864842776,-0.163229579343,Michalka AJ,4188.454545,7.684545455,25,2582903.454,0.0,165.0,683755.7604,0,0,True
3471114,-0.709604931767,-0.568127520427,Price Tara,532.875,6.416666667,42,0.0,0.0,160.0,163924.5815,0,0,True
3054880,0.699129771311,-0.327607225939,Jade Layla,16.15384615,6.982051282,36,0.0,0.0,162.0,22679.26626,0,0,True
2585630,-0.294213258141,0.699450439597,Bennett Melany,14.0,5.6,23,0.0,0.0,167.5,30377.56785,0,0,True
3541669,0.313126291519,-0.815351874443,Roxx Rachel,107.1612903,7.325806452,33,0.0,0.0,152.0,99837.9258,0,0,True
2754838,-0.183318065236,0.791854602149,Dahm Erica,513.3333333,6.283333333,39,0.0,0.0,170.0,317628.3748,0,0,True
3424470,0.581930577247,-0.614656896116,Parrish Janel,861.4770115,7.936206897,28,0.0,0.0,155.0,401206.8556,0,0,True
3108423,0.730301723622,-0.33269718516,Kennedy Marny,8.380952381,7.80952381,22,0.0,0.0,160.0,27967.20379,0,0,True
3833899,0.316656920905,-0.804125692246,Young Madison,33.42857143,7.021428571,36,0.0,0.0,157.0,148735.3446,0,0,True
2860643,0.0773777529519,0.563330990414,Fenner Shelby,10944.34783,6.865217391,38,0.0,0.0,172.5,245775.7296,0,0,True
3280125,-0.859223663881,0.260427133987,McComas Lorissa,203.8139535,4.923255814,46,0.0,0.0,162.5,208933.4655,0,0,True
3223916,0.460238218895,0.60218345415,Lux Venus,77.0,7.45,26,0.0,0.0,178.0,275515.1165,0,0,True
2901186,0.426701791074,-0.278110183445,Gallagher Megan,2952.580838,7.558682635,56,0.0,0.0,165.0,50000.0,0,0,True
2493297,-0.82740034546,0.00688497352754,Addams Ava,11.0,5.755555556,35,0.0,0.0,160.0,18707.99509,0,0,True
3423242,0.148805767778,-0.873018406751,Parker Taya,83.25,7.0,36,0.0,0.0,152.5,233171.1273,0,0,True
3740945,-0.191364779122,-0.446656764696,Valentine Karen,41.31343284,7.604477612,69,0.0,0.0,160.0,942126.466,0,0,True
3791877,0.691816096318,0.256570160893,Wells Kelly,11.08823529,7.023529412,32,0.0,0.0,165.0,57267.68253,0,0,True
3691707,0.39530983456,0.609103772391,Tate Elizabeth,98.0,6.7,27,0.0,0.0,167.5,17708.61865,0,0,True
2932653,-0.603448175785,0.389458859234,Goldston Jackie,13552.625,5.675,48,0.0,0.0,170.0,209096.8931,0,0,True
3598152,0.585520867626,-0.607987095532,Sgambati Alex,770.5384615,7.853846154,26,0.0,0.0,155.0,21073.53339,0,0,True
3339760,-0.891417837503,0.169219981949,Morris Sherry,61.71428571,5.714285714,52,0.0,0.0,162.5,300689.3755,0,0,True
3603343,0.0475864584045,0.736157822204,Shea Beth,130.1785714,6.689285714,41,0.0,0.0,165.0,175701.2902,0,0,True
3331167,0.761832543554,-0.200184988185,Moore Desire,5.875,7.625,33,0.0,0.0,163.0,24577.57296,0,0,True
3155518,0.0797876466494,-0.89897437732,Ladnier Kavi,2239.6875,7.18125,42,0.0,0.0,150.0,69437.03898,0,0,True
2676040,-0.355397088149,0.740544383499,Carrera Mercedes,35.4,5.72,34,0.0,0.0,170.0,50629.27976,0,0,True
3372970,-0.684725335251,0.533609190715,Nice Alexandra,25.65217391,6.134782609,44,0.0,0.0,165.0,23575.63945,0,0,True
3652144,-0.677576236142,0.519124343597,Starr Elizabeth,30.65,6.355,47,0.0,0.0,165.0,366615.4027,0,0,True
3286032,-0.0195044776944,0.783560986224,McIntosh Pollyanna,6861.153846,6.5,37,0.0,0.0,175.0,535116.5237,0,0,True
3389877,-0.788136815418,0.263895360801,O'Dea Judith,2827.588235,6.423529412,71,0.0,0.0,167.5,44556.19037,0,0,True
3405313,-0.506792458225,0.66411415603,Ortega Asun,607.1818182,5.636363636,35,0.0,0.0,167.5,737172.1279,0,0,True
3393195,-0.376729826108,-0.339439321881,Obenreder Morgan,835.5714286,5.885714286,21,0.0,0.0,157.5,300609.2789,0,0,True
3796679,-0.242199496636,-0.174547489639,Whillans Ashley,30532.0,6.157142857,28,0.0,0.0,162.5,400.0,0,0,True
3678819,-0.22177452441,-0.239326241499,Swit Loretta,190.1111111,7.4925,79,0.0,0.0,165.0,540871.1078,0,0,True
3604675,-0.485961460941,-0.783471019815,Shelly Adrienne,3167.514286,6.465714286,50,815561.2753,0.0,155.0,760821.0019,0,0,True
2993624,0.550030601523,0.04452611499,Hazell Keeley,11078.45455,7.595454545,30,0.0,0.0,168.0,522661.742,0,0,True
3113881,0.163079143433,-0.78702953499,Kianna,22.61904762,7.080952381,47,0.0,0.0,160.0,28341.13376,0,0,True
3238105,-0.695203451562,0.52136822446,Maier Brigitte,57.92307692,5.769230769,64,0.0,0.0,170.0,682620.8178,0,0,True
3114718,-0.761253817161,0.467384676962,Kiger Susan,531.0833333,4.816666667,63,0.0,0.0,170.0,991735.5372,0,0,True
3515028,-0.133446607613,-0.166717721974,Rionda Sasha,82433.0,7.1,39,0.0,0.0,170.0,25314.63988,0,0,True
3262267,-0.735629107692,-0.447735366895,Martinez Megan,5.0,5.6,33,0.0,0.0,155.0,16004.33895,0,0,True
3625257,-0.129397743249,-0.689239935044,Sladen Elisabeth,211.1462264,7.54245283,70,0.0,0.0,160.0,13340.74486,0,0,True
3279689,-0.817892670323,-0.318031791603,McClendon Yvette,44.16666667,6.225,40,0.0,0.0,160.0,312347.2558,0,0,True
2780643,-0.629705560767,0.576427607213,Del Monacco Alex,53.2,4.9,36,0.0,0.0,168.0,32008.67791,0,0,True
3209887,-0.653968860033,0.530473844656,London Nicole,13.10091743,6.408256881,47,0.0,0.0,165.0,59292.60774,0,0,True
3056575,-0.0439883805835,0.790720974919,James Brenda,9.6,6.62,46,0.0,0.0,173.0,55031.73497,0,0,True
3676199,-0.70465225428,0.494286816255,Sveen Carey,325.6666667,4.233333333,35,0.0,0.0,167.5,15709.34693,0,0,True
3215729,0.765483881886,0.0261320803712,Love Caitlyn Taylor,76.42741935,7.60483871,22,0.0,0.0,165.0,76034.06326,0,0,True
3466363,-0.279890913683,0.477761170522,Poundstone Paula,8431.159091,6.909090909,57,0.0,0.0,170.0,44077.71179,0,0,True
2834626,0.31455301586,-0.800223878772,Elle Jamie,11.8125,7.0,31,0.0,0.0,155.0,92619.39219,0,0,True
2629858,0.73446679929,0.0500565539766,Bray Deanne,118.3548387,7.992473118,45,0.0,0.0,167.5,40000.0,0,0,True
2931316,-0.8106520294,-0.23508129917,Gold Katie,11.75438596,6.150877193,38,0.0,0.0,160.0,38000.0,0,0,True
2880832,-0.0215687918664,0.760715727983,Forsythe Rebecca,4799.0,6.183333333,26,0.0,0.0,172.5,77267.47855,0,0,True
3201158,0.582601534336,-0.416389745522,Ling Lisa,172.5762712,7.061016949,43,0.0,0.0,162.5,324218.7397,0,0,True
3382657,-0.476331366297,-0.405896479374,Norholt Mathilde,120.375,6.303125,33,0.0,0.0,160.0,13000.0,0,0,True
3212146,0.174765312035,0.697207122694,Lopez Luscious,88.9375,6.59375,35,0.0,0.0,165.0,297619.0476,0,0,True
3801000,-0.31377217595,-0.863250554866,Wiedlin Jane,3510.68254,6.79047619,58,13440.47619,32608.69565,150.0,333139.759,0,0,True
2911241,0.429875578724,-0.686112357665,Gatschet Stephanie,1891.5,6.84,33,0.0,0.0,160.0,34294.30147,0,0,True
2518828,0.182191349932,0.752899564113,Anderson Jennifer Marie,6.0,6.7,33,0.0,0.0,175.0,11660.03768,0,0,True
3413191,0.645657629169,-0.49932255656,Page Marianne,130.75,7.1875,32,0.0,0.0,160.0,262745.3116,0,0,True
3556165,-0.793113700849,-0.29258270627,Sais Marin,143.015625,6.0734375,126,0.0,0.0,157.5,644794.6987,0,0,True
2817193,-0.549278093755,-0.622876918889,Duke Augie,1231.777778,5.881481481,30,0.0,0.0,155.0,722850.9061,0,0,True
3705751,-0.424161756434,-0.706895635862,Thompson Leah Catherine,58.66666667,7.633333333,114,0.0,0.0,150.0,202757.502,0,0,True
2634520,-0.817323189787,-0.0510190346998,Brisley Holly,3748.0,5.952380952,38,0.0,0.0,161.0,30000.0,0,0,True
3108507,0.352556185571,0.60571026573,Kennedy Paris,6.25,6.675,34,0.0,0.0,165.0,15416.60316,0,0,True
2615315,-0.319619230678,0.376079072304,Bonner Gillian,59.66666667,6.8,50,0.0,0.0,165.0,128743.0663,0,0,True
3670853,-0.780568459256,0.403146091327,Suleman Nadya,28.4,4.54,41,0.0,0.0,165.0,26133.0871,0,0,True
3112337,-0.889654893585,-0.0483206083409,Khan A.J.,1073.354167,5.020833333,39,0.0,0.0,157.5,548153.0024,0,0,True
2777300,-0.89966982633,-0.089905184668,Debbie D,86.91428571,4.502857143,44,0.0,0.0,155.0,936937.2104,0,0,True
3196728,-0.261091916368,0.180794061682,Light Judith,117.7112172,7.196420048,67,0.0,0.0,167.5,863189.0505,0,0,True
2677549,-0.505127132219,0.439999738922,Carstensen Margit,1024.869565,6.884782609,76,0.0,0.0,171.0,16780.32228,0,0,True
3534920,0.399814827636,-0.762059988513,Rose Kristina,75.91566265,7.245783133,32,0.0,0.0,155.0,88050.77595,0,0,True
3507568,-0.734295850435,0.491856567692,Rhey Ashlie,106.9836066,5.719672131,55,0.0,0.0,167.5,752020.5322,0,0,True
3007795,-0.757881669855,-0.354264569149,Hiatt Ruth,170.0,6.368965517,110,0.0,0.0,157.5,853057.3612,0,0,True
2780966,-0.820606047984,0.189293275174,del Rio Vanessa,106.1454545,6.27,64,0.0,669.1449814,165.0,375547.3413,0,0,True
3574998,0.725722662896,0.209795320408,Sayre Bernadette,272.6666667,7.45,25,0.0,0.0,167.0,2450.922387,0,0,True
3241346,-0.396679992611,0.362592834358,Malhotra Sahaj,79.0,6.2,31,0.0,0.0,162.5,679460.2646,0,0,True
3762055,0.582248303826,-0.578830220053,Villalobos Akasha,121.0,7.0375,34,0.0,0.0,160.0,41545.91305,0,0,True
3534182,0.377831005823,0.643059377551,Rose Amber,84.35135135,6.786486486,33,0.0,0.0,167.5,800000.0,0,0,True
3128516,0.235668846616,-0.609004445414,Knudsen Kari,6.0,8.5,77,0.0,0.0,160.0,274509.8039,0,0,True
3644274,-0.852295138667,-0.24083175466,Spelvin Georgina,1400.824742,6.129896907,80,0.0,0.0,160.0,262155.7483,0,0,True
3640899,-0.22792663493,-0.223932703076,Sossaman Heather,3053.117647,6.323529412,29,31375283.63,0.0,162.5,736057.7823,0,0,True
3561713,-0.808389495045,0.379108259349,Sampson Holly,1551.162162,5.845945946,43,0.0,0.0,164.0,533477.9651,0,0,True
2740467,-0.405926436773,0.483686752082,Crawford Cindy,61.94285714,6.411428571,36,0.0,0.0,163.0,88148.80797,0,0,True
2858021,0.57840829831,-0.555915640806,Fazzino Christine,148.0833333,7.841666667,46,0.0,0.0,160.0,21021.77231,0,0,True
3693928,-0.261323083606,0.742169301434,Taylor Jay,30.0,5.6,25,0.0,0.0,170.0,10344.39196,0,0,True
3512924,0.769554440403,0.00172571572744,Riesgraf Beth,879.6062992,8.249606299,38,0.0,0.0,167.5,579595.7878,0,0,True
3651921,0.28583780375,0.693646225393,Starlet Heather,26.66666667,6.638888889,27,0.0,0.0,170.0,54610.75035,0,0,True
3242752,0.720057712246,-0.368459134496,Malone Melissa,10.80769231,9.003846154,32,0.0,0.0,160.0,1012.585595,0,0,True
2970920,-0.597126625314,0.256651178853,Hall Deidre,61.46902655,6.776106195,69,0.0,0.0,167.5,668671.791,0,0,True
2603125,0.679860255627,-0.446434813306,Black Skyy,5.666666667,8.033333333,37,0.0,0.0,160.0,16004.33895,0,0,True
