votes,id,rating,dob,name,age,heightcm,Action,Adult,Adventure,Animation,Biography,Comedy,Commercial,Crime,Documentary,Drama,Erotica,Experimental,Family,Fantasy,Film-Noir,Game-Show,Hardcore,History,Horror,Lifestyle,Music,Musical,Mystery,News,Reality-TV,Romance,Sci-Fi,Sex,Short,Sport,Talk-Show,Thriller,War,Western,gross,budget,salary,academy awards won,academy awards nominated,golden globes won,golden globes nominated,totalawards
1409.227941,2926317,6.957352941,14 October 1893,Gish Lillian,123,160.0,1,0,3,2,7,19,0,5,39,90,0,0,7,2,1,0,0,10,0,0,7,1,4,0,4,20,0,0,63,0,1,4,9,6,66454150.84,14372100.77,20.0,0,1,0,1,50
416.97826089999995,2926310,6.5978260870000005,11 March 1898,Gish Dorothy,118,155.0,0,0,4,0,2,41,0,7,5,82,0,0,0,0,0,0,0,5,0,0,0,1,1,0,0,23,0,0,82,0,0,2,3,8,0.0,4753226.263,20.0,0,0,0,0,0
34475.238639999996,2695776,7.095454545,24-Mar-77,Chastain Jessica,39,160.0,3,0,6,0,5,4,0,4,9,28,0,0,0,3,0,0,0,5,3,0,2,1,2,2,1,4,5,0,19,0,3,8,2,1,73752550.04,31654487.34,106.69559299999999,0,2,1,2,175
6221.844443999999,3139269,6.6,28-Jan-57,Kozak Harley Jane,59,172.5,2,0,1,0,0,9,0,3,1,10,0,0,2,4,0,0,0,1,3,0,0,0,2,0,0,7,2,0,1,2,0,7,0,0,15587937.67,30879283.1,120.4819277,0,0,0,0,0
2652.647887,3369769,7.472535211,31-Dec-58,Neuwirth Bebe,58,160.0,2,0,4,4,1,20,0,3,15,14,0,0,13,4,0,0,0,4,1,0,13,8,1,0,4,6,0,0,8,3,0,3,0,0,0.0,19274124.2,122.8878648,0,0,0,0,0
1350.403509,3453838,6.089473684,1-Aug-89,Pinn Devanny,27,155.0,12,0,2,2,0,5,0,10,5,12,0,0,0,5,0,0,0,2,32,0,1,0,5,1,0,1,7,0,10,0,0,15,0,0,0.0,3617600.03,300.0,0,0,0,0,0
12.20833333,3652308,6.85,27-Jun-76,Starr Regan,40,167.5,0,103,0,0,0,1,0,0,0,1,0,0,0,0,0,0,0,0,0,0,0,0,0,0,0,0,1,0,0,0,0,0,0,0,0.0,0.0,432.17286910000007,0,0,0,0,0
20.62755102,2606846,6.535714286,1-Jun-64,Bleu Bunny,52,157.5,0,314,0,0,2,18,0,1,2,4,0,0,0,2,0,0,0,0,1,0,1,0,2,0,0,5,7,0,4,1,0,2,0,1,0.0,278810.4089,441.7177914,0,0,0,0,0
27672.21918,2656807,7.51369863,24-Jul-79,Byrne Rose,37,168.0,3,0,3,1,2,24,0,4,7,20,0,0,3,0,0,0,0,1,3,0,5,2,5,0,0,11,5,0,8,0,0,7,0,0,33496.9973,41801239.02,506.8937551,0,0,0,2,40
1944.232558,3248408,6.341860465,20-Sep-50,Mao Angela,66,162.5,32,0,11,0,1,4,0,3,7,19,0,0,0,3,0,0,0,0,2,0,0,0,0,0,0,0,0,0,2,0,0,3,1,0,0.0,2051838.8290000001,540.5405405,0,0,0,0,0
106.1454545,2780966,6.27,31-Mar-52,del Rio Vanessa,64,165.0,1,128,0,0,0,15,0,3,8,10,0,0,0,2,0,0,0,0,5,0,1,1,1,0,0,2,0,0,1,0,0,0,0,0,0.0,375547.3413,669.1449813999999,0,0,0,0,0
269.7265625,3523816,5.05625,3-Nov-68,Rochon Debbie,48,162.5,26,1,7,1,2,70,0,7,29,21,0,0,2,12,0,0,0,2,161,0,3,1,9,0,1,4,23,0,17,0,0,36,0,1,0.0,333855.5469,746.1139896000001,0,0,0,0,0
53.48235294,3116045,7.163529412000001,20-Feb-76,Kim Gail,40,160.0,14,0,0,0,0,0,0,0,4,0,0,0,0,0,0,0,0,0,0,0,0,0,0,0,1,0,0,0,1,39,0,1,0,0,0.0,385222.1448,752.372596,0,0,0,0,0
543.7580644999999,2778528,6.875806452000001,26-Nov-09,Dee Frances,107,160.0,3,0,4,0,1,20,0,2,5,28,0,0,3,1,1,0,0,2,1,0,2,5,2,0,0,24,0,0,4,0,0,0,5,4,0.0,10112088.49,789.4736842,0,0,0,0,0
1858.172775,3658158,5.042408377,20-Sep-54,Stevens Brinke,62,160.0,14,0,1,0,0,38,0,9,33,25,0,0,1,6,0,0,0,0,98,0,4,0,10,0,1,7,17,0,15,2,0,29,0,2,308370.0441,1844281.737,811.4961961,0,0,0,0,0
1189.451977,3480266,5.2892655369999995,27-May-58,Quigley Linnea,58,155.0,11,3,5,3,0,37,0,9,31,10,0,0,0,4,0,0,0,0,81,0,4,2,4,0,0,1,16,0,12,2,0,34,0,1,27745.77465,1629613.149,811.4961961,0,0,0,0,0
227.29496400000002,2571879,5.107194245,1-Oct-58,Bauer Michelle,58,167.5,10,35,5,1,0,46,0,3,13,19,0,0,2,10,0,0,0,0,37,0,1,0,2,0,4,2,13,0,8,0,0,18,2,1,0.0,500906.9422,811.4961961,0,0,0,0,0
34399.11538,3266497,6.646153846,24-Aug-37,Mason Connie,79,165.0,2,0,1,0,0,7,0,1,3,7,0,0,1,1,0,0,0,0,2,0,0,2,0,0,0,4,0,0,0,0,0,1,0,3,0.0,14237813.66,1372.54902,0,0,0,0,0
207.9971182,3428127,7.769164265,20-Jun-11,Patrick Gail,105,167.5,2,0,3,0,1,25,0,10,6,25,0,0,0,1,2,0,0,2,1,0,2,5,11,0,0,20,0,0,9,1,0,3,3,8,0.0,14648485.2,1384.615385,0,0,0,0,0
300.1343284,2690615,6.146268657,22-Apr-52,Chambers Marilyn,64,167.5,2,33,0,0,2,8,0,0,17,10,0,0,0,3,0,0,0,0,2,0,1,0,2,0,0,5,2,0,2,0,0,0,0,0,270270270.3,778927.5440000001,1435.4066990000001,0,0,0,0,0
1850.053279,2909859,7.32295082,13-Dec-45,Garver Kathy,71,152.5,3,0,7,3,2,14,0,3,3,13,0,0,11,5,1,0,0,3,3,0,2,0,3,0,0,3,2,0,4,0,0,6,0,1,0.0,3749819.768,1481.481481,0,0,0,0,0
590.5970149,3032987,6.347761193999999,13-Nov-19,Hughes Mary Beth,97,160.0,2,0,0,0,1,23,0,14,3,28,0,0,0,0,6,0,0,1,0,0,7,7,8,0,0,17,0,0,3,2,0,3,1,14,0.0,10084033.61,1726.618705,0,0,0,0,0
208.8758621,2712905,5.813793102999999,24-Apr-82,Clarkson Kelly,34,157.5,0,0,0,0,1,5,0,0,15,2,0,0,8,0,0,0,0,0,0,0,49,2,0,0,2,2,0,0,5,3,0,0,0,0,6420216.522000001,5404891.304,1826.086957,0,0,0,0,0
12.01639344,3354063,6.545901638999999,6-Jan-74,Myne Shelbee,42,157.5,1,261,1,1,0,5,0,1,0,3,0,0,0,2,0,0,0,0,1,0,0,0,3,0,0,1,1,0,0,0,1,3,0,0,0.0,22688.02248,2208.588957,0,0,0,0,0
62955.2439,3118136,6.919512195,21-Jul-55,King Adrienne,61,165.0,0,0,0,0,0,4,0,0,9,6,0,0,1,2,0,0,0,0,14,0,1,1,2,0,0,2,1,0,8,0,0,5,1,0,0.0,6221672.9520000005,2286.407767,0,0,0,0,0
14.94117647,3147636,6.585294117999999,2-Mar-67,Kummings Kimberly,49,163.0,1,110,0,0,0,4,0,1,1,2,0,0,0,0,0,0,0,0,0,0,0,1,0,0,0,1,0,0,0,0,0,0,0,0,0.0,22944.55067,2294.4550670000003,0,0,0,0,0
1595.429929,2585451,7.001662708,27-Feb-10,Bennett Joan,106,157.5,1,0,5,0,3,38,0,11,21,41,0,0,1,2,7,0,0,4,3,0,1,9,6,0,2,31,0,0,16,2,0,7,5,1,0.0,9006612.162999999,2466.666667,0,0,0,0,0
3490.578125,3377706,6.7140625,30 March 1888,Nilsson Anna Q.,128,167.5,4,0,8,0,3,25,0,9,10,159,0,0,4,1,3,0,0,3,0,0,1,5,6,0,0,29,0,0,95,1,0,6,21,12,0.0,19429298.47,2489.6265559999997,0,0,0,0,0
789.6329114,2517579,6.787341772,22-May-34,Anders Merry,82,160.0,5,0,6,0,1,9,0,9,3,28,0,0,2,2,1,0,0,2,3,0,0,4,2,0,0,9,2,0,0,0,0,4,1,6,0.0,12786700.64,2489.6265559999997,0,0,0,0,0
10563.61017,2508874,6.503389831000001,24-Jun-50,Allen Nancy,66,165.0,7,0,3,0,1,10,0,6,19,10,0,0,1,3,0,0,0,0,5,0,1,1,5,0,0,3,4,0,9,0,0,17,0,0,259613.5922,14248649.87,2530.755712,0,0,0,1,20
4282.029412,3111757,6.817647059,20-Nov-16,Keyes Evelyn,100,160.0,3,0,7,0,4,15,0,11,12,23,0,0,0,3,9,0,0,2,2,0,2,3,4,0,0,11,1,0,5,1,0,7,3,3,0.0,7257649.228999999,2571.428571,0,0,0,0,0
2683.12766,3548637,6.686170213,2-Nov-17,Rutherford Ann,99,157.5,2,0,2,0,3,29,0,6,9,22,0,0,5,2,3,0,0,3,0,0,3,3,7,0,1,24,0,0,10,0,3,0,3,10,0.0,15898920.65,2608.8326420000003,0,0,0,0,0
109.013245,3333998,7.067880795,18-Oct-60,Moran Erin,56,157.5,1,0,1,1,0,4,0,0,9,5,0,0,2,1,0,0,0,1,1,0,2,0,0,0,1,0,1,0,0,1,0,0,0,0,0.0,2715074.213,3732.251521,0,0,0,0,0
2207.276923,2995558,6.405384615,19-Jan-30,Hedren Tippi,86,160.0,4,0,5,0,12,21,0,6,34,30,0,0,2,1,0,1,0,3,9,0,1,1,11,1,3,12,4,0,8,0,0,20,3,1,22713032.08,7289689.844,3921.568627,0,0,1,0,75
2873.384615,3221990,6.3307692310000006,9-Feb-62,Lund Zo_,54,167.5,1,0,0,0,0,1,0,2,3,5,0,0,0,0,0,0,0,0,2,0,0,0,1,0,0,0,0,0,2,0,0,5,0,0,0.0,684111.1375,3960.3960399999996,0,0,0,0,0
121.77480919999999,2982425,7.189312977,22-Aug-39,Harper Valerie,77,165.0,3,0,4,7,13,33,0,3,29,17,0,0,14,1,0,0,0,2,2,0,8,3,3,1,8,6,4,0,4,2,1,4,0,0,0.0,2435751.222,4329.896907,0,0,1,5,175
11496.51795,2788042,6.987179487000001,10-Feb-67,Dern Laura,49,175.0,3,0,4,2,11,12,0,6,33,45,0,0,7,1,0,0,0,5,1,0,5,0,4,0,1,9,3,0,16,1,1,11,1,0,2660729.485,25057918.78,4460.966543,0,2,2,2,250
8990.967742,2557924,6.740322581,17-Sep-31,Bancroft Anne,85,165.0,4,0,5,2,7,27,0,10,17,43,0,0,9,2,6,1,0,8,0,0,3,3,5,1,8,20,0,0,1,1,1,10,6,5,25322302.87,35945140.08,4494.382022,1,4,2,6,490
1354.085714,3658327,7.205714286,18-Oct-34,Stevens Inger,82,162.5,0,0,3,0,0,1,0,2,2,8,0,0,2,0,1,0,0,1,0,0,0,0,1,0,1,6,1,0,0,0,0,5,1,5,0.0,17779014.32,5009.601673,0,0,1,0,75
378.9767442,2637556,6.958139535,14-Nov-06,Brooks Louise,110,155.0,2,0,5,0,4,14,0,4,18,14,0,0,0,0,0,0,0,3,0,0,1,1,1,0,0,7,0,0,4,0,0,0,0,2,139649.1228,0.0,5392.7016109999995,0,0,0,0,0
677.9343284,2874363,7.411641791,11-Nov-64,Flockhart Calista,52,162.5,0,0,0,0,2,7,0,0,18,8,0,0,7,1,0,0,0,0,1,0,3,0,0,2,5,5,0,0,4,0,0,1,0,0,0.0,12232154.3,5669.291339,0,0,1,4,155
21.52727273,3527905,6.298181818,11-Jun-67,Rogers Danielle,49,172.5,0,110,1,0,0,19,0,0,1,7,0,0,0,2,0,0,0,0,0,0,0,0,2,0,0,2,3,0,0,0,0,4,0,0,0.0,23831.68938,6243.305279,0,0,0,0,0
1211.702703,3216372,6.191891892,10-Jan-49,Lovelace Linda,67,170.0,0,21,0,0,2,4,0,0,13,0,0,0,1,0,0,0,0,1,0,0,0,0,0,0,0,0,0,0,9,0,0,0,0,0,0.0,1092960.418,6889.952153,0,0,0,0,0
1865.570248,3653654,7.029752066,29-Dec-37,Steele Barbara,79,170.0,3,0,3,2,3,14,0,4,11,16,0,0,1,6,0,0,0,4,29,0,0,0,8,0,0,3,6,0,10,0,1,14,0,1,1095.9042980000002,9705555.62,7407.407407,0,0,0,0,0
913.8,3373360,6.85,10-Dec-28,Nichols Barbara,88,167.0,1,0,3,0,1,7,0,4,1,14,0,0,1,0,2,0,0,0,1,0,0,3,1,0,0,7,2,0,0,0,0,2,2,2,0.0,6996529.485,8304.49827,0,0,0,0,0
824.4814815000001,3730545,6.615555556,8-Feb-21,Turner Lana,95,157.5,2,0,3,0,6,28,0,6,37,39,0,0,6,3,3,1,0,5,4,0,5,10,3,0,0,30,1,0,13,0,1,6,10,1,61215039.54,14098895.21,8980.837425,0,1,0,0,30
303.97333330000004,2812589,6.724,23-Nov-15,Drew Ellen,101,157.5,3,0,6,0,0,27,0,12,0,26,0,0,1,1,2,0,0,2,2,0,4,8,6,0,0,18,0,0,1,2,0,5,3,12,0.0,6522821.5770000005,9422.492401000001,0,0,0,0,0
49579.9,3539011,5.42,1983,Roth Brenna,33,165.0,5,0,3,0,0,7,0,1,0,8,0,0,0,0,0,0,0,0,11,0,0,2,1,0,1,2,4,0,3,1,0,6,0,0,0.0,25690784.29,10000.0,0,0,0,0,0
19.89473684,2538548,6.442105262999999,5-May-73,Ashley Brooke,43,160.0,0,111,0,0,0,7,0,0,1,1,0,0,0,0,0,0,0,0,0,0,0,0,0,0,0,0,2,0,0,0,2,1,0,0,0.0,23741.75793,11042.944790000001,0,0,0,0,0
790.1144068,3225519,6.56779661,14-Dec-62,Lynn Ginger,54,160.0,3,265,4,1,5,33,0,4,19,14,0,0,0,7,0,0,0,0,6,0,3,1,2,0,1,4,3,0,9,1,1,4,0,0,1561338.29,1016883.9079999999,11896.0539,0,0,0,0,0
30.61812298,2508407,8.215857605,26 July 1895,Allen Gracie,121,150.0,0,0,0,0,3,35,0,1,15,0,0,0,0,0,0,0,0,0,0,0,4,7,2,0,1,5,0,0,15,1,0,0,0,0,0.0,11190930.15,11929.82456,0,0,0,0,0
1445.9920000000002,2586236,7.2456,8-Jan-77,Benson Amber,39,160.0,4,0,2,1,1,20,0,6,3,23,0,0,1,7,0,0,0,0,10,0,1,0,3,0,0,7,3,0,11,0,1,8,0,1,0.0,2711826.67,11962.616820000001,0,0,0,0,0
68.46728972,3172332,5.845794392999999,2 January 1890,Lawrence Florence,126,157.5,12,0,3,0,1,76,0,17,7,171,0,0,15,0,0,0,0,3,0,0,0,0,1,0,0,92,0,0,286,0,0,0,2,6,0.0,4962262.641,12121.21212,0,0,0,0,0
619.3507109,3215603,7.493838863,20-Aug-92,Lovato Demi,24,157.5,0,0,1,3,3,9,0,0,13,2,0,0,18,1,0,0,0,0,0,0,40,5,0,3,11,2,0,0,8,1,4,0,0,0,0.0,16734844.12,13424.257819999999,0,0,0,0,0
13743.76522,3201649,7.264347826,5-Feb-64,Linney Laura,52,167.5,4,0,4,2,6,19,0,7,26,36,0,0,3,2,0,0,0,2,1,0,5,0,7,2,1,6,5,0,15,0,0,10,0,0,46328669.98,50706917.39,13937.28223,0,3,2,3,300
2054.977273,3015319,6.795454545,14-Apr-17,Hobson Valerie,99,165.0,1,0,5,0,0,18,0,6,4,23,0,0,2,3,1,0,0,1,4,0,0,3,12,0,0,9,2,0,1,0,0,6,6,0,0.0,5642668.373,14014.59854,0,0,0,0,0
70.39622642,3573285,6.505660377000001,9-Oct-70,Savannah,46,165.0,1,75,0,0,1,4,0,0,4,4,0,0,0,1,0,0,0,0,1,0,0,0,0,0,0,1,1,0,0,0,0,1,0,0,0.0,80000.0,14948.09689,0,0,0,0,0
155.2,2703914,6.916,22-May-72,Chong Annabel,44,160.0,0,28,0,0,1,1,0,0,4,0,0,0,0,5,0,0,0,0,0,0,0,0,0,0,0,0,0,0,0,0,0,0,0,0,324844.5993,0.0,15748.0315,0,0,0,0,0
239.16666669999998,3781813,6.45,6-Nov-10,Ware Irene,106,165.0,2,0,2,0,0,10,0,5,0,13,0,0,0,1,0,0,0,0,2,0,0,3,6,0,0,6,2,0,0,0,0,0,0,2,0.0,3640760.4,16423.357659999998,0,0,0,0,0
497.72549019999997,2908693,7.060784314,3-Feb-32,Garner Peggy Ann,84,160.0,1,0,3,0,1,5,0,0,1,19,0,0,2,0,1,0,0,1,0,0,0,1,4,0,0,5,0,0,0,1,2,0,0,1,0.0,24642869.21,16666.66667,0,0,0,0,0
2551.973913,3281781,6.696521739,10 June 1895,McDaniel Hattie,121,155.0,4,0,1,1,4,38,0,4,20,34,0,0,3,1,1,0,0,4,0,0,0,11,1,0,0,30,1,0,8,2,0,1,6,3,0.0,10493254.15,17266.18705,1,0,0,0,100
229.61627909999999,2724252,6.490697674,19 March 1897,Compson Betty,119,155.0,10,0,7,0,1,110,0,22,14,89,0,0,0,0,1,0,0,2,1,0,3,6,9,0,0,52,0,0,95,3,0,2,3,9,0.0,8069729.932,17348.34329,0,1,0,0,30
1263.829268,3038539,7.0536585370000005,1-May-05,Hyams Leila,111,162.5,4,0,4,0,0,21,0,4,1,22,0,0,1,0,0,0,0,0,3,0,0,1,3,0,0,18,1,0,2,1,0,2,0,5,0.0,3698398.943,17518.248180000002,0,0,0,0,0
2263.374718,2750888,6.791422122,23-Nov-92,Cyrus Miley,24,162.5,3,0,2,3,2,15,0,0,33,6,0,0,19,0,0,1,0,0,0,0,76,1,0,5,5,4,0,0,21,0,1,0,0,0,78568694.15,25061444.32,17857.14286,0,0,0,0,0
2144.625,3011444,6.2375,14-Aug-35,Hilligoss Candace,81,155.0,0,0,1,0,0,1,0,0,1,0,0,0,1,2,0,0,0,0,5,0,0,0,1,0,0,0,0,0,1,0,0,0,0,1,0.0,583721.427,19867.54967,0,0,0,0,0
80.15789474,2617084,6.478947367999999,14-Jul-06,Borden Olive,110,160.0,2,0,0,0,0,25,0,3,0,17,0,0,0,0,0,0,0,0,1,0,1,1,0,0,0,7,0,0,20,1,0,0,0,4,0.0,0.0,20338.98305,0,0,0,0,0
2195.21978,2981460,6.682417582,3-Mar-11,Harlow Jean,105,152.5,2,0,1,0,5,36,0,7,43,23,0,0,4,0,2,0,0,4,0,0,0,8,0,0,0,20,0,0,18,1,0,1,2,0,0.0,11728026.47,21556.88623,0,0,0,0,0
449.63157889999997,3466801,6.3894736839999995,21-Nov-12,Powell Eleanor,104,166.0,0,0,0,0,1,9,0,0,16,2,0,0,4,0,0,0,0,0,0,0,3,17,0,1,2,6,0,0,12,3,0,1,0,0,0.0,11872565.86,21897.81022,0,0,0,0,0
2125.253425,3416235,6.713013698999999,26-Aug-93,Palmer Keke,23,165.0,2,0,1,3,2,7,0,1,4,11,0,0,16,1,0,0,0,0,1,0,7,2,3,4,8,2,0,0,2,2,1,2,0,0,11421920.45,8288910.664,22294.162180000003,0,0,0,0,0
288.9545455,2999139,5.4,16-Feb-54,Hemingway Margaux,62,180.0,4,0,0,0,2,3,0,1,3,10,0,0,1,0,0,0,0,0,1,0,1,1,0,0,0,2,0,0,2,0,0,8,0,0,0.0,0.0,23622.04724,0,0,0,0,0
1831.75,3584553,7.029310345,1-Jun-81,Schumer Amy,35,167.5,0,0,0,0,0,18,0,0,4,4,0,0,0,0,0,0,0,0,0,0,1,0,0,0,2,1,0,0,3,0,0,0,0,0,0.0,12505082.55,25755.82618,0,0,0,1,20
2750.1026620000002,3461017,7.455513308,1-Jun-69,Polo Teri,47,167.5,4,0,2,0,0,14,0,9,8,25,0,0,5,1,0,0,0,0,3,0,1,0,4,1,0,16,2,0,10,2,0,15,1,1,0.0,36781388.61,25755.82618,0,0,0,0,0
897.1984333999999,3493642,7.156396867000001,10-Dec-85,Raven-Symon©,31,155.0,2,0,10,13,1,28,0,0,12,6,0,0,45,10,0,0,0,0,0,0,30,4,2,0,3,2,3,0,29,2,0,1,0,0,0.0,29393367.62,26086.95652,0,0,0,0,0
411.5167394,2985743,7.33580786,18-Apr-76,Hart Melissa Joan,40,155.0,1,0,2,4,2,25,0,4,13,11,0,0,29,5,0,0,0,1,3,0,11,0,3,1,3,9,1,0,6,1,1,4,0,0,25704747.66,8009366.899,27515.86748,0,0,0,0,0
202.1794872,3797044,6.515384615,25-Aug-04,White Alice,112,157.5,1,0,1,0,0,20,0,7,5,23,0,0,0,0,1,0,0,1,0,0,1,10,3,0,0,17,0,0,7,2,0,2,0,0,0.0,8118065.653,28070.17544,0,0,0,0,0
3880.3148149999997,3277505,6.646296296,8 September 1899,McAvoy May,117,147.5,1,0,2,0,1,35,0,7,12,47,0,0,2,0,2,0,0,4,1,0,1,6,7,0,0,22,0,0,17,1,0,4,3,3,0.0,17211591.24,28070.17544,0,0,0,0,0
4254.0278880000005,2933886,7.123904382,22-Jul-92,Gomez Selena,24,162.5,1,0,7,7,5,18,0,2,13,7,0,0,30,9,0,0,0,1,0,0,34,4,0,2,9,6,0,0,17,0,3,2,0,0,24739260.69,25166898.51,28943.560060000003,0,0,0,0,0
2806.2839510000003,3416001,6.909876542999999,1-Nov-26,Palmer Betsy,90,167.5,0,0,0,0,3,10,0,3,13,14,0,0,4,1,0,4,0,1,8,0,0,2,2,1,0,3,1,0,6,1,1,2,1,1,5889522.8610000005,3087297.711,29126.21359,0,0,0,0,0
649.3,2523063,6.0525,19-Jun-32,Angeli Pier,84,150.0,3,0,7,0,2,5,0,4,4,22,0,0,0,1,0,0,0,2,3,0,1,3,2,0,0,7,1,0,2,1,0,4,2,1,0.0,19480408.9,29629.62963,0,0,1,0,75
129.7288136,3686901,6.628813559,26 May 1894,Talmadge Norma,122,160.0,0,0,1,0,0,51,0,3,12,119,0,0,2,0,0,0,0,4,0,0,0,0,1,0,0,18,0,0,125,0,0,1,0,1,0.0,0.0,30248.33333,0,0,0,0,0
3643.188679,3160957,7.183962264,28-Oct-02,Lanchester Elsa,114,160.0,2,0,5,0,3,37,0,10,13,23,0,0,8,6,5,0,0,1,12,0,2,11,9,0,0,14,4,0,9,0,0,7,1,2,0.0,10552224.75,31128.57945,0,2,1,0,135
4685.77027,2960478,7.6891891889999995,3-Aug-83,Gummer Mamie,33,170.0,0,0,0,0,2,5,0,0,2,8,0,0,1,0,0,0,0,0,1,0,0,0,0,0,2,8,0,0,4,1,0,0,0,0,0.0,4574993.402,31359.70452,0,0,0,0,0
1488.562842,2803185,7.224863387999999,12-Apr-71,Doherty Shannen,45,160.0,4,0,3,1,6,13,0,5,21,22,0,0,10,3,0,0,0,0,7,0,6,0,4,0,1,4,4,0,4,1,0,16,0,1,3342615.748,14454384.57,32134.65953,0,0,0,0,0
6946.527778,2741750,6.683333332999999,12 December 1879,Crews Laura Hope,137,160.0,0,0,2,0,3,16,0,1,0,18,0,0,0,0,0,0,0,0,0,0,3,3,2,0,0,17,0,0,0,0,0,0,1,0,0.0,17220489.3,32307.692310000002,0,0,0,0,0
3510.68254,3801000,6.79047619,20-May-58,Wiedlin Jane,58,150.0,1,0,0,3,0,9,0,1,11,5,0,0,4,3,0,1,0,1,2,0,11,3,2,0,2,3,3,0,4,0,0,1,0,0,13440.476190000001,333139.75899999996,32608.69565,0,0,0,0,0
5416.318725,3002087,7.464940239,11-Sep-70,Henson Taraji P.,46,160.0,3,0,2,4,2,19,0,5,6,22,0,0,11,1,0,0,0,2,1,0,16,4,0,2,3,8,0,0,7,3,0,4,1,0,0.0,17527962.42,34983.485010000004,0,0,0,0,0
1404.724409,3424883,7.007874016000001,20-Nov-27,Parsons Estelle,89,160.0,2,0,0,0,4,9,0,1,10,21,0,0,3,3,0,0,0,3,0,0,0,1,0,1,1,4,1,0,1,0,1,1,1,1,0.0,15014870.25,35928.143710000004,1,1,0,0,130
6742.915789,3578781,7.770526316000001,27-Jul-84,Schilling Taylor,32,170.0,0,0,0,0,0,2,0,0,0,3,0,0,1,0,0,0,0,0,0,0,3,0,2,0,0,4,2,0,4,0,1,0,0,0,4869451.362,15824210.83,36058.15666,0,0,0,0,0
635.5107527000001,3084480,7.543548387,19-Feb-93,Justice Victoria,23,162.5,0,0,3,2,0,15,0,1,1,3,0,0,11,2,0,0,0,0,2,0,14,2,1,0,7,2,0,0,7,1,2,2,0,0,9828559.98,4815132.791,37325.7744,0,0,0,0,0
2668.09375,3711478,7.644642857000001,2-Jul-85,Tisdale Ashley,31,157.5,2,0,4,11,0,22,0,0,25,6,0,0,27,2,0,1,0,0,0,0,37,9,0,1,4,6,3,0,40,2,2,0,0,0,32982178.51,11459716.38,38014.89683,0,0,0,0,0
1642.623457,2877348,7.311111111000001,14-Mar-68,Follows Megan,48,160.0,1,0,4,3,5,7,0,2,8,34,0,0,16,3,0,0,0,2,1,0,1,0,2,0,1,8,1,0,10,1,1,2,1,0,0.0,16735367.24,38118.62275,0,0,0,0,0
106.35,3647934,6.07,3-Jun-18,St. Cyr Lili,98,172.5,1,1,1,0,0,2,0,3,10,5,0,0,0,2,1,0,0,2,0,0,1,0,0,0,0,1,0,0,4,0,0,1,1,0,0.0,275158.6748,38371.84651,0,0,0,0,0
236.8341969,3410547,7.1072538860000005,22-Sep-61,Oxenberg Catherine,55,162.5,9,0,5,0,1,6,0,5,6,13,0,0,6,4,0,0,0,0,4,0,1,0,5,1,2,6,9,0,0,0,0,16,0,0,1060812.854,4419837.785,39603.9604,0,0,0,0,0
5291.623762,3224949,7.379405941,14-Jul-60,Lynch Jane,56,180.0,5,0,7,21,3,62,0,5,22,15,0,0,18,6,0,0,0,1,2,0,11,6,0,1,4,8,1,0,38,3,2,1,0,0,0.0,28429850.66,40204.24317,0,0,1,1,95
419.83333330000005,3525612,7.755208333,30-Jul-84,Rodriguez Gina,32,157.5,1,0,0,0,0,2,0,0,2,16,0,0,4,0,0,0,0,0,0,0,4,1,1,1,2,2,1,0,9,0,1,3,1,0,2919044.8019999997,17142521.97,40551.50041,0,0,0,0,0
7004.977273,2604273,6.567045455,23-Jun-72,Blair Selma,44,160.0,7,0,4,2,1,22,0,8,17,31,0,0,2,7,0,0,0,1,9,0,5,0,2,0,1,14,5,0,16,0,1,8,0,0,665685.296,23199257.03,41812.939360000004,0,0,0,0,0
3250.943038,3170497,7.190506329,22-Jan-32,Laurie Piper,84,160.0,5,0,6,0,5,15,0,5,14,47,0,0,6,4,1,0,0,1,9,0,4,1,7,0,1,11,2,0,10,1,0,10,2,4,379010.854,13071317.51,42179.261860000006,0,3,1,3,225
2069.251185,2586253,8.001421801000001,18-Dec-89,Benson Ashley,27,162.5,1,0,0,0,1,9,0,2,2,5,0,0,2,1,0,0,0,0,1,0,5,0,0,0,1,1,1,0,11,2,0,1,0,0,0.0,1664261.695,45714.285710000004,0,0,0,0,0
1159.271429,3202586,7.6319047620000005,30-Aug-46,Lipton Peggy,70,165.0,3,0,1,0,1,9,0,2,6,12,0,0,2,1,0,0,0,0,0,0,2,0,2,0,0,2,1,0,0,0,0,4,0,0,0.0,10036557.82,46206.89655,0,0,1,3,135
1004.176724,2970152,7.901724138,14-Jun-89,Hale Lucy,27,155.0,0,0,0,1,0,4,0,1,2,4,0,0,2,2,0,0,0,0,2,0,12,0,2,0,4,1,0,0,15,0,0,1,0,0,40733061.32,14467814.24,46226.65737,0,0,0,0,0
2133.933333,2521257,6.848571429,19-Mar-36,Andress Ursula,80,162.5,12,0,10,0,2,23,0,8,41,11,0,0,2,4,0,0,0,1,2,0,4,2,0,0,1,4,1,0,8,0,4,3,4,3,0.0,35463468.82,47682.119210000004,0,0,1,0,75
115.2072072,3592069,6.54954955,15-Apr-54,Seka,62,177.0,2,158,1,0,4,11,0,2,13,7,0,0,0,1,0,0,0,0,1,0,1,0,2,0,0,0,1,0,9,0,0,0,1,1,0.0,271433.7519,48582.99595,0,0,0,0,0
11745.51037,2653071,7.058921162000001,7-Dec-32,Burstyn Ellen,84,167.5,3,0,2,2,10,20,0,8,36,83,0,0,18,6,0,0,0,5,2,0,6,0,5,0,5,17,2,0,9,5,1,10,3,0,50523524.52,26451085.78,48681.541580000005,1,5,1,6,445
377.3125,3431682,6.2125,16-Nov-27,Payton Barbara,89,160.0,1,0,2,1,0,2,0,2,1,4,0,0,0,0,4,0,0,1,2,0,2,1,1,0,0,4,3,0,2,1,0,2,1,6,0.0,2769230.769,49792.53112,0,0,0,0,0
1601.779528,3024025,6.7,2 May 1885,Hopper Hedda,131,167.5,3,0,5,1,3,57,0,9,24,80,0,0,5,2,0,0,0,1,0,0,6,9,9,0,0,43,1,0,18,1,0,2,6,0,0.0,3217527.873,49792.53112,0,0,0,0,0
882.6838710000001,3520287,7.251612903,15-Oct-55,Roberts Tanya,61,171.0,7,0,5,0,0,7,0,5,10,5,0,0,1,3,0,0,0,0,3,0,2,0,2,0,0,2,1,0,3,2,0,9,0,0,13347494.9,28367135.69,50615.114239999995,0,0,0,0,0
743.0,2778635,6.902272727000001,23-Apr-42,Dee Sandra,74,160.0,0,0,0,0,1,14,0,2,2,10,0,0,3,0,0,0,0,1,1,0,3,0,0,0,0,8,0,0,1,0,0,1,1,2,0.0,12093625.85,51245.5516,0,0,1,0,75
2346.1518149999997,3266281,8.261056106,22-Sep-85,Maslany Tatiana,31,160.0,3,0,0,1,2,7,0,3,3,24,0,0,2,1,0,0,0,1,3,0,2,0,2,0,0,4,1,0,10,0,1,7,0,0,0.0,8200531.8610000005,51511.652369999996,0,0,0,0,0
873.9666667000001,3653887,6.342222222,26-Aug-87,Steele Riley,29,170.0,1,85,0,0,0,3,0,0,4,7,0,0,0,3,0,0,0,0,0,0,0,0,0,0,2,3,4,0,1,1,1,0,0,0,0.0,1547265.475,52266.1742,0,0,0,0,0
2147.788889,3074015,7.581481481,20-Sep-67,Johnston Kristen,49,180.0,1,0,0,1,0,14,0,1,4,1,0,0,3,0,0,0,0,0,0,0,3,0,0,0,1,3,1,0,1,0,0,0,0,0,0.0,33839935.96,53347.79651,0,0,0,1,20
1144.8229509999999,3142185,8.287213115,30-Dec-82,Kreuk Kristin,34,160.0,2,0,3,0,1,3,0,1,8,5,0,0,2,2,0,0,0,0,1,0,2,0,1,0,0,2,3,0,5,0,0,2,0,0,9779863.8,21261576.33,54206.6629,0,0,0,0,0
105.63157890000001,2767250,7.19,18-Oct-51,Dawber Pam,65,165.0,1,0,2,2,2,14,0,1,13,8,0,0,8,1,0,0,0,0,0,0,4,2,2,0,4,2,1,0,1,0,0,4,1,0,0.0,2439299.831,55214.72392999999,0,0,0,0,0
75.33333333,2952210,5.92,21 November 1894,Griffith Corinne,122,165.0,0,0,1,0,0,15,0,2,1,60,0,0,0,0,0,0,0,2,0,0,0,0,2,1,0,13,2,0,15,0,0,1,4,0,0.0,0.0,56250.0,0,1,0,0,30
269.5625,2613062,6.459375,6-Feb-47,Bolling Tiffany,69,162.5,1,0,0,0,0,3,0,3,1,7,0,0,0,0,0,0,0,0,3,0,0,0,2,0,0,0,2,0,1,0,0,4,0,0,0.0,991111.5955,57747.834460000005,0,0,0,0,0
5054.347267,3747513,8.025723473,12-May-86,VanCamp Emily,30,170.0,2,0,0,0,0,2,0,1,3,15,0,0,3,0,0,0,0,0,3,0,1,0,1,0,0,2,2,0,1,0,0,5,0,0,5315.061789,20735942.18,58682.57617000001,0,0,0,0,0
2719.482759,2674826,7.825670497999999,23-Jul-70,Carpenter Charisma,46,167.5,5,0,1,0,0,3,0,1,7,11,0,0,4,4,0,0,0,0,7,0,1,0,5,0,0,1,2,0,5,0,0,10,0,0,0.0,1907317.62,62182.63006,0,0,0,0,0
12925.79518,3693430,6.798795181,30-Jul-71,Taylor Christine,45,165.0,2,0,0,1,0,26,0,0,6,7,0,0,0,2,0,0,0,0,4,0,3,0,1,0,1,7,3,0,4,1,0,4,0,0,0.0,21025440.73,62500.0,0,0,0,0,0
550.7733711,3549584,7.5390934839999995,22-Feb-68,Ryan Jeri,48,170.0,3,0,2,0,0,5,0,3,7,8,0,0,1,2,0,0,0,1,2,0,0,0,1,0,1,1,5,0,5,0,0,4,0,0,107953.0,372922.7729,62717.77002999999,0,0,0,0,0
867.0610329,2747898,7.3305164320000005,4-Sep-82,Cummings Whitney,34,175.0,0,0,0,0,2,34,0,0,14,0,0,0,0,0,0,0,0,1,1,0,3,0,0,4,1,3,0,0,5,1,1,2,0,0,0.0,5398978.698,64017.355820000004,0,0,0,0,0
1008.0,2983629,7.30472973,2-Dec-25,Harris Julie,91,157.5,3,0,2,0,8,11,0,6,24,47,0,0,13,0,0,0,0,7,4,0,5,1,4,0,3,6,0,0,6,2,0,8,1,0,20517647.06,10738197.22,66115.70247999999,0,1,0,0,30
16933.475,3810680,6.85,2-Mar-80,Wilson Rebel,36,160.0,1,0,2,0,0,20,0,2,2,3,0,0,1,1,0,0,0,0,0,0,6,0,0,0,0,4,0,0,3,0,0,0,0,0,23623.243769999997,31585412.87,66965.14807000001,0,0,0,0,0
22580.19811,2577005,6.474528302,26-Jul-73,Beckinsale Kate,43,167.5,9,0,5,0,4,13,0,4,19,24,0,0,3,5,0,0,0,3,6,0,6,0,5,2,2,12,4,0,13,0,1,10,1,0,26158909.26,48368161.63,67758.32862999999,0,0,0,0,0
105.68,3471977,7.402461538,3-Jan-50,Principal Victoria,66,165.0,1,0,1,0,1,7,0,2,11,17,0,0,4,0,0,0,0,0,0,0,1,0,0,0,8,5,0,0,0,0,0,10,0,0,0.0,0.0,68068.29353,0,0,0,2,40
2416.166667,3493087,7.727419355,23-Jun-80,Rauch Melissa,36,147.5,0,0,0,1,0,9,0,0,0,3,0,0,0,0,0,0,0,0,0,0,0,0,0,0,1,1,0,0,2,0,0,0,0,0,615654.0,1883292.115,69464.54414,0,0,0,0,0
5789.116402000001,3204687,7.249206349,25-Aug-87,Lively Blake,29,175.0,1,0,1,0,0,8,0,2,10,12,0,0,3,1,0,0,0,0,3,0,2,0,0,1,0,4,1,0,16,0,0,6,0,0,49195368.03,37462407.18,69464.54414,0,0,0,0,0
741.2885714,2596323,7.6085714289999995,12-Dec-75,Bialik Mayim,41,160.0,1,0,1,5,4,14,0,0,11,1,0,0,8,0,0,0,0,1,0,0,6,1,1,0,3,1,3,0,5,0,0,0,0,0,0.0,2925259.79,69464.54414,0,0,0,0,0
843.9487178999999,3515326,6.75025641,2-Oct-70,Ripa Kelly,46,155.0,1,0,2,3,4,7,0,1,15,3,0,0,15,0,0,0,0,1,0,0,7,1,1,2,2,3,2,0,5,1,3,1,0,0,0.0,4915397.256,73034.65765,0,0,0,0,0
559.3604061000001,2519201,7.413705584,5-Aug-45,Anderson Loni,71,165.0,4,0,2,3,7,32,0,3,15,13,0,0,11,3,0,0,0,1,0,0,12,1,0,0,7,2,1,0,0,1,1,5,0,1,0.0,1705999.4309999999,73619.6319,0,0,0,3,60
1476.935705,2755091,6.742818057000001,11-Sep-61,Daily Elizabeth,55,150.0,25,0,28,41,1,43,0,3,10,17,0,0,50,18,0,0,0,0,8,0,4,4,3,1,0,5,16,0,15,2,0,5,0,0,43724969.1,18788619.55,73619.6319,0,0,0,0,0
12754.44737,3157913,6.6289473679999995,14-Nov-22,Lake Veronica,94,147.5,1,0,4,0,0,10,0,5,2,14,0,0,0,2,4,0,0,0,1,0,1,1,3,0,0,10,1,0,2,0,0,7,3,1,0.0,28005229.65,74074.07407,0,0,0,0,0
3262.223881,3389804,6.865671642000001,23 October 1880,O'Connor Una,136,155.0,3,0,3,0,1,22,0,6,2,25,0,0,3,1,0,0,0,2,2,0,0,3,3,0,0,17,2,0,0,0,0,0,2,1,0.0,7834187.4229999995,74452.55473999999,0,0,0,0,0
6283.743243,3730479,6.787162162,19-Jun-54,Turner Kathleen,62,170.0,5,0,4,7,7,30,0,9,40,23,0,0,17,5,0,0,0,2,0,0,9,2,2,0,5,18,2,0,17,0,0,5,0,0,18098352.64,32803890.8,79207.92079,0,1,2,3,240
225.8074866,3537891,7.232085561,29-Oct-72,Ross Tracee Ellis,44,167.5,0,0,0,0,0,7,0,0,5,6,0,0,14,0,0,0,0,1,0,0,12,2,0,0,3,2,0,0,2,0,0,0,0,0,0.0,6504597.382999999,81103.00081,0,0,0,0,0
4722.214575,2995089,7.06194332,25-May-69,Heche Anne,47,162.5,10,0,5,1,3,20,0,9,10,31,0,0,7,3,0,0,0,0,6,0,1,2,8,0,1,11,3,0,6,0,2,15,0,0,0.0,28062380.33,84571.65063999999,0,0,0,0,0
1582.992908,3605358,7.257919622,18-Feb-50,Shepherd Cybill,66,170.0,4,0,2,0,2,23,0,5,22,28,0,0,7,1,0,0,0,0,0,0,8,1,6,0,1,10,2,0,6,0,3,6,0,0,31506948.39,10384766.49,85107.98688,0,0,3,3,285
781.0469799,2981618,7.5755033560000005,10-Aug-72,Harmon Angie,44,172.5,3,0,1,1,1,3,0,7,3,6,0,0,3,0,0,0,0,0,0,0,3,0,2,0,2,2,1,0,1,0,0,5,0,0,0.0,43265009.43,85299.1892,0,0,0,0,0
7730.02521,3541401,7.052941176,19-Jun-30,Rowlands Gena,86,165.0,0,0,2,1,6,15,0,5,17,48,0,0,6,1,0,0,0,3,1,0,2,1,4,0,3,14,1,0,3,0,0,3,2,2,7570241.842,22482326.01,88343.55828,0,2,2,6,330
12995.77473,3197576,8.184615385,3-Aug-79,Lilly Evangeline,37,165.0,7,0,6,0,3,6,0,1,14,14,0,0,3,1,0,1,0,1,2,0,1,0,3,3,0,1,6,0,10,1,3,5,1,0,0.0,40412699.01,88935.94494,0,0,0,1,20
1217.914286,2726258,5.935,1-Feb-86,Conrad Lauren,30,162.0,0,0,0,0,1,0,0,1,0,1,0,0,0,0,0,0,0,0,0,0,5,1,0,1,3,0,0,0,0,0,0,0,0,0,0.0,3806934.749,89285.71429,0,0,0,0,0
4723.4875,2674899,7.9575,7-Dec-79,Carpenter Jennifer,37,170.0,5,0,2,2,0,6,0,4,2,7,0,0,0,0,0,0,0,0,4,0,0,0,3,0,0,0,3,0,3,0,0,11,0,0,35327118.71,11253501.08,89285.71429,0,0,0,0,0
338.32094589999997,3329275,7.309121622,15-Jun-72,Montgomery Poppy,44,160.0,0,0,0,0,3,7,0,1,1,15,0,0,2,0,0,0,0,0,0,0,2,0,2,0,0,4,1,0,4,0,0,4,0,0,0.0,18449564.48,90691.25407000001,0,0,0,0,0
26.0,2861296,7.16,19 August 1883,Ferguson Elsie,133,162.5,1,0,0,0,0,0,0,1,2,28,0,0,0,0,0,0,0,0,0,0,0,0,3,0,0,6,0,0,3,0,0,0,0,0,0.0,0.0,93750.0,0,0,0,0,0
1090.323077,3230600,6.876923077000001,1-Apr-39,MacGraw Ali,77,170.0,2,0,0,0,5,4,0,1,23,7,0,0,4,0,0,0,0,1,1,0,4,0,1,0,2,4,0,0,1,1,0,2,0,1,101274686.2,13221258.08,100738.7848,0,1,2,0,180
3398.6021509999996,3157884,6.679569892000001,21-Sep-68,Lake Ricki,48,160.0,1,0,0,0,5,19,0,5,15,9,0,0,4,1,0,0,0,1,2,0,4,2,2,0,0,5,0,0,6,0,3,5,0,0,0.0,14204799.46,101437.0245,0,0,0,0,0
2309.516949,2943167,7.95819209,16-Mar-67,Graham Lauren,49,172.5,1,0,1,1,2,27,0,1,7,11,0,0,7,2,0,0,0,0,1,0,3,0,0,0,0,8,0,0,10,0,0,2,0,0,0.0,32549294.37,104529.6167,0,0,0,1,20
1350.074341,2635040,7.638848921,6-Mar-67,Britton Connie,49,170.0,1,0,0,0,1,15,0,0,3,11,0,0,2,0,0,0,0,0,2,0,5,0,2,1,0,3,1,0,6,0,1,4,0,0,0.0,7657279.22,104532.3484,0,0,0,0,0
360.7692308,3816941,6.661538462,3-Jan-05,Wong Anna May,111,165.0,2,0,7,0,1,11,0,11,3,37,0,0,3,5,1,0,0,1,0,0,0,6,6,0,0,16,0,0,7,1,0,5,2,1,0.0,3810982.064,105109.4891,0,0,0,0,0
799.5177665,2769776,6.733502538,1-Sep-22,De Carlo Yvonne,94,160.0,12,0,19,1,4,40,0,9,9,30,0,0,3,6,3,0,0,9,10,0,4,14,2,1,2,23,3,0,9,2,0,10,8,22,0.0,18804289.61,110579.8319,0,0,0,0,0
11463.82482,3453717,7.08649635,18-Sep-71,Pinkett Smith Jada,45,150.0,6,0,7,6,6,18,0,4,32,12,0,0,17,4,0,0,0,0,3,0,22,1,1,2,6,5,2,0,16,1,1,4,0,0,66053940.55,49557383.42,111868.8152,0,0,0,0,0
6147.169972,2788781,7.517563739,17-Jan-80,Deschanel Zooey,36,162.5,0,0,5,2,2,26,0,1,14,14,0,0,5,4,0,0,0,0,0,0,10,2,1,1,0,10,2,0,14,1,4,2,1,0,120509.5238,36394125.09,112030.3727,0,0,0,0,0
875.3201754,3605946,7.314035088,21-Nov-63,Sheridan Nicollette,53,167.5,7,0,1,2,1,17,0,7,9,14,0,0,7,2,0,0,0,0,1,0,3,0,5,1,1,7,5,0,4,2,0,16,0,0,0.0,14137740.9,112440.4447,0,0,0,1,20
9941.605081,3059214,7.520092378999999,19-Nov-59,Janney Allison,57,180.0,4,0,6,5,2,35,0,2,16,36,0,0,11,1,0,0,0,0,0,0,2,0,2,3,4,16,1,0,20,0,1,2,1,0,0.0,33884655.36,114809.7335,0,0,0,4,80
2192.782341,2631489,7.949897331,22-Jun-64,Brenneman Amy,52,165.0,3,0,2,0,0,6,0,4,9,19,0,0,2,2,0,0,0,0,0,0,2,0,1,0,0,6,0,0,6,0,0,6,0,0,4273177.702,52690706.35,115774.2402,0,0,0,3,60
249.84375,2599473,5.70625,13-Jan-68,Bingham Traci,48,167.5,3,0,1,0,1,10,0,1,8,2,0,0,1,1,0,3,0,0,0,0,5,1,0,1,4,2,0,0,4,2,0,2,0,0,0.0,2104181.5730000003,115774.2402,0,0,0,0,0
135.74846630000002,3791750,6.849693252000001,18-Oct-38,Wells Dawn,78,160.0,1,0,4,2,0,15,0,2,11,5,0,0,4,1,0,1,0,0,3,0,0,0,3,0,1,1,2,0,3,1,0,2,0,2,0.0,92500.0,116622.9962,0,0,0,0,0
1203.219873,3346804,7.317547568999999,12-Nov-58,Mullally Megan,58,160.0,0,0,0,5,0,31,0,2,11,7,0,0,11,2,0,0,0,1,0,0,6,1,0,2,0,6,1,0,9,1,1,0,0,0,0.0,19024090.19,117791.411,0,0,0,4,80
1498.6336210000002,2723782,8.059913793,3-Dec-73,Combs Holly Marie,43,155.0,1,0,0,0,2,5,0,2,8,16,0,0,3,1,0,0,0,1,3,0,1,0,2,0,0,5,2,0,4,1,0,6,1,1,0.0,39601111.06,118773.0061,0,0,0,0,0
11.0,3673846,7.0,28 June 1882,Suratt Valeska,134,170.0,0,0,0,0,0,0,0,2,0,10,0,0,0,1,0,0,0,0,0,0,0,0,0,0,0,1,1,0,0,0,0,0,0,1,0.0,0.0,118811.8812,0,0,0,0,0
14408.973680000001,2699973,7.689473684,27-Jan-70,Cheung Cindy,46,172.5,2,0,1,0,0,6,0,0,1,11,0,0,3,1,0,0,0,1,0,0,0,0,1,0,0,2,1,0,9,0,0,1,0,0,0.0,104974105.7,119047.619,0,0,0,0,0
134.2941176,3153190,6.723529412,28 July 1896,La Marr Barbara,120,160.0,2,0,2,0,0,6,0,1,5,22,0,0,0,0,0,0,0,3,0,0,0,0,1,0,0,9,0,0,4,0,0,0,1,2,0.0,4142666.667,120000.0,0,0,0,0,0
58.17832957,2848102,7.490970655,18-Nov-42,Evans Linda,74,170.0,3,0,2,0,2,12,0,4,10,15,0,0,11,2,0,1,0,0,0,0,5,2,1,0,8,6,0,0,1,1,0,3,0,3,0.0,24249352.12,121452.1452,0,0,1,4,155
1678.012346,2727654,7.161419753,22-Jul-78,Cook A.J.,38,162.5,4,0,0,0,0,4,0,2,37,9,0,0,1,3,0,0,0,0,7,0,0,0,1,0,1,2,2,0,40,1,0,7,0,0,0.0,15729903.96,122887.8648,0,0,0,0,0
4058.16875,3723790,7.0575,10-Jun-63,Tripplehorn Jeanne,53,167.5,0,0,0,0,2,12,0,7,4,16,0,0,1,1,0,0,0,1,1,0,0,0,2,1,0,7,0,0,3,0,0,6,0,0,1678.1498989999998,32485587.91,122887.8648,0,0,0,0,0
7515.2125,3105845,6.69375,12-Nov-29,Kelly Grace,87,165.0,1,0,2,0,8,5,0,3,42,11,0,0,6,1,0,0,0,2,0,0,10,3,3,0,0,7,0,0,11,0,1,4,1,1,0.0,8734858.837000001,124907.0632,1,1,2,0,280
493.972973,2791858,7.297747748,23-Apr-49,DeWitt Joyce,67,157.5,1,0,1,0,2,14,0,0,9,7,0,0,7,0,0,2,0,1,0,0,5,2,0,0,5,0,1,0,5,2,0,0,0,0,0.0,8512310.335,126537.7856,0,0,0,0,0
589.3478261,3638123,6.76548913,16-Oct-46,Somers Suzanne,70,162.5,3,0,0,0,5,22,0,6,25,10,0,0,6,2,0,3,0,0,3,0,12,2,4,0,8,5,0,0,4,4,1,9,0,0,0.0,13550067.61,126537.7856,0,0,0,1,20
3551.7304689999996,2548772,7.322265625,16-Sep-24,Bacall Lauren,92,170.0,2,0,4,3,29,25,0,13,105,40,0,0,17,1,3,0,0,9,1,0,17,3,9,1,18,15,0,0,16,2,0,13,3,1,0.0,16678379.0,136217.3854,0,1,1,0,105
4058.72,3513381,7.984,4-Apr-83,Righetti Amanda,33,170.0,0,0,0,0,0,2,0,1,2,6,0,0,1,0,0,0,0,0,4,0,0,0,0,0,1,1,0,0,5,0,0,4,0,0,0.0,4999380.505,138483.0197,0,0,0,0,0
684.089701,3086278,7.601993355,21-Dec-55,Kaczmarek Jane,61,165.0,1,0,0,0,3,15,0,0,8,17,0,0,3,3,0,0,0,0,1,0,1,0,1,1,4,3,1,0,2,0,0,2,0,0,0.0,17911974.38,139372.8223,0,0,0,3,60
62.97435897,3801659,7.828205128,24-Jun-77,Wiglesworth Kelly,39,167.5,0,0,1,0,0,0,0,0,2,0,0,0,0,0,0,1,0,0,0,0,0,0,0,0,1,0,0,0,0,0,0,0,0,0,0.0,0.0,139372.8223,0,0,0,0,0
5211.386364,3547669,7.4781818179999995,23-Mar-76,Russell Keri,40,160.0,5,0,4,1,1,8,0,1,6,15,0,0,9,2,0,0,0,2,3,0,3,0,1,1,1,6,4,0,7,0,0,6,2,0,14074193.87,44456464.4,141657.044,0,0,1,0,75
132.878453,2534209,6.783977901,17-Jul-51,Arnaz Lucie,65,172.5,0,0,0,1,5,15,0,3,32,8,0,0,12,1,0,0,0,3,1,0,9,3,1,2,6,4,0,0,16,1,0,1,1,0,0.0,9443829.522,145287.3563,0,0,0,1,20
5861.945205,3284742,7.42283105,5-Sep-73,McGowan Rose,43,160.0,10,0,1,4,4,14,0,5,15,11,0,0,4,11,0,0,0,0,8,0,18,0,1,0,1,1,3,0,17,1,0,15,0,2,4425373.83,25480999.16,150184.0491,0,0,0,0,0
5516.95122,3791186,7.146341463,27-Aug-43,Weld Tuesday,73,157.5,2,0,0,0,3,16,0,6,3,30,0,0,3,0,1,0,0,1,1,0,2,2,1,0,2,10,0,0,0,0,0,6,1,0,0.0,19672808.4,152619.1204,0,1,1,1,125
1107.264045,3809380,7.9980337079999995,27-Aug-69,Wilson Chandra,47,150.0,0,0,0,0,2,5,0,0,8,8,0,0,7,0,0,0,0,1,0,0,1,1,0,1,3,0,0,0,1,0,0,0,0,0,0.0,6959139.857999999,153609.831,0,0,0,0,0
1530.533333,2589721,7.287777778,28-Jul-72,Berkley Elizabeth,44,175.0,5,0,2,1,2,13,0,6,8,11,0,0,4,1,0,0,0,0,1,0,2,0,5,0,1,6,3,0,6,0,1,10,0,0,20606880.35,9699833.879,157480.315,0,0,0,0,0
5010.401825999999,2908910,6.8264840179999995,11-Dec-47,Garr Teri,69,167.5,7,0,8,5,5,64,0,11,32,36,0,0,13,7,0,0,0,3,2,0,15,8,8,0,0,16,7,0,10,4,0,15,1,0,8894621.598,25909123.13,158415.8416,0,1,0,0,30
738.8295739,2782032,7.4822055139999994,13-Mar-56,Delany Dana,60,165.0,11,0,10,7,9,13,0,5,13,37,0,0,10,3,0,0,0,2,1,0,4,0,1,0,4,7,6,0,8,1,0,8,2,1,11079465.59,7268419.182999999,160043.3895,0,0,0,0,0
744.9757174,3644235,6.582339956,16-May-73,Spelling Tori,43,165.0,1,0,1,1,4,15,0,2,11,9,0,0,5,2,0,0,0,0,1,0,9,0,1,0,9,2,2,0,5,0,1,6,0,0,1494099.136,750423.9855,161943.3198,0,0,0,0,0
275.2635135,2810445,7.871621622,6-May-60,Downey Roma,56,160.0,3,0,1,1,3,4,0,5,11,12,0,0,4,2,0,0,0,2,0,0,1,0,0,0,0,5,1,0,1,0,1,3,0,0,0.0,13270555.55,161943.3198,0,0,0,2,40
377.19047620000003,2585267,6.425396825,22-Oct-04,Bennett Constance,112,160.0,1,0,2,0,2,25,0,2,16,37,0,0,0,2,1,0,0,2,0,0,2,2,1,0,1,24,0,0,13,3,0,2,4,3,0.0,6394904.068,163265.3061,0,0,0,0,0
6384.158536999999,2873480,6.619512195,10-Aug-23,Fleming Rhonda,93,165.0,5,0,11,0,4,13,0,13,16,25,0,0,3,1,7,0,0,3,1,0,4,7,5,1,2,19,1,0,15,1,0,9,2,13,0.0,16079891.13,170818.5053,0,0,0,0,0
3098.590909,3781519,7.0806818179999995,15-Apr-76,Ward Susan,40,160.0,0,0,0,0,0,7,0,1,3,9,0,0,1,1,0,0,0,0,1,0,2,0,3,0,0,5,0,0,1,2,0,6,0,0,7271774.216,15705553.84,193768.5265,0,0,0,0,0
2547.107527,2795559,6.917921147,30-Sep-31,Dickinson Angie,85,162.5,12,0,5,0,15,46,0,17,48,39,0,0,14,1,1,0,0,3,2,0,18,5,8,0,17,12,2,0,9,0,3,16,3,13,0.0,17787015.57,194726.1663,0,0,2,3,210
13130.86667,3546934,6.713333333,12-May-97,Rush Odeya,19,162.5,1,0,1,0,1,8,0,0,0,8,0,0,2,2,0,0,0,0,1,0,0,0,0,0,0,1,1,0,4,0,1,1,0,0,0.0,27554434.84,202517.11899999998,0,0,0,0,0
4610.896739,3183715,6.931521739,6-Jul-27,Leigh Janet,89,162.5,7,0,8,0,16,33,0,9,54,35,0,0,12,2,3,0,0,3,10,0,13,5,5,1,5,18,2,0,4,3,0,16,4,3,55789776.99,20217855.07,202702.7027,0,1,1,0,105
3982.85124,2734347,7.507438017,14-May-93,Cosgrove Miranda,23,165.0,1,0,11,10,1,13,0,1,8,3,0,0,19,1,0,0,0,0,0,0,22,1,0,2,5,1,5,0,17,0,5,1,0,0,0.0,51450523.11,208393.6324,0,0,0,0,0
1988.239609,2622994,7.744498778,3-Mar-70,Bowen Julie,46,165.0,1,0,1,2,0,17,0,1,1,6,0,0,4,1,0,0,0,0,1,0,2,0,0,0,0,5,1,0,3,1,0,2,0,0,0.0,19354232.7,212550.7488,0,0,0,0,0
278.66037739999996,3640995,6.571698112999999,22-Jan-09,Sothern Ann,107,152.5,5,0,3,0,2,44,0,10,8,32,0,0,3,1,2,0,0,0,3,0,4,20,6,0,0,17,0,0,9,2,0,5,3,1,0.0,9478827.473,213523.1317,0,1,0,1,50
3954.6390979999996,2771091,7.137593985,1-Jul-16,de Havilland Olivia,100,160.0,5,0,9,0,8,23,0,5,33,32,0,0,3,1,3,0,0,8,4,0,2,2,6,0,2,30,0,0,13,1,0,9,4,5,81583575.9,24151796.18,216214.4349,2,3,0,0,290
795.9515418999999,3448481,7.409251101000001,10-Nov-59,Phillips Mackenzie,57,167.5,1,0,0,1,5,10,0,2,14,18,0,0,7,1,0,0,0,1,0,0,5,1,0,0,1,4,0,0,4,1,0,0,2,0,0.0,3485378.13,223048.3271,0,0,0,0,0
565.8421053,3279448,7.465384615,21-Feb-34,McClanahan Rue,82,157.5,1,0,3,3,11,31,0,4,19,33,0,0,18,3,0,0,0,2,0,0,6,5,4,0,2,7,0,0,4,1,0,4,0,0,0.0,816926.337,223048.3271,0,0,0,3,60
14948.1875,3540261,7.21875,1-Feb-87,Rousey Ronda,29,167.5,7,0,0,0,2,1,0,0,8,2,0,0,1,0,0,0,0,0,0,0,0,0,0,0,0,0,0,0,5,14,0,1,0,0,0.0,434576.8334,232894.6869,0,0,0,0,0
1616.801829,2496760,6.6,18-Dec-80,Aguilera Christina,36,155.0,0,0,1,2,3,10,0,1,33,3,0,0,10,0,0,0,0,2,0,0,79,9,0,1,2,1,1,0,4,4,1,0,0,0,0.0,32231208.04,240065.0843,0,0,0,0,0
67.30769231,3509090,6.861538462,4-Oct-41,Rice Anne,75,155.0,0,0,0,0,1,0,0,0,8,0,0,0,0,0,0,0,0,0,0,0,0,0,0,0,0,0,0,0,3,0,1,0,0,0,0.0,900108.4739,242914.9798,0,0,0,0,0
3240.872727,3778286,7.550606061,13-Oct-67,Walsh Kate,49,170.0,1,0,1,1,1,14,0,4,12,13,0,0,4,3,0,0,0,2,3,0,7,0,2,1,0,3,0,0,10,2,1,7,0,0,0.0,15258124.1,247895.9875,0,0,0,0,0
29610.45455,3071026,6.7490909089999995,4-Oct-89,Johnson Dakota,27,167.5,2,0,1,0,1,6,0,3,2,14,0,0,2,1,0,0,0,0,1,0,1,0,0,0,1,6,0,0,5,0,0,4,0,0,107535954.7,32063614.89,253146.3988,0,0,0,0,0
2938.7553190000003,3722793,6.756382979,8-Mar-10,Trevor Claire,106,157.5,3,0,7,0,2,20,0,18,13,45,0,0,5,1,11,0,0,2,0,0,3,1,6,0,2,12,0,0,9,3,0,7,2,13,12949640.29,13823435.17,258992.8058,1,2,0,0,160
896.1565934,3400547,6.9068681320000005,13-Jun-86,Olsen Ashley,30,157.5,1,0,5,0,3,22,0,6,10,1,0,0,27,2,0,0,0,0,2,0,9,1,0,0,0,6,0,0,17,1,0,0,0,1,17810520.7,48966505.69,264084.507,0,0,0,0,0
6841.193276999999,2758000,7.5352941179999995,12-Apr-79,Danes Claire,37,162.5,5,0,1,2,4,8,0,4,28,23,0,0,5,2,0,0,0,0,0,0,9,0,2,1,3,11,4,0,20,0,2,7,0,0,24534807.12,38859398.31,266738.9826,0,0,2,0,150
10847.59375,2804384,6.8375,17-Jul-76,Dominczyk Dagmara,40,165.0,3,0,1,0,1,4,0,2,2,10,0,0,0,1,0,0,0,2,2,0,0,0,2,0,0,2,0,0,3,0,0,6,1,0,0.0,16181046.97,266814.8972,0,0,0,0,0
2096.253508,3100044,7.408980355,7-Sep-50,Kavner Julie,66,167.5,10,0,14,21,2,52,0,3,11,12,0,0,5,7,0,0,0,0,0,0,5,0,4,0,0,6,8,0,13,6,0,1,0,0,4998592.73,39273185.57,293548.3871,0,0,0,4,80
1868.885332,2678822,7.33473483,25-Oct-57,Cartwright Nancy,59,150.0,25,0,44,73,2,86,0,6,11,11,0,0,40,20,0,1,0,1,0,0,8,5,8,0,2,3,20,0,23,10,0,3,0,0,0.0,37218673.41,293548.3871,0,0,0,0,0
23334.68485,3420208,7.36,24-Jul-82,Paquin Anna,34,160.0,9,0,11,3,1,8,0,2,19,23,0,0,7,6,0,0,0,3,3,0,3,0,2,0,0,7,9,0,13,0,0,9,2,1,12039138.55,65719000.8,306544.73,1,0,1,4,255
36.9,3398311,6.03,14-Sep-72,Oldham Christy,44,162.5,1,0,1,0,0,2,0,2,1,3,0,0,0,0,0,0,0,0,2,0,0,0,0,0,1,0,0,0,3,0,0,0,0,0,0.0,440246.4971,309069.9142,0,0,0,0,0
999.5837104,3104838,6.621266968,2-Jun-37,Kellerman Sally,79,175.0,3,0,6,1,7,33,0,4,27,26,0,0,9,6,0,0,0,3,3,0,3,4,5,0,0,12,2,0,8,2,2,10,4,1,4536397.183,9026700.514,309278.3505,0,1,0,1,50
4677.088235,2553218,6.402941176000001,28-May-31,Baker Carroll,85,162.5,3,0,2,0,8,19,0,6,24,38,0,0,3,0,0,0,0,3,7,0,2,1,11,0,1,15,1,0,4,1,1,18,2,8,100081.3043,31827780.7,315568.8623,0,1,2,1,200
340.9090909,3247350,6.377922077999999,19-Apr-33,Mansfield Jayne,83,168.0,0,1,4,0,6,18,0,6,40,16,0,0,2,3,4,0,0,0,0,0,5,4,1,1,2,3,0,0,6,0,0,5,1,1,0.0,1742821.9730000002,317241.7819,0,0,1,1,95
5822.49359,3331909,6.63525641,10-Apr-84,Moore Mandy,32,175.0,3,0,4,4,2,22,0,1,18,10,0,0,18,5,0,0,0,1,1,0,22,2,2,1,2,12,1,0,9,0,0,1,0,0,63730604.57,32827389.24,333518.6215,0,0,0,0,0
116.6413994,2922412,7.61516035,8-May-64,Gilbert Melissa,52,160.0,1,0,0,1,7,7,0,1,21,47,0,0,16,3,0,1,0,0,0,0,1,0,5,1,3,10,1,0,1,1,0,11,0,4,0.0,3075368.692,365111.5619,0,0,0,1,20
2457.6923079999997,2536434,7.015384615,17-Oct-00,Arthur Jean,116,157.5,4,0,3,0,9,41,0,8,12,37,0,0,0,1,0,0,0,3,0,0,0,2,5,0,0,32,0,0,14,0,0,2,2,28,96806722.69,14852555.01,372925.7457,0,1,0,0,30
418.4102564,3697661,6.932692307999999,23-Apr-28,Temple Shirley,88,155.0,0,0,5,0,8,39,0,0,50,25,0,0,28,6,0,0,0,3,0,0,6,15,0,1,4,13,0,0,25,0,2,0,4,4,0.0,20928022.78,375437.19899999996,0,0,0,0,0
5150.5263159999995,3207154,6.197368421,28-May-44,Locke Sondra,72,160.0,5,0,1,0,1,4,0,4,2,12,0,0,0,1,0,0,0,0,3,0,0,0,2,0,1,2,1,0,2,0,0,5,0,3,0.0,23464990.49,387867.049,0,1,0,2,70
14402.64615,3842878,6.087692307999999,9-Feb-79,Zhang Ziyi,37,162.5,10,0,5,2,1,8,0,2,13,20,0,0,5,5,0,1,0,8,1,0,6,1,3,1,0,15,3,0,4,0,2,3,5,0,456424.0731,31309083.43,393321.7363,0,0,0,1,20
13183.7482,2993418,6.926618705,17-Oct-18,Hayworth Rita,98,165.0,7,0,11,0,5,27,0,17,37,45,0,0,1,3,3,0,0,7,1,0,7,15,12,0,0,29,0,0,10,3,0,5,3,9,31702131.35,16874591.32,400363.4117,0,0,0,1,20
23892.83333,3777781,6.841666667,28-Aug-03,Wallis Quvenzhan©,113,147.5,0,0,1,1,1,3,0,0,2,8,0,0,4,1,0,0,0,1,0,0,2,3,0,0,4,0,0,0,3,0,1,0,0,0,13363830.41,13245410.43,400422.0282,0,0,0,0,0
1610.897436,3390734,6.534188034,17-Aug-20,O'Hara Maureen,96,167.5,5,0,14,0,11,14,0,6,22,39,0,0,7,3,2,0,0,5,0,0,3,5,2,0,5,21,0,0,5,2,0,3,6,11,16966175.38,17821458.66,407289.0588,0,0,0,0,0
90.29032258,2763637,6.130645161,15-Jun-59,Davidson Eileen,57,167.5,3,0,0,0,1,3,0,0,0,7,0,0,1,0,0,0,0,1,1,0,0,0,1,0,1,1,1,0,1,0,0,3,0,0,0.0,800948.7427,412798.2532,0,0,0,0,0
26089.0,2994269,6.571666667000001,22-Apr-86,Heard Amber,30,167.5,6,0,3,0,3,8,0,6,3,14,0,0,0,2,0,0,0,0,5,0,2,0,2,0,0,3,4,0,6,1,0,9,0,0,0.0,18832381.61,421911.0022,0,0,0,0,0
2628.6410960000003,3395940,7.732876712,20-Jul-71,Oh Sandra,45,165.0,1,0,4,5,0,18,0,6,20,28,0,0,10,2,0,0,0,1,1,0,4,2,3,2,1,8,1,0,15,0,0,7,1,0,1195894.488,7640231.683999999,430107.5269,0,0,1,0,75
3247.70122,3461544,7.997865854,10-Nov-69,Pompeo Ellen,47,165.0,2,0,0,0,0,7,0,3,6,8,0,0,0,1,0,0,0,0,0,0,1,1,0,2,1,2,1,0,6,1,0,3,0,0,0.0,28094645.44,430107.5269,0,0,0,1,20
3451.964912,3121362,6.182807017999999,31-Oct-41,Kirkland Sally,75,172.5,14,0,3,0,8,62,0,16,31,83,0,0,22,3,0,0,0,3,17,0,12,3,12,0,3,24,7,0,42,2,2,31,0,4,37573564.95,4290824.77,432432.4324,0,1,1,1,125
917.0,3691794,7.25,24-Jan-43,Tate Sharon,73,165.0,1,0,4,0,10,5,0,5,29,5,0,0,0,0,0,0,0,3,2,0,2,0,1,0,0,1,0,0,7,0,1,1,2,0,0.0,20720748.42,433729.0935,0,0,0,1,20
6165.983871,2943451,6.835483871,28-Nov-23,Grahame Gloria,93,165.0,2,0,4,0,0,10,0,12,2,24,0,0,3,1,11,0,0,0,3,0,2,4,4,0,0,13,1,0,3,0,0,11,1,5,0.0,14222868.04,452830.1887,1,1,0,1,150
27639.390239999997,3336089,6.885365854,10-Feb-97,Moretz Chlo_ Grace,19,160.0,6,0,6,5,1,16,0,8,5,20,0,0,6,8,0,0,0,1,10,0,9,1,6,0,1,4,2,0,21,0,2,9,0,0,28474751.1,31203848.28,456204.3796,0,0,0,0,0
6715.189189,3458015,6.760810811,28-Oct-29,Plowright Joan,87,160.0,0,0,8,1,5,20,0,4,5,42,0,0,10,3,0,0,0,2,0,0,4,1,4,0,0,8,0,0,1,1,1,6,3,0,285968.6186,76080633.33,459066.5647,0,1,2,0,180
1456.848101,3371528,7.153164557,26-Sep-48,Newton-John Olivia,68,165.0,1,0,1,2,3,19,0,0,47,6,0,0,12,6,0,2,0,3,0,0,86,20,0,2,6,7,1,0,9,4,4,0,0,0,2874703.8060000003,12820242.13,460122.6994,0,0,0,1,20
46244.6129,3242679,6.9440860220000005,21-Nov-84,Malone Jena,32,162.5,2,0,2,2,3,8,0,2,16,39,0,0,1,1,0,0,0,2,3,0,6,0,3,0,1,5,2,0,22,1,1,8,2,1,40547707.66,34558216.66,478527.6074,0,0,0,1,20
480.2909091,2757847,6.894545455,9-Nov-22,Dandridge Dorothy,94,162.5,1,0,4,0,2,14,0,8,11,18,0,0,3,0,0,0,0,2,0,0,10,14,2,0,0,12,0,0,7,3,0,0,1,2,0.0,20662897.45,482225.9056,0,1,0,1,50
1470.8225109999998,2748586,7.150865801,30-Nov-85,Cuoco Kaley,31,165.0,1,0,3,4,2,16,0,0,4,8,0,0,6,2,0,1,0,0,2,0,14,2,2,2,7,2,1,0,7,1,1,3,0,1,0.0,12244474.09,486251.809,0,0,0,0,0
6392.979592000001,2518895,7.063265306,10 February 1897,Anderson Judith,119,165.0,1,0,2,0,3,9,0,4,8,31,0,0,3,2,5,0,0,2,2,0,1,2,6,0,2,13,0,0,3,0,0,9,3,4,0.0,13825462.76,486486.4865,0,1,0,0,30
34462.48485,2853853,6.93030303,9-Apr-98,Fanning Elle,18,172.5,4,0,2,2,3,8,0,3,3,22,0,0,6,7,0,0,0,0,2,0,6,2,3,1,2,5,4,0,10,0,0,4,0,2,3103121.6610000003,35250953.87,513457.8241,0,0,0,0,0
9596.190789,3226281,6.998026316,4-Apr-79,Lyonne Natasha,37,157.5,0,0,2,0,2,35,0,1,5,24,0,0,0,3,0,0,0,0,7,0,1,0,3,0,2,7,0,0,9,0,0,7,0,0,5567588.545,13563753.07,522661.742,0,0,0,0,0
4969.54,3497101,8.082857143,30-Jan-37,Redgrave Vanessa,79,180.5,4,0,8,2,18,8,0,5,34,84,0,0,13,4,0,0,0,14,3,0,7,2,10,0,0,23,1,0,14,3,1,13,5,0,1887431.979,30830354.58,525118.3555,1,5,2,11,620
6249.1,2568198,7.0752941179999995,24-Jan-86,Barton Mischa,30,172.5,4,0,0,1,2,5,0,7,9,23,0,0,9,0,0,0,0,1,12,0,3,1,4,0,2,11,0,0,3,1,0,16,0,0,2382280.735,4925615.714,533477.9651,0,0,0,0,0
559.3150684999999,3393375,6.617808219,19-Feb-11,Oberon Merle,105,155.0,1,0,2,0,5,19,0,4,8,34,0,0,3,2,3,0,0,3,1,0,3,3,2,0,1,19,0,0,1,0,0,5,3,1,10254630.22,26144437.37,544065.9638,0,1,0,0,30
1051.474432,3732198,7.429261363999999,18-Sep-70,Tyler Aisha,46,180.0,2,0,1,0,1,23,0,4,19,5,0,0,7,0,0,1,0,3,0,0,11,2,0,3,2,1,0,0,14,1,5,3,0,0,0.0,5252103.533,550317.3497,0,0,0,0,0
198.33190580000002,2722115,7.148179872,23-May-33,Collins Joan,83,160.0,2,0,7,1,12,45,0,16,45,38,0,0,23,3,2,1,0,5,6,0,12,7,6,4,13,18,7,0,8,2,2,11,1,2,7248069.637,14112314.67,552302.6568,0,0,1,5,175
581.4316547000001,2980820,7.8075539570000005,23-Jan-64,Hargitay Mariska,52,172.0,3,0,1,0,2,11,0,6,9,9,0,0,3,1,0,0,0,1,3,0,6,1,1,1,0,4,0,0,5,3,0,4,0,1,0.0,21878524.46,566626.6507,0,0,1,1,95
2792.791667,2574253,7.243055556,19-Dec-63,Beals Jennifer,53,173.0,8,0,3,1,4,17,0,8,16,35,0,0,6,4,0,0,0,2,4,0,4,0,6,0,1,10,3,0,8,2,0,17,1,0,228674698.8,15275811.71,587741.2998,0,0,0,1,20
32660.75455,2964035,6.764545455,16-Nov-77,Gyllenhaal Maggie,39,172.5,2,0,0,1,2,15,0,3,20,25,0,0,5,2,0,0,0,1,0,0,4,0,1,1,1,7,1,0,9,0,0,7,0,0,12566555.93,37207925.87,595238.0952,0,1,0,2,70
183.5873016,3223182,7.485714286,23-Oct-85,Lusha Masiela,31,162.5,3,0,1,0,0,3,0,1,2,9,0,0,5,1,0,0,0,1,4,0,1,1,1,0,0,1,2,0,3,0,1,6,1,0,0.0,825959.5434,600333.5186,0,0,0,0,0
3764.042553,3589736,6.612765957000001,13-Nov-38,Seberg Jean,78,157.5,4,0,2,0,5,7,0,7,12,28,0,0,0,0,0,0,0,0,1,0,0,1,1,0,1,5,0,0,5,0,0,9,0,2,370589.2064,50559888.5,618556.701,0,0,0,1,20
14626.676469999999,2834259,6.197058824,7-Sep-73,Elizabeth Shannon,43,172.5,4,0,2,0,2,21,0,2,11,12,0,0,5,0,0,1,0,0,4,0,7,1,3,0,0,4,2,0,9,2,0,5,0,0,0.0,13479285.85,627194.0904,0,0,0,0,0
2732.555556,3226258,6.3888888889999995,10-Jul-46,Lyon Sue,70,157.5,1,0,0,0,1,5,0,2,4,6,0,0,2,0,0,0,0,1,2,0,0,0,1,0,1,2,2,0,1,0,2,5,0,1,0.0,14561361.23,630143.923,0,0,1,0,75
2150.5378149999997,3242650,6.7218487389999995,30-Jan-25,Malone Dorothy,91,165.0,3,0,0,0,5,13,0,12,6,32,0,0,3,0,7,0,0,1,3,0,0,12,11,0,4,17,2,0,2,0,0,10,2,18,0.0,18391695.0,639216.1532,1,0,0,3,160
555.4375,2609126,6.6875,16-Aug-28,Blyth Ann,88,155.0,2,0,6,0,5,14,0,3,6,19,0,0,2,4,3,0,0,2,0,0,6,3,3,0,0,13,0,0,4,0,0,1,1,2,4280597.015,17607520.8,640569.395,0,1,0,0,30
1823.1899440000002,3791103,6.684357542000001,5-Sep-40,Welch Raquel,76,165.0,4,0,9,1,5,38,0,10,40,20,0,0,16,5,0,0,0,8,2,0,16,6,4,1,7,9,2,0,12,4,4,5,3,4,57485029.94,21205866.27,652844.2318,0,0,1,1,95
543.6896552000001,3222883,7.1333333329999995,4-Feb-18,Lupino Ida,98,160.0,4,0,6,0,2,22,0,23,9,46,0,0,3,1,14,0,0,0,2,0,4,8,6,0,0,14,2,0,3,2,0,9,1,4,0.0,10774119.24,653061.2245,0,0,0,0,0
561.2962963,3038054,7.005555556,26-Feb-21,Hutton Betty,95,160.0,0,0,0,0,5,21,0,2,10,3,0,0,2,1,0,0,0,0,0,0,13,19,2,0,0,15,0,0,11,0,0,0,3,1,172149353.3,11934967.56,653461.3577,0,0,0,1,20
11.0,2997699,8.5,8 March 1872,Held Anna,144,152.5,0,0,0,0,0,1,0,0,5,1,0,0,0,0,0,0,0,0,0,0,1,0,0,1,0,0,0,0,5,0,0,0,0,0,0.0,0.0,660550.4587,0,0,0,0,0
56037.904760000005,3027829,7.050793651,2-Mar-81,Howard Bryce Dallas,35,167.5,4,0,8,0,3,7,0,0,10,17,0,0,3,3,0,0,0,1,0,0,0,1,2,0,0,4,3,0,15,0,0,3,0,0,55125526.16,88155357.25,674159.7136,0,0,0,1,20
1615.9102990000001,3164453,7.48089701,16-Oct-25,Lansbury Angela,91,170.0,2,0,9,10,14,27,0,15,71,49,0,0,38,9,3,1,0,5,3,0,29,21,14,0,42,13,0,0,20,1,1,8,2,2,55173914.86,26331406.24,692974.0135,0,3,6,9,720
2070.559809,3334682,6.736363636,23-Jan-28,Moreau Jeanne,88,157.5,0,0,4,1,11,27,0,13,65,93,0,0,1,2,0,0,0,7,0,0,4,2,5,1,0,22,1,0,14,0,0,7,10,4,302941.8835,10964932.47,724440.7452,0,0,0,0,0
373.6923077,3364540,6.942307692000001,22 May 1879,Nazimova Alla,137,157.5,0,0,0,0,2,1,0,0,7,23,0,0,0,0,0,0,0,3,1,0,0,0,0,0,0,6,0,0,5,1,0,0,1,0,0.0,13465314.66,763861.7170000001,0,0,0,0,0
10155.6,3404529,7.377999999999999,4-Jan-65,Ormond Julia,51,167.5,3,0,1,0,8,4,0,4,8,24,0,0,4,3,0,0,0,8,1,0,1,0,3,0,1,6,3,0,4,0,0,7,5,1,1937193.118,44355831.39,769698.4376,0,0,0,0,0
14050.520230000002,2721344,6.972254335,1-Nov-72,Collette Toni,44,170.0,3,0,4,3,2,33,0,9,16,38,0,0,5,1,0,1,0,0,3,0,6,0,5,1,1,15,0,0,10,0,0,9,1,0,312880.7322,22491457.79,771799.7676,0,1,1,4,185
2640.242424,3391573,7.121212121,5-Nov-63,O'Neal Tatum,53,167.5,1,0,0,0,3,8,0,2,9,19,0,0,4,0,0,0,0,0,1,0,1,0,0,0,0,2,0,0,1,3,0,3,0,0,42953580.82,12428330.26,781380.3258,1,0,1,1,195
18145.11927,3675269,6.58440367,13-Feb-79,Suvari Mena,37,160.0,5,0,2,0,4,19,0,10,6,21,0,0,2,0,0,0,0,1,3,0,2,2,3,1,0,8,0,0,5,0,0,10,0,0,49208.23337,23480919.84,783992.613,0,0,0,0,0
1184.848485,2566967,6.842424242000001,15 August 1879,Barrymore Ethel,137,167.5,0,0,0,0,1,5,0,5,9,32,0,0,1,2,2,0,0,1,1,0,3,5,3,0,0,13,0,0,6,0,0,5,1,1,0.0,21398881.99,789705.6529,1,3,0,0,190
2847.2333329999997,2524682,6.707222222,28-Apr-41,Ann-Margret,75,157.5,6,0,5,0,9,63,0,11,44,38,0,0,13,2,0,0,0,5,2,0,36,9,2,1,10,12,1,0,11,1,2,9,2,3,3091527.607,13415941.2,801975.3893,1,3,5,5,665
973.8387097000001,2812504,6.85,9 November 1868,Dressler Marie,148,167.5,0,0,0,1,6,35,0,0,25,13,0,0,2,0,0,0,0,6,0,0,3,6,0,0,0,11,0,0,25,0,0,0,1,0,35036496.35,9840441.534,840000.0,1,1,0,0,130
4728.130889999999,3327232,6.865968586,1-Jun-26,Monroe Marilyn,90,162.5,0,0,1,1,16,25,0,4,124,24,0,0,5,0,3,0,0,12,0,0,10,6,2,1,1,18,0,0,11,5,0,3,1,4,63038159.98,11365031.91,848913.913,0,0,1,1,95
733.8184282000001,3651040,7.426558266,16-Jul-07,Stanwyck Barbara,109,162.5,2,0,4,0,6,22,0,14,36,66,0,0,2,1,12,0,0,5,4,0,5,1,10,0,2,50,0,0,12,1,0,13,2,12,24320448.18,7363140.51,873605.8077,0,4,1,3,255
2631.819892,2764915,8.343817204,5-Apr-08,Davis Bette,108,157.5,1,0,2,0,21,35,0,21,83,92,0,0,11,2,8,0,0,17,7,0,8,2,12,1,8,38,1,0,34,1,1,20,4,0,13891365.03,12631738.79,895639.44,2,9,0,3,530
595.5844156,3158976,6.424675325,9-Nov-14,Lamarr Hedy,102,167.5,0,1,3,0,3,10,0,5,28,23,0,0,3,1,5,0,0,4,0,0,1,4,2,0,0,19,1,0,7,0,0,3,5,2,286804979.3,12806176.95,952334.4608,0,0,0,0,0
848.75,2558717,6.840625,31-Jan-02,Bankhead Tallulah,114,155.0,0,0,0,1,1,7,0,0,7,15,0,0,2,1,0,0,0,2,1,0,1,2,0,0,3,5,0,0,2,0,0,1,2,0,0.0,12622690.11,959965.495,0,0,0,0,0
527.9259258999999,2810269,6.275308642000001,17-Mar-54,Down Lesley-Anne,62,162.5,6,0,9,0,2,14,0,7,7,21,0,0,5,2,0,0,0,2,8,0,0,1,8,0,1,9,1,0,3,1,0,15,2,3,2649197.472,19054795.74,988175.5047,0,0,0,1,20
1542.073394,3607175,6.734862385,31-May-65,Shields Brooke,51,180.0,2,0,6,5,9,55,0,2,52,23,0,0,29,0,0,0,0,4,2,0,28,1,6,1,8,10,1,0,7,0,1,4,0,2,40726654.25,13110977.67,988554.7729,0,0,0,2,40
17146.792680000002,2854795,6.975609756,29-Nov-76,Faris Anna,40,160.0,2,0,4,7,0,35,0,2,9,7,0,0,8,6,0,0,0,0,1,0,5,0,0,0,3,7,5,0,16,1,0,0,0,0,44179010.38,37612251.7,997976.0044,0,0,0,0,0
