votes,id,rating,dob,name,age,heightcm,Action,Adult,Adventure,Animation,Biography,Comedy,Commercial,Crime,Documentary,Drama,Erotica,Experimental,Family,Fantasy,Film-Noir,Game-Show,Hardcore,History,Horror,Lifestyle,Music,Musical,Mystery,News,Reality-TV,Romance,Sci-Fi,Sex,Short,Sport,Talk-Show,Thriller,War,Western,gross,budget,salary,academy awards won,academy awards nominated,golden globes won,golden globes nominated,totalawards
19584.22059,3446886,6.418382352999999,29-Apr-58,Pfeiffer Michelle,58,167.5,2,0,3,2,3,18,0,4,32,39,0,0,8,8,0,0,0,0,4,0,9,4,3,0,2,20,0,0,14,0,0,7,0,0,64562445.71,53726474.7,10250780.52,0,3,1,5,265
14344.55944,3841528,6.301398601,25-Apr-69,Zellweger Ren©e,47,157.5,0,0,4,3,6,23,0,4,51,20,0,0,12,0,0,0,0,1,3,0,11,4,2,0,2,15,0,0,25,2,0,6,1,0,23926622.2,50797060.05,11174678.87,0,0,0,0,0
1284.135366,2779315,5.91,26-Jan-58,DeGeneres Ellen,58,167.5,1,0,5,4,5,39,0,2,40,4,0,0,12,1,0,0,0,1,0,0,29,1,3,4,4,2,1,0,7,0,5,1,0,0,252033781.1,25353937.3,11312245.41,0,0,0,3,60
4002.579019,2931694,6.627111717000001,13-Nov-55,Goldberg Whoopi,61,162.5,9,0,17,24,20,117,0,8,145,44,0,0,66,16,0,0,0,10,1,0,62,11,2,0,12,15,8,0,26,6,8,8,1,0,46187225.19,21876819.57,11324959.81,1,1,2,1,300
15762.42925,3519748,6.366509434,28-Oct-67,Roberts Julia,49,170.0,3,0,4,1,11,32,0,8,42,28,0,0,16,4,0,0,0,3,2,0,14,1,4,3,3,20,1,0,11,0,1,12,2,0,112995360.5,50236500.67,11340531.99,1,3,3,5,515
17396.53125,3814313,6.498958332999999,22-Mar-76,Witherspoon Reese,40,156.0,6,0,7,6,7,31,0,6,24,29,0,0,19,7,0,0,0,2,0,0,12,2,1,0,4,17,7,0,17,0,4,6,0,0,89807107.46,48934268.86,11487040.11,2,0,1,3,335
12662.46082,2648742,6.848275862,26-Jul-64,Bullock Sandra,52,167.5,11,0,9,2,8,29,0,14,33,28,0,0,15,4,0,1,0,1,1,0,10,1,6,3,7,16,3,0,21,1,4,12,1,0,117479045.5,47377079.02,11812675.67,1,1,1,4,285
20100.69231,3701960,6.347692307999999,7-Aug-75,Theron Charlize,41,172.5,13,0,8,2,7,16,0,10,32,27,0,0,14,6,0,0,0,3,1,0,14,0,5,2,5,11,7,0,30,1,2,17,2,1,23661213.23,65288023.89,12288786.48,1,1,1,3,265
19479.24151,2794516,6.185283019,30-Aug-72,Diaz Cameron,44,170.0,6,0,8,11,6,43,0,10,55,15,0,0,26,13,0,1,0,3,3,0,14,3,4,6,4,15,4,0,28,3,1,10,0,0,81379835.09,60946234.53,12383639.1,0,0,0,4,80
17861.863999999998,3074527,5.6308,4-Jun-75,Jolie Angelina,41,167.5,18,0,12,8,19,18,0,12,61,25,0,0,15,6,0,0,0,8,0,0,8,0,7,7,4,14,4,0,41,1,3,19,4,1,83377458.15,65112775.77,12396482.07,1,1,3,3,415
2322.618677,3665711,7.237354086,24-Apr-42,Streisand Barbra,74,162.5,0,0,1,0,15,28,0,1,81,15,0,0,9,1,0,0,0,7,0,0,50,13,0,0,7,17,0,0,17,3,1,1,1,0,131346014.7,41239787.57,13364145.63,1,1,2,7,420
14825.2437,2881870,6.836554622,19-Nov-62,Foster Jodie,54,157.5,3,0,6,2,9,23,0,8,68,36,0,0,17,2,0,0,0,5,1,0,7,2,7,1,6,9,2,0,16,2,4,12,2,1,69197635.78,45185942.5,13381308.91,2,2,2,5,510
2043.42953,3027496,6.574496644,9-Aug-63,Houston Whitney,53,165.0,1,0,0,0,5,11,0,0,49,6,0,0,21,2,0,0,0,2,0,0,90,1,0,3,2,4,0,0,3,1,0,0,0,0,105593946.5,16577436.24,15296367.11,0,0,0,0,0
13001.57025,3549789,6.1958677689999995,19-Nov-61,Ryan Meg,55,170.0,5,0,3,1,5,23,0,4,32,18,0,0,3,6,0,0,0,2,1,0,6,2,5,1,4,20,1,0,8,1,0,7,1,0,34504610.0,39273107.36,15461209.61,0,0,0,3,60
2356.9757489999997,3146018,7.79871612,30-Jul-63,Kudrow Lisa,53,170.0,1,0,1,3,2,35,0,5,12,15,0,0,14,0,0,0,0,1,0,0,10,1,1,0,2,5,0,0,9,0,0,3,0,0,967390.3476,39003143.24,20242914.98,0,0,0,1,20
1654.191235,2671782,6.162549801,27-Mar-70,Carey Mariah,46,170.0,2,0,1,1,5,19,0,1,46,7,0,0,17,1,0,0,0,0,0,0,101,3,0,3,6,2,0,0,9,2,4,1,0,0,5791130.887,6872327.615,22679266.26,0,0,0,0,0
